%!PS-Adobe-3.0 EPSF-3.0
%%Creator: cairo 1.17.6 (https://cairographics.org)
%%CreationDate: Sat Aug 27 16:48:27 2022
%%Pages: 1
%%DocumentData: Clean7Bit
%%LanguageLevel: 2
%%BoundingBox: 0 1 918 628
%%EndComments
%%BeginProlog
50 dict begin
/q { gsave } bind def
/Q { grestore } bind def
/cm { 6 array astore concat } bind def
/w { setlinewidth } bind def
/J { setlinecap } bind def
/j { setlinejoin } bind def
/M { setmiterlimit } bind def
/d { setdash } bind def
/m { moveto } bind def
/l { lineto } bind def
/c { curveto } bind def
/h { closepath } bind def
/re { exch dup neg 3 1 roll 5 3 roll moveto 0 rlineto
      0 exch rlineto 0 rlineto closepath } bind def
/S { stroke } bind def
/f { fill } bind def
/f* { eofill } bind def
/n { newpath } bind def
/W { clip } bind def
/W* { eoclip } bind def
/BT { } bind def
/ET { } bind def
/BDC { mark 3 1 roll /BDC pdfmark } bind def
/EMC { mark /EMC pdfmark } bind def
/cairo_store_point { /cairo_point_y exch def /cairo_point_x exch def } def
/Tj { show currentpoint cairo_store_point } bind def
/TJ {
  {
    dup
    type /stringtype eq
    { show } { -0.001 mul 0 cairo_font_matrix dtransform rmoveto } ifelse
  } forall
  currentpoint cairo_store_point
} bind def
/cairo_selectfont { cairo_font_matrix aload pop pop pop 0 0 6 array astore
    cairo_font exch selectfont cairo_point_x cairo_point_y moveto } bind def
/Tf { pop /cairo_font exch def /cairo_font_matrix where
      { pop cairo_selectfont } if } bind def
/Td { matrix translate cairo_font_matrix matrix concatmatrix dup
      /cairo_font_matrix exch def dup 4 get exch 5 get cairo_store_point
      /cairo_font where { pop cairo_selectfont } if } bind def
/Tm { 2 copy 8 2 roll 6 array astore /cairo_font_matrix exch def
      cairo_store_point /cairo_font where { pop cairo_selectfont } if } bind def
/g { setgray } bind def
/rg { setrgbcolor } bind def
/d1 { setcachedevice } bind def
/cairo_data_source {
  CairoDataIndex CairoData length lt
    { CairoData CairoDataIndex get /CairoDataIndex CairoDataIndex 1 add def }
    { () } ifelse
} def
/cairo_flush_ascii85_file { cairo_ascii85_file status { cairo_ascii85_file flushfile } if } def
/cairo_image { image cairo_flush_ascii85_file } def
/cairo_imagemask { imagemask cairo_flush_ascii85_file } def
%%EndProlog
%%BeginSetup
%%EndSetup
%%Page: 1 1
%%BeginPageSetup
%%PageBoundingBox: 0 1 918 628
%%EndPageSetup
q 0 1 918 627 rectclip
1 0 0 -1 0 628 cm q
0.698039 g
0.36 w
2 J
0 j
[] 0.0 d
3.25 M q 1 0 0 -1 0 0 cm
228.34 -434.602 m 228.355 -450.402 l S Q
q 1 0 0 -1 0 0 cm
228.871 -417.117 m 230.078 -397.527 l S Q
q 1 0 0 -1 0 0 cm
727.121 -103.617 m 728.578 -87.137 l S Q
q 1 0 0 -1 0 0 cm
726.977 -121.062 m 728.039 -135.91 l S Q
q 1 0 0 -1 0 0 cm
755.91 -67.688 m 737.461 -75.141 l S Q
q 1 0 0 -1 0 0 cm
723.242 -72.148 m 711.395 -59.977 l S Q
q 1 0 0 -1 0 0 cm
678.453 -234.758 m 667.559 -247.488 l S Q
q 1 0 0 -1 0 0 cm
689.98 -221.594 m 699.836 -210.594 l S Q
q 1 0 0 -1 0 0 cm
492.234 -513.68 m 492.828 -528.984 l S Q
q 1 0 0 -1 0 0 cm
491.293 -496.207 m 489.898 -476.105 l S Q
q 1 0 0 -1 0 0 cm
699.242 -47.387 m 689.133 -36.816 l S Q
q 1 0 0 -1 0 0 cm
634.031 -245.297 m 653.531 -251.488 l S Q
q 1 0 0 -1 0 0 cm
666.555 -15.035 m 676.695 -24.52 l S Q
q 1 0 0 -1 0 0 cm
285.223 -362.09 m 269.852 -368.707 l S Q
q 1 0 0 -1 0 0 cm
301.988 -359.258 m 318.91 -360.477 l S Q
q 1 0 0 -1 0 0 cm
663.938 -262.641 m 667.883 -278.863 l S Q
q 1 0 0 -1 0 0 cm
723.074 -167.352 m 726.574 -153.137 l S Q
q 1 0 0 -1 0 0 cm
716.812 -183.539 m 709.848 -196.387 l S Q
q 1 0 0 -1 0 0 cm
670.297 -296.109 m 670.938 -312.449 l S Q
q 1 0 0 -1 0 0 cm
670.133 -329.867 m 667.609 -348.938 l S Q
q 1 0 0 -1 0 0 cm
163.465 -354.996 m 146.672 -354.418 l S Q
q 1 0 0 -1 0 0 cm
180.285 -358.668 m 194.527 -364.605 l S Q
q 1 0 0 -1 0 0 cm
580.648 -370.023 m 594.215 -384.809 l S Q
q 1 0 0 -1 0 0 cm
569.359 -356.668 m 558.387 -342.555 l S Q
q 1 0 0 -1 0 0 cm
674.262 -361.574 m 690.762 -369.953 l S Q
q 1 0 0 -1 0 0 cm
658.93 -362.062 m 641.383 -372.441 l S Q
q 1 0 0 -1 0 0 cm
608.18 -387.828 m 625.801 -380.324 l S Q
q 1 0 0 -1 0 0 cm
597.199 -399.5 m 590.371 -418.703 l S Q
q 1 0 0 -1 0 0 cm
129.203 -353.445 m 111.07 -352.047 l S Q
q 1 0 0 -1 0 0 cm
705.957 -378.594 m 719 -386.855 l S Q
q 1 0 0 -1 0 0 cm
99.008 -359.465 m 91.562 -377.52 l S Q
q 1 0 0 -1 0 0 cm
97.438 -344.133 m 86.266 -327.652 l S Q
q 1 0 0 -1 0 0 cm
512.316 -454.738 m 496.965 -463.168 l S Q
q 1 0 0 -1 0 0 cm
527.84 -446.664 m 543.52 -438.953 l S Q
q 1 0 0 -1 0 0 cm
748.703 -399.121 m 734.676 -394.352 l S Q
q 1 0 0 -1 0 0 cm
765.723 -401.406 m 780.445 -400.508 l S Q
q 1 0 0 -1 0 0 cm
611.73 -465.578 m 618.805 -480.609 l S Q
q 1 0 0 -1 0 0 cm
603.137 -450.391 m 592.309 -434.219 l S Q
q 1 0 0 -1 0 0 cm
86.086 -394.094 m 81.902 -410.672 l S Q
q 1 0 0 -1 0 0 cm
72.613 -320.113 m 52.359 -319.43 l S Q
q 1 0 0 -1 0 0 cm
82.754 -311.773 m 85.621 -294.066 l S Q
q 1 0 0 -1 0 0 cm
481.617 -463.184 m 466.43 -454.887 l S Q
q 1 0 0 -1 0 0 cm
34.867 -318.824 m 17.57 -318.215 l S Q
q 1 0 0 -1 0 0 cm
623.77 -497.188 m 626.215 -514.293 l S Q
q 1 0 0 -1 0 0 cm
797.359 -396.867 m 810.676 -391.809 l S Q
q 1 0 0 -1 0 0 cm
450.629 -447.43 m 436.16 -441.613 l S Q
q 1 0 0 -1 0 0 cm
238.336 -384.68 m 254.094 -376.281 l S Q
q 1 0 0 -1 0 0 cm
223.594 -383.574 m 209.629 -373.195 l S Q
q 1 0 0 -1 0 0 cm
726.695 -556.316 m 741.102 -558.223 l S Q
q 1 0 0 -1 0 0 cm
709.316 -554.246 m 693.836 -552.609 l S Q
q 1 0 0 -1 0 0 cm
856.848 -375.82 m 869.578 -371.324 l S Q
q 1 0 0 -1 0 0 cm
840.301 -381.516 m 827.152 -385.922 l S Q
q 1 0 0 -1 0 0 cm
886.543 -367.637 m 900.172 -366.43 l S Q
q 1 0 0 -1 0 0 cm
756.574 -564.875 m 767.926 -574.074 l S Q
q 1 0 0 -1 0 0 cm
548.723 -328.023 m 541.945 -315.992 l S Q
q 1 0 0 -1 0 0 cm
76.312 -427.195 m 70.801 -440.062 l S Q
q 1 0 0 -1 0 0 cm
419.363 -437.246 m 402.531 -435.098 l S Q
q 1 0 0 -1 0 0 cm
559.906 -433.168 m 578.906 -428.875 l S Q
q 1 0 0 -1 0 0 cm
88.949 -276.895 m 92.516 -261.164 l S Q
q 1 0 0 -1 0 0 cm
388.672 -441.039 m 376.129 -458.109 l S Q
q 1 0 0 -1 0 0 cm
389.785 -426.242 m 381.883 -411.188 l S Q
q 1 0 0 -1 0 0 cm
619.359 -526.273 m 599.531 -534.398 l S Q
q 1 0 0 -1 0 0 cm
633.027 -529.703 m 644.352 -543.422 l S Q
q 1 0 0 -1 0 0 cm
98.051 -244.656 m 104.355 -230.68 l S Q
q 1 0 0 -1 0 0 cm
372.465 -396.52 m 362.906 -384.145 l S Q
q 1 0 0 -1 0 0 cm
658.668 -550.543 m 676.391 -551.309 l S Q
q 1 0 0 -1 0 0 cm
646.469 -558.207 m 638.262 -577.305 l S Q
q 1 0 0 -1 0 0 cm
349.852 -373.07 m 335.34 -365.254 l S Q
q 1 0 0 -1 0 0 cm
106.527 -214.07 m 104.227 -200.148 l S Q
q 1 0 0 -1 0 0 cm
91.219 -171.133 m 98.477 -183.91 l S Q
q 1 0 0 -1 0 0 cm
632.078 -593.66 m 626.707 -610.035 l S Q
1 g
236.082 425.852 m 236.082 423.797 235.266 421.824 233.812 420.371 c 232.359
 418.918 230.387 418.102 228.332 418.102 c 226.277 418.102 224.305 418.918
 222.852 420.371 c 221.398 421.824 220.582 423.797 220.582 425.852 c 220.582
 427.906 221.398 429.879 222.852 431.332 c 224.305 432.785 226.277 433.602
 228.332 433.602 c 230.387 433.602 232.359 432.785 233.812 431.332 c 235.266
 429.879 236.082 427.906 236.082 425.852 c h
236.082 425.852 m f*
0 g
q 1 0 0 -1 0 0 cm
236.082 -425.852 m 236.082 -423.797 235.266 -421.824 233.812 -420.371 c
 232.359 -418.918 230.387 -418.102 228.332 -418.102 c 226.277 -418.102 224.305
 -418.918 222.852 -420.371 c 221.398 -421.824 220.582 -423.797 220.582 -425.852
 c 220.582 -427.906 221.398 -429.879 222.852 -431.332 c 224.305 -432.785
 226.277 -433.602 228.332 -433.602 c 230.387 -433.602 232.359 -432.785 233.812
 -431.332 c 235.266 -429.879 236.082 -427.906 236.082 -425.852 c h
236.082 -425.852 m S Q
1 g
734.102 112.336 m 734.102 110.277 733.285 108.309 731.832 106.855 c 730.379
 105.402 728.406 104.586 726.352 104.586 c 724.297 104.586 722.324 105.402
 720.871 106.855 c 719.418 108.309 718.602 110.277 718.602 112.336 c 718.602
 114.391 719.418 116.359 720.871 117.812 c 722.324 119.27 724.297 120.086
 726.352 120.086 c 728.406 120.086 730.379 119.27 731.832 117.812 c 733.285
 116.359 734.102 114.391 734.102 112.336 c h
734.102 112.336 m f*
0 g
q 1 0 0 -1 0 0 cm
734.102 -112.336 m 734.102 -110.277 733.285 -108.309 731.832 -106.855 c
 730.379 -105.402 728.406 -104.586 726.352 -104.586 c 724.297 -104.586 722.324
 -105.402 720.871 -106.855 c 719.418 -108.309 718.602 -110.277 718.602 -112.336
 c 718.602 -114.391 719.418 -116.359 720.871 -117.812 c 722.324 -119.27 
724.297 -120.086 726.352 -120.086 c 728.406 -120.086 730.379 -119.27 731.832
 -117.812 c 733.285 -116.359 734.102 -114.391 734.102 -112.336 c h
734.102 -112.336 m S Q
1 g
771.773 64.41 m 771.773 62.355 770.957 60.383 769.504 58.93 c 768.051 57.477
 766.078 56.66 764.023 56.66 c 761.969 56.66 759.996 57.477 758.543 58.93
 c 757.09 60.383 756.273 62.355 756.273 64.41 c 756.273 66.465 757.09 68.438
 758.543 69.891 c 759.996 71.344 761.969 72.16 764.023 72.16 c 766.078 72.16
 768.051 71.344 769.504 69.891 c 770.957 68.438 771.773 66.465 771.773 64.41
 c h
771.773 64.41 m f*
0 g
q 1 0 0 -1 0 0 cm
771.773 -64.41 m 771.773 -62.355 770.957 -60.383 769.504 -58.93 c 768.051
 -57.477 766.078 -56.66 764.023 -56.66 c 761.969 -56.66 759.996 -57.477 
758.543 -58.93 c 757.09 -60.383 756.273 -62.355 756.273 -64.41 c 756.273
 -66.465 757.09 -68.438 758.543 -69.891 c 759.996 -71.344 761.969 -72.16
 764.023 -72.16 c 766.078 -72.16 768.051 -71.344 769.504 -69.891 c 770.957
 -68.438 771.773 -66.465 771.773 -64.41 c h
771.773 -64.41 m S Q
1 g
737.098 78.418 m 737.098 76.363 736.281 74.395 734.828 72.938 c 733.375
 71.484 731.402 70.668 729.348 70.668 c 727.293 70.668 725.32 71.484 723.867
 72.938 c 722.414 74.395 721.598 76.363 721.598 78.418 c 721.598 80.477 
722.414 82.445 723.867 83.898 c 725.32 85.352 727.293 86.168 729.348 86.168
 c 731.402 86.168 733.375 85.352 734.828 83.898 c 736.281 82.445 737.098
 80.477 737.098 78.418 c h
737.098 78.418 m f*
0 g
q 1 0 0 -1 0 0 cm
737.098 -78.418 m 737.098 -76.363 736.281 -74.395 734.828 -72.938 c 733.375
 -71.484 731.402 -70.668 729.348 -70.668 c 727.293 -70.668 725.32 -71.484
 723.867 -72.938 c 722.414 -74.395 721.598 -76.363 721.598 -78.418 c 721.598
 -80.477 722.414 -82.445 723.867 -83.898 c 725.32 -85.352 727.293 -86.168
 729.348 -86.168 c 731.402 -86.168 733.375 -85.352 734.828 -83.898 c 736.281
 -82.445 737.098 -80.477 737.098 -78.418 c h
737.098 -78.418 m S Q
1 g
236.117 459.152 m 236.117 457.098 235.297 455.125 233.844 453.672 c 232.391
 452.219 230.422 451.402 228.367 451.402 c 226.309 451.402 224.34 452.219
 222.887 453.672 c 221.434 455.125 220.617 457.098 220.617 459.152 c 220.617
 461.207 221.434 463.18 222.887 464.633 c 224.34 466.086 226.309 466.902
 228.367 466.902 c 230.422 466.902 232.391 466.086 233.844 464.633 c 235.297
 463.18 236.117 461.207 236.117 459.152 c h
236.117 459.152 m f*
0 g
q 1 0 0 -1 0 0 cm
236.117 -459.152 m 236.117 -457.098 235.297 -455.125 233.844 -453.672 c
 232.391 -452.219 230.422 -451.402 228.367 -451.402 c 226.309 -451.402 224.34
 -452.219 222.887 -453.672 c 221.434 -455.125 220.617 -457.098 220.617 -459.152
 c 220.617 -461.207 221.434 -463.18 222.887 -464.633 c 224.34 -466.086 226.309
 -466.902 228.367 -466.902 c 230.422 -466.902 232.391 -466.086 233.844 -464.633
 c 235.297 -463.18 236.117 -461.207 236.117 -459.152 c h
236.117 -459.152 m S Q
1 g
691.891 228.109 m 691.891 226.055 691.074 224.082 689.621 222.629 c 688.168
 221.176 686.195 220.359 684.141 220.359 c 682.086 220.359 680.113 221.176
 678.66 222.629 c 677.207 224.082 676.391 226.055 676.391 228.109 c 676.391
 230.164 677.207 232.137 678.66 233.59 c 680.113 235.043 682.086 235.859
 684.141 235.859 c 686.195 235.859 688.168 235.043 689.621 233.59 c 691.074
 232.137 691.891 230.164 691.891 228.109 c h
691.891 228.109 m f*
0 g
q 1 0 0 -1 0 0 cm
691.891 -228.109 m 691.891 -226.055 691.074 -224.082 689.621 -222.629 c
 688.168 -221.176 686.195 -220.359 684.141 -220.359 c 682.086 -220.359 680.113
 -221.176 678.66 -222.629 c 677.207 -224.082 676.391 -226.055 676.391 -228.109
 c 676.391 -230.164 677.207 -232.137 678.66 -233.59 c 680.113 -235.043 682.086
 -235.859 684.141 -235.859 c 686.195 -235.859 688.168 -235.043 689.621 -233.59
 c 691.074 -232.137 691.891 -230.164 691.891 -228.109 c h
691.891 -228.109 m S Q
1 g
499.645 504.938 m 499.645 502.883 498.828 500.91 497.375 499.457 c 495.922
 498.004 493.953 497.188 491.895 497.188 c 489.84 497.188 487.871 498.004
 486.418 499.457 c 484.965 500.91 484.148 502.883 484.148 504.938 c 484.148
 506.992 484.965 508.965 486.418 510.418 c 487.871 511.871 489.84 512.688
 491.895 512.688 c 493.953 512.688 495.922 511.871 497.375 510.418 c 498.828
 508.965 499.645 506.992 499.645 504.938 c h
499.645 504.938 m f*
0 g
q 1 0 0 -1 0 0 cm
499.645 -504.938 m 499.645 -502.883 498.828 -500.91 497.375 -499.457 c 
495.922 -498.004 493.953 -497.188 491.895 -497.188 c 489.84 -497.188 487.871
 -498.004 486.418 -499.457 c 484.965 -500.91 484.148 -502.883 484.148 -504.938
 c 484.148 -506.992 484.965 -508.965 486.418 -510.418 c 487.871 -511.871
 489.84 -512.688 491.895 -512.688 c 493.953 -512.688 495.922 -511.871 497.375
 -510.418 c 498.828 -508.965 499.645 -506.992 499.645 -504.938 c h
499.645 -504.938 m S Q
1 g
713.039 53.707 m 713.039 51.652 712.223 49.68 710.77 48.227 c 709.316 46.773
 707.344 45.957 705.289 45.957 c 703.234 45.957 701.262 46.773 699.809 48.227
 c 698.355 49.68 697.539 51.652 697.539 53.707 c 697.539 55.762 698.355 
57.734 699.809 59.188 c 701.262 60.641 703.234 61.457 705.289 61.457 c 707.344
 61.457 709.316 60.641 710.77 59.188 c 712.223 57.734 713.039 55.762 713.039
 53.707 c h
713.039 53.707 m f*
0 g
q 1 0 0 -1 0 0 cm
713.039 -53.707 m 713.039 -51.652 712.223 -49.68 710.77 -48.227 c 709.316
 -46.773 707.344 -45.957 705.289 -45.957 c 703.234 -45.957 701.262 -46.773
 699.809 -48.227 c 698.355 -49.68 697.539 -51.652 697.539 -53.707 c 697.539
 -55.762 698.355 -57.734 699.809 -59.188 c 701.262 -60.641 703.234 -61.457
 705.289 -61.457 c 707.344 -61.457 709.316 -60.641 710.77 -59.188 c 712.223
 -57.734 713.039 -55.762 713.039 -53.707 c h
713.039 -53.707 m S Q
1 g
633.441 242.648 m 633.441 240.594 632.625 238.621 631.172 237.168 c 629.719
 235.715 627.75 234.898 625.691 234.898 c 623.637 234.898 621.668 235.715
 620.215 237.168 c 618.762 238.621 617.945 240.594 617.945 242.648 c 617.945
 244.703 618.762 246.676 620.215 248.129 c 621.668 249.582 623.637 250.398
 625.691 250.398 c 627.75 250.398 629.719 249.582 631.172 248.129 c 632.625
 246.676 633.441 244.703 633.441 242.648 c h
633.441 242.648 m f*
0 g
q 1 0 0 -1 0 0 cm
633.441 -242.648 m 633.441 -240.594 632.625 -238.621 631.172 -237.168 c
 629.719 -235.715 627.75 -234.898 625.691 -234.898 c 623.637 -234.898 621.668
 -235.715 620.215 -237.168 c 618.762 -238.621 617.945 -240.594 617.945 -242.648
 c 617.945 -244.703 618.762 -246.676 620.215 -248.129 c 621.668 -249.582
 623.637 -250.398 625.691 -250.398 c 627.75 -250.398 629.719 -249.582 631.172
 -248.129 c 632.625 -246.676 633.441 -244.703 633.441 -242.648 c h
633.441 -242.648 m S Q
1 g
667.914 9.062 m 667.914 7.004 667.094 5.035 665.641 3.582 c 664.188 2.129
 662.219 1.312 660.164 1.312 c 658.105 1.312 656.137 2.129 654.684 3.582
 c 653.23 5.035 652.414 7.004 652.414 9.062 c 652.414 11.117 653.23 13.086
 654.684 14.543 c 656.137 15.996 658.105 16.812 660.164 16.812 c 662.219
 16.812 664.188 15.996 665.641 14.543 c 667.094 13.086 667.914 11.117 667.914
 9.062 c h
667.914 9.062 m f*
0 g
q 1 0 0 -1 0 0 cm
667.914 -9.062 m 667.914 -7.004 667.094 -5.035 665.641 -3.582 c 664.188
 -2.129 662.219 -1.312 660.164 -1.312 c 658.105 -1.312 656.137 -2.129 654.684
 -3.582 c 653.23 -5.035 652.414 -7.004 652.414 -9.062 c 652.414 -11.117 
653.23 -13.086 654.684 -14.543 c 656.137 -15.996 658.105 -16.812 660.164
 -16.812 c 662.219 -16.812 664.188 -15.996 665.641 -14.543 c 667.094 -13.086
 667.914 -11.117 667.914 -9.062 c h
667.914 -9.062 m S Q
1 g
301.008 358.633 m 301.008 356.578 300.191 354.605 298.738 353.152 c 297.285
 351.699 295.316 350.883 293.258 350.883 c 291.203 350.883 289.234 351.699
 287.781 353.152 c 286.328 354.605 285.508 356.578 285.508 358.633 c 285.508
 360.688 286.328 362.66 287.781 364.113 c 289.234 365.566 291.203 366.383
 293.258 366.383 c 295.316 366.383 297.285 365.566 298.738 364.113 c 300.191
 362.66 301.008 360.688 301.008 358.633 c h
301.008 358.633 m f*
0 g
q 1 0 0 -1 0 0 cm
301.008 -358.633 m 301.008 -356.578 300.191 -354.605 298.738 -353.152 c
 297.285 -351.699 295.316 -350.883 293.258 -350.883 c 291.203 -350.883 289.234
 -351.699 287.781 -353.152 c 286.328 -354.605 285.508 -356.578 285.508 -358.633
 c 285.508 -360.688 286.328 -362.66 287.781 -364.113 c 289.234 -365.566 
291.203 -366.383 293.258 -366.383 c 295.316 -366.383 297.285 -365.566 298.738
 -364.113 c 300.191 -362.66 301.008 -360.688 301.008 -358.633 c h
301.008 -358.633 m S Q
1 g
669.621 254.137 m 669.621 252.082 668.805 250.113 667.352 248.66 c 665.898
 247.203 663.926 246.387 661.871 246.387 c 659.816 246.387 657.844 247.203
 656.391 248.66 c 654.938 250.113 654.121 252.082 654.121 254.137 c 654.121
 256.195 654.938 258.164 656.391 259.617 c 657.844 261.07 659.816 261.887
 661.871 261.887 c 663.926 261.887 665.898 261.07 667.352 259.617 c 668.805
 258.164 669.621 256.195 669.621 254.137 c h
669.621 254.137 m f*
0 g
q 1 0 0 -1 0 0 cm
669.621 -254.137 m 669.621 -252.082 668.805 -250.113 667.352 -248.66 c 
665.898 -247.203 663.926 -246.387 661.871 -246.387 c 659.816 -246.387 657.844
 -247.203 656.391 -248.66 c 654.938 -250.113 654.121 -252.082 654.121 -254.137
 c 654.121 -256.195 654.938 -258.164 656.391 -259.617 c 657.844 -261.07 
659.816 -261.887 661.871 -261.887 c 663.926 -261.887 665.898 -261.07 667.352
 -259.617 c 668.805 -258.164 669.621 -256.195 669.621 -254.137 c h
669.621 -254.137 m S Q
1 g
728.734 175.848 m 728.734 173.793 727.918 171.824 726.465 170.367 c 725.012
 168.914 723.043 168.098 720.984 168.098 c 718.93 168.098 716.961 168.914
 715.504 170.367 c 714.051 171.824 713.234 173.793 713.234 175.848 c 713.234
 177.906 714.051 179.875 715.504 181.328 c 716.961 182.781 718.93 183.598
 720.984 183.598 c 723.043 183.598 725.012 182.781 726.465 181.328 c 727.918
 179.875 728.734 177.906 728.734 175.848 c h
728.734 175.848 m f*
0 g
q 1 0 0 -1 0 0 cm
728.734 -175.848 m 728.734 -173.793 727.918 -171.824 726.465 -170.367 c
 725.012 -168.914 723.043 -168.098 720.984 -168.098 c 718.93 -168.098 716.961
 -168.914 715.504 -170.367 c 714.051 -171.824 713.234 -173.793 713.234 -175.848
 c 713.234 -177.906 714.051 -179.875 715.504 -181.328 c 716.961 -182.781
 718.93 -183.598 720.984 -183.598 c 723.043 -183.598 725.012 -182.781 726.465
 -181.328 c 727.918 -179.875 728.734 -177.906 728.734 -175.848 c h
728.734 -175.848 m S Q
1 g
736.414 144.641 m 736.414 142.586 735.598 140.613 734.145 139.16 c 732.691
 137.707 730.719 136.891 728.664 136.891 c 726.609 136.891 724.637 137.707
 723.184 139.16 c 721.73 140.613 720.914 142.586 720.914 144.641 c 720.914
 146.695 721.73 148.668 723.184 150.121 c 724.637 151.574 726.609 152.391
 728.664 152.391 c 730.719 152.391 732.691 151.574 734.145 150.121 c 735.598
 148.668 736.414 146.695 736.414 144.641 c h
736.414 144.641 m f*
0 g
q 1 0 0 -1 0 0 cm
736.414 -144.641 m 736.414 -142.586 735.598 -140.613 734.145 -139.16 c 
732.691 -137.707 730.719 -136.891 728.664 -136.891 c 726.609 -136.891 724.637
 -137.707 723.184 -139.16 c 721.73 -140.613 720.914 -142.586 720.914 -144.641
 c 720.914 -146.695 721.73 -148.668 723.184 -150.121 c 724.637 -151.574 
726.609 -152.391 728.664 -152.391 c 730.719 -152.391 732.691 -151.574 734.145
 -150.121 c 735.598 -148.668 736.414 -146.695 736.414 -144.641 c h
736.414 -144.641 m S Q
1 g
677.703 287.367 m 677.703 285.312 676.887 283.34 675.434 281.887 c 673.977
 280.434 672.008 279.617 669.953 279.617 c 667.895 279.617 665.926 280.434
 664.473 281.887 c 663.02 283.34 662.203 285.312 662.203 287.367 c 662.203
 289.422 663.02 291.395 664.473 292.848 c 665.926 294.301 667.895 295.117
 669.953 295.117 c 672.008 295.117 673.977 294.301 675.434 292.848 c 676.887
 291.395 677.703 289.422 677.703 287.367 c h
677.703 287.367 m f*
0 g
q 1 0 0 -1 0 0 cm
677.703 -287.367 m 677.703 -285.312 676.887 -283.34 675.434 -281.887 c 
673.977 -280.434 672.008 -279.617 669.953 -279.617 c 667.895 -279.617 665.926
 -280.434 664.473 -281.887 c 663.02 -283.34 662.203 -285.312 662.203 -287.367
 c 662.203 -289.422 663.02 -291.395 664.473 -292.848 c 665.926 -294.301 
667.895 -295.117 669.953 -295.117 c 672.008 -295.117 673.977 -294.301 675.434
 -292.848 c 676.887 -291.395 677.703 -289.422 677.703 -287.367 c h
677.703 -287.367 m S Q
1 g
690.836 30.492 m 690.836 28.438 690.02 26.469 688.566 25.012 c 687.113 
23.559 685.141 22.742 683.086 22.742 c 681.031 22.742 679.059 23.559 677.605
 25.012 c 676.152 26.469 675.336 28.438 675.336 30.492 c 675.336 32.551 
676.152 34.52 677.605 35.973 c 679.059 37.426 681.031 38.242 683.086 38.242
 c 685.141 38.242 687.113 37.426 688.566 35.973 c 690.02 34.52 690.836 32.551
 690.836 30.492 c h
690.836 30.492 m f*
0 g
q 1 0 0 -1 0 0 cm
690.836 -30.492 m 690.836 -28.438 690.02 -26.469 688.566 -25.012 c 687.113
 -23.559 685.141 -22.742 683.086 -22.742 c 681.031 -22.742 679.059 -23.559
 677.605 -25.012 c 676.152 -26.469 675.336 -28.438 675.336 -30.492 c 675.336
 -32.551 676.152 -34.52 677.605 -35.973 c 679.059 -37.426 681.031 -38.242
 683.086 -38.242 c 685.141 -38.242 687.113 -37.426 688.566 -35.973 c 690.02
 -34.52 690.836 -32.551 690.836 -30.492 c h
690.836 -30.492 m S Q
1 g
713.426 204.078 m 713.426 202.023 712.609 200.055 711.156 198.598 c 709.703
 197.145 707.73 196.328 705.676 196.328 c 703.621 196.328 701.648 197.145
 700.195 198.598 c 698.742 200.055 697.926 202.023 697.926 204.078 c 697.926
 206.137 698.742 208.105 700.195 209.559 c 701.648 211.012 703.621 211.828
 705.676 211.828 c 707.73 211.828 709.703 211.012 711.156 209.559 c 712.609
 208.105 713.426 206.137 713.426 204.078 c h
713.426 204.078 m f*
0 g
q 1 0 0 -1 0 0 cm
713.426 -204.078 m 713.426 -202.023 712.609 -200.055 711.156 -198.598 c
 709.703 -197.145 707.73 -196.328 705.676 -196.328 c 703.621 -196.328 701.648
 -197.145 700.195 -198.598 c 698.742 -200.055 697.926 -202.023 697.926 -204.078
 c 697.926 -206.137 698.742 -208.105 700.195 -209.559 c 701.648 -211.012
 703.621 -211.828 705.676 -211.828 c 707.73 -211.828 709.703 -211.012 711.156
 -209.559 c 712.609 -208.105 713.426 -206.137 713.426 -204.078 c h
713.426 -204.078 m S Q
1 g
679.031 321.191 m 679.031 319.137 678.215 317.164 676.762 315.711 c 675.309
 314.258 673.336 313.441 671.281 313.441 c 669.227 313.441 667.254 314.258
 665.801 315.711 c 664.348 317.164 663.531 319.137 663.531 321.191 c 663.531
 323.246 664.348 325.219 665.801 326.672 c 667.254 328.125 669.227 328.941
 671.281 328.941 c 673.336 328.941 675.309 328.125 676.762 326.672 c 678.215
 325.219 679.031 323.246 679.031 321.191 c h
679.031 321.191 m f*
0 g
q 1 0 0 -1 0 0 cm
679.031 -321.191 m 679.031 -319.137 678.215 -317.164 676.762 -315.711 c
 675.309 -314.258 673.336 -313.441 671.281 -313.441 c 669.227 -313.441 667.254
 -314.258 665.801 -315.711 c 664.348 -317.164 663.531 -319.137 663.531 -321.191
 c 663.531 -323.246 664.348 -325.219 665.801 -326.672 c 667.254 -328.125
 669.227 -328.941 671.281 -328.941 c 673.336 -328.941 675.309 -328.125 676.762
 -326.672 c 678.215 -325.219 679.031 -323.246 679.031 -321.191 c h
679.031 -321.191 m S Q
1 g
179.957 355.301 m 179.957 353.246 179.141 351.273 177.688 349.82 c 176.234
 348.367 174.266 347.551 172.211 347.551 c 170.152 347.551 168.184 348.367
 166.73 349.82 c 165.277 351.273 164.461 353.246 164.461 355.301 c 164.461
 357.355 165.277 359.328 166.73 360.781 c 168.184 362.234 170.152 363.051
 172.211 363.051 c 174.266 363.051 176.234 362.234 177.688 360.781 c 179.141
 359.328 179.957 357.355 179.957 355.301 c h
179.957 355.301 m f*
0 g
q 1 0 0 -1 0 0 cm
179.957 -355.301 m 179.957 -353.246 179.141 -351.273 177.688 -349.82 c 
176.234 -348.367 174.266 -347.551 172.211 -347.551 c 170.152 -347.551 168.184
 -348.367 166.73 -349.82 c 165.277 -351.273 164.461 -353.246 164.461 -355.301
 c 164.461 -357.355 165.277 -359.328 166.73 -360.781 c 168.184 -362.234 
170.152 -363.051 172.211 -363.051 c 174.266 -363.051 176.234 -362.234 177.688
 -360.781 c 179.141 -359.328 179.957 -357.355 179.957 -355.301 c h
179.957 -355.301 m S Q
1 g
582.48 363.574 m 582.48 361.52 581.664 359.547 580.211 358.094 c 578.758
 356.641 576.785 355.824 574.73 355.824 c 572.676 355.824 570.703 356.641
 569.25 358.094 c 567.797 359.547 566.98 361.52 566.98 363.574 c 566.98 
365.629 567.797 367.602 569.25 369.055 c 570.703 370.508 572.676 371.324
 574.73 371.324 c 576.785 371.324 578.758 370.508 580.211 369.055 c 581.664
 367.602 582.48 365.629 582.48 363.574 c h
582.48 363.574 m f*
0 g
q 1 0 0 -1 0 0 cm
582.48 -363.574 m 582.48 -361.52 581.664 -359.547 580.211 -358.094 c 578.758
 -356.641 576.785 -355.824 574.73 -355.824 c 572.676 -355.824 570.703 -356.641
 569.25 -358.094 c 567.797 -359.547 566.98 -361.52 566.98 -363.574 c 566.98
 -365.629 567.797 -367.602 569.25 -369.055 c 570.703 -370.508 572.676 -371.324
 574.73 -371.324 c 576.785 -371.324 578.758 -370.508 580.211 -369.055 c 
581.664 -367.602 582.48 -365.629 582.48 -363.574 c h
582.48 -363.574 m S Q
1 g
674.211 357.609 m 674.211 355.555 673.395 353.586 671.941 352.129 c 670.488
 350.676 668.516 349.859 666.461 349.859 c 664.406 349.859 662.434 350.676
 660.98 352.129 c 659.527 353.586 658.711 355.555 658.711 357.609 c 658.711
 359.668 659.527 361.637 660.98 363.09 c 662.434 364.543 664.406 365.359
 666.461 365.359 c 668.516 365.359 670.488 364.543 671.941 363.09 c 673.395
 361.637 674.211 359.668 674.211 357.609 c h
674.211 357.609 m f*
0 g
q 1 0 0 -1 0 0 cm
674.211 -357.609 m 674.211 -355.555 673.395 -353.586 671.941 -352.129 c
 670.488 -350.676 668.516 -349.859 666.461 -349.859 c 664.406 -349.859 662.434
 -350.676 660.98 -352.129 c 659.527 -353.586 658.711 -355.555 658.711 -357.609
 c 658.711 -359.668 659.527 -361.637 660.98 -363.09 c 662.434 -364.543 664.406
 -365.359 666.461 -365.359 c 668.516 -365.359 670.488 -364.543 671.941 -363.09
 c 673.395 -361.637 674.211 -359.668 674.211 -357.609 c h
674.211 -357.609 m S Q
1 g
607.879 391.258 m 607.879 389.203 607.062 387.23 605.609 385.777 c 604.156
 384.324 602.184 383.508 600.129 383.508 c 598.074 383.508 596.102 384.324
 594.648 385.777 c 593.195 387.23 592.379 389.203 592.379 391.258 c 592.379
 393.312 593.195 395.285 594.648 396.738 c 596.102 398.191 598.074 399.008
 600.129 399.008 c 602.184 399.008 604.156 398.191 605.609 396.738 c 607.062
 395.285 607.879 393.312 607.879 391.258 c h
607.879 391.258 m f*
0 g
q 1 0 0 -1 0 0 cm
607.879 -391.258 m 607.879 -389.203 607.062 -387.23 605.609 -385.777 c 
604.156 -384.324 602.184 -383.508 600.129 -383.508 c 598.074 -383.508 596.102
 -384.324 594.648 -385.777 c 593.195 -387.23 592.379 -389.203 592.379 -391.258
 c 592.379 -393.312 593.195 -395.285 594.648 -396.738 c 596.102 -398.191
 598.074 -399.008 600.129 -399.008 c 602.184 -399.008 604.156 -398.191 605.609
 -396.738 c 607.062 -395.285 607.879 -393.312 607.879 -391.258 c h
607.879 -391.258 m S Q
1 g
145.676 354.117 m 145.676 352.062 144.859 350.09 143.406 348.637 c 141.953
 347.184 139.984 346.367 137.926 346.367 c 135.871 346.367 133.902 347.184
 132.449 348.637 c 130.996 350.09 130.18 352.062 130.18 354.117 c 130.18
 356.172 130.996 358.141 132.449 359.598 c 133.902 361.051 135.871 361.867
 137.926 361.867 c 139.984 361.867 141.953 361.051 143.406 359.598 c 144.859
 358.141 145.676 356.172 145.676 354.117 c h
145.676 354.117 m f*
0 g
q 1 0 0 -1 0 0 cm
145.676 -354.117 m 145.676 -352.062 144.859 -350.09 143.406 -348.637 c 
141.953 -347.184 139.984 -346.367 137.926 -346.367 c 135.871 -346.367 133.902
 -347.184 132.449 -348.637 c 130.996 -350.09 130.18 -352.062 130.18 -354.117
 c 130.18 -356.172 130.996 -358.141 132.449 -359.598 c 133.902 -361.051 
135.871 -361.867 137.926 -361.867 c 139.984 -361.867 141.953 -361.051 143.406
 -359.598 c 144.859 -358.141 145.676 -356.172 145.676 -354.117 c h
145.676 -354.117 m S Q
1 g
706.312 373.914 m 706.312 371.859 705.496 369.887 704.043 368.434 c 702.59
 366.98 700.621 366.164 698.562 366.164 c 696.508 366.164 694.539 366.98
 693.082 368.434 c 691.629 369.887 690.812 371.859 690.812 373.914 c 690.812
 375.969 691.629 377.941 693.082 379.395 c 694.539 380.848 696.508 381.664
 698.562 381.664 c 700.621 381.664 702.59 380.848 704.043 379.395 c 705.496
 377.941 706.312 375.969 706.312 373.914 c h
706.312 373.914 m f*
0 g
q 1 0 0 -1 0 0 cm
706.312 -373.914 m 706.312 -371.859 705.496 -369.887 704.043 -368.434 c
 702.59 -366.98 700.621 -366.164 698.562 -366.164 c 696.508 -366.164 694.539
 -366.98 693.082 -368.434 c 691.629 -369.887 690.812 -371.859 690.812 -373.914
 c 690.812 -375.969 691.629 -377.941 693.082 -379.395 c 694.539 -380.848
 696.508 -381.664 698.562 -381.664 c 700.621 -381.664 702.59 -380.848 704.043
 -379.395 c 705.496 -377.941 706.312 -375.969 706.312 -373.914 c h
706.312 -373.914 m S Q
1 g
110.094 351.375 m 110.094 349.32 109.277 347.352 107.824 345.898 c 106.371
 344.445 104.402 343.629 102.344 343.629 c 100.289 343.629 98.32 344.445
 96.867 345.898 c 95.41 347.352 94.594 349.32 94.594 351.375 c 94.594 353.434
 95.41 355.402 96.867 356.855 c 98.32 358.309 100.289 359.125 102.344 359.125
 c 104.402 359.125 106.371 358.309 107.824 356.855 c 109.277 355.402 110.094
 353.434 110.094 351.375 c h
110.094 351.375 m f*
0 g
q 1 0 0 -1 0 0 cm
110.094 -351.375 m 110.094 -349.32 109.277 -347.352 107.824 -345.898 c 
106.371 -344.445 104.402 -343.629 102.344 -343.629 c 100.289 -343.629 98.32
 -344.445 96.867 -345.898 c 95.41 -347.352 94.594 -349.32 94.594 -351.375
 c 94.594 -353.434 95.41 -355.402 96.867 -356.855 c 98.32 -358.309 100.289
 -359.125 102.344 -359.125 c 104.402 -359.125 106.371 -358.309 107.824 -356.855
 c 109.277 -355.402 110.094 -353.434 110.094 -351.375 c h
110.094 -351.375 m S Q
1 g
527.738 450.523 m 527.738 448.469 526.922 446.5 525.469 445.047 c 524.016
 443.594 522.043 442.773 519.988 442.773 c 517.934 442.773 515.961 443.594
 514.508 445.047 c 513.055 446.5 512.238 448.469 512.238 450.523 c 512.238
 452.582 513.055 454.551 514.508 456.004 c 515.961 457.457 517.934 458.273
 519.988 458.273 c 522.043 458.273 524.016 457.457 525.469 456.004 c 526.922
 454.551 527.738 452.582 527.738 450.523 c h
527.738 450.523 m f*
0 g
q 1 0 0 -1 0 0 cm
527.738 -450.523 m 527.738 -448.469 526.922 -446.5 525.469 -445.047 c 524.016
 -443.594 522.043 -442.773 519.988 -442.773 c 517.934 -442.773 515.961 -443.594
 514.508 -445.047 c 513.055 -446.5 512.238 -448.469 512.238 -450.523 c 512.238
 -452.582 513.055 -454.551 514.508 -456.004 c 515.961 -457.457 517.934 -458.273
 519.988 -458.273 c 522.043 -458.273 524.016 -457.457 525.469 -456.004 c
 526.922 -454.551 527.738 -452.582 527.738 -450.523 c h
527.738 -450.523 m S Q
1 g
764.738 401.938 m 764.738 399.879 763.922 397.91 762.469 396.457 c 761.016
 395.004 759.043 394.188 756.988 394.188 c 754.934 394.188 752.961 395.004
 751.508 396.457 c 750.055 397.91 749.238 399.879 749.238 401.938 c 749.238
 403.992 750.055 405.961 751.508 407.418 c 752.961 408.871 754.934 409.688
 756.988 409.688 c 759.043 409.688 761.016 408.871 762.469 407.418 c 763.922
 405.961 764.738 403.992 764.738 401.938 c h
764.738 401.938 m f*
0 g
q 1 0 0 -1 0 0 cm
764.738 -401.938 m 764.738 -399.879 763.922 -397.91 762.469 -396.457 c 
761.016 -395.004 759.043 -394.188 756.988 -394.188 c 754.934 -394.188 752.961
 -395.004 751.508 -396.457 c 750.055 -397.91 749.238 -399.879 749.238 -401.938
 c 749.238 -403.992 750.055 -405.961 751.508 -407.418 c 752.961 -408.871
 754.934 -409.688 756.988 -409.688 c 759.043 -409.688 761.016 -408.871 762.469
 -407.418 c 763.922 -405.961 764.738 -403.992 764.738 -401.938 c h
764.738 -401.938 m S Q
1 g
615.754 457.66 m 615.754 455.605 614.938 453.633 613.484 452.18 c 612.031
 450.727 610.059 449.91 608.004 449.91 c 605.949 449.91 603.977 450.727 
602.523 452.18 c 601.07 453.633 600.254 455.605 600.254 457.66 c 600.254
 459.715 601.07 461.688 602.523 463.141 c 603.977 464.594 605.949 465.41
 608.004 465.41 c 610.059 465.41 612.031 464.594 613.484 463.141 c 614.938
 461.688 615.754 459.715 615.754 457.66 c h
615.754 457.66 m f*
0 g
q 1 0 0 -1 0 0 cm
615.754 -457.66 m 615.754 -455.605 614.938 -453.633 613.484 -452.18 c 612.031
 -450.727 610.059 -449.91 608.004 -449.91 c 605.949 -449.91 603.977 -450.727
 602.523 -452.18 c 601.07 -453.633 600.254 -455.605 600.254 -457.66 c 600.254
 -459.715 601.07 -461.688 602.523 -463.141 c 603.977 -464.594 605.949 -465.41
 608.004 -465.41 c 610.059 -465.41 612.031 -464.594 613.484 -463.141 c 614.938
 -461.688 615.754 -459.715 615.754 -457.66 c h
615.754 -457.66 m S Q
1 g
95.977 385.609 m 95.977 383.555 95.16 381.582 93.707 380.129 c 92.254 378.676
 90.281 377.859 88.227 377.859 c 86.172 377.859 84.199 378.676 82.746 380.129
 c 81.293 381.582 80.477 383.555 80.477 385.609 c 80.477 387.664 81.293 
389.637 82.746 391.09 c 84.199 392.543 86.172 393.359 88.227 393.359 c 90.281
 393.359 92.254 392.543 93.707 391.09 c 95.16 389.637 95.977 387.664 95.977
 385.609 c h
95.977 385.609 m f*
0 g
q 1 0 0 -1 0 0 cm
95.977 -385.609 m 95.977 -383.555 95.16 -381.582 93.707 -380.129 c 92.254
 -378.676 90.281 -377.859 88.227 -377.859 c 86.172 -377.859 84.199 -378.676
 82.746 -380.129 c 81.293 -381.582 80.477 -383.555 80.477 -385.609 c 80.477
 -387.664 81.293 -389.637 82.746 -391.09 c 84.199 -392.543 86.172 -393.359
 88.227 -393.359 c 90.281 -393.359 92.254 -392.543 93.707 -391.09 c 95.16
 -389.637 95.977 -387.664 95.977 -385.609 c h
95.977 -385.609 m S Q
1 g
734.141 391.539 m 734.141 389.484 733.324 387.512 731.871 386.059 c 730.418
 384.605 728.449 383.789 726.391 383.789 c 724.336 383.789 722.367 384.605
 720.914 386.059 c 719.457 387.512 718.641 389.484 718.641 391.539 c 718.641
 393.594 719.457 395.566 720.914 397.02 c 722.367 398.473 724.336 399.289
 726.391 399.289 c 728.449 399.289 730.418 398.473 731.871 397.02 c 733.324
 395.566 734.141 393.594 734.141 391.539 c h
734.141 391.539 m f*
0 g
q 1 0 0 -1 0 0 cm
734.141 -391.539 m 734.141 -389.484 733.324 -387.512 731.871 -386.059 c
 730.418 -384.605 728.449 -383.789 726.391 -383.789 c 724.336 -383.789 722.367
 -384.605 720.914 -386.059 c 719.457 -387.512 718.641 -389.484 718.641 -391.539
 c 718.641 -393.594 719.457 -395.566 720.914 -397.02 c 722.367 -398.473 
724.336 -399.289 726.391 -399.289 c 728.449 -399.289 730.418 -398.473 731.871
 -397.02 c 733.324 -395.566 734.141 -393.594 734.141 -391.539 c h
734.141 -391.539 m S Q
1 g
89.109 320.41 m 89.109 318.355 88.293 316.383 86.84 314.93 c 85.383 313.477
 83.414 312.66 81.359 312.66 c 79.301 312.66 77.332 313.477 75.879 314.93
 c 74.426 316.383 73.609 318.355 73.609 320.41 c 73.609 322.465 74.426 324.438
 75.879 325.891 c 77.332 327.344 79.301 328.16 81.359 328.16 c 83.414 328.16
 85.383 327.344 86.84 325.891 c 88.293 324.438 89.109 322.465 89.109 320.41
 c h
89.109 320.41 m f*
0 g
q 1 0 0 -1 0 0 cm
89.109 -320.41 m 89.109 -318.355 88.293 -316.383 86.84 -314.93 c 85.383
 -313.477 83.414 -312.66 81.359 -312.66 c 79.301 -312.66 77.332 -313.477
 75.879 -314.93 c 74.426 -316.383 73.609 -318.355 73.609 -320.41 c 73.609
 -322.465 74.426 -324.438 75.879 -325.891 c 77.332 -327.344 79.301 -328.16
 81.359 -328.16 c 83.414 -328.16 85.383 -327.344 86.84 -325.891 c 88.293
 -324.438 89.109 -322.465 89.109 -320.41 c h
89.109 -320.41 m S Q
1 g
500.918 537.727 m 500.918 535.672 500.102 533.703 498.648 532.25 c 497.195
 530.797 495.223 529.977 493.168 529.977 c 491.113 529.977 489.141 530.797
 487.688 532.25 c 486.234 533.703 485.418 535.672 485.418 537.727 c 485.418
 539.785 486.234 541.754 487.688 543.207 c 489.141 544.66 491.113 545.477
 493.168 545.477 c 495.223 545.477 497.195 544.66 498.648 543.207 c 500.102
 541.754 500.918 539.785 500.918 537.727 c h
500.918 537.727 m f*
0 g
q 1 0 0 -1 0 0 cm
500.918 -537.727 m 500.918 -535.672 500.102 -533.703 498.648 -532.25 c 
497.195 -530.797 495.223 -529.977 493.168 -529.977 c 491.113 -529.977 489.141
 -530.797 487.688 -532.25 c 486.234 -533.703 485.418 -535.672 485.418 -537.727
 c 485.418 -539.785 486.234 -541.754 487.688 -543.207 c 489.141 -544.66 
491.113 -545.477 493.168 -545.477 c 495.223 -545.477 497.195 -544.66 498.648
 -543.207 c 500.102 -541.754 500.918 -539.785 500.918 -537.727 c h
500.918 -537.727 m S Q
1 g
641.598 376.895 m 641.598 374.84 640.781 372.867 639.328 371.414 c 637.875
 369.961 635.906 369.145 633.852 369.145 c 631.793 369.145 629.824 369.961
 628.371 371.414 c 626.918 372.867 626.102 374.84 626.102 376.895 c 626.102
 378.949 626.918 380.922 628.371 382.375 c 629.824 383.828 631.793 384.645
 633.852 384.645 c 635.906 384.645 637.875 383.828 639.328 382.375 c 640.781
 380.922 641.598 378.949 641.598 376.895 c h
641.598 376.895 m f*
0 g
q 1 0 0 -1 0 0 cm
641.598 -376.895 m 641.598 -374.84 640.781 -372.867 639.328 -371.414 c 
637.875 -369.961 635.906 -369.145 633.852 -369.145 c 631.793 -369.145 629.824
 -369.961 628.371 -371.414 c 626.918 -372.867 626.102 -374.84 626.102 -376.895
 c 626.102 -378.949 626.918 -380.922 628.371 -382.375 c 629.824 -383.828
 631.793 -384.645 633.852 -384.645 c 635.906 -384.645 637.875 -383.828 639.328
 -382.375 c 640.781 -380.922 641.598 -378.949 641.598 -376.895 c h
641.598 -376.895 m S Q
1 g
497.043 467.379 m 497.043 465.32 496.227 463.352 494.773 461.898 c 493.32
 460.445 491.352 459.629 489.293 459.629 c 487.238 459.629 485.27 460.445
 483.812 461.898 c 482.359 463.352 481.543 465.32 481.543 467.379 c 481.543
 469.434 482.359 471.402 483.812 472.855 c 485.27 474.312 487.238 475.129
 489.293 475.129 c 491.352 475.129 493.32 474.312 494.773 472.855 c 496.227
 471.402 497.043 469.434 497.043 467.379 c h
497.043 467.379 m f*
0 g
q 1 0 0 -1 0 0 cm
497.043 -467.379 m 497.043 -465.32 496.227 -463.352 494.773 -461.898 c 
493.32 -460.445 491.352 -459.629 489.293 -459.629 c 487.238 -459.629 485.27
 -460.445 483.812 -461.898 c 482.359 -463.352 481.543 -465.32 481.543 -467.379
 c 481.543 -469.434 482.359 -471.402 483.812 -472.855 c 485.27 -474.312 
487.238 -475.129 489.293 -475.129 c 491.352 -475.129 493.32 -474.312 494.773
 -472.855 c 496.227 -471.402 497.043 -469.434 497.043 -467.379 c h
497.043 -467.379 m S Q
1 g
51.363 319.137 m 51.363 317.082 50.547 315.109 49.094 313.656 c 47.641 
312.203 45.668 311.387 43.613 311.387 c 41.559 311.387 39.586 312.203 38.133
 313.656 c 36.68 315.109 35.863 317.082 35.863 319.137 c 35.863 321.191 
36.68 323.164 38.133 324.617 c 39.586 326.07 41.559 326.887 43.613 326.887
 c 45.668 326.887 47.641 326.07 49.094 324.617 c 50.547 323.164 51.363 321.191
 51.363 319.137 c h
51.363 319.137 m f*
0 g
q 1 0 0 -1 0 0 cm
51.363 -319.137 m 51.363 -317.082 50.547 -315.109 49.094 -313.656 c 47.641
 -312.203 45.668 -311.387 43.613 -311.387 c 41.559 -311.387 39.586 -312.203
 38.133 -313.656 c 36.68 -315.109 35.863 -317.082 35.863 -319.137 c 35.863
 -321.191 36.68 -323.164 38.133 -324.617 c 39.586 -326.07 41.559 -326.887
 43.613 -326.887 c 45.668 -326.887 47.641 -326.07 49.094 -324.617 c 50.547
 -323.164 51.363 -321.191 51.363 -319.137 c h
51.363 -319.137 m S Q
1 g
630.281 488.527 m 630.281 486.469 629.465 484.5 628.012 483.047 c 626.559
 481.594 624.586 480.777 622.531 480.777 c 620.477 480.777 618.504 481.594
 617.051 483.047 c 615.598 484.5 614.781 486.469 614.781 488.527 c 614.781
 490.582 615.598 492.551 617.051 494.004 c 618.504 495.457 620.477 496.273
 622.531 496.273 c 624.586 496.273 626.559 495.457 628.012 494.004 c 629.465
 492.551 630.281 490.582 630.281 488.527 c h
630.281 488.527 m f*
0 g
q 1 0 0 -1 0 0 cm
630.281 -488.527 m 630.281 -486.469 629.465 -484.5 628.012 -483.047 c 626.559
 -481.594 624.586 -480.777 622.531 -480.777 c 620.477 -480.777 618.504 -481.594
 617.051 -483.047 c 615.598 -484.5 614.781 -486.469 614.781 -488.527 c 614.781
 -490.582 615.598 -492.551 617.051 -494.004 c 618.504 -495.457 620.477 -496.273
 622.531 -496.273 c 624.586 -496.273 626.559 -495.457 628.012 -494.004 c
 629.465 -492.551 630.281 -490.582 630.281 -488.527 c h
630.281 -488.527 m S Q
1 g
796.93 399.977 m 796.93 397.922 796.113 395.949 794.66 394.496 c 793.207
 393.043 791.234 392.227 789.18 392.227 c 787.125 392.227 785.152 393.043
 783.699 394.496 c 782.246 395.949 781.43 397.922 781.43 399.977 c 781.43
 402.031 782.246 404.004 783.699 405.457 c 785.152 406.91 787.125 407.727
 789.18 407.727 c 791.234 407.727 793.207 406.91 794.66 405.457 c 796.113
 404.004 796.93 402.031 796.93 399.977 c h
796.93 399.977 m f*
0 g
q 1 0 0 -1 0 0 cm
796.93 -399.977 m 796.93 -397.922 796.113 -395.949 794.66 -394.496 c 793.207
 -393.043 791.234 -392.227 789.18 -392.227 c 787.125 -392.227 785.152 -393.043
 783.699 -394.496 c 782.246 -395.949 781.43 -397.922 781.43 -399.977 c 781.43
 -402.031 782.246 -404.004 783.699 -405.457 c 785.152 -406.91 787.125 -407.727
 789.18 -407.727 c 791.234 -407.727 793.207 -406.91 794.66 -405.457 c 796.113
 -404.004 796.93 -402.031 796.93 -399.977 c h
796.93 -399.977 m S Q
1 g
466.5 450.691 m 466.5 448.637 465.684 446.664 464.23 445.211 c 462.777 
443.758 460.805 442.941 458.75 442.941 c 456.695 442.941 454.723 443.758
 453.27 445.211 c 451.816 446.664 451 448.637 451 450.691 c 451 452.746 
451.816 454.719 453.27 456.172 c 454.723 457.625 456.695 458.441 458.75 
458.441 c 460.805 458.441 462.777 457.625 464.23 456.172 c 465.684 454.719
 466.5 452.746 466.5 450.691 c h
466.5 450.691 m f*
0 g
q 1 0 0 -1 0 0 cm
466.5 -450.691 m 466.5 -448.637 465.684 -446.664 464.23 -445.211 c 462.777
 -443.758 460.805 -442.941 458.75 -442.941 c 456.695 -442.941 454.723 -443.758
 453.27 -445.211 c 451.816 -446.664 451 -448.637 451 -450.691 c 451 -452.746
 451.816 -454.719 453.27 -456.172 c 454.723 -457.625 456.695 -458.441 458.75
 -458.441 c 460.805 -458.441 462.777 -457.625 464.23 -456.172 c 465.684 
-454.719 466.5 -452.746 466.5 -450.691 c h
466.5 -450.691 m S Q
1 g
238.367 388.797 m 238.367 386.742 237.551 384.77 236.098 383.316 c 234.641
 381.863 232.672 381.047 230.617 381.047 c 228.559 381.047 226.59 381.863
 225.137 383.316 c 223.684 384.77 222.867 386.742 222.867 388.797 c 222.867
 390.852 223.684 392.824 225.137 394.277 c 226.59 395.73 228.559 396.547
 230.617 396.547 c 232.672 396.547 234.641 395.73 236.098 394.277 c 237.551
 392.824 238.367 390.852 238.367 388.797 c h
238.367 388.797 m f*
0 g
q 1 0 0 -1 0 0 cm
238.367 -388.797 m 238.367 -386.742 237.551 -384.77 236.098 -383.316 c 
234.641 -381.863 232.672 -381.047 230.617 -381.047 c 228.559 -381.047 226.59
 -381.863 225.137 -383.316 c 223.684 -384.77 222.867 -386.742 222.867 -388.797
 c 222.867 -390.852 223.684 -392.824 225.137 -394.277 c 226.59 -395.73 228.559
 -396.547 230.617 -396.547 c 232.672 -396.547 234.641 -395.73 236.098 -394.277
 c 237.551 -392.824 238.367 -390.852 238.367 -388.797 c h
238.367 -388.797 m S Q
1 g
725.77 555.168 m 725.77 553.113 724.953 551.145 723.5 549.688 c 722.047
 548.234 720.074 547.418 718.02 547.418 c 715.965 547.418 713.992 548.234
 712.539 549.688 c 711.086 551.145 710.27 553.113 710.27 555.168 c 710.27
 557.227 711.086 559.195 712.539 560.648 c 713.992 562.102 715.965 562.918
 718.02 562.918 c 720.074 562.918 722.047 562.102 723.5 560.648 c 724.953
 559.195 725.77 557.227 725.77 555.168 c h
725.77 555.168 m f*
0 g
q 1 0 0 -1 0 0 cm
725.77 -555.168 m 725.77 -553.113 724.953 -551.145 723.5 -549.688 c 722.047
 -548.234 720.074 -547.418 718.02 -547.418 c 715.965 -547.418 713.992 -548.234
 712.539 -549.688 c 711.086 -551.145 710.27 -553.113 710.27 -555.168 c 710.27
 -557.227 711.086 -559.195 712.539 -560.648 c 713.992 -562.102 715.965 -562.918
 718.02 -562.918 c 720.074 -562.918 722.047 -562.102 723.5 -560.648 c 724.953
 -559.195 725.77 -557.227 725.77 -555.168 c h
725.77 -555.168 m S Q
1 g
856.348 378.734 m 856.348 376.68 855.531 374.707 854.078 373.254 c 852.625
 371.801 850.652 370.984 848.598 370.984 c 846.543 370.984 844.57 371.801
 843.117 373.254 c 841.664 374.707 840.848 376.68 840.848 378.734 c 840.848
 380.789 841.664 382.762 843.117 384.215 c 844.57 385.668 846.543 386.484
 848.598 386.484 c 850.652 386.484 852.625 385.668 854.078 384.215 c 855.531
 382.762 856.348 380.789 856.348 378.734 c h
856.348 378.734 m f*
0 g
q 1 0 0 -1 0 0 cm
856.348 -378.734 m 856.348 -376.68 855.531 -374.707 854.078 -373.254 c 
852.625 -371.801 850.652 -370.984 848.598 -370.984 c 846.543 -370.984 844.57
 -371.801 843.117 -373.254 c 841.664 -374.707 840.848 -376.68 840.848 -378.734
 c 840.848 -380.789 841.664 -382.762 843.117 -384.215 c 844.57 -385.668 
846.543 -386.484 848.598 -386.484 c 850.652 -386.484 852.625 -385.668 854.078
 -384.215 c 855.531 -382.762 856.348 -380.789 856.348 -378.734 c h
856.348 -378.734 m S Q
1 g
269.566 372.168 m 269.566 370.113 268.75 368.141 267.297 366.688 c 265.844
 365.234 263.871 364.418 261.816 364.418 c 259.762 364.418 257.789 365.234
 256.336 366.688 c 254.883 368.141 254.066 370.113 254.066 372.168 c 254.066
 374.223 254.883 376.195 256.336 377.648 c 257.789 379.102 259.762 379.918
 261.816 379.918 c 263.871 379.918 265.844 379.102 267.297 377.648 c 268.75
 376.195 269.566 374.223 269.566 372.168 c h
269.566 372.168 m f*
0 g
q 1 0 0 -1 0 0 cm
269.566 -372.168 m 269.566 -370.113 268.75 -368.141 267.297 -366.688 c 
265.844 -365.234 263.871 -364.418 261.816 -364.418 c 259.762 -364.418 257.789
 -365.234 256.336 -366.688 c 254.883 -368.141 254.066 -370.113 254.066 -372.168
 c 254.066 -374.223 254.883 -376.195 256.336 -377.648 c 257.789 -379.102
 259.762 -379.918 261.816 -379.918 c 263.871 -379.918 265.844 -379.102 267.297
 -377.648 c 268.75 -376.195 269.566 -374.223 269.566 -372.168 c h
269.566 -372.168 m S Q
1 g
885.578 368.41 m 885.578 366.355 884.762 364.383 883.309 362.93 c 881.852
 361.477 879.883 360.66 877.828 360.66 c 875.77 360.66 873.801 361.477 872.348
 362.93 c 870.895 364.383 870.078 366.355 870.078 368.41 c 870.078 370.465
 870.895 372.438 872.348 373.891 c 873.801 375.344 875.77 376.16 877.828
 376.16 c 879.883 376.16 881.852 375.344 883.309 373.891 c 884.762 372.438
 885.578 370.465 885.578 368.41 c h
885.578 368.41 m f*
0 g
q 1 0 0 -1 0 0 cm
885.578 -368.41 m 885.578 -366.355 884.762 -364.383 883.309 -362.93 c 881.852
 -361.477 879.883 -360.66 877.828 -360.66 c 875.77 -360.66 873.801 -361.477
 872.348 -362.93 c 870.895 -364.383 870.078 -366.355 870.078 -368.41 c 870.078
 -370.465 870.895 -372.438 872.348 -373.891 c 873.801 -375.344 875.77 -376.16
 877.828 -376.16 c 879.883 -376.16 881.852 -375.344 883.309 -373.891 c 884.762
 -372.438 885.578 -370.465 885.578 -368.41 c h
885.578 -368.41 m S Q
1 g
757.527 559.367 m 757.527 557.312 756.711 555.34 755.258 553.887 c 753.805
 552.434 751.832 551.617 749.777 551.617 c 747.723 551.617 745.75 552.434
 744.297 553.887 c 742.844 555.34 742.027 557.312 742.027 559.367 c 742.027
 561.422 742.844 563.395 744.297 564.848 c 745.75 566.301 747.723 567.117
 749.777 567.117 c 751.832 567.117 753.805 566.301 755.258 564.848 c 756.711
 563.395 757.527 561.422 757.527 559.367 c h
757.527 559.367 m f*
0 g
q 1 0 0 -1 0 0 cm
757.527 -559.367 m 757.527 -557.312 756.711 -555.34 755.258 -553.887 c 
753.805 -552.434 751.832 -551.617 749.777 -551.617 c 747.723 -551.617 745.75
 -552.434 744.297 -553.887 c 742.844 -555.34 742.027 -557.312 742.027 -559.367
 c 742.027 -561.422 742.844 -563.395 744.297 -564.848 c 745.75 -566.301 
747.723 -567.117 749.777 -567.117 c 751.832 -567.117 753.805 -566.301 755.258
 -564.848 c 756.711 -563.395 757.527 -561.422 757.527 -559.367 c h
757.527 -559.367 m S Q
1 g
560.766 335.648 m 560.766 333.594 559.949 331.621 558.496 330.168 c 557.043
 328.715 555.07 327.898 553.016 327.898 c 550.961 327.898 548.988 328.715
 547.535 330.168 c 546.082 331.621 545.266 333.594 545.266 335.648 c 545.266
 337.703 546.082 339.676 547.535 341.129 c 548.988 342.582 550.961 343.398
 553.016 343.398 c 555.07 343.398 557.043 342.582 558.496 341.129 c 559.949
 339.676 560.766 337.703 560.766 335.648 c h
560.766 335.648 m f*
0 g
q 1 0 0 -1 0 0 cm
560.766 -335.648 m 560.766 -333.594 559.949 -331.621 558.496 -330.168 c
 557.043 -328.715 555.07 -327.898 553.016 -327.898 c 550.961 -327.898 548.988
 -328.715 547.535 -330.168 c 546.082 -331.621 545.266 -333.594 545.266 -335.648
 c 545.266 -337.703 546.082 -339.676 547.535 -341.129 c 548.988 -342.582
 550.961 -343.398 553.016 -343.398 c 555.07 -343.398 557.043 -342.582 558.496
 -341.129 c 559.949 -339.676 560.766 -337.703 560.766 -335.648 c h
560.766 -335.648 m S Q
1 g
782.473 579.586 m 782.473 577.531 781.656 575.559 780.203 574.105 c 778.75
 572.652 776.777 571.836 774.723 571.836 c 772.668 571.836 770.695 572.652
 769.242 574.105 c 767.789 575.559 766.973 577.531 766.973 579.586 c 766.973
 581.641 767.789 583.613 769.242 585.066 c 770.695 586.52 772.668 587.336
 774.723 587.336 c 776.777 587.336 778.75 586.52 780.203 585.066 c 781.656
 583.613 782.473 581.641 782.473 579.586 c h
782.473 579.586 m f*
0 g
q 1 0 0 -1 0 0 cm
782.473 -579.586 m 782.473 -577.531 781.656 -575.559 780.203 -574.105 c
 778.75 -572.652 776.777 -571.836 774.723 -571.836 c 772.668 -571.836 770.695
 -572.652 769.242 -574.105 c 767.789 -575.559 766.973 -577.531 766.973 -579.586
 c 766.973 -581.641 767.789 -583.613 769.242 -585.066 c 770.695 -586.52 
772.668 -587.336 774.723 -587.336 c 776.777 -587.336 778.75 -586.52 780.203
 -585.066 c 781.656 -583.613 782.473 -581.641 782.473 -579.586 c h
782.473 -579.586 m S Q
1 g
87.508 419.152 m 87.508 417.098 86.691 415.129 85.238 413.676 c 83.785 
412.219 81.816 411.402 79.758 411.402 c 77.703 411.402 75.734 412.219 74.281
 413.676 c 72.828 415.129 72.012 417.098 72.012 419.152 c 72.012 421.211
 72.828 423.18 74.281 424.633 c 75.734 426.086 77.703 426.902 79.758 426.902
 c 81.816 426.902 83.785 426.086 85.238 424.633 c 86.691 423.18 87.508 421.211
 87.508 419.152 c h
87.508 419.152 m f*
0 g
q 1 0 0 -1 0 0 cm
87.508 -419.152 m 87.508 -417.098 86.691 -415.129 85.238 -413.676 c 83.785
 -412.219 81.816 -411.402 79.758 -411.402 c 77.703 -411.402 75.734 -412.219
 74.281 -413.676 c 72.828 -415.129 72.012 -417.098 72.012 -419.152 c 72.012
 -421.211 72.828 -423.18 74.281 -424.633 c 75.734 -426.086 77.703 -426.902
 79.758 -426.902 c 81.816 -426.902 83.785 -426.086 85.238 -424.633 c 86.691
 -423.18 87.508 -421.211 87.508 -419.152 c h
87.508 -419.152 m S Q
1 g
545.398 308.371 m 545.398 306.316 544.582 304.344 543.129 302.891 c 541.676
 301.438 539.703 300.621 537.648 300.621 c 535.594 300.621 533.621 301.438
 532.168 302.891 c 530.715 304.344 529.898 306.316 529.898 308.371 c 529.898
 310.426 530.715 312.398 532.168 313.852 c 533.621 315.305 535.594 316.121
 537.648 316.121 c 539.703 316.121 541.676 315.305 543.129 313.852 c 544.582
 312.398 545.398 310.426 545.398 308.371 c h
545.398 308.371 m f*
0 g
q 1 0 0 -1 0 0 cm
545.398 -308.371 m 545.398 -306.316 544.582 -304.344 543.129 -302.891 c
 541.676 -301.438 539.703 -300.621 537.648 -300.621 c 535.594 -300.621 533.621
 -301.438 532.168 -302.891 c 530.715 -304.344 529.898 -306.316 529.898 -308.371
 c 529.898 -310.426 530.715 -312.398 532.168 -313.852 c 533.621 -315.305
 535.594 -316.121 537.648 -316.121 c 539.703 -316.121 541.676 -315.305 543.129
 -313.852 c 544.582 -312.398 545.398 -310.426 545.398 -308.371 c h
545.398 -308.371 m S Q
1 g
75.105 448.105 m 75.105 446.051 74.289 444.078 72.836 442.625 c 71.383 
441.172 69.41 440.355 67.355 440.355 c 65.301 440.355 63.328 441.172 61.875
 442.625 c 60.422 444.078 59.605 446.051 59.605 448.105 c 59.605 450.16 
60.422 452.133 61.875 453.586 c 63.328 455.039 65.301 455.855 67.355 455.855
 c 69.41 455.855 71.383 455.039 72.836 453.586 c 74.289 452.133 75.105 450.16
 75.105 448.105 c h
75.105 448.105 m f*
0 g
q 1 0 0 -1 0 0 cm
75.105 -448.105 m 75.105 -446.051 74.289 -444.078 72.836 -442.625 c 71.383
 -441.172 69.41 -440.355 67.355 -440.355 c 65.301 -440.355 63.328 -441.172
 61.875 -442.625 c 60.422 -444.078 59.605 -446.051 59.605 -448.105 c 59.605
 -450.16 60.422 -452.133 61.875 -453.586 c 63.328 -455.039 65.301 -455.855
 67.355 -455.855 c 69.41 -455.855 71.383 -455.039 72.836 -453.586 c 74.289
 -452.133 75.105 -450.16 75.105 -448.105 c h
75.105 -448.105 m S Q
1 g
435.793 438.352 m 435.793 436.297 434.977 434.324 433.52 432.871 c 432.066
 431.418 430.098 430.602 428.043 430.602 c 425.984 430.602 424.016 431.418
 422.562 432.871 c 421.109 434.324 420.293 436.297 420.293 438.352 c 420.293
 440.406 421.109 442.379 422.562 443.832 c 424.016 445.285 425.984 446.102
 428.043 446.102 c 430.098 446.102 432.066 445.285 433.52 443.832 c 434.977
 442.379 435.793 440.406 435.793 438.352 c h
435.793 438.352 m f*
0 g
q 1 0 0 -1 0 0 cm
435.793 -438.352 m 435.793 -436.297 434.977 -434.324 433.52 -432.871 c 
432.066 -431.418 430.098 -430.602 428.043 -430.602 c 425.984 -430.602 424.016
 -431.418 422.562 -432.871 c 421.109 -434.324 420.293 -436.297 420.293 -438.352
 c 420.293 -440.406 421.109 -442.379 422.562 -443.832 c 424.016 -445.285
 425.984 -446.102 428.043 -446.102 c 430.098 -446.102 432.066 -445.285 433.52
 -443.832 c 434.977 -442.379 435.793 -440.406 435.793 -438.352 c h
435.793 -438.352 m S Q
1 g
559.121 435.094 m 559.121 433.039 558.305 431.066 556.852 429.613 c 555.398
 428.16 553.43 427.344 551.371 427.344 c 549.316 427.344 547.348 428.16 
545.895 429.613 c 544.441 431.066 543.625 433.039 543.625 435.094 c 543.625
 437.148 544.441 439.121 545.895 440.574 c 547.348 442.027 549.316 442.844
 551.371 442.844 c 553.43 442.844 555.398 442.027 556.852 440.574 c 558.305
 439.121 559.121 437.148 559.121 435.094 c h
559.121 435.094 m f*
0 g
q 1 0 0 -1 0 0 cm
559.121 -435.094 m 559.121 -433.039 558.305 -431.066 556.852 -429.613 c
 555.398 -428.16 553.43 -427.344 551.371 -427.344 c 549.316 -427.344 547.348
 -428.16 545.895 -429.613 c 544.441 -431.066 543.625 -433.039 543.625 -435.094
 c 543.625 -437.148 544.441 -439.121 545.895 -440.574 c 547.348 -442.027
 549.316 -442.844 551.371 -442.844 c 553.43 -442.844 555.398 -442.027 556.852
 -440.574 c 558.305 -439.121 559.121 -437.148 559.121 -435.094 c h
559.121 -435.094 m S Q
1 g
210.355 367.977 m 210.355 365.918 209.539 363.949 208.086 362.496 c 206.633
 361.043 204.66 360.227 202.605 360.227 c 200.551 360.227 198.578 361.043
 197.125 362.496 c 195.672 363.949 194.855 365.918 194.855 367.977 c 194.855
 370.031 195.672 372 197.125 373.453 c 198.578 374.91 200.551 375.727 202.605
 375.727 c 204.66 375.727 206.633 374.91 208.086 373.453 c 209.539 372 210.355
 370.031 210.355 367.977 c h
210.355 367.977 m f*
0 g
q 1 0 0 -1 0 0 cm
210.355 -367.977 m 210.355 -365.918 209.539 -363.949 208.086 -362.496 c
 206.633 -361.043 204.66 -360.227 202.605 -360.227 c 200.551 -360.227 198.578
 -361.043 197.125 -362.496 c 195.672 -363.949 194.855 -365.918 194.855 -367.977
 c 194.855 -370.031 195.672 -372 197.125 -373.453 c 198.578 -374.91 200.551
 -375.727 202.605 -375.727 c 204.66 -375.727 206.633 -374.91 208.086 -373.453
 c 209.539 -372 210.355 -370.031 210.355 -367.977 c h
210.355 -367.977 m S Q
1 g
916.637 365.656 m 916.637 363.602 915.82 361.629 914.367 360.176 c 912.914
 358.723 910.941 357.906 908.887 357.906 c 906.832 357.906 904.859 358.723
 903.406 360.176 c 901.953 361.629 901.137 363.602 901.137 365.656 c 901.137
 367.711 901.953 369.684 903.406 371.137 c 904.859 372.59 906.832 373.406
 908.887 373.406 c 910.941 373.406 912.914 372.59 914.367 371.137 c 915.82
 369.684 916.637 367.711 916.637 365.656 c h
916.637 365.656 m f*
0 g
q 1 0 0 -1 0 0 cm
916.637 -365.656 m 916.637 -363.602 915.82 -361.629 914.367 -360.176 c 
912.914 -358.723 910.941 -357.906 908.887 -357.906 c 906.832 -357.906 904.859
 -358.723 903.406 -360.176 c 901.953 -361.629 901.137 -363.602 901.137 -365.656
 c 901.137 -367.711 901.953 -369.684 903.406 -371.137 c 904.859 -372.59 
906.832 -373.406 908.887 -373.406 c 910.941 -373.406 912.914 -372.59 914.367
 -371.137 c 915.82 -369.684 916.637 -367.711 916.637 -365.656 c h
916.637 -365.656 m S Q
1 g
595.191 426.949 m 595.191 424.895 594.375 422.922 592.922 421.469 c 591.469
 420.016 589.496 419.199 587.441 419.199 c 585.387 419.199 583.414 420.016
 581.961 421.469 c 580.508 422.922 579.691 424.895 579.691 426.949 c 579.691
 429.004 580.508 430.977 581.961 432.43 c 583.414 433.883 585.387 434.699
 587.441 434.699 c 589.496 434.699 591.469 433.883 592.922 432.43 c 594.375
 430.977 595.191 429.004 595.191 426.949 c h
595.191 426.949 m f*
0 g
q 1 0 0 -1 0 0 cm
595.191 -426.949 m 595.191 -424.895 594.375 -422.922 592.922 -421.469 c
 591.469 -420.016 589.496 -419.199 587.441 -419.199 c 585.387 -419.199 583.414
 -420.016 581.961 -421.469 c 580.508 -422.922 579.691 -424.895 579.691 -426.949
 c 579.691 -429.004 580.508 -430.977 581.961 -432.43 c 583.414 -433.883 
585.387 -434.699 587.441 -434.699 c 589.496 -434.699 591.469 -433.883 592.922
 -432.43 c 594.375 -430.977 595.191 -429.004 595.191 -426.949 c h
595.191 -426.949 m S Q
1 g
94.766 285.43 m 94.766 283.371 93.949 281.402 92.496 279.949 c 91.043 278.496
 89.07 277.68 87.016 277.68 c 84.961 277.68 82.992 278.496 81.535 279.949
 c 80.082 281.402 79.266 283.371 79.266 285.43 c 79.266 287.484 80.082 289.453
 81.535 290.906 c 82.992 292.363 84.961 293.18 87.016 293.18 c 89.07 293.18
 91.043 292.363 92.496 290.906 c 93.949 289.453 94.766 287.484 94.766 285.43
 c h
94.766 285.43 m f*
0 g
q 1 0 0 -1 0 0 cm
94.766 -285.43 m 94.766 -283.371 93.949 -281.402 92.496 -279.949 c 91.043
 -278.496 89.07 -277.68 87.016 -277.68 c 84.961 -277.68 82.992 -278.496 
81.535 -279.949 c 80.082 -281.402 79.266 -283.371 79.266 -285.43 c 79.266
 -287.484 80.082 -289.453 81.535 -290.906 c 82.992 -292.363 84.961 -293.18
 87.016 -293.18 c 89.07 -293.18 91.043 -292.363 92.496 -290.906 c 93.949
 -289.453 94.766 -287.484 94.766 -285.43 c h
94.766 -285.43 m S Q
1 g
401.602 433.988 m 401.602 431.934 400.785 429.961 399.332 428.508 c 397.879
 427.055 395.91 426.238 393.852 426.238 c 391.797 426.238 389.828 427.055
 388.371 428.508 c 386.918 429.961 386.102 431.934 386.102 433.988 c 386.102
 436.043 386.918 438.016 388.371 439.469 c 389.828 440.922 391.797 441.738
 393.852 441.738 c 395.91 441.738 397.879 440.922 399.332 439.469 c 400.785
 438.016 401.602 436.043 401.602 433.988 c h
401.602 433.988 m f*
0 g
q 1 0 0 -1 0 0 cm
401.602 -433.988 m 401.602 -431.934 400.785 -429.961 399.332 -428.508 c
 397.879 -427.055 395.91 -426.238 393.852 -426.238 c 391.797 -426.238 389.828
 -427.055 388.371 -428.508 c 386.918 -429.961 386.102 -431.934 386.102 -433.988
 c 386.102 -436.043 386.918 -438.016 388.371 -439.469 c 389.828 -440.922
 391.797 -441.738 393.852 -441.738 c 395.91 -441.738 397.879 -440.922 399.332
 -439.469 c 400.785 -438.016 401.602 -436.043 401.602 -433.988 c h
401.602 -433.988 m S Q
1 g
635.203 522.953 m 635.203 520.898 634.387 518.93 632.934 517.477 c 631.48
 516.02 629.512 515.203 627.453 515.203 c 625.398 515.203 623.43 516.02 
621.977 517.477 c 620.52 518.93 619.703 520.898 619.703 522.953 c 619.703
 525.012 620.52 526.98 621.977 528.434 c 623.43 529.887 625.398 530.703 
627.453 530.703 c 629.512 530.703 631.48 529.887 632.934 528.434 c 634.387
 526.98 635.203 525.012 635.203 522.953 c h
635.203 522.953 m f*
0 g
q 1 0 0 -1 0 0 cm
635.203 -522.953 m 635.203 -520.898 634.387 -518.93 632.934 -517.477 c 
631.48 -516.02 629.512 -515.203 627.453 -515.203 c 625.398 -515.203 623.43
 -516.02 621.977 -517.477 c 620.52 -518.93 619.703 -520.898 619.703 -522.953
 c 619.703 -525.012 620.52 -526.98 621.977 -528.434 c 623.43 -529.887 625.398
 -530.703 627.453 -530.703 c 629.512 -530.703 631.48 -529.887 632.934 -528.434
 c 634.387 -526.98 635.203 -525.012 635.203 -522.953 c h
635.203 -522.953 m S Q
1 g
378.695 465.16 m 378.695 463.102 377.879 461.133 376.426 459.68 c 374.973
 458.227 373.004 457.41 370.949 457.41 c 368.891 457.41 366.922 458.227 
365.469 459.68 c 364.016 461.133 363.199 463.102 363.199 465.16 c 363.199
 467.215 364.016 469.184 365.469 470.641 c 366.922 472.094 368.891 472.91
 370.949 472.91 c 373.004 472.91 374.973 472.094 376.426 470.641 c 377.879
 469.184 378.695 467.215 378.695 465.16 c h
378.695 465.16 m f*
0 g
q 1 0 0 -1 0 0 cm
378.695 -465.16 m 378.695 -463.102 377.879 -461.133 376.426 -459.68 c 374.973
 -458.227 373.004 -457.41 370.949 -457.41 c 368.891 -457.41 366.922 -458.227
 365.469 -459.68 c 364.016 -461.133 363.199 -463.102 363.199 -465.16 c 363.199
 -467.215 364.016 -469.184 365.469 -470.641 c 366.922 -472.094 368.891 -472.91
 370.949 -472.91 c 373.004 -472.91 374.973 -472.094 376.426 -470.641 c 377.879
 -469.184 378.695 -467.215 378.695 -465.16 c h
378.695 -465.16 m S Q
1 g
826.605 388.703 m 826.605 386.648 825.789 384.676 824.336 383.223 c 822.883
 381.77 820.91 380.953 818.855 380.953 c 816.801 380.953 814.828 381.77 
813.375 383.223 c 811.922 384.676 811.105 386.648 811.105 388.703 c 811.105
 390.758 811.922 392.73 813.375 394.184 c 814.828 395.637 816.801 396.453
 818.855 396.453 c 820.91 396.453 822.883 395.637 824.336 394.184 c 825.789
 392.73 826.605 390.758 826.605 388.703 c h
826.605 388.703 m f*
0 g
q 1 0 0 -1 0 0 cm
826.605 -388.703 m 826.605 -386.648 825.789 -384.676 824.336 -383.223 c
 822.883 -381.77 820.91 -380.953 818.855 -380.953 c 816.801 -380.953 814.828
 -381.77 813.375 -383.223 c 811.922 -384.676 811.105 -386.648 811.105 -388.703
 c 811.105 -390.758 811.922 -392.73 813.375 -394.184 c 814.828 -395.637 
816.801 -396.453 818.855 -396.453 c 820.91 -396.453 822.883 -395.637 824.336
 -394.184 c 825.789 -392.73 826.605 -390.758 826.605 -388.703 c h
826.605 -388.703 m S Q
1 g
599.184 537.719 m 599.184 535.664 598.367 533.691 596.914 532.238 c 595.461
 530.785 593.492 529.969 591.434 529.969 c 589.379 529.969 587.41 530.785
 585.957 532.238 c 584.504 533.691 583.684 535.664 583.684 537.719 c 583.684
 539.773 584.504 541.746 585.957 543.199 c 587.41 544.652 589.379 545.469
 591.434 545.469 c 593.492 545.469 595.461 544.652 596.914 543.199 c 598.367
 541.746 599.184 539.773 599.184 537.719 c h
599.184 537.719 m f*
0 g
q 1 0 0 -1 0 0 cm
599.184 -537.719 m 599.184 -535.664 598.367 -533.691 596.914 -532.238 c
 595.461 -530.785 593.492 -529.969 591.434 -529.969 c 589.379 -529.969 587.41
 -530.785 585.957 -532.238 c 584.504 -533.691 583.684 -535.664 583.684 -537.719
 c 583.684 -539.773 584.504 -541.746 585.957 -543.199 c 587.41 -544.652 
589.379 -545.469 591.434 -545.469 c 593.492 -545.469 595.461 -544.652 596.914
 -543.199 c 598.367 -541.746 599.184 -539.773 599.184 -537.719 c h
599.184 -537.719 m S Q
1 g
102.199 252.629 m 102.199 250.574 101.383 248.602 99.93 247.148 c 98.477
 245.695 96.504 244.879 94.449 244.879 c 92.395 244.879 90.422 245.695 88.969
 247.148 c 87.516 248.602 86.699 250.574 86.699 252.629 c 86.699 254.684
 87.516 256.656 88.969 258.109 c 90.422 259.562 92.395 260.379 94.449 260.379
 c 96.504 260.379 98.477 259.562 99.93 258.109 c 101.383 256.656 102.199
 254.684 102.199 252.629 c h
102.199 252.629 m f*
0 g
q 1 0 0 -1 0 0 cm
102.199 -252.629 m 102.199 -250.574 101.383 -248.602 99.93 -247.148 c 98.477
 -245.695 96.504 -244.879 94.449 -244.879 c 92.395 -244.879 90.422 -245.695
 88.969 -247.148 c 87.516 -248.602 86.699 -250.574 86.699 -252.629 c 86.699
 -254.684 87.516 -256.656 88.969 -258.109 c 90.422 -259.562 92.395 -260.379
 94.449 -260.379 c 96.504 -260.379 98.477 -259.562 99.93 -258.109 c 101.383
 -256.656 102.199 -254.684 102.199 -252.629 c h
102.199 -252.629 m S Q
1 g
385.566 403.441 m 385.566 401.387 384.75 399.414 383.293 397.961 c 381.84
 396.508 379.871 395.691 377.816 395.691 c 375.758 395.691 373.789 396.508
 372.336 397.961 c 370.883 399.414 370.066 401.387 370.066 403.441 c 370.066
 405.496 370.883 407.469 372.336 408.922 c 373.789 410.375 375.758 411.191
 377.816 411.191 c 379.871 411.191 381.84 410.375 383.293 408.922 c 384.75
 407.469 385.566 405.496 385.566 403.441 c h
385.566 403.441 m f*
0 g
q 1 0 0 -1 0 0 cm
385.566 -403.441 m 385.566 -401.387 384.75 -399.414 383.293 -397.961 c 
381.84 -396.508 379.871 -395.691 377.816 -395.691 c 375.758 -395.691 373.789
 -396.508 372.336 -397.961 c 370.883 -399.414 370.066 -401.387 370.066 -403.441
 c 370.066 -405.496 370.883 -407.469 372.336 -408.922 c 373.789 -410.375
 375.758 -411.191 377.816 -411.191 c 379.871 -411.191 381.84 -410.375 383.293
 -408.922 c 384.75 -407.469 385.566 -405.496 385.566 -403.441 c h
385.566 -403.441 m S Q
1 g
657.676 550.168 m 657.676 548.113 656.859 546.141 655.406 544.688 c 653.949
 543.234 651.98 542.418 649.926 542.418 c 647.867 542.418 645.898 543.234
 644.445 544.688 c 642.992 546.141 642.176 548.113 642.176 550.168 c 642.176
 552.223 642.992 554.195 644.445 555.648 c 645.898 557.102 647.867 557.918
 649.926 557.918 c 651.98 557.918 653.949 557.102 655.406 555.648 c 656.859
 554.195 657.676 552.223 657.676 550.168 c h
657.676 550.168 m f*
0 g
q 1 0 0 -1 0 0 cm
657.676 -550.168 m 657.676 -548.113 656.859 -546.141 655.406 -544.688 c
 653.949 -543.234 651.98 -542.418 649.926 -542.418 c 647.867 -542.418 645.898
 -543.234 644.445 -544.688 c 642.992 -546.141 642.176 -548.113 642.176 -550.168
 c 642.176 -552.223 642.992 -554.195 644.445 -555.648 c 645.898 -557.102
 647.867 -557.918 649.926 -557.918 c 651.98 -557.918 653.949 -557.102 655.406
 -555.648 c 656.859 -554.195 657.676 -552.223 657.676 -550.168 c h
657.676 -550.168 m S Q
1 g
365.305 377.223 m 365.305 375.164 364.488 373.195 363.035 371.742 c 361.582
 370.289 359.613 369.473 357.555 369.473 c 355.5 369.473 353.531 370.289
 352.078 371.742 c 350.625 373.195 349.809 375.164 349.809 377.223 c 349.809
 379.277 350.625 381.246 352.078 382.699 c 353.531 384.152 355.5 384.973
 357.555 384.973 c 359.613 384.973 361.582 384.152 363.035 382.699 c 364.488
 381.246 365.305 379.277 365.305 377.223 c h
365.305 377.223 m f*
0 g
q 1 0 0 -1 0 0 cm
365.305 -377.223 m 365.305 -375.164 364.488 -373.195 363.035 -371.742 c
 361.582 -370.289 359.613 -369.473 357.555 -369.473 c 355.5 -369.473 353.531
 -370.289 352.078 -371.742 c 350.625 -373.195 349.809 -375.164 349.809 -377.223
 c 349.809 -379.277 350.625 -381.246 352.078 -382.699 c 353.531 -384.152
 355.5 -384.973 357.555 -384.973 c 359.613 -384.973 361.582 -384.152 363.035
 -382.699 c 364.488 -381.246 365.305 -379.277 365.305 -377.223 c h
365.305 -377.223 m S Q
1 g
115.707 222.703 m 115.707 220.648 114.891 218.68 113.438 217.223 c 111.984
 215.77 110.012 214.953 107.957 214.953 c 105.902 214.953 103.93 215.77 
102.477 217.223 c 101.023 218.68 100.207 220.648 100.207 222.703 c 100.207
 224.762 101.023 226.73 102.477 228.184 c 103.93 229.637 105.902 230.453
 107.957 230.453 c 110.012 230.453 111.984 229.637 113.438 228.184 c 114.891
 226.73 115.707 224.762 115.707 222.703 c h
115.707 222.703 m f*
0 g
q 1 0 0 -1 0 0 cm
115.707 -222.703 m 115.707 -220.648 114.891 -218.68 113.438 -217.223 c 
111.984 -215.77 110.012 -214.953 107.957 -214.953 c 105.902 -214.953 103.93
 -215.77 102.477 -217.223 c 101.023 -218.68 100.207 -220.648 100.207 -222.703
 c 100.207 -224.762 101.023 -226.73 102.477 -228.184 c 103.93 -229.637 105.902
 -230.453 107.957 -230.453 c 110.012 -230.453 111.984 -229.637 113.438 -228.184
 c 114.891 -226.73 115.707 -224.762 115.707 -222.703 c h
115.707 -222.703 m S Q
1 g
692.883 551.688 m 692.883 549.629 692.066 547.66 690.613 546.207 c 689.16
 544.754 687.191 543.938 685.133 543.938 c 683.078 543.938 681.109 544.754
 679.652 546.207 c 678.199 547.66 677.383 549.629 677.383 551.688 c 677.383
 553.742 678.199 555.711 679.652 557.168 c 681.109 558.621 683.078 559.438
 685.133 559.438 c 687.191 559.438 689.16 558.621 690.613 557.168 c 692.066
 555.711 692.883 553.742 692.883 551.688 c h
692.883 551.688 m f*
0 g
q 1 0 0 -1 0 0 cm
692.883 -551.688 m 692.883 -549.629 692.066 -547.66 690.613 -546.207 c 
689.16 -544.754 687.191 -543.938 685.133 -543.938 c 683.078 -543.938 681.109
 -544.754 679.652 -546.207 c 678.199 -547.66 677.383 -549.629 677.383 -551.688
 c 677.383 -553.742 678.199 -555.711 679.652 -557.168 c 681.109 -558.621
 683.078 -559.438 685.133 -559.438 c 687.191 -559.438 689.16 -558.621 690.613
 -557.168 c 692.066 -555.711 692.883 -553.742 692.883 -551.688 c h
692.883 -551.688 m S Q
1 g
94.648 163.527 m 94.648 161.469 93.832 159.5 92.379 158.047 c 90.926 156.594
 88.953 155.777 86.898 155.777 c 84.844 155.777 82.871 156.594 81.418 158.047
 c 79.965 159.5 79.148 161.469 79.148 163.527 c 79.148 165.582 79.965 167.551
 81.418 169.004 c 82.871 170.457 84.844 171.277 86.898 171.277 c 88.953 
171.277 90.926 170.457 92.379 169.004 c 93.832 167.551 94.648 165.582 94.648
 163.527 c h
94.648 163.527 m f*
0 g
q 1 0 0 -1 0 0 cm
94.648 -163.527 m 94.648 -161.469 93.832 -159.5 92.379 -158.047 c 90.926
 -156.594 88.953 -155.777 86.898 -155.777 c 84.844 -155.777 82.871 -156.594
 81.418 -158.047 c 79.965 -159.5 79.148 -161.469 79.148 -163.527 c 79.148
 -165.582 79.965 -167.551 81.418 -169.004 c 82.871 -170.457 84.844 -171.277
 86.898 -171.277 c 88.953 -171.277 90.926 -170.457 92.379 -169.004 c 93.832
 -167.551 94.648 -165.582 94.648 -163.527 c h
94.648 -163.527 m S Q
1 g
16.574 317.902 m 16.574 315.848 15.758 313.875 14.305 312.422 c 12.852 
310.969 10.879 310.152 8.824 310.152 c 6.77 310.152 4.797 310.969 3.344 
312.422 c 1.891 313.875 1.074 315.848 1.074 317.902 c 1.074 319.957 1.891
 321.93 3.344 323.383 c 4.797 324.836 6.77 325.652 8.824 325.652 c 10.879
 325.652 12.852 324.836 14.305 323.383 c 15.758 321.93 16.574 319.957 16.574
 317.902 c h
16.574 317.902 m f*
0 g
q 1 0 0 -1 0 0 cm
16.574 -317.902 m 16.574 -315.848 15.758 -313.875 14.305 -312.422 c 12.852
 -310.969 10.879 -310.152 8.824 -310.152 c 6.77 -310.152 4.797 -310.969 
3.344 -312.422 c 1.891 -313.875 1.074 -315.848 1.074 -317.902 c 1.074 -319.957
 1.891 -321.93 3.344 -323.383 c 4.797 -324.836 6.77 -325.652 8.824 -325.652
 c 10.879 -325.652 12.852 -324.836 14.305 -323.383 c 15.758 -321.93 16.574
 -319.957 16.574 -317.902 c h
16.574 -317.902 m S Q
1 g
642.559 585.344 m 642.559 583.289 641.738 581.32 640.285 579.863 c 638.832
 578.41 636.863 577.594 634.809 577.594 c 632.75 577.594 630.781 578.41 
629.328 579.863 c 627.875 581.32 627.059 583.289 627.059 585.344 c 627.059
 587.402 627.875 589.371 629.328 590.824 c 630.781 592.277 632.75 593.094
 634.809 593.094 c 636.863 593.094 638.832 592.277 640.285 590.824 c 641.738
 589.371 642.559 587.402 642.559 585.344 c h
642.559 585.344 m f*
0 g
q 1 0 0 -1 0 0 cm
642.559 -585.344 m 642.559 -583.289 641.738 -581.32 640.285 -579.863 c 
638.832 -578.41 636.863 -577.594 634.809 -577.594 c 632.75 -577.594 630.781
 -578.41 629.328 -579.863 c 627.875 -581.32 627.059 -583.289 627.059 -585.344
 c 627.059 -587.402 627.875 -589.371 629.328 -590.824 c 630.781 -592.277
 632.75 -593.094 634.809 -593.094 c 636.863 -593.094 638.832 -592.277 640.285
 -590.824 c 641.738 -589.371 642.559 -587.402 642.559 -585.344 c h
642.559 -585.344 m S Q
1 g
335.387 361.105 m 335.387 359.051 334.57 357.078 333.117 355.625 c 331.664
 354.172 329.691 353.355 327.637 353.355 c 325.582 353.355 323.609 354.172
 322.156 355.625 c 320.703 357.078 319.887 359.051 319.887 361.105 c 319.887
 363.16 320.703 365.133 322.156 366.586 c 323.609 368.039 325.582 368.855
 327.637 368.855 c 329.691 368.855 331.664 368.039 333.117 366.586 c 334.57
 365.133 335.387 363.16 335.387 361.105 c h
335.387 361.105 m f*
0 g
q 1 0 0 -1 0 0 cm
335.387 -361.105 m 335.387 -359.051 334.57 -357.078 333.117 -355.625 c 
331.664 -354.172 329.691 -353.355 327.637 -353.355 c 325.582 -353.355 323.609
 -354.172 322.156 -355.625 c 320.703 -357.078 319.887 -359.051 319.887 -361.105
 c 319.887 -363.16 320.703 -365.133 322.156 -366.586 c 323.609 -368.039 
325.582 -368.855 327.637 -368.855 c 329.691 -368.855 331.664 -368.039 333.117
 -366.586 c 334.57 -365.133 335.387 -363.16 335.387 -361.105 c h
335.387 -361.105 m S Q
1 g
110.547 191.516 m 110.547 189.461 109.73 187.492 108.277 186.039 c 106.824
 184.586 104.852 183.77 102.797 183.77 c 100.742 183.77 98.77 184.586 97.316
 186.039 c 95.863 187.492 95.047 189.461 95.047 191.516 c 95.047 193.574
 95.863 195.543 97.316 196.996 c 98.77 198.449 100.742 199.266 102.797 199.266
 c 104.852 199.266 106.824 198.449 108.277 196.996 c 109.73 195.543 110.547
 193.574 110.547 191.516 c h
110.547 191.516 m f*
0 g
q 1 0 0 -1 0 0 cm
110.547 -191.516 m 110.547 -189.461 109.73 -187.492 108.277 -186.039 c 
106.824 -184.586 104.852 -183.77 102.797 -183.77 c 100.742 -183.77 98.77
 -184.586 97.316 -186.039 c 95.863 -187.492 95.047 -189.461 95.047 -191.516
 c 95.047 -193.574 95.863 -195.543 97.316 -196.996 c 98.77 -198.449 100.742
 -199.266 102.797 -199.266 c 104.852 -199.266 106.824 -198.449 108.277 -196.996
 c 109.73 -195.543 110.547 -193.574 110.547 -191.516 c h
110.547 -191.516 m S Q
1 g
631.73 618.348 m 631.73 616.293 630.914 614.32 629.461 612.867 c 628.008
 611.414 626.035 610.598 623.98 610.598 c 621.926 610.598 619.953 611.414
 618.5 612.867 c 617.047 614.32 616.23 616.293 616.23 618.348 c 616.23 620.402
 617.047 622.375 618.5 623.828 c 619.953 625.281 621.926 626.098 623.98 
626.098 c 626.035 626.098 628.008 625.281 629.461 623.828 c 630.914 622.375
 631.73 620.402 631.73 618.348 c h
631.73 618.348 m f*
0 g
q 1 0 0 -1 0 0 cm
631.73 -618.348 m 631.73 -616.293 630.914 -614.32 629.461 -612.867 c 628.008
 -611.414 626.035 -610.598 623.98 -610.598 c 621.926 -610.598 619.953 -611.414
 618.5 -612.867 c 617.047 -614.32 616.23 -616.293 616.23 -618.348 c 616.23
 -620.402 617.047 -622.375 618.5 -623.828 c 619.953 -625.281 621.926 -626.098
 623.98 -626.098 c 626.035 -626.098 628.008 -625.281 629.461 -623.828 c 
630.914 -622.375 631.73 -620.402 631.73 -618.348 c h
631.73 -618.348 m S Q
Q Q
showpage
%%Trailer
end
%%EOF
