%!PS-Adobe-3.0 EPSF-3.0
%%Creator: cairo 1.16.0 (https://cairographics.org)
%%CreationDate: Wed May 15 11:57:16 2024
%%Pages: 1
%%DocumentData: Clean7Bit
%%LanguageLevel: 2
%%Creator: Wolfram Mathematica
%%BoundingBox: 2 8 257 168
%%EndComments
%%BeginProlog
50 dict begin
/q { gsave } bind def
/Q { grestore } bind def
/cm { 6 array astore concat } bind def
/w { setlinewidth } bind def
/J { setlinecap } bind def
/j { setlinejoin } bind def
/M { setmiterlimit } bind def
/d { setdash } bind def
/m { moveto } bind def
/l { lineto } bind def
/c { curveto } bind def
/h { closepath } bind def
/re { exch dup neg 3 1 roll 5 3 roll moveto 0 rlineto
      0 exch rlineto 0 rlineto closepath } bind def
/S { stroke } bind def
/f { fill } bind def
/f* { eofill } bind def
/n { newpath } bind def
/W { clip } bind def
/W* { eoclip } bind def
/BT { } bind def
/ET { } bind def
/BDC { mark 3 1 roll /BDC pdfmark } bind def
/EMC { mark /EMC pdfmark } bind def
/cairo_store_point { /cairo_point_y exch def /cairo_point_x exch def } def
/Tj { show currentpoint cairo_store_point } bind def
/TJ {
  {
    dup
    type /stringtype eq
    { show } { -0.001 mul 0 cairo_font_matrix dtransform rmoveto } ifelse
  } forall
  currentpoint cairo_store_point
} bind def
/cairo_selectfont { cairo_font_matrix aload pop pop pop 0 0 6 array astore
    cairo_font exch selectfont cairo_point_x cairo_point_y moveto } bind def
/Tf { pop /cairo_font exch def /cairo_font_matrix where
      { pop cairo_selectfont } if } bind def
/Td { matrix translate cairo_font_matrix matrix concatmatrix dup
      /cairo_font_matrix exch def dup 4 get exch 5 get cairo_store_point
      /cairo_font where { pop cairo_selectfont } if } bind def
/Tm { 2 copy 8 2 roll 6 array astore /cairo_font_matrix exch def
      cairo_store_point /cairo_font where { pop cairo_selectfont } if } bind def
/g { setgray } bind def
/rg { setrgbcolor } bind def
/d1 { setcachedevice } bind def
/cairo_data_source {
  CairoDataIndex CairoData length lt
    { CairoData CairoDataIndex get /CairoDataIndex CairoDataIndex 1 add def }
    { () } ifelse
} def
/cairo_flush_ascii85_file { cairo_ascii85_file status { cairo_ascii85_file flushfile } if } def
/cairo_image { image cairo_flush_ascii85_file } def
/cairo_imagemask { imagemask cairo_flush_ascii85_file } def
%%EndProlog
%%BeginSetup
%%EndSetup
%%Page: 1 1
%%BeginPageSetup
%%PageBoundingBox: 2 8 257 168
%%EndPageSetup
q 2 8 255 160 rectclip
1 0 0 -1 0 173 cm q
0 g
1.796436 w
0 J
0 j
[] 0.0 d
3.25 M 3.812 21.883 m 3.812 21.688 l S
6.352 24.523 m 6.352 18.992 l S
8.895 30.262 m 8.895 13.441 l S
11.434 35.289 m 11.434 8.5 l S
13.977 36.934 m 13.977 6.746 l S
16.52 37.441 m 16.52 6.227 l S
19.059 37.582 m 19.059 6.039 l S
21.602 37.629 m 21.602 5.992 l S
24.141 37.621 m 24.141 5.984 l S
26.684 37.629 m 26.684 5.996 l S
29.223 37.621 m 29.223 6.008 l S
31.766 37.609 m 31.766 6.012 l S
34.305 37.625 m 34.305 6.004 l S
36.848 37.613 m 36.848 6.008 l S
39.387 37.605 m 39.387 6.023 l S
41.93 37.586 m 41.93 6.031 l S
44.469 37.59 m 44.469 6.02 l S
47.012 37.621 m 47.012 6.004 l S
49.555 37.633 m 49.555 5.984 l S
52.094 37.645 m 52.094 5.949 l S
54.637 37.641 m 54.637 5.98 l S
57.176 37.625 m 57.176 5.988 l S
59.719 37.621 m 59.719 5.992 l S
62.258 37.602 m 62.258 6.008 l S
64.801 37.629 m 64.801 5.98 l S
67.34 37.633 m 67.34 5.984 l S
69.883 37.621 m 69.883 6 l S
72.422 37.605 m 72.422 6.004 l S
74.965 37.609 m 74.965 5.992 l S
77.508 37.617 m 77.508 5.98 l S
80.047 37.602 m 80.047 6.008 l S
82.59 37.574 m 82.59 6.023 l S
85.129 37.566 m 85.129 6.031 l S
87.672 37.594 m 87.672 5.992 l S
90.211 37.629 m 90.211 5.992 l S
92.754 37.609 m 92.754 6.004 l S
95.293 37.59 m 95.293 6.008 l S
97.836 37.594 m 97.836 6.004 l S
100.375 37.609 m 100.375 5.984 l S
102.918 37.621 m 102.918 5.973 l S
105.457 37.641 m 105.457 5.957 l S
108 37.633 m 108 5.953 l S
110.543 37.598 m 110.543 5.977 l S
113.082 37.617 m 113.082 5.977 l S
115.625 37.531 m 115.625 6.059 l S
118.164 37.566 m 118.164 6.027 l S
120.707 37.648 m 120.707 5.93 l S
123.246 37.668 m 123.246 5.918 l S
125.789 37.656 m 125.789 5.926 l S
128.328 37.656 m 128.328 5.949 l S
130.871 37.629 m 130.871 5.957 l S
133.41 37.652 m 133.41 5.938 l S
135.953 37.645 m 135.953 5.938 l S
138.492 37.645 m 138.492 5.93 l S
141.035 37.633 m 141.035 5.945 l S
143.578 37.629 m 143.578 5.965 l S
146.117 37.617 m 146.117 5.969 l S
148.66 37.602 m 148.66 5.98 l S
151.199 37.594 m 151.199 5.977 l S
153.742 37.594 m 153.742 6 l S
156.281 37.617 m 156.281 5.965 l S
158.824 37.621 m 158.824 5.957 l S
161.363 37.613 m 161.363 5.969 l S
163.906 37.609 m 163.906 5.969 l S
166.445 37.605 m 166.445 5.969 l S
168.988 37.609 m 168.988 5.969 l S
171.531 37.625 m 171.531 5.953 l S
174.07 37.625 m 174.07 5.965 l S
176.613 37.473 m 176.613 6.094 l S
179.152 35.602 m 179.152 8.055 l S
181.695 32.16 m 181.695 11.32 l S
184.234 29.598 m 184.234 14.102 l S
186.777 27.305 m 186.777 16.402 l S
189.316 25.973 m 189.316 17.477 l S
191.859 25.148 m 191.859 18.367 l S
194.398 24.305 m 194.398 19.203 l S
196.941 23.789 m 196.941 19.73 l S
199.48 23.324 m 199.48 20.273 l S
202.023 22.934 m 202.023 20.602 l S
204.566 22.609 m 204.566 20.945 l S
207.105 22.426 m 207.105 21.121 l S
209.648 22.242 m 209.648 21.309 l S
212.188 22.098 m 212.188 21.461 l S
214.73 21.996 m 214.73 21.57 l S
217.27 21.941 m 217.27 21.633 l S
219.812 21.891 m 219.812 21.684 l S
222.352 21.883 m 222.352 21.688 l S
224.895 21.883 m 224.895 21.688 l S
227.434 21.883 m 227.434 21.688 l S
229.977 21.883 m 229.977 21.688 l S
232.52 21.883 m 232.52 21.688 l S
235.059 21.883 m 235.059 21.688 l S
237.602 21.883 m 237.602 21.688 l S
240.141 21.883 m 240.141 21.688 l S
242.684 21.883 m 242.684 21.688 l S
245.223 21.883 m 245.223 21.688 l S
247.766 21.883 m 247.766 21.688 l S
250.305 21.883 m 250.305 21.688 l S
252.848 21.883 m 252.848 21.688 l S
255.387 21.883 m 255.387 21.688 l S
255.387 21.883 m 255.387 21.688 l S
3.812 65.086 m 3.812 64.887 l S
6.352 67.059 m 6.352 62.773 l S
8.895 70.555 m 8.895 59.82 l S
11.434 72.074 m 11.434 58.211 l S
13.977 72.539 m 13.977 57.824 l S
16.52 72.68 m 16.52 57.621 l S
19.059 72.68 m 19.059 57.582 l S
21.602 72.688 m 21.602 57.625 l S
24.141 72.66 m 24.141 57.637 l S
26.684 72.629 m 26.684 57.699 l S
29.223 72.605 m 29.223 57.68 l S
31.766 72.598 m 31.766 57.629 l S
34.305 72.594 m 34.305 57.598 l S
36.848 72.598 m 36.848 57.559 l S
39.387 72.57 m 39.387 57.555 l S
41.93 72.586 m 41.93 57.559 l S
44.469 72.652 m 44.469 57.547 l S
47.012 72.609 m 47.012 57.57 l S
49.555 72.633 m 49.555 57.523 l S
52.094 72.641 m 52.094 57.512 l S
54.637 72.586 m 54.637 57.48 l S
57.176 72.609 m 57.176 57.508 l S
59.719 72.602 m 59.719 57.473 l S
62.258 72.605 m 62.258 57.473 l S
64.801 72.629 m 64.801 57.48 l S
67.34 72.637 m 67.34 57.504 l S
69.883 72.633 m 69.883 57.488 l S
72.422 72.609 m 72.422 57.484 l S
74.965 72.637 m 74.965 57.496 l S
77.508 72.629 m 77.508 57.516 l S
80.047 72.629 m 80.047 57.547 l S
82.59 72.633 m 82.59 57.562 l S
85.129 72.656 m 85.129 57.621 l S
87.672 72.68 m 87.672 57.629 l S
90.211 72.715 m 90.211 57.613 l S
92.754 72.695 m 92.754 57.621 l S
95.293 72.664 m 95.293 57.602 l S
97.836 72.695 m 97.836 57.586 l S
100.375 72.719 m 100.375 57.598 l S
102.918 72.699 m 102.918 57.551 l S
105.457 72.672 m 105.457 57.539 l S
108 72.629 m 108 57.543 l S
110.543 72.637 m 110.543 57.52 l S
113.082 72.613 m 113.082 57.523 l S
115.625 72.633 m 115.625 57.586 l S
118.164 72.66 m 118.164 57.625 l S
120.707 72.715 m 120.707 57.613 l S
123.246 72.742 m 123.246 57.605 l S
125.789 72.684 m 125.789 57.504 l S
128.328 72.664 m 128.328 57.52 l S
130.871 72.648 m 130.871 57.531 l S
133.41 72.672 m 133.41 57.543 l S
135.953 72.676 m 135.953 57.52 l S
138.492 72.656 m 138.492 57.496 l S
141.035 72.637 m 141.035 57.516 l S
143.578 72.645 m 143.578 57.523 l S
146.117 72.641 m 146.117 57.547 l S
148.66 72.637 m 148.66 57.574 l S
151.199 72.637 m 151.199 57.559 l S
153.742 72.656 m 153.742 57.582 l S
156.281 72.672 m 156.281 57.59 l S
158.824 72.676 m 158.824 57.629 l S
161.363 72.676 m 161.363 57.59 l S
163.906 72.664 m 163.906 57.57 l S
166.445 72.66 m 166.445 57.551 l S
168.988 72.664 m 168.988 57.574 l S
171.531 72.676 m 171.531 57.562 l S
174.07 72.672 m 174.07 57.57 l S
176.613 72.582 m 176.613 57.738 l S
179.152 72.461 m 179.152 57.961 l S
181.695 71.738 m 181.695 58.516 l S
184.234 71.535 m 184.234 58.836 l S
186.777 70.383 m 186.777 59.648 l S
189.316 69.598 m 189.316 60.477 l S
191.859 68.801 m 191.859 61.215 l S
194.398 67.945 m 194.398 62.121 l S
196.941 67.238 m 196.941 62.812 l S
199.48 66.758 m 199.48 63.258 l S
202.023 66.355 m 202.023 63.645 l S
204.566 66.008 m 204.566 64.012 l S
207.105 65.723 m 207.105 64.223 l S
209.648 65.527 m 209.648 64.469 l S
212.188 65.352 m 212.188 64.633 l S
214.73 65.254 m 214.73 64.754 l S
217.27 65.145 m 217.27 64.805 l S
219.812 65.098 m 219.812 64.867 l S
222.352 65.086 m 222.352 64.887 l S
224.895 65.086 m 224.895 64.887 l S
227.434 65.086 m 227.434 64.887 l S
229.977 65.086 m 229.977 64.887 l S
232.52 65.086 m 232.52 64.887 l S
235.059 65.086 m 235.059 64.887 l S
237.602 65.086 m 237.602 64.887 l S
240.141 65.086 m 240.141 64.887 l S
242.684 65.086 m 242.684 64.887 l S
245.223 65.086 m 245.223 64.887 l S
247.766 65.086 m 247.766 64.887 l S
250.305 65.086 m 250.305 64.887 l S
252.848 65.086 m 252.848 64.887 l S
255.387 65.086 m 255.387 64.887 l S
255.387 65.086 m 255.387 64.887 l S
3.812 108.285 m 3.812 108.086 l S
6.352 112.066 m 6.352 104.191 l S
8.895 118.57 m 8.895 98.18 l S
11.434 123.789 m 11.434 92.527 l S
13.977 125.844 m 13.977 90.238 l S
16.52 126.438 m 16.52 89.523 l S
19.059 126.898 m 19.059 89.082 l S
21.602 127.109 m 21.602 88.926 l S
24.141 127.211 m 24.141 88.812 l S
26.684 127.258 m 26.684 88.762 l S
29.223 127.316 m 29.223 88.703 l S
31.766 127.363 m 31.766 88.637 l S
34.305 127.422 m 34.305 88.602 l S
36.848 127.414 m 36.848 88.59 l S
39.387 127.414 m 39.387 88.609 l S
41.93 127.422 m 41.93 88.574 l S
44.469 127.457 m 44.469 88.555 l S
47.012 127.504 m 47.012 88.508 l S
49.555 127.531 m 49.555 88.484 l S
52.094 127.551 m 52.094 88.453 l S
54.637 127.535 m 54.637 88.457 l S
57.176 127.555 m 57.176 88.453 l S
59.719 127.562 m 59.719 88.434 l S
62.258 127.531 m 62.258 88.477 l S
64.801 127.551 m 64.801 88.461 l S
67.34 127.555 m 67.34 88.449 l S
69.883 127.547 m 69.883 88.457 l S
72.422 127.531 m 72.422 88.461 l S
74.965 127.555 m 74.965 88.469 l S
77.508 127.547 m 77.508 88.457 l S
80.047 127.5 m 80.047 88.488 l S
82.59 127.488 m 82.59 88.516 l S
85.129 127.449 m 85.129 88.523 l S
87.672 127.5 m 87.672 88.496 l S
90.211 127.523 m 90.211 88.473 l S
92.754 127.504 m 92.754 88.477 l S
95.293 127.504 m 95.293 88.496 l S
97.836 127.539 m 97.836 88.469 l S
100.375 127.535 m 100.375 88.438 l S
102.918 127.551 m 102.918 88.441 l S
105.457 127.578 m 105.457 88.422 l S
108 127.582 m 108 88.41 l S
110.543 127.578 m 110.543 88.438 l S
113.082 127.562 m 113.082 88.43 l S
115.625 127.473 m 115.625 88.535 l S
118.164 127.457 m 118.164 88.559 l S
120.707 127.578 m 120.707 88.418 l S
123.246 127.625 m 123.246 88.363 l S
125.789 127.633 m 125.789 88.367 l S
128.328 127.613 m 128.328 88.395 l S
130.871 127.578 m 130.871 88.418 l S
133.41 127.609 m 133.41 88.402 l S
135.953 127.637 m 135.953 88.406 l S
138.492 127.629 m 138.492 88.395 l S
141.035 127.617 m 141.035 88.438 l S
143.578 127.562 m 143.578 88.473 l S
146.117 127.551 m 146.117 88.461 l S
148.66 127.57 m 148.66 88.457 l S
151.199 127.555 m 151.199 88.457 l S
153.742 127.531 m 153.742 88.484 l S
156.281 127.531 m 156.281 88.465 l S
158.824 127.562 m 158.824 88.441 l S
161.363 127.555 m 161.363 88.449 l S
163.906 127.566 m 163.906 88.441 l S
166.445 127.559 m 166.445 88.445 l S
168.988 127.566 m 168.988 88.449 l S
171.531 127.602 m 171.531 88.43 l S
174.07 127.57 m 174.07 88.43 l S
176.613 127.312 m 176.613 88.707 l S
179.152 124.75 m 179.152 91.648 l S
181.695 120.426 m 181.695 96.129 l S
184.234 118.449 m 184.234 97.906 l S
186.777 117.074 m 186.777 99.469 l S
189.316 115.484 m 189.316 100.996 l S
191.859 114.336 m 191.859 102.062 l S
194.398 113.262 m 194.398 103.219 l S
196.941 112.375 m 196.941 104.039 l S
199.48 111.449 m 199.48 104.941 l S
202.023 110.672 m 202.023 105.672 l S
204.566 110.051 m 204.566 106.297 l S
207.105 109.516 m 207.105 106.836 l S
209.648 109.18 m 209.648 107.207 l S
212.188 108.867 m 212.188 107.5 l S
214.73 108.652 m 214.73 107.742 l S
217.27 108.488 m 217.27 107.879 l S
219.812 108.391 m 219.812 107.984 l S
222.352 108.32 m 222.352 108.062 l S
224.895 108.285 m 224.895 108.086 l S
227.434 108.285 m 227.434 108.086 l S
229.977 108.285 m 229.977 108.086 l S
232.52 108.285 m 232.52 108.086 l S
235.059 108.285 m 235.059 108.086 l S
237.602 108.285 m 237.602 108.086 l S
240.141 108.285 m 240.141 108.086 l S
242.684 108.285 m 242.684 108.086 l S
245.223 108.285 m 245.223 108.086 l S
247.766 108.285 m 247.766 108.086 l S
250.305 108.285 m 250.305 108.086 l S
252.848 108.285 m 252.848 108.086 l S
255.387 108.285 m 255.387 108.086 l S
255.387 108.285 m 255.387 108.086 l S
3.812 151.484 m 3.812 151.289 l S
6.352 153.578 m 6.352 149.016 l S
8.895 157.949 m 8.895 145.477 l S
11.434 161.656 m 11.434 141.582 l S
13.977 163.383 m 13.977 139.777 l S
16.52 163.965 m 16.52 139.426 l S
19.059 164.32 m 19.059 139.188 l S
21.602 164.449 m 21.602 139.121 l S
24.141 164.5 m 24.141 139.059 l S
26.684 164.48 m 26.684 138.992 l S
29.223 164.504 m 29.223 138.98 l S
31.766 164.473 m 31.766 138.965 l S
34.305 164.516 m 34.305 138.93 l S
36.848 164.43 m 36.848 138.977 l S
39.387 164.449 m 39.387 138.984 l S
41.93 164.426 m 41.93 138.996 l S
44.469 164.508 m 44.469 138.973 l S
47.012 164.465 m 47.012 138.992 l S
49.555 164.477 m 49.555 138.984 l S
52.094 164.52 m 52.094 139.008 l S
54.637 164.445 m 54.637 138.988 l S
57.176 164.484 m 57.176 138.988 l S
59.719 164.445 m 59.719 138.988 l S
62.258 164.43 m 62.258 139.012 l S
64.801 164.461 m 64.801 139.027 l S
67.34 164.457 m 67.34 139.02 l S
69.883 164.461 m 69.883 138.977 l S
72.422 164.457 m 72.422 139 l S
74.965 164.453 m 74.965 139.031 l S
77.508 164.473 m 77.508 139.016 l S
80.047 164.43 m 80.047 139.023 l S
82.59 164.422 m 82.59 139.027 l S
85.129 164.406 m 85.129 139.074 l S
87.672 164.434 m 87.672 139.016 l S
90.211 164.508 m 90.211 139.004 l S
92.754 164.477 m 92.754 139.02 l S
95.293 164.48 m 95.293 138.984 l S
97.836 164.473 m 97.836 139.004 l S
100.375 164.52 m 100.375 138.965 l S
102.918 164.504 m 102.918 138.957 l S
105.457 164.523 m 105.457 138.934 l S
108 164.52 m 108 138.98 l S
110.543 164.5 m 110.543 138.934 l S
113.082 164.473 m 113.082 138.984 l S
115.625 164.422 m 115.625 138.988 l S
118.164 164.438 m 118.164 139.043 l S
120.707 164.52 m 120.707 139.02 l S
123.246 164.512 m 123.246 138.992 l S
125.789 164.516 m 125.789 138.973 l S
128.328 164.574 m 128.328 139.016 l S
130.871 164.508 m 130.871 139.023 l S
133.41 164.516 m 133.41 138.996 l S
135.953 164.492 m 135.953 138.996 l S
138.492 164.527 m 138.492 138.973 l S
141.035 164.488 m 141.035 139.008 l S
143.578 164.473 m 143.578 139.008 l S
146.117 164.461 m 146.117 139 l S
148.66 164.473 m 148.66 139.004 l S
151.199 164.473 m 151.199 138.945 l S
153.742 164.48 m 153.742 139.016 l S
156.281 164.504 m 156.281 139 l S
158.824 164.5 m 158.824 139.012 l S
161.363 164.574 m 161.363 138.938 l S
163.906 164.504 m 163.906 138.934 l S
166.445 164.523 m 166.445 138.977 l S
168.988 164.512 m 168.988 138.988 l S
171.531 164.496 m 171.531 138.977 l S
174.07 164.531 m 174.07 138.973 l S
176.613 164.391 m 176.613 139.141 l S
179.152 162.582 m 179.152 140.875 l S
181.695 159.266 m 181.695 144.066 l S
184.234 156.992 m 184.234 145.73 l S
186.777 156.004 m 186.777 146.859 l S
189.316 155.426 m 189.316 147.309 l S
191.859 154.766 m 191.859 148.004 l S
194.398 154.047 m 194.398 148.824 l S
196.941 153.375 m 196.941 149.492 l S
199.48 152.957 m 199.48 149.797 l S
202.023 152.578 m 202.023 150.168 l S
204.566 152.273 m 204.566 150.52 l S
207.105 152.043 m 207.105 150.652 l S
209.648 151.863 m 209.648 150.887 l S
212.188 151.738 m 212.188 151.027 l S
214.73 151.652 m 214.73 151.125 l S
217.27 151.555 m 217.27 151.199 l S
219.812 151.516 m 219.812 151.254 l S
222.352 151.484 m 222.352 151.289 l S
224.895 151.484 m 224.895 151.289 l S
227.434 151.484 m 227.434 151.289 l S
229.977 151.484 m 229.977 151.289 l S
232.52 151.484 m 232.52 151.289 l S
235.059 151.484 m 235.059 151.289 l S
237.602 151.484 m 237.602 151.289 l S
240.141 151.484 m 240.141 151.289 l S
242.684 151.484 m 242.684 151.289 l S
245.223 151.484 m 245.223 151.289 l S
247.766 151.484 m 247.766 151.289 l S
250.305 151.484 m 250.305 151.289 l S
252.848 151.484 m 252.848 151.289 l S
255.387 151.484 m 255.387 151.289 l S
255.387 151.484 m 255.387 151.289 l S
Q Q
showpage
%%Trailer
end
%%EOF
