%!PS-Adobe-3.0 EPSF-3.0
%%Creator: cairo 1.16.0 (https://cairographics.org)
%%CreationDate: Wed May 15 11:57:16 2024
%%Pages: 1
%%DocumentData: Clean7Bit
%%LanguageLevel: 2
%%Creator: Wolfram Mathematica
%%BoundingBox: 2 2 257 160
%%EndComments
%%BeginProlog
50 dict begin
/q { gsave } bind def
/Q { grestore } bind def
/cm { 6 array astore concat } bind def
/w { setlinewidth } bind def
/J { setlinecap } bind def
/j { setlinejoin } bind def
/M { setmiterlimit } bind def
/d { setdash } bind def
/m { moveto } bind def
/l { lineto } bind def
/c { curveto } bind def
/h { closepath } bind def
/re { exch dup neg 3 1 roll 5 3 roll moveto 0 rlineto
      0 exch rlineto 0 rlineto closepath } bind def
/S { stroke } bind def
/f { fill } bind def
/f* { eofill } bind def
/n { newpath } bind def
/W { clip } bind def
/W* { eoclip } bind def
/BT { } bind def
/ET { } bind def
/BDC { mark 3 1 roll /BDC pdfmark } bind def
/EMC { mark /EMC pdfmark } bind def
/cairo_store_point { /cairo_point_y exch def /cairo_point_x exch def } def
/Tj { show currentpoint cairo_store_point } bind def
/TJ {
  {
    dup
    type /stringtype eq
    { show } { -0.001 mul 0 cairo_font_matrix dtransform rmoveto } ifelse
  } forall
  currentpoint cairo_store_point
} bind def
/cairo_selectfont { cairo_font_matrix aload pop pop pop 0 0 6 array astore
    cairo_font exch selectfont cairo_point_x cairo_point_y moveto } bind def
/Tf { pop /cairo_font exch def /cairo_font_matrix where
      { pop cairo_selectfont } if } bind def
/Td { matrix translate cairo_font_matrix matrix concatmatrix dup
      /cairo_font_matrix exch def dup 4 get exch 5 get cairo_store_point
      /cairo_font where { pop cairo_selectfont } if } bind def
/Tm { 2 copy 8 2 roll 6 array astore /cairo_font_matrix exch def
      cairo_store_point /cairo_font where { pop cairo_selectfont } if } bind def
/g { setgray } bind def
/rg { setrgbcolor } bind def
/d1 { setcachedevice } bind def
/cairo_data_source {
  CairoDataIndex CairoData length lt
    { CairoData CairoDataIndex get /CairoDataIndex CairoDataIndex 1 add def }
    { () } ifelse
} def
/cairo_flush_ascii85_file { cairo_ascii85_file status { cairo_ascii85_file flushfile } if } def
/cairo_image { image cairo_flush_ascii85_file } def
/cairo_imagemask { imagemask cairo_flush_ascii85_file } def
%%EndProlog
%%BeginSetup
%%EndSetup
%%Page: 1 1
%%BeginPageSetup
%%PageBoundingBox: 2 2 257 160
%%EndPageSetup
q 2 2 255 158 rectclip
1 0 0 -1 0 173 cm q
0 g
1.796436 w
0 J
0 j
[] 0.0 d
3.25 M 3.812 21.488 m 3.812 21.289 l S
6.352 23.742 m 6.352 19.242 l S
8.895 26.957 m 8.895 15.898 l S
11.434 28.324 m 11.434 14.523 l S
13.977 29.398 m 13.977 13.582 l S
16.52 29.324 m 16.52 13.594 l S
19.059 29.906 m 19.059 13.203 l S
21.602 29.996 m 21.602 13.168 l S
24.141 29.738 m 24.141 13.469 l S
26.684 29.777 m 26.684 13.422 l S
29.223 29.645 m 29.223 13.555 l S
31.766 29.668 m 31.766 13.477 l S
34.305 29.684 m 34.305 13.555 l S
36.848 29.695 m 36.848 13.492 l S
39.387 29.656 m 39.387 13.512 l S
41.93 29.594 m 41.93 13.496 l S
44.469 29.625 m 44.469 13.445 l S
47.012 29.617 m 47.012 13.543 l S
49.555 29.758 m 49.555 13.418 l S
52.094 29.746 m 52.094 13.477 l S
54.637 29.633 m 54.637 13.531 l S
57.176 29.598 m 57.176 13.574 l S
59.719 29.621 m 59.719 13.535 l S
62.258 29.594 m 62.258 13.547 l S
64.801 29.605 m 64.801 13.551 l S
67.34 29.555 m 67.34 13.562 l S
69.883 29.547 m 69.883 13.578 l S
72.422 29.562 m 72.422 13.531 l S
74.965 29.559 m 74.965 13.562 l S
77.508 29.566 m 77.508 13.578 l S
80.047 29.5 m 80.047 13.582 l S
82.59 29.5 m 82.59 13.566 l S
85.129 29.523 m 85.129 13.582 l S
87.672 29.492 m 87.672 13.547 l S
90.211 29.605 m 90.211 13.594 l S
92.754 29.555 m 92.754 13.574 l S
95.293 29.543 m 95.293 13.543 l S
97.836 29.543 m 97.836 13.566 l S
100.375 29.516 m 100.375 13.543 l S
102.918 29.539 m 102.918 13.566 l S
105.457 29.496 m 105.457 13.574 l S
108 29.531 m 108 13.578 l S
110.543 29.512 m 110.543 13.574 l S
113.082 29.48 m 113.082 13.582 l S
115.625 29.438 m 115.625 13.562 l S
118.164 29.477 m 118.164 13.562 l S
120.707 29.5 m 120.707 13.52 l S
123.246 29.559 m 123.246 13.539 l S
125.789 29.578 m 125.789 13.535 l S
128.328 29.566 m 128.328 13.539 l S
130.871 29.539 m 130.871 13.523 l S
133.41 29.551 m 133.41 13.531 l S
135.953 29.496 m 135.953 13.535 l S
138.492 29.527 m 138.492 13.523 l S
141.035 29.52 m 141.035 13.582 l S
143.578 29.426 m 143.578 13.574 l S
146.117 29.406 m 146.117 13.582 l S
148.66 29.453 m 148.66 13.59 l S
151.199 29.406 m 151.199 13.547 l S
153.742 29.414 m 153.742 13.578 l S
156.281 29.445 m 156.281 13.574 l S
158.824 29.48 m 158.824 13.57 l S
161.363 29.41 m 161.363 13.598 l S
163.906 29.418 m 163.906 13.602 l S
166.445 29.469 m 166.445 13.582 l S
168.988 29.477 m 168.988 13.527 l S
171.531 29.496 m 171.531 13.512 l S
174.07 29.512 m 174.07 13.504 l S
176.613 29.562 m 176.613 13.539 l S
179.152 29.48 m 179.152 13.523 l S
181.695 29.508 m 181.695 13.52 l S
184.234 29.48 m 184.234 13.508 l S
186.777 29.527 m 186.777 13.547 l S
189.316 29.5 m 189.316 13.539 l S
191.859 29.5 m 191.859 13.504 l S
194.398 29.473 m 194.398 13.574 l S
196.941 28.879 m 196.941 14.039 l S
199.48 27.121 m 199.48 15.754 l S
202.023 25.91 m 202.023 16.816 l S
204.566 25.129 m 204.566 17.629 l S
207.105 24.309 m 207.105 18.449 l S
209.648 23.59 m 209.648 19.16 l S
212.188 23.113 m 212.188 19.633 l S
214.73 22.801 m 214.73 19.969 l S
217.27 22.531 m 217.27 20.234 l S
219.812 22.234 m 219.812 20.527 l S
222.352 21.98 m 222.352 20.785 l S
224.895 21.758 m 224.895 20.992 l S
227.434 21.664 m 227.434 21.129 l S
229.977 21.57 m 229.977 21.199 l S
232.52 21.512 m 232.52 21.266 l S
235.059 21.488 m 235.059 21.289 l S
237.602 21.488 m 237.602 21.289 l S
240.141 21.488 m 240.141 21.289 l S
242.684 21.488 m 242.684 21.289 l S
245.223 21.488 m 245.223 21.289 l S
247.766 21.488 m 247.766 21.289 l S
250.305 21.488 m 250.305 21.289 l S
252.848 21.488 m 252.848 21.289 l S
255.387 21.488 m 255.387 21.289 l S
255.387 21.488 m 255.387 21.289 l S
3.812 64.688 m 3.812 64.488 l S
6.352 67.555 m 6.352 61.734 l S
8.895 69.766 m 8.895 59.496 l S
11.434 70.055 m 11.434 59.059 l S
13.977 70.543 m 13.977 58.449 l S
16.52 70.605 m 16.52 58.094 l S
19.059 70.926 m 19.059 57.957 l S
21.602 71.035 m 21.602 57.758 l S
24.141 70.887 m 24.141 57.836 l S
26.684 70.961 m 26.684 57.797 l S
29.223 70.883 m 29.223 57.816 l S
31.766 70.883 m 31.766 57.816 l S
34.305 70.914 m 34.305 57.789 l S
36.848 70.824 m 36.848 57.781 l S
39.387 70.895 m 39.387 57.637 l S
41.93 70.875 m 41.93 57.684 l S
44.469 70.855 m 44.469 57.742 l S
47.012 70.859 m 47.012 57.723 l S
49.555 71.113 m 49.555 57.711 l S
52.094 70.973 m 52.094 57.691 l S
54.637 70.926 m 54.637 57.746 l S
57.176 70.941 m 57.176 57.809 l S
59.719 70.797 m 59.719 57.758 l S
62.258 70.801 m 62.258 57.797 l S
64.801 70.852 m 64.801 57.816 l S
67.34 70.785 m 67.34 57.754 l S
69.883 70.777 m 69.883 57.828 l S
72.422 70.887 m 72.422 57.777 l S
74.965 70.773 m 74.965 57.832 l S
77.508 70.785 m 77.508 57.816 l S
80.047 70.777 m 80.047 57.785 l S
82.59 70.738 m 82.59 57.844 l S
85.129 70.758 m 85.129 57.887 l S
87.672 70.719 m 87.672 57.852 l S
90.211 70.777 m 90.211 57.859 l S
92.754 70.738 m 92.754 57.816 l S
95.293 70.77 m 95.293 57.867 l S
97.836 70.84 m 97.836 57.84 l S
100.375 70.801 m 100.375 57.824 l S
102.918 70.785 m 102.918 57.809 l S
105.457 70.773 m 105.457 57.879 l S
108 70.777 m 108 57.844 l S
110.543 70.758 m 110.543 57.879 l S
113.082 70.785 m 113.082 57.879 l S
115.625 70.77 m 115.625 57.875 l S
118.164 70.707 m 118.164 57.844 l S
120.707 70.719 m 120.707 57.883 l S
123.246 70.754 m 123.246 57.902 l S
125.789 70.789 m 125.789 57.789 l S
128.328 70.797 m 128.328 57.805 l S
130.871 70.758 m 130.871 57.809 l S
133.41 70.773 m 133.41 57.773 l S
135.953 70.793 m 135.953 57.816 l S
138.492 70.875 m 138.492 57.891 l S
141.035 70.766 m 141.035 57.902 l S
143.578 70.773 m 143.578 57.887 l S
146.117 70.711 m 146.117 57.93 l S
148.66 70.672 m 148.66 57.953 l S
151.199 70.715 m 151.199 57.902 l S
153.742 70.691 m 153.742 57.926 l S
156.281 70.73 m 156.281 57.898 l S
158.824 70.688 m 158.824 57.922 l S
161.363 70.66 m 161.363 57.906 l S
163.906 70.719 m 163.906 57.969 l S
166.445 70.699 m 166.445 57.91 l S
168.988 70.734 m 168.988 57.863 l S
171.531 70.711 m 171.531 57.855 l S
174.07 70.742 m 174.07 57.871 l S
176.613 70.777 m 176.613 57.824 l S
179.152 70.789 m 179.152 57.852 l S
181.695 70.789 m 181.695 57.898 l S
184.234 70.785 m 184.234 57.777 l S
186.777 70.742 m 186.777 57.816 l S
189.316 70.773 m 189.316 57.809 l S
191.859 70.762 m 191.859 57.824 l S
194.398 70.711 m 194.398 57.938 l S
196.941 70.195 m 196.941 58.824 l S
199.48 69.332 m 199.48 59.906 l S
202.023 69.297 m 202.023 59.945 l S
204.566 68.812 m 204.566 60.445 l S
207.105 68.215 m 207.105 61.016 l S
209.648 67.422 m 209.648 61.734 l S
212.188 66.84 m 212.188 62.34 l S
214.73 66.359 m 214.73 62.902 l S
217.27 65.867 m 217.27 63.305 l S
219.812 65.57 m 219.812 63.555 l S
222.352 65.332 m 222.352 63.84 l S
224.895 65.137 m 224.895 64.043 l S
227.434 64.977 m 227.434 64.18 l S
229.977 64.852 m 229.977 64.301 l S
232.52 64.789 m 232.52 64.41 l S
235.059 64.707 m 235.059 64.477 l S
237.602 64.688 m 237.602 64.488 l S
240.141 64.688 m 240.141 64.488 l S
242.684 64.688 m 242.684 64.488 l S
245.223 64.688 m 245.223 64.488 l S
247.766 64.688 m 247.766 64.488 l S
250.305 64.688 m 250.305 64.488 l S
252.848 64.688 m 252.848 64.488 l S
255.387 64.688 m 255.387 64.488 l S
255.387 64.688 m 255.387 64.488 l S
3.812 107.887 m 3.812 107.691 l S
6.352 110.363 m 6.352 105.113 l S
8.895 115.223 m 8.895 101.273 l S
11.434 116.145 m 11.434 99.527 l S
13.977 116.168 m 13.977 99.469 l S
16.52 115.707 m 16.52 100.086 l S
19.059 116.488 m 19.059 99.277 l S
21.602 116.297 m 21.602 99.57 l S
24.141 116.25 m 24.141 99.289 l S
26.684 116.18 m 26.684 99.457 l S
29.223 116.039 m 29.223 99.512 l S
31.766 116.148 m 31.766 99.488 l S
34.305 116.02 m 34.305 99.609 l S
36.848 116.129 m 36.848 99.48 l S
39.387 116.074 m 39.387 99.496 l S
41.93 116.078 m 41.93 99.469 l S
44.469 116.02 m 44.469 99.523 l S
47.012 115.941 m 47.012 99.551 l S
49.555 116.273 m 49.555 99.359 l S
52.094 116.117 m 52.094 99.438 l S
54.637 115.949 m 54.637 99.578 l S
57.176 115.973 m 57.176 99.602 l S
59.719 115.922 m 59.719 99.637 l S
62.258 116.051 m 62.258 99.582 l S
64.801 115.879 m 64.801 99.656 l S
67.34 115.883 m 67.34 99.617 l S
69.883 115.895 m 69.883 99.703 l S
72.422 115.961 m 72.422 99.711 l S
74.965 115.902 m 74.965 99.613 l S
77.508 115.891 m 77.508 99.723 l S
80.047 115.809 m 80.047 99.77 l S
82.59 115.855 m 82.59 99.789 l S
85.129 115.84 m 85.129 99.844 l S
87.672 115.844 m 87.672 99.762 l S
90.211 115.859 m 90.211 99.773 l S
92.754 115.805 m 92.754 99.758 l S
95.293 115.828 m 95.293 99.793 l S
97.836 115.859 m 97.836 99.742 l S
100.375 115.875 m 100.375 99.73 l S
102.918 115.816 m 102.918 99.809 l S
105.457 115.832 m 105.457 99.816 l S
108 115.77 m 108 99.867 l S
110.543 115.809 m 110.543 99.824 l S
113.082 115.73 m 113.082 99.898 l S
115.625 115.723 m 115.625 99.914 l S
118.164 115.703 m 118.164 99.945 l S
120.707 115.781 m 120.707 99.934 l S
123.246 115.855 m 123.246 99.812 l S
125.789 115.91 m 125.789 99.754 l S
128.328 115.91 m 128.328 99.762 l S
130.871 115.832 m 130.871 99.828 l S
133.41 115.863 m 133.41 99.824 l S
135.953 115.809 m 135.953 99.836 l S
138.492 115.812 m 138.492 99.887 l S
141.035 115.73 m 141.035 99.867 l S
143.578 115.684 m 143.578 99.914 l S
146.117 115.699 m 146.117 99.996 l S
148.66 115.746 m 148.66 99.988 l S
151.199 115.754 m 151.199 100 l S
153.742 115.684 m 153.742 99.953 l S
156.281 115.699 m 156.281 99.949 l S
158.824 115.695 m 158.824 99.953 l S
161.363 115.688 m 161.363 99.953 l S
163.906 115.621 m 163.906 100.055 l S
166.445 115.652 m 166.445 100.043 l S
168.988 115.762 m 168.988 99.934 l S
171.531 115.805 m 171.531 99.934 l S
174.07 115.84 m 174.07 99.859 l S
176.613 115.762 m 176.613 99.871 l S
179.152 115.777 m 179.152 99.883 l S
181.695 115.766 m 181.695 99.934 l S
184.234 115.812 m 184.234 99.863 l S
186.777 115.852 m 186.777 99.867 l S
189.316 115.836 m 189.316 99.953 l S
191.859 115.82 m 191.859 99.883 l S
194.398 115.711 m 194.398 99.898 l S
196.941 115.457 m 196.941 99.879 l S
199.48 114.555 m 199.48 100.809 l S
202.023 113.543 m 202.023 101.992 l S
204.566 112.668 m 204.566 102.805 l S
207.105 111.734 m 207.105 103.801 l S
209.648 110.758 m 209.648 104.727 l S
212.188 110.047 m 212.188 105.496 l S
214.73 109.477 m 214.73 106.102 l S
217.27 109.031 m 217.27 106.543 l S
219.812 108.668 m 219.812 106.824 l S
222.352 108.461 m 222.352 107.078 l S
224.895 108.277 m 224.895 107.305 l S
227.434 108.125 m 227.434 107.434 l S
229.977 108.039 m 229.977 107.539 l S
232.52 107.949 m 232.52 107.625 l S
235.059 107.895 m 235.059 107.691 l S
237.602 107.887 m 237.602 107.691 l S
240.141 107.887 m 240.141 107.691 l S
242.684 107.887 m 242.684 107.691 l S
245.223 107.887 m 245.223 107.691 l S
247.766 107.887 m 247.766 107.691 l S
250.305 107.887 m 250.305 107.691 l S
252.848 107.887 m 252.848 107.691 l S
255.387 107.887 m 255.387 107.691 l S
255.387 107.887 m 255.387 107.691 l S
3.812 151.086 m 3.812 150.883 l S
6.352 159.371 m 6.352 143.633 l S
8.895 166.156 m 8.895 135.703 l S
11.434 168.598 m 11.434 133.359 l S
13.977 168.938 m 13.977 133.016 l S
16.52 170.02 m 16.52 132.262 l S
19.059 170.402 m 19.059 131.781 l S
21.602 170.562 m 21.602 131.652 l S
24.141 170.668 m 24.141 131.582 l S
26.684 170.621 m 26.684 131.664 l S
29.223 170.578 m 29.223 131.703 l S
31.766 170.535 m 31.766 131.715 l S
34.305 170.629 m 34.305 131.711 l S
36.848 170.602 m 36.848 131.734 l S
39.387 170.559 m 39.387 131.691 l S
41.93 170.609 m 41.93 131.672 l S
44.469 170.602 m 44.469 131.754 l S
47.012 170.586 m 47.012 131.734 l S
49.555 170.836 m 49.555 131.562 l S
52.094 170.652 m 52.094 131.648 l S
54.637 170.656 m 54.637 131.797 l S
57.176 170.656 m 57.176 131.719 l S
59.719 170.535 m 59.719 131.812 l S
62.258 170.582 m 62.258 131.824 l S
64.801 170.5 m 64.801 131.801 l S
67.34 170.5 m 67.34 131.879 l S
69.883 170.457 m 69.883 131.914 l S
72.422 170.578 m 72.422 131.902 l S
74.965 170.484 m 74.965 131.863 l S
77.508 170.445 m 77.508 131.887 l S
80.047 170.438 m 80.047 131.949 l S
82.59 170.391 m 82.59 131.969 l S
85.129 170.422 m 85.129 131.961 l S
87.672 170.434 m 87.672 131.918 l S
90.211 170.457 m 90.211 131.938 l S
92.754 170.484 m 92.754 131.926 l S
95.293 170.504 m 95.293 131.906 l S
97.836 170.508 m 97.836 131.879 l S
100.375 170.461 m 100.375 131.898 l S
102.918 170.508 m 102.918 131.871 l S
105.457 170.473 m 105.457 131.945 l S
108 170.383 m 108 131.977 l S
110.543 170.398 m 110.543 131.957 l S
113.082 170.379 m 113.082 132.043 l S
115.625 170.312 m 115.625 131.973 l S
118.164 170.359 m 118.164 132.016 l S
120.707 170.398 m 120.707 131.938 l S
123.246 170.453 m 123.246 131.914 l S
125.789 170.535 m 125.789 131.891 l S
128.328 170.512 m 128.328 131.844 l S
130.871 170.48 m 130.871 131.891 l S
133.41 170.465 m 133.41 131.879 l S
135.953 170.484 m 135.953 131.879 l S
138.492 170.5 m 138.492 131.941 l S
141.035 170.344 m 141.035 131.969 l S
143.578 170.371 m 143.578 131.984 l S
146.117 170.305 m 146.117 131.965 l S
148.66 170.348 m 148.66 131.984 l S
151.199 170.348 m 151.199 131.965 l S
153.742 170.348 m 153.742 132 l S
156.281 170.309 m 156.281 131.988 l S
158.824 170.352 m 158.824 132.016 l S
161.363 170.324 m 161.363 131.977 l S
163.906 170.293 m 163.906 132.012 l S
166.445 170.328 m 166.445 131.992 l S
168.988 170.402 m 168.988 131.891 l S
171.531 170.453 m 171.531 131.895 l S
174.07 170.5 m 174.07 131.867 l S
176.613 170.453 m 176.613 131.863 l S
179.152 170.461 m 179.152 131.906 l S
181.695 170.457 m 181.695 131.875 l S
184.234 170.523 m 184.234 131.855 l S
186.777 170.488 m 186.777 131.898 l S
189.316 170.465 m 189.316 131.871 l S
191.859 170.543 m 191.859 131.902 l S
194.398 170.438 m 194.398 131.992 l S
196.941 168.527 m 196.941 133.773 l S
199.48 164.754 m 199.48 136.988 l S
202.023 163.387 m 202.023 138.73 l S
204.566 162.004 m 204.566 140.266 l S
207.105 160.379 m 207.105 141.598 l S
209.648 158.719 m 209.648 143.207 l S
212.188 157.176 m 212.188 144.863 l S
214.73 155.801 m 214.73 146.168 l S
217.27 154.566 m 217.27 147.359 l S
219.812 153.75 m 219.812 148.117 l S
222.352 153.113 m 222.352 148.836 l S
224.895 152.574 m 224.895 149.434 l S
227.434 152.102 m 227.434 149.859 l S
229.977 151.777 m 229.977 150.215 l S
232.52 151.504 m 232.52 150.488 l S
235.059 151.328 m 235.059 150.672 l S
237.602 151.195 m 237.602 150.781 l S
240.141 151.117 m 240.141 150.859 l S
242.684 151.086 m 242.684 150.891 l S
245.223 151.086 m 245.223 150.891 l S
247.766 151.086 m 247.766 150.891 l S
250.305 151.086 m 250.305 150.891 l S
252.848 151.086 m 252.848 150.891 l S
255.387 151.086 m 255.387 150.891 l S
255.387 151.086 m 255.387 150.891 l S
Q Q
showpage
%%Trailer
end
%%EOF
