%!PS-Adobe-3.0 EPSF-3.0
%%Creator: cairo 1.16.0 (https://cairographics.org)
%%CreationDate: Wed May 15 11:57:16 2024
%%Pages: 1
%%DocumentData: Clean7Bit
%%LanguageLevel: 2
%%Creator: Wolfram Mathematica
%%BoundingBox: 2 8 257 168
%%EndComments
%%BeginProlog
50 dict begin
/q { gsave } bind def
/Q { grestore } bind def
/cm { 6 array astore concat } bind def
/w { setlinewidth } bind def
/J { setlinecap } bind def
/j { setlinejoin } bind def
/M { setmiterlimit } bind def
/d { setdash } bind def
/m { moveto } bind def
/l { lineto } bind def
/c { curveto } bind def
/h { closepath } bind def
/re { exch dup neg 3 1 roll 5 3 roll moveto 0 rlineto
      0 exch rlineto 0 rlineto closepath } bind def
/S { stroke } bind def
/f { fill } bind def
/f* { eofill } bind def
/n { newpath } bind def
/W { clip } bind def
/W* { eoclip } bind def
/BT { } bind def
/ET { } bind def
/BDC { mark 3 1 roll /BDC pdfmark } bind def
/EMC { mark /EMC pdfmark } bind def
/cairo_store_point { /cairo_point_y exch def /cairo_point_x exch def } def
/Tj { show currentpoint cairo_store_point } bind def
/TJ {
  {
    dup
    type /stringtype eq
    { show } { -0.001 mul 0 cairo_font_matrix dtransform rmoveto } ifelse
  } forall
  currentpoint cairo_store_point
} bind def
/cairo_selectfont { cairo_font_matrix aload pop pop pop 0 0 6 array astore
    cairo_font exch selectfont cairo_point_x cairo_point_y moveto } bind def
/Tf { pop /cairo_font exch def /cairo_font_matrix where
      { pop cairo_selectfont } if } bind def
/Td { matrix translate cairo_font_matrix matrix concatmatrix dup
      /cairo_font_matrix exch def dup 4 get exch 5 get cairo_store_point
      /cairo_font where { pop cairo_selectfont } if } bind def
/Tm { 2 copy 8 2 roll 6 array astore /cairo_font_matrix exch def
      cairo_store_point /cairo_font where { pop cairo_selectfont } if } bind def
/g { setgray } bind def
/rg { setrgbcolor } bind def
/d1 { setcachedevice } bind def
/cairo_data_source {
  CairoDataIndex CairoData length lt
    { CairoData CairoDataIndex get /CairoDataIndex CairoDataIndex 1 add def }
    { () } ifelse
} def
/cairo_flush_ascii85_file { cairo_ascii85_file status { cairo_ascii85_file flushfile } if } def
/cairo_image { image cairo_flush_ascii85_file } def
/cairo_imagemask { imagemask cairo_flush_ascii85_file } def
%%EndProlog
%%BeginSetup
%%EndSetup
%%Page: 1 1
%%BeginPageSetup
%%PageBoundingBox: 2 8 257 168
%%EndPageSetup
q 2 8 255 160 rectclip
1 0 0 -1 0 173 cm q
0 g
1.796436 w
0 J
0 j
[] 0.0 d
3.25 M 3.812 21.828 m 3.812 21.629 l S
6.352 29.566 m 6.352 13.793 l S
8.895 33.102 m 8.895 9.977 l S
11.434 35.754 m 11.434 7.594 l S
13.977 36.785 m 13.977 6.484 l S
16.52 37.281 m 16.52 5.918 l S
19.059 37.57 m 19.059 5.656 l S
21.602 37.637 m 21.602 5.543 l S
24.141 37.684 m 24.141 5.512 l S
26.684 37.684 m 26.684 5.496 l S
29.223 37.66 m 29.223 5.512 l S
31.766 37.652 m 31.766 5.539 l S
34.305 37.668 m 34.305 5.516 l S
36.848 37.68 m 36.848 5.508 l S
39.387 37.684 m 39.387 5.508 l S
41.93 37.676 m 41.93 5.504 l S
44.469 37.688 m 44.469 5.492 l S
47.012 37.699 m 47.012 5.496 l S
49.555 37.695 m 49.555 5.5 l S
52.094 37.676 m 52.094 5.512 l S
54.637 37.688 m 54.637 5.5 l S
57.176 37.688 m 57.176 5.504 l S
59.719 37.672 m 59.719 5.523 l S
62.258 37.652 m 62.258 5.527 l S
64.801 37.66 m 64.801 5.535 l S
67.34 37.672 m 67.34 5.523 l S
69.883 37.664 m 69.883 5.527 l S
72.422 37.664 m 72.422 5.539 l S
74.965 37.656 m 74.965 5.539 l S
77.508 37.648 m 77.508 5.547 l S
80.047 37.629 m 80.047 5.559 l S
82.59 37.621 m 82.59 5.578 l S
85.129 37.617 m 85.129 5.57 l S
87.672 37.621 m 87.672 5.57 l S
90.211 37.613 m 90.211 5.578 l S
92.754 37.617 m 92.754 5.582 l S
95.293 37.629 m 95.293 5.578 l S
97.836 37.633 m 97.836 5.57 l S
100.375 37.648 m 100.375 5.566 l S
102.918 37.648 m 102.918 5.559 l S
105.457 37.641 m 105.457 5.559 l S
108 37.648 m 108 5.543 l S
110.543 37.656 m 110.543 5.539 l S
113.082 37.668 m 113.082 5.543 l S
115.625 37.664 m 115.625 5.559 l S
118.164 37.633 m 118.164 5.566 l S
120.707 37.625 m 120.707 5.59 l S
123.246 37.625 m 123.246 5.605 l S
125.789 37.602 m 125.789 5.621 l S
128.328 37.598 m 128.328 5.629 l S
130.871 37.578 m 130.871 5.629 l S
133.41 37.566 m 133.41 5.66 l S
135.953 37.574 m 135.953 5.66 l S
138.492 37.566 m 138.492 5.664 l S
141.035 37.562 m 141.035 5.676 l S
143.578 37.559 m 143.578 5.691 l S
146.117 37.539 m 146.117 5.691 l S
148.66 37.535 m 148.66 5.707 l S
151.199 37.547 m 151.199 5.699 l S
153.742 37.535 m 153.742 5.707 l S
156.281 37.527 m 156.281 5.707 l S
158.824 37.52 m 158.824 5.707 l S
161.363 37.52 m 161.363 5.719 l S
163.906 37.52 m 163.906 5.73 l S
166.445 37.496 m 166.445 5.758 l S
168.988 37.379 m 168.988 5.922 l S
171.531 35.27 m 171.531 8.336 l S
174.07 32.285 m 174.07 11.055 l S
176.613 29.395 m 176.613 14.168 l S
179.152 27.324 m 179.152 16.344 l S
181.695 26.219 m 181.695 17.219 l S
184.234 25.109 m 184.234 18.184 l S
186.777 24.508 m 186.777 18.922 l S
189.316 23.766 m 189.316 19.641 l S
191.859 23.305 m 191.859 20.105 l S
194.398 22.977 m 194.398 20.48 l S
196.941 22.566 m 196.941 20.844 l S
199.48 22.375 m 199.48 21.047 l S
202.023 22.172 m 202.023 21.246 l S
204.566 22.047 m 204.566 21.395 l S
207.105 21.973 m 207.105 21.484 l S
209.648 21.906 m 209.648 21.559 l S
212.188 21.867 m 212.188 21.57 l S
214.73 21.84 m 214.73 21.625 l S
217.27 21.828 m 217.27 21.633 l S
219.812 21.828 m 219.812 21.633 l S
222.352 21.828 m 222.352 21.633 l S
224.895 21.828 m 224.895 21.633 l S
227.434 21.828 m 227.434 21.633 l S
229.977 21.828 m 229.977 21.633 l S
232.52 21.828 m 232.52 21.633 l S
235.059 21.828 m 235.059 21.633 l S
237.602 21.828 m 237.602 21.633 l S
240.141 21.828 m 240.141 21.633 l S
242.684 21.828 m 242.684 21.633 l S
245.223 21.828 m 245.223 21.633 l S
247.766 21.828 m 247.766 21.633 l S
250.305 21.828 m 250.305 21.633 l S
252.848 21.828 m 252.848 21.633 l S
255.387 21.828 m 255.387 21.633 l S
255.387 21.828 m 255.387 21.633 l S
3.812 65.027 m 3.812 64.832 l S
6.352 70.742 m 6.352 59.555 l S
8.895 72.414 m 8.895 57.824 l S
11.434 72.367 m 11.434 57.738 l S
13.977 72.613 m 13.977 57.66 l S
16.52 72.797 m 16.52 57.5 l S
19.059 72.805 m 19.059 57.496 l S
21.602 72.809 m 21.602 57.461 l S
24.141 72.809 m 24.141 57.461 l S
26.684 72.812 m 26.684 57.461 l S
29.223 72.816 m 29.223 57.445 l S
31.766 72.805 m 31.766 57.449 l S
34.305 72.828 m 34.305 57.402 l S
36.848 72.883 m 36.848 57.379 l S
39.387 72.875 m 39.387 57.363 l S
41.93 72.898 m 41.93 57.363 l S
44.469 72.918 m 44.469 57.348 l S
47.012 72.922 m 47.012 57.316 l S
49.555 72.902 m 49.555 57.324 l S
52.094 72.922 m 52.094 57.289 l S
54.637 72.938 m 54.637 57.305 l S
57.176 72.941 m 57.176 57.289 l S
59.719 72.941 m 59.719 57.305 l S
62.258 72.953 m 62.258 57.281 l S
64.801 72.973 m 64.801 57.293 l S
67.34 73.004 m 67.34 57.27 l S
69.883 72.977 m 69.883 57.27 l S
72.422 72.977 m 72.422 57.285 l S
74.965 72.977 m 74.965 57.289 l S
77.508 72.969 m 77.508 57.301 l S
80.047 72.996 m 80.047 57.293 l S
82.59 72.984 m 82.59 57.289 l S
85.129 72.992 m 85.129 57.305 l S
87.672 72.996 m 87.672 57.301 l S
90.211 72.984 m 90.211 57.293 l S
92.754 73 m 92.754 57.305 l S
95.293 73 m 95.293 57.324 l S
97.836 72.98 m 97.836 57.301 l S
100.375 73 m 100.375 57.301 l S
102.918 72.98 m 102.918 57.305 l S
105.457 72.965 m 105.457 57.301 l S
108 72.988 m 108 57.316 l S
110.543 72.988 m 110.543 57.293 l S
113.082 72.98 m 113.082 57.293 l S
115.625 72.984 m 115.625 57.281 l S
118.164 72.996 m 118.164 57.293 l S
120.707 72.969 m 120.707 57.316 l S
123.246 72.953 m 123.246 57.32 l S
125.789 72.969 m 125.789 57.316 l S
128.328 72.965 m 128.328 57.301 l S
130.871 72.98 m 130.871 57.332 l S
133.41 72.984 m 133.41 57.348 l S
135.953 72.965 m 135.953 57.379 l S
138.492 72.941 m 138.492 57.398 l S
141.035 72.953 m 141.035 57.406 l S
143.578 72.941 m 143.578 57.383 l S
146.117 72.934 m 146.117 57.391 l S
148.66 72.938 m 148.66 57.395 l S
151.199 72.945 m 151.199 57.402 l S
153.742 72.922 m 153.742 57.375 l S
156.281 72.934 m 156.281 57.383 l S
158.824 72.93 m 158.824 57.387 l S
161.363 72.941 m 161.363 57.371 l S
163.906 72.969 m 163.906 57.355 l S
166.445 72.934 m 166.445 57.398 l S
168.988 72.906 m 168.988 57.473 l S
171.531 72.309 m 171.531 58.02 l S
174.07 72.02 m 174.07 58.27 l S
176.613 71.469 m 176.613 58.777 l S
179.152 70.508 m 179.152 59.504 l S
181.695 69.602 m 181.695 60.285 l S
184.234 68.914 m 184.234 60.98 l S
186.777 68.074 m 186.777 61.805 l S
189.316 67.297 m 189.316 62.578 l S
191.859 66.758 m 191.859 63.137 l S
194.398 66.355 m 194.398 63.57 l S
196.941 65.988 m 196.941 63.906 l S
199.48 65.754 m 199.48 64.16 l S
202.023 65.535 m 202.023 64.355 l S
204.566 65.359 m 204.566 64.566 l S
207.105 65.23 m 207.105 64.629 l S
209.648 65.152 m 209.648 64.707 l S
212.188 65.082 m 212.188 64.746 l S
214.73 65.066 m 214.73 64.785 l S
217.27 65.027 m 217.27 64.832 l S
219.812 65.027 m 219.812 64.832 l S
222.352 65.027 m 222.352 64.832 l S
224.895 65.027 m 224.895 64.832 l S
227.434 65.027 m 227.434 64.832 l S
229.977 65.027 m 229.977 64.832 l S
232.52 65.027 m 232.52 64.832 l S
235.059 65.027 m 235.059 64.832 l S
237.602 65.027 m 237.602 64.832 l S
240.141 65.027 m 240.141 64.832 l S
242.684 65.027 m 242.684 64.832 l S
245.223 65.027 m 245.223 64.832 l S
247.766 65.027 m 247.766 64.832 l S
250.305 65.027 m 250.305 64.832 l S
252.848 65.027 m 252.848 64.832 l S
255.387 65.027 m 255.387 64.832 l S
255.387 65.027 m 255.387 64.832 l S
3.812 108.289 m 3.812 107.926 l S
6.352 118.852 m 6.352 98.129 l S
8.895 122.484 m 8.895 93.859 l S
11.434 124.52 m 11.434 91.59 l S
13.977 125.973 m 13.977 90.215 l S
16.52 126.762 m 16.52 89.316 l S
19.059 127.086 m 19.059 88.949 l S
21.602 127.316 m 21.602 88.688 l S
24.141 127.41 m 24.141 88.57 l S
26.684 127.5 m 26.684 88.496 l S
29.223 127.543 m 29.223 88.461 l S
31.766 127.523 m 31.766 88.449 l S
34.305 127.539 m 34.305 88.434 l S
36.848 127.543 m 36.848 88.418 l S
39.387 127.574 m 39.387 88.426 l S
41.93 127.566 m 41.93 88.406 l S
44.469 127.566 m 44.469 88.43 l S
47.012 127.637 m 47.012 88.391 l S
49.555 127.609 m 49.555 88.363 l S
52.094 127.574 m 52.094 88.406 l S
54.637 127.605 m 54.637 88.387 l S
57.176 127.57 m 57.176 88.398 l S
59.719 127.523 m 59.719 88.445 l S
62.258 127.52 m 62.258 88.473 l S
64.801 127.504 m 64.801 88.473 l S
67.34 127.527 m 67.34 88.488 l S
69.883 127.477 m 69.883 88.531 l S
72.422 127.473 m 72.422 88.523 l S
74.965 127.465 m 74.965 88.527 l S
77.508 127.473 m 77.508 88.5 l S
80.047 127.441 m 80.047 88.559 l S
82.59 127.434 m 82.59 88.59 l S
85.129 127.496 m 85.129 88.555 l S
87.672 127.422 m 87.672 88.625 l S
90.211 127.469 m 90.211 88.574 l S
92.754 127.461 m 92.754 88.59 l S
95.293 127.48 m 95.293 88.59 l S
97.836 127.418 m 97.836 88.598 l S
100.375 127.438 m 100.375 88.59 l S
102.918 127.449 m 102.918 88.598 l S
105.457 127.555 m 105.457 88.598 l S
108 127.516 m 108 88.473 l S
110.543 127.504 m 110.543 88.566 l S
113.082 127.504 m 113.082 88.5 l S
115.625 127.449 m 115.625 88.609 l S
118.164 127.395 m 118.164 88.66 l S
120.707 127.391 m 120.707 88.668 l S
123.246 127.395 m 123.246 88.664 l S
125.789 127.379 m 125.789 88.695 l S
128.328 127.375 m 128.328 88.715 l S
130.871 127.348 m 130.871 88.754 l S
133.41 127.406 m 133.41 88.758 l S
135.953 127.355 m 135.953 88.785 l S
138.492 127.324 m 138.492 88.793 l S
141.035 127.332 m 141.035 88.801 l S
143.578 127.348 m 143.578 88.824 l S
146.117 127.316 m 146.117 88.828 l S
148.66 127.34 m 148.66 88.832 l S
151.199 127.359 m 151.199 88.805 l S
153.742 127.387 m 153.742 88.789 l S
156.281 127.336 m 156.281 88.809 l S
158.824 127.305 m 158.824 88.848 l S
161.363 127.309 m 161.363 88.84 l S
163.906 127.289 m 163.906 88.848 l S
166.445 127.32 m 166.445 88.848 l S
168.988 127.133 m 168.988 89.07 l S
171.531 124.34 m 171.531 91.961 l S
174.07 120.793 m 174.07 95.801 l S
176.613 118.707 m 176.613 97.691 l S
179.152 117.18 m 179.152 99.141 l S
181.695 115.711 m 181.695 100.539 l S
184.234 114.52 m 184.234 101.719 l S
186.777 113.348 m 186.777 102.891 l S
189.316 112.496 m 189.316 103.98 l S
191.859 111.594 m 191.859 104.695 l S
194.398 110.738 m 194.398 105.508 l S
196.941 110.156 m 196.941 106.184 l S
199.48 109.633 m 199.48 106.723 l S
202.023 109.254 m 202.023 107.086 l S
204.566 108.902 m 204.566 107.395 l S
207.105 108.629 m 207.105 107.598 l S
209.648 108.516 m 209.648 107.707 l S
212.188 108.406 m 212.188 107.824 l S
214.73 108.414 m 214.73 107.84 l S
217.27 108.297 m 217.27 107.918 l S
219.812 108.277 m 219.812 107.957 l S
222.352 108.238 m 222.352 108.023 l S
224.895 108.227 m 224.895 108.031 l S
227.434 108.227 m 227.434 108.031 l S
229.977 108.227 m 229.977 108.031 l S
232.52 108.227 m 232.52 108.031 l S
235.059 108.227 m 235.059 108.031 l S
237.602 108.227 m 237.602 108.031 l S
240.141 108.227 m 240.141 108.031 l S
242.684 108.227 m 242.684 108.031 l S
245.223 108.227 m 245.223 108.031 l S
247.766 108.227 m 247.766 108.031 l S
250.305 108.227 m 250.305 108.031 l S
252.848 108.227 m 252.848 108.031 l S
255.387 108.227 m 255.387 108.031 l S
255.387 108.227 m 255.387 108.031 l S
3.812 151.43 m 3.812 151.23 l S
6.352 157.27 m 6.352 145.535 l S
8.895 160.273 m 8.895 142.918 l S
11.434 162.062 m 11.434 140.914 l S
13.977 163.102 m 13.977 139.828 l S
16.52 163.773 m 16.52 139.363 l S
19.059 164.148 m 19.059 138.98 l S
21.602 164.301 m 21.602 138.852 l S
24.141 164.414 m 24.141 138.82 l S
26.684 164.473 m 26.684 138.754 l S
29.223 164.504 m 29.223 138.727 l S
31.766 164.512 m 31.766 138.727 l S
34.305 164.496 m 34.305 138.758 l S
36.848 164.504 m 36.848 138.762 l S
39.387 164.531 m 39.387 138.781 l S
41.93 164.516 m 41.93 138.781 l S
44.469 164.508 m 44.469 138.789 l S
47.012 164.547 m 47.012 138.793 l S
49.555 164.508 m 49.555 138.766 l S
52.094 164.449 m 52.094 138.773 l S
54.637 164.449 m 54.637 138.789 l S
57.176 164.434 m 57.176 138.797 l S
59.719 164.383 m 59.719 138.812 l S
62.258 164.387 m 62.258 138.859 l S
64.801 164.391 m 64.801 138.906 l S
67.34 164.348 m 67.34 138.941 l S
69.883 164.312 m 69.883 138.941 l S
72.422 164.348 m 72.422 138.895 l S
74.965 164.348 m 74.965 138.914 l S
77.508 164.312 m 77.508 138.922 l S
80.047 164.293 m 80.047 138.957 l S
82.59 164.27 m 82.59 138.945 l S
85.129 164.25 m 85.129 138.984 l S
87.672 164.242 m 87.672 139 l S
90.211 164.223 m 90.211 139.012 l S
92.754 164.25 m 92.754 138.988 l S
95.293 164.227 m 95.293 138.98 l S
97.836 164.258 m 97.836 138.988 l S
100.375 164.254 m 100.375 138.977 l S
102.918 164.266 m 102.918 138.926 l S
105.457 164.25 m 105.457 138.969 l S
108 164.277 m 108 138.934 l S
110.543 164.297 m 110.543 138.926 l S
113.082 164.285 m 113.082 138.957 l S
115.625 164.242 m 115.625 138.934 l S
118.164 164.223 m 118.164 138.965 l S
120.707 164.191 m 120.707 138.965 l S
123.246 164.195 m 123.246 138.969 l S
125.789 164.16 m 125.789 138.992 l S
128.328 164.141 m 128.328 139.004 l S
130.871 164.109 m 130.871 139.047 l S
133.41 164.133 m 133.41 139.086 l S
135.953 164.109 m 135.953 139.098 l S
138.492 164.145 m 138.492 139.121 l S
141.035 164.086 m 141.035 139.125 l S
143.578 164.109 m 143.578 139.152 l S
146.117 164.109 m 146.117 139.148 l S
148.66 164.125 m 148.66 139.129 l S
151.199 164.07 m 151.199 139.141 l S
153.742 164.07 m 153.742 139.156 l S
156.281 164.094 m 156.281 139.176 l S
158.824 164.062 m 158.824 139.133 l S
161.363 164.105 m 161.363 139.137 l S
163.906 164.086 m 163.906 139.125 l S
166.445 164.059 m 166.445 139.152 l S
168.988 163.938 m 168.988 139.301 l S
171.531 161.523 m 171.531 141.238 l S
174.07 159.195 m 174.07 144.137 l S
176.613 156.695 m 176.613 145.555 l S
179.152 155.922 m 179.152 146.723 l S
181.695 155.355 m 181.695 147.301 l S
184.234 154.836 m 184.234 147.852 l S
186.777 154.004 m 186.777 148.52 l S
189.316 153.359 m 189.316 149.27 l S
191.859 152.98 m 191.859 149.801 l S
194.398 152.668 m 194.398 150.027 l S
196.941 152.324 m 196.941 150.371 l S
199.48 152.152 m 199.48 150.586 l S
202.023 151.902 m 202.023 150.715 l S
204.566 151.754 m 204.566 150.879 l S
207.105 151.656 m 207.105 150.969 l S
209.648 151.586 m 209.648 151.066 l S
212.188 151.562 m 212.188 151.07 l S
214.73 151.566 m 214.73 151.129 l S
217.27 151.445 m 217.27 151.176 l S
219.812 151.453 m 219.812 151.184 l S
222.352 151.43 m 222.352 151.23 l S
224.895 151.426 m 224.895 151.23 l S
227.434 151.426 m 227.434 151.23 l S
229.977 151.426 m 229.977 151.23 l S
232.52 151.426 m 232.52 151.23 l S
235.059 151.426 m 235.059 151.23 l S
237.602 151.426 m 237.602 151.23 l S
240.141 151.426 m 240.141 151.23 l S
242.684 151.426 m 242.684 151.23 l S
245.223 151.426 m 245.223 151.23 l S
247.766 151.426 m 247.766 151.23 l S
250.305 151.426 m 250.305 151.23 l S
252.848 151.426 m 252.848 151.23 l S
255.387 151.426 m 255.387 151.23 l S
255.387 151.426 m 255.387 151.23 l S
Q Q
showpage
%%Trailer
end
%%EOF
