%!PS-Adobe-3.0 EPSF-3.0
%%Creator: cairo 1.16.0 (https://cairographics.org)
%%CreationDate: Wed May 15 11:57:17 2024
%%Pages: 1
%%DocumentData: Clean7Bit
%%LanguageLevel: 2
%%Creator: Wolfram Mathematica
%%BoundingBox: 2 2 257 160
%%EndComments
%%BeginProlog
50 dict begin
/q { gsave } bind def
/Q { grestore } bind def
/cm { 6 array astore concat } bind def
/w { setlinewidth } bind def
/J { setlinecap } bind def
/j { setlinejoin } bind def
/M { setmiterlimit } bind def
/d { setdash } bind def
/m { moveto } bind def
/l { lineto } bind def
/c { curveto } bind def
/h { closepath } bind def
/re { exch dup neg 3 1 roll 5 3 roll moveto 0 rlineto
      0 exch rlineto 0 rlineto closepath } bind def
/S { stroke } bind def
/f { fill } bind def
/f* { eofill } bind def
/n { newpath } bind def
/W { clip } bind def
/W* { eoclip } bind def
/BT { } bind def
/ET { } bind def
/BDC { mark 3 1 roll /BDC pdfmark } bind def
/EMC { mark /EMC pdfmark } bind def
/cairo_store_point { /cairo_point_y exch def /cairo_point_x exch def } def
/Tj { show currentpoint cairo_store_point } bind def
/TJ {
  {
    dup
    type /stringtype eq
    { show } { -0.001 mul 0 cairo_font_matrix dtransform rmoveto } ifelse
  } forall
  currentpoint cairo_store_point
} bind def
/cairo_selectfont { cairo_font_matrix aload pop pop pop 0 0 6 array astore
    cairo_font exch selectfont cairo_point_x cairo_point_y moveto } bind def
/Tf { pop /cairo_font exch def /cairo_font_matrix where
      { pop cairo_selectfont } if } bind def
/Td { matrix translate cairo_font_matrix matrix concatmatrix dup
      /cairo_font_matrix exch def dup 4 get exch 5 get cairo_store_point
      /cairo_font where { pop cairo_selectfont } if } bind def
/Tm { 2 copy 8 2 roll 6 array astore /cairo_font_matrix exch def
      cairo_store_point /cairo_font where { pop cairo_selectfont } if } bind def
/g { setgray } bind def
/rg { setrgbcolor } bind def
/d1 { setcachedevice } bind def
/cairo_data_source {
  CairoDataIndex CairoData length lt
    { CairoData CairoDataIndex get /CairoDataIndex CairoDataIndex 1 add def }
    { () } ifelse
} def
/cairo_flush_ascii85_file { cairo_ascii85_file status { cairo_ascii85_file flushfile } if } def
/cairo_image { image cairo_flush_ascii85_file } def
/cairo_imagemask { imagemask cairo_flush_ascii85_file } def
%%EndProlog
%%BeginSetup
%%EndSetup
%%Page: 1 1
%%BeginPageSetup
%%PageBoundingBox: 2 2 257 160
%%EndPageSetup
q 2 2 255 158 rectclip
1 0 0 -1 0 173 cm q
0 g
1.796436 w
0 J
0 j
[] 0.0 d
3.25 M 3.812 21.656 m 3.812 21.461 l S
6.352 21.844 m 6.352 21.227 l S
8.895 23.672 m 8.895 19.238 l S
11.434 25.938 m 11.434 17.277 l S
13.977 27.5 m 13.977 15.617 l S
16.52 28.41 m 16.52 14.793 l S
19.059 28.73 m 19.059 14.297 l S
21.602 28.961 m 21.602 14.23 l S
24.141 29.195 m 24.141 14.086 l S
26.684 29.145 m 26.684 14.012 l S
29.223 29.309 m 29.223 13.898 l S
31.766 29.34 m 31.766 13.891 l S
34.305 29.375 m 34.305 13.844 l S
36.848 29.418 m 36.848 13.785 l S
39.387 29.477 m 39.387 13.781 l S
41.93 29.559 m 41.93 13.762 l S
44.469 29.582 m 44.469 13.738 l S
47.012 29.621 m 47.012 13.66 l S
49.555 29.625 m 49.555 13.648 l S
52.094 29.68 m 52.094 13.543 l S
54.637 29.645 m 54.637 13.559 l S
57.176 29.695 m 57.176 13.562 l S
59.719 29.73 m 59.719 13.492 l S
62.258 29.758 m 62.258 13.508 l S
64.801 29.773 m 64.801 13.426 l S
67.34 29.711 m 67.34 13.484 l S
69.883 29.719 m 69.883 13.504 l S
72.422 29.668 m 72.422 13.504 l S
74.965 29.695 m 74.965 13.504 l S
77.508 29.652 m 77.508 13.543 l S
80.047 29.719 m 80.047 13.527 l S
82.59 29.621 m 82.59 13.531 l S
85.129 29.656 m 85.129 13.582 l S
87.672 29.645 m 87.672 13.539 l S
90.211 29.68 m 90.211 13.527 l S
92.754 29.656 m 92.754 13.574 l S
95.293 29.645 m 95.293 13.508 l S
97.836 29.707 m 97.836 13.562 l S
100.375 29.684 m 100.375 13.508 l S
102.918 29.68 m 102.918 13.547 l S
105.457 29.648 m 105.457 13.547 l S
108 29.691 m 108 13.523 l S
110.543 29.66 m 110.543 13.539 l S
113.082 29.656 m 113.082 13.555 l S
115.625 29.645 m 115.625 13.543 l S
118.164 29.637 m 118.164 13.594 l S
120.707 29.648 m 120.707 13.59 l S
123.246 29.637 m 123.246 13.559 l S
125.789 29.633 m 125.789 13.559 l S
128.328 29.695 m 128.328 13.543 l S
130.871 29.664 m 130.871 13.523 l S
133.41 29.664 m 133.41 13.52 l S
135.953 29.711 m 135.953 13.477 l S
138.492 29.676 m 138.492 13.516 l S
141.035 29.758 m 141.035 13.477 l S
143.578 29.703 m 143.578 13.496 l S
146.117 29.727 m 146.117 13.477 l S
148.66 29.758 m 148.66 13.426 l S
151.199 29.762 m 151.199 13.402 l S
153.742 29.758 m 153.742 13.359 l S
156.281 29.746 m 156.281 13.41 l S
158.824 29.746 m 158.824 13.449 l S
161.363 29.758 m 161.363 13.449 l S
163.906 29.719 m 163.906 13.477 l S
166.445 29.719 m 166.445 13.449 l S
168.988 29.691 m 168.988 13.488 l S
171.531 29.691 m 171.531 13.488 l S
174.07 29.715 m 174.07 13.484 l S
176.613 29.699 m 176.613 13.48 l S
179.152 29.602 m 179.152 13.59 l S
181.695 28.973 m 181.695 14.156 l S
184.234 27.742 m 184.234 15.535 l S
186.777 26.664 m 186.777 16.535 l S
189.316 25.711 m 189.316 17.473 l S
191.859 24.91 m 191.859 18.27 l S
194.398 24.207 m 194.398 18.961 l S
196.941 23.613 m 196.941 19.527 l S
199.48 23.348 m 199.48 19.828 l S
202.023 22.961 m 202.023 20.152 l S
204.566 22.629 m 204.566 20.5 l S
207.105 22.316 m 207.105 20.793 l S
209.648 22.129 m 209.648 20.984 l S
212.188 21.965 m 212.188 21.148 l S
214.73 21.859 m 214.73 21.273 l S
217.27 21.773 m 217.27 21.332 l S
219.812 21.723 m 219.812 21.406 l S
222.352 21.672 m 222.352 21.453 l S
224.895 21.656 m 224.895 21.461 l S
227.434 21.656 m 227.434 21.461 l S
229.977 21.656 m 229.977 21.461 l S
232.52 21.656 m 232.52 21.461 l S
235.059 21.656 m 235.059 21.461 l S
237.602 21.656 m 237.602 21.461 l S
240.141 21.656 m 240.141 21.461 l S
242.684 21.656 m 242.684 21.461 l S
245.223 21.656 m 245.223 21.461 l S
247.766 21.656 m 247.766 21.461 l S
250.305 21.656 m 250.305 21.461 l S
252.848 21.656 m 252.848 21.461 l S
255.387 21.656 m 255.387 21.461 l S
255.387 21.656 m 255.387 21.461 l S
3.812 64.855 m 3.812 64.66 l S
6.352 65.133 m 6.352 64.285 l S
8.895 67.52 m 8.895 61.938 l S
11.434 69.512 m 11.434 60.262 l S
13.977 70.324 m 13.977 59 l S
16.52 70.617 m 16.52 58.68 l S
19.059 70.676 m 19.059 58.762 l S
21.602 70.582 m 21.602 58.809 l S
24.141 70.504 m 24.141 58.785 l S
26.684 70.512 m 26.684 58.676 l S
29.223 70.594 m 29.223 58.52 l S
31.766 70.668 m 31.766 58.461 l S
34.305 70.719 m 34.305 58.363 l S
36.848 70.789 m 36.848 58.336 l S
39.387 70.875 m 39.387 58.16 l S
41.93 70.867 m 41.93 58.215 l S
44.469 71.023 m 44.469 58.059 l S
47.012 71.031 m 47.012 58.008 l S
49.555 71.078 m 49.555 57.969 l S
52.094 71.055 m 52.094 57.922 l S
54.637 71.133 m 54.637 57.828 l S
57.176 71.188 m 57.176 57.828 l S
59.719 71.191 m 59.719 57.77 l S
62.258 71.211 m 62.258 57.758 l S
64.801 71.234 m 64.801 57.754 l S
67.34 71.195 m 67.34 57.773 l S
69.883 71.16 m 69.883 57.738 l S
72.422 71.188 m 72.422 57.781 l S
74.965 71.234 m 74.965 57.766 l S
77.508 71.188 m 77.508 57.824 l S
80.047 71.207 m 80.047 57.824 l S
82.59 71.203 m 82.59 57.805 l S
85.129 71.199 m 85.129 57.742 l S
87.672 71.156 m 87.672 57.824 l S
90.211 71.16 m 90.211 57.824 l S
92.754 71.137 m 92.754 57.824 l S
95.293 71.195 m 95.293 57.789 l S
97.836 71.199 m 97.836 57.801 l S
100.375 71.184 m 100.375 57.836 l S
102.918 71.172 m 102.918 57.801 l S
105.457 71.168 m 105.457 57.824 l S
108 71.172 m 108 57.773 l S
110.543 71.152 m 110.543 57.832 l S
113.082 71.176 m 113.082 57.766 l S
115.625 71.18 m 115.625 57.82 l S
118.164 71.117 m 118.164 57.848 l S
120.707 71.191 m 120.707 57.852 l S
123.246 71.152 m 123.246 57.812 l S
125.789 71.148 m 125.789 57.812 l S
128.328 71.172 m 128.328 57.734 l S
130.871 71.203 m 130.871 57.773 l S
133.41 71.184 m 133.41 57.793 l S
135.953 71.199 m 135.953 57.836 l S
138.492 71.184 m 138.492 57.789 l S
141.035 71.176 m 141.035 57.793 l S
143.578 71.203 m 143.578 57.707 l S
146.117 71.266 m 146.117 57.73 l S
148.66 71.242 m 148.66 57.73 l S
151.199 71.242 m 151.199 57.691 l S
153.742 71.281 m 153.742 57.676 l S
156.281 71.234 m 156.281 57.707 l S
158.824 71.25 m 158.824 57.777 l S
161.363 71.285 m 161.363 57.754 l S
163.906 71.273 m 163.906 57.77 l S
166.445 71.219 m 166.445 57.754 l S
168.988 71.258 m 168.988 57.723 l S
171.531 71.199 m 171.531 57.793 l S
174.07 71.258 m 174.07 57.773 l S
176.613 71.195 m 176.613 57.789 l S
179.152 71.082 m 179.152 57.816 l S
181.695 70.359 m 181.695 58.68 l S
184.234 69.746 m 184.234 59.867 l S
186.777 69.809 m 186.777 59.82 l S
189.316 69.418 m 189.316 60.199 l S
191.859 68.824 m 191.859 60.773 l S
194.398 68.152 m 194.398 61.426 l S
196.941 67.457 m 196.941 62.074 l S
199.48 66.922 m 199.48 62.656 l S
202.023 66.461 m 202.023 63.117 l S
204.566 66.105 m 204.566 63.438 l S
207.105 65.766 m 207.105 63.758 l S
209.648 65.535 m 209.648 63.996 l S
212.188 65.332 m 212.188 64.164 l S
214.73 65.176 m 214.73 64.305 l S
217.27 65.094 m 217.27 64.465 l S
219.812 64.98 m 219.812 64.559 l S
222.352 64.898 m 222.352 64.594 l S
224.895 64.875 m 224.895 64.629 l S
227.434 64.855 m 227.434 64.66 l S
229.977 64.855 m 229.977 64.66 l S
232.52 64.855 m 232.52 64.66 l S
235.059 64.855 m 235.059 64.66 l S
237.602 64.855 m 237.602 64.66 l S
240.141 64.855 m 240.141 64.66 l S
242.684 64.855 m 242.684 64.66 l S
245.223 64.855 m 245.223 64.66 l S
247.766 64.855 m 247.766 64.66 l S
250.305 64.855 m 250.305 64.66 l S
252.848 64.855 m 252.848 64.66 l S
255.387 64.855 m 255.387 64.66 l S
255.387 64.855 m 255.387 64.66 l S
3.812 108.055 m 3.812 107.859 l S
6.352 108.34 m 6.352 107.617 l S
8.895 110.824 m 8.895 105.363 l S
11.434 113.219 m 11.434 102.477 l S
13.977 115.375 m 13.977 100.445 l S
16.52 115.836 m 16.52 100.027 l S
19.059 115.805 m 19.059 100.039 l S
21.602 115.875 m 21.602 100.156 l S
24.141 115.773 m 24.141 100.121 l S
26.684 115.816 m 26.684 100.113 l S
29.223 115.809 m 29.223 100.047 l S
31.766 115.844 m 31.766 100.012 l S
34.305 115.809 m 34.305 100.012 l S
36.848 115.906 m 36.848 99.934 l S
39.387 115.93 m 39.387 99.957 l S
41.93 115.926 m 41.93 99.934 l S
44.469 116.012 m 44.469 99.73 l S
47.012 116.035 m 47.012 99.82 l S
49.555 116.117 m 49.555 99.797 l S
52.094 116.027 m 52.094 99.754 l S
54.637 116.016 m 54.637 99.746 l S
57.176 116.105 m 57.176 99.719 l S
59.719 116.086 m 59.719 99.684 l S
62.258 116.02 m 62.258 99.645 l S
64.801 116.035 m 64.801 99.727 l S
67.34 116.047 m 67.34 99.703 l S
69.883 116.043 m 69.883 99.703 l S
72.422 116.086 m 72.422 99.707 l S
74.965 116.027 m 74.965 99.777 l S
77.508 116.035 m 77.508 99.77 l S
80.047 115.961 m 80.047 99.809 l S
82.59 116.031 m 82.59 99.797 l S
85.129 116.074 m 85.129 99.746 l S
87.672 116.055 m 87.672 99.738 l S
90.211 116.047 m 90.211 99.762 l S
92.754 116.027 m 92.754 99.73 l S
95.293 116.078 m 95.293 99.75 l S
97.836 116.07 m 97.836 99.719 l S
100.375 116.082 m 100.375 99.785 l S
102.918 116.039 m 102.918 99.773 l S
105.457 116.074 m 105.457 99.684 l S
108 116.051 m 108 99.684 l S
110.543 116.113 m 110.543 99.762 l S
113.082 116.074 m 113.082 99.738 l S
115.625 116.102 m 115.625 99.773 l S
118.164 116.02 m 118.164 99.816 l S
120.707 116.086 m 120.707 99.762 l S
123.246 116.062 m 123.246 99.656 l S
125.789 116.078 m 125.789 99.664 l S
128.328 116.094 m 128.328 99.605 l S
130.871 116.082 m 130.871 99.676 l S
133.41 116.098 m 133.41 99.684 l S
135.953 116.105 m 135.953 99.684 l S
138.492 116.141 m 138.492 99.672 l S
141.035 116.125 m 141.035 99.609 l S
143.578 116.172 m 143.578 99.629 l S
146.117 116.129 m 146.117 99.566 l S
148.66 116.156 m 148.66 99.539 l S
151.199 116.18 m 151.199 99.586 l S
153.742 116.117 m 153.742 99.594 l S
156.281 116.148 m 156.281 99.637 l S
158.824 116.098 m 158.824 99.594 l S
161.363 116.055 m 161.363 99.668 l S
163.906 116.086 m 163.906 99.652 l S
166.445 116.105 m 166.445 99.656 l S
168.988 116.066 m 168.988 99.621 l S
171.531 116.141 m 171.531 99.668 l S
174.07 116.133 m 174.07 99.656 l S
176.613 116.141 m 176.613 99.629 l S
179.152 116.109 m 179.152 99.723 l S
181.695 115.824 m 181.695 99.969 l S
184.234 115.121 m 184.234 100.762 l S
186.777 114.156 m 186.777 101.656 l S
189.316 113.258 m 189.316 102.598 l S
191.859 112.395 m 191.859 103.523 l S
194.398 111.574 m 194.398 104.309 l S
196.941 110.637 m 196.941 105.285 l S
199.48 110 m 199.48 105.902 l S
202.023 109.477 m 202.023 106.449 l S
204.566 109.156 m 204.566 106.75 l S
207.105 108.902 m 207.105 107 l S
209.648 108.648 m 209.648 107.273 l S
212.188 108.445 m 212.188 107.41 l S
214.73 108.328 m 214.73 107.559 l S
217.27 108.262 m 217.27 107.707 l S
219.812 108.164 m 219.812 107.758 l S
222.352 108.078 m 222.352 107.805 l S
224.895 108.059 m 224.895 107.844 l S
227.434 108.055 m 227.434 107.859 l S
229.977 108.055 m 229.977 107.859 l S
232.52 108.055 m 232.52 107.859 l S
235.059 108.055 m 235.059 107.859 l S
237.602 108.055 m 237.602 107.859 l S
240.141 108.055 m 240.141 107.859 l S
242.684 108.055 m 242.684 107.859 l S
245.223 108.055 m 245.223 107.859 l S
247.766 108.055 m 247.766 107.859 l S
250.305 108.055 m 250.305 107.859 l S
252.848 108.055 m 252.848 107.859 l S
255.387 108.055 m 255.387 107.859 l S
255.387 108.055 m 255.387 107.859 l S
3.812 151.258 m 3.812 151.059 l S
6.352 152.188 m 6.352 149.973 l S
8.895 157.82 m 8.895 144.164 l S
11.434 163.266 m 11.434 138.977 l S
13.977 167.363 m 13.977 135.246 l S
16.52 168.523 m 16.52 134.098 l S
19.059 168.793 m 19.059 133.574 l S
21.602 169 m 21.602 133.219 l S
24.141 169.379 m 24.141 132.992 l S
26.684 169.66 m 26.684 132.828 l S
29.223 169.797 m 29.223 132.598 l S
31.766 169.973 m 31.766 132.531 l S
34.305 170.047 m 34.305 132.484 l S
36.848 170.125 m 36.848 132.312 l S
39.387 170.211 m 39.387 132.316 l S
41.93 170.289 m 41.93 132.188 l S
44.469 170.418 m 44.469 132.145 l S
47.012 170.449 m 47.012 132.02 l S
49.555 170.578 m 49.555 131.926 l S
52.094 170.582 m 52.094 131.848 l S
54.637 170.617 m 54.637 131.801 l S
57.176 170.703 m 57.176 131.766 l S
59.719 170.715 m 59.719 131.68 l S
62.258 170.711 m 62.258 131.652 l S
64.801 170.672 m 64.801 131.633 l S
67.34 170.645 m 67.34 131.656 l S
69.883 170.699 m 69.883 131.742 l S
72.422 170.676 m 72.422 131.727 l S
74.965 170.656 m 74.965 131.742 l S
77.508 170.617 m 77.508 131.758 l S
80.047 170.648 m 80.047 131.781 l S
82.59 170.613 m 82.59 131.816 l S
85.129 170.641 m 85.129 131.855 l S
87.672 170.629 m 87.672 131.863 l S
90.211 170.648 m 90.211 131.891 l S
92.754 170.57 m 92.754 131.836 l S
95.293 170.613 m 95.293 131.844 l S
97.836 170.688 m 97.836 131.898 l S
100.375 170.652 m 100.375 131.828 l S
102.918 170.613 m 102.918 131.77 l S
105.457 170.664 m 105.457 131.84 l S
108 170.641 m 108 131.832 l S
110.543 170.625 m 110.543 131.77 l S
113.082 170.691 m 113.082 131.844 l S
115.625 170.629 m 115.625 131.875 l S
118.164 170.574 m 118.164 131.91 l S
120.707 170.656 m 120.707 131.777 l S
123.246 170.668 m 123.246 131.875 l S
125.789 170.641 m 125.789 131.863 l S
128.328 170.723 m 128.328 131.84 l S
130.871 170.719 m 130.871 131.891 l S
133.41 170.656 m 133.41 131.863 l S
135.953 170.703 m 135.953 131.82 l S
138.492 170.676 m 138.492 131.809 l S
141.035 170.723 m 141.035 131.793 l S
143.578 170.707 m 143.578 131.691 l S
146.117 170.762 m 146.117 131.672 l S
148.66 170.797 m 148.66 131.652 l S
151.199 170.816 m 151.199 131.605 l S
153.742 170.836 m 153.742 131.562 l S
156.281 170.785 m 156.281 131.625 l S
158.824 170.762 m 158.824 131.641 l S
161.363 170.793 m 161.363 131.668 l S
163.906 170.766 m 163.906 131.707 l S
166.445 170.719 m 166.445 131.711 l S
168.988 170.707 m 168.988 131.676 l S
171.531 170.723 m 171.531 131.703 l S
174.07 170.711 m 174.07 131.723 l S
176.613 170.719 m 176.613 131.773 l S
179.152 170.711 m 179.152 131.891 l S
181.695 169.121 m 181.695 133.332 l S
184.234 166.293 m 184.234 136.48 l S
186.777 164.617 m 186.777 137.93 l S
189.316 163.16 m 189.316 139.484 l S
191.859 161.512 m 191.859 140.812 l S
194.398 160.152 m 194.398 142.25 l S
196.941 158.504 m 196.941 143.781 l S
199.48 156.957 m 199.48 145.379 l S
202.023 155.742 m 202.023 146.684 l S
204.566 154.941 m 204.566 147.438 l S
207.105 154.074 m 207.105 148.305 l S
209.648 153.426 m 209.648 148.984 l S
212.188 152.762 m 212.188 149.523 l S
214.73 152.371 m 214.73 149.852 l S
217.27 152.059 m 217.27 150.328 l S
219.812 151.773 m 219.812 150.559 l S
222.352 151.582 m 222.352 150.707 l S
224.895 151.461 m 224.895 150.844 l S
227.434 151.387 m 227.434 150.957 l S
229.977 151.348 m 229.977 151.004 l S
232.52 151.266 m 232.52 151.016 l S
235.059 151.258 m 235.059 151.059 l S
237.602 151.258 m 237.602 151.059 l S
240.141 151.258 m 240.141 151.059 l S
242.684 151.258 m 242.684 151.059 l S
245.223 151.258 m 245.223 151.059 l S
247.766 151.258 m 247.766 151.059 l S
250.305 151.258 m 250.305 151.059 l S
252.848 151.258 m 252.848 151.059 l S
255.387 151.258 m 255.387 151.059 l S
255.387 151.258 m 255.387 151.059 l S
Q Q
showpage
%%Trailer
end
%%EOF
