%!PS-Adobe-3.0 EPSF-3.0
%%Creator: cairo 1.16.0 (https://cairographics.org)
%%CreationDate: Wed May 15 11:57:17 2024
%%Pages: 1
%%DocumentData: Clean7Bit
%%LanguageLevel: 2
%%Creator: Wolfram Mathematica
%%BoundingBox: 2 8 257 168
%%EndComments
%%BeginProlog
50 dict begin
/q { gsave } bind def
/Q { grestore } bind def
/cm { 6 array astore concat } bind def
/w { setlinewidth } bind def
/J { setlinecap } bind def
/j { setlinejoin } bind def
/M { setmiterlimit } bind def
/d { setdash } bind def
/m { moveto } bind def
/l { lineto } bind def
/c { curveto } bind def
/h { closepath } bind def
/re { exch dup neg 3 1 roll 5 3 roll moveto 0 rlineto
      0 exch rlineto 0 rlineto closepath } bind def
/S { stroke } bind def
/f { fill } bind def
/f* { eofill } bind def
/n { newpath } bind def
/W { clip } bind def
/W* { eoclip } bind def
/BT { } bind def
/ET { } bind def
/BDC { mark 3 1 roll /BDC pdfmark } bind def
/EMC { mark /EMC pdfmark } bind def
/cairo_store_point { /cairo_point_y exch def /cairo_point_x exch def } def
/Tj { show currentpoint cairo_store_point } bind def
/TJ {
  {
    dup
    type /stringtype eq
    { show } { -0.001 mul 0 cairo_font_matrix dtransform rmoveto } ifelse
  } forall
  currentpoint cairo_store_point
} bind def
/cairo_selectfont { cairo_font_matrix aload pop pop pop 0 0 6 array astore
    cairo_font exch selectfont cairo_point_x cairo_point_y moveto } bind def
/Tf { pop /cairo_font exch def /cairo_font_matrix where
      { pop cairo_selectfont } if } bind def
/Td { matrix translate cairo_font_matrix matrix concatmatrix dup
      /cairo_font_matrix exch def dup 4 get exch 5 get cairo_store_point
      /cairo_font where { pop cairo_selectfont } if } bind def
/Tm { 2 copy 8 2 roll 6 array astore /cairo_font_matrix exch def
      cairo_store_point /cairo_font where { pop cairo_selectfont } if } bind def
/g { setgray } bind def
/rg { setrgbcolor } bind def
/d1 { setcachedevice } bind def
/cairo_data_source {
  CairoDataIndex CairoData length lt
    { CairoData CairoDataIndex get /CairoDataIndex CairoDataIndex 1 add def }
    { () } ifelse
} def
/cairo_flush_ascii85_file { cairo_ascii85_file status { cairo_ascii85_file flushfile } if } def
/cairo_image { image cairo_flush_ascii85_file } def
/cairo_imagemask { imagemask cairo_flush_ascii85_file } def
%%EndProlog
%%BeginSetup
%%EndSetup
%%Page: 1 1
%%BeginPageSetup
%%PageBoundingBox: 2 8 257 168
%%EndPageSetup
q 2 8 255 160 rectclip
1 0 0 -1 0 173 cm q
0 g
1.796436 w
0 J
0 j
[] 0.0 d
3.25 M 3.812 21.797 m 3.812 21.57 l S
6.352 29.047 m 6.352 13.945 l S
8.895 33.926 m 8.895 9.414 l S
11.434 35.875 m 11.434 7.375 l S
13.977 36.719 m 13.977 6.535 l S
16.52 37.086 m 16.52 6.129 l S
19.059 37.344 m 19.059 5.887 l S
21.602 37.41 m 21.602 5.801 l S
24.141 37.477 m 24.141 5.77 l S
26.684 37.469 m 26.684 5.746 l S
29.223 37.477 m 29.223 5.773 l S
31.766 37.488 m 31.766 5.754 l S
34.305 37.5 m 34.305 5.742 l S
36.848 37.5 m 36.848 5.75 l S
39.387 37.5 m 39.387 5.762 l S
41.93 37.461 m 41.93 5.773 l S
44.469 37.516 m 44.469 5.723 l S
47.012 37.52 m 47.012 5.715 l S
49.555 37.516 m 49.555 5.73 l S
52.094 37.527 m 52.094 5.715 l S
54.637 37.547 m 54.637 5.707 l S
57.176 37.551 m 57.176 5.703 l S
59.719 37.559 m 59.719 5.707 l S
62.258 37.555 m 62.258 5.695 l S
64.801 37.578 m 64.801 5.68 l S
67.34 37.574 m 67.34 5.68 l S
69.883 37.551 m 69.883 5.707 l S
72.422 37.551 m 72.422 5.691 l S
74.965 37.57 m 74.965 5.668 l S
77.508 37.57 m 77.508 5.668 l S
80.047 37.57 m 80.047 5.672 l S
82.59 37.602 m 82.59 5.629 l S
85.129 37.656 m 85.129 5.598 l S
87.672 37.648 m 87.672 5.613 l S
90.211 37.621 m 90.211 5.609 l S
92.754 37.625 m 92.754 5.598 l S
95.293 37.637 m 95.293 5.594 l S
97.836 37.629 m 97.836 5.602 l S
100.375 37.617 m 100.375 5.617 l S
102.918 37.617 m 102.918 5.609 l S
105.457 37.617 m 105.457 5.613 l S
108 37.613 m 108 5.629 l S
110.543 37.609 m 110.543 5.621 l S
113.082 37.621 m 113.082 5.609 l S
115.625 37.602 m 115.625 5.633 l S
118.164 37.602 m 118.164 5.645 l S
120.707 37.605 m 120.707 5.629 l S
123.246 37.645 m 123.246 5.613 l S
125.789 37.605 m 125.789 5.641 l S
128.328 37.574 m 128.328 5.668 l S
130.871 37.641 m 130.871 5.613 l S
133.41 37.645 m 133.41 5.602 l S
135.953 37.641 m 135.953 5.598 l S
138.492 37.688 m 138.492 5.562 l S
141.035 37.664 m 141.035 5.578 l S
143.578 37.656 m 143.578 5.582 l S
146.117 37.66 m 146.117 5.562 l S
148.66 37.668 m 148.66 5.555 l S
151.199 37.645 m 151.199 5.535 l S
153.742 37.117 m 153.742 6.086 l S
156.281 32.949 m 156.281 10.512 l S
158.824 29.488 m 158.824 13.754 l S
161.363 27.008 m 161.363 16.426 l S
163.906 25.648 m 163.906 17.562 l S
166.445 24.672 m 166.445 18.715 l S
168.988 23.887 m 168.988 19.488 l S
171.531 23.348 m 171.531 20.078 l S
174.07 22.875 m 174.07 20.543 l S
176.613 22.508 m 176.613 20.91 l S
179.152 22.234 m 179.152 21.145 l S
181.695 22.121 m 181.695 21.285 l S
184.234 22.02 m 184.234 21.398 l S
186.777 21.918 m 186.777 21.488 l S
189.316 21.863 m 189.316 21.543 l S
191.859 21.82 m 191.859 21.582 l S
194.398 21.797 m 194.398 21.602 l S
196.941 21.797 m 196.941 21.602 l S
199.48 21.797 m 199.48 21.602 l S
202.023 21.797 m 202.023 21.602 l S
204.566 21.797 m 204.566 21.602 l S
207.105 21.797 m 207.105 21.602 l S
209.648 21.797 m 209.648 21.602 l S
212.188 21.797 m 212.188 21.602 l S
214.73 21.797 m 214.73 21.602 l S
217.27 21.797 m 217.27 21.602 l S
219.812 21.797 m 219.812 21.602 l S
222.352 21.797 m 222.352 21.602 l S
224.895 21.797 m 224.895 21.602 l S
227.434 21.797 m 227.434 21.602 l S
229.977 21.797 m 229.977 21.602 l S
232.52 21.797 m 232.52 21.602 l S
235.059 21.797 m 235.059 21.602 l S
237.602 21.797 m 237.602 21.602 l S
240.141 21.797 m 240.141 21.602 l S
242.684 21.797 m 242.684 21.602 l S
245.223 21.797 m 245.223 21.602 l S
247.766 21.797 m 247.766 21.602 l S
250.305 21.797 m 250.305 21.602 l S
252.848 21.797 m 252.848 21.602 l S
255.387 21.797 m 255.387 21.602 l S
255.387 21.797 m 255.387 21.602 l S
3.812 64.996 m 3.812 64.801 l S
6.352 70.738 m 6.352 59.227 l S
8.895 72.441 m 8.895 57.746 l S
11.434 72.457 m 11.434 57.82 l S
13.977 72.516 m 13.977 57.738 l S
16.52 72.605 m 16.52 57.656 l S
19.059 72.738 m 19.059 57.547 l S
21.602 72.734 m 21.602 57.539 l S
24.141 72.703 m 24.141 57.586 l S
26.684 72.711 m 26.684 57.582 l S
29.223 72.652 m 29.223 57.594 l S
31.766 72.66 m 31.766 57.594 l S
34.305 72.684 m 34.305 57.625 l S
36.848 72.633 m 36.848 57.652 l S
39.387 72.633 m 39.387 57.668 l S
41.93 72.605 m 41.93 57.676 l S
44.469 72.609 m 44.469 57.664 l S
47.012 72.617 m 47.012 57.633 l S
49.555 72.609 m 49.555 57.598 l S
52.094 72.605 m 52.094 57.582 l S
54.637 72.59 m 54.637 57.543 l S
57.176 72.586 m 57.176 57.52 l S
59.719 72.586 m 59.719 57.531 l S
62.258 72.578 m 62.258 57.496 l S
64.801 72.594 m 64.801 57.461 l S
67.34 72.641 m 67.34 57.449 l S
69.883 72.617 m 69.883 57.5 l S
72.422 72.605 m 72.422 57.477 l S
74.965 72.582 m 74.965 57.527 l S
77.508 72.586 m 77.508 57.5 l S
80.047 72.637 m 80.047 57.445 l S
82.59 72.66 m 82.59 57.449 l S
85.129 72.711 m 85.129 57.387 l S
87.672 72.766 m 87.672 57.367 l S
90.211 72.797 m 90.211 57.332 l S
92.754 72.828 m 92.754 57.285 l S
95.293 72.84 m 95.293 57.316 l S
97.836 72.84 m 97.836 57.266 l S
100.375 72.879 m 100.375 57.27 l S
102.918 72.898 m 102.918 57.242 l S
105.457 72.852 m 105.457 57.281 l S
108 72.84 m 108 57.297 l S
110.543 72.836 m 110.543 57.297 l S
113.082 72.801 m 113.082 57.305 l S
115.625 72.797 m 115.625 57.332 l S
118.164 72.762 m 118.164 57.32 l S
120.707 72.73 m 120.707 57.359 l S
123.246 72.711 m 123.246 57.387 l S
125.789 72.746 m 125.789 57.379 l S
128.328 72.711 m 128.328 57.406 l S
130.871 72.68 m 130.871 57.414 l S
133.41 72.695 m 133.41 57.426 l S
135.953 72.758 m 135.953 57.395 l S
138.492 72.773 m 138.492 57.332 l S
141.035 72.82 m 141.035 57.305 l S
143.578 72.875 m 143.578 57.312 l S
146.117 72.887 m 146.117 57.254 l S
148.66 72.891 m 148.66 57.266 l S
151.199 72.879 m 151.199 57.254 l S
153.742 72.5 m 153.742 57.695 l S
156.281 71.738 m 156.281 58.418 l S
158.824 71.414 m 158.824 58.672 l S
161.363 70.27 m 161.363 59.582 l S
163.906 69.215 m 163.906 60.508 l S
166.445 68.336 m 166.445 61.613 l S
168.988 67.371 m 168.988 62.418 l S
171.531 66.816 m 171.531 63.059 l S
174.07 66.281 m 174.07 63.516 l S
176.613 65.902 m 176.613 63.977 l S
179.152 65.539 m 179.152 64.207 l S
181.695 65.41 m 181.695 64.402 l S
184.234 65.273 m 184.234 64.504 l S
186.777 65.184 m 186.777 64.609 l S
189.316 65.102 m 189.316 64.703 l S
191.859 65.047 m 191.859 64.742 l S
194.398 65.02 m 194.398 64.77 l S
196.941 64.996 m 196.941 64.793 l S
199.48 64.996 m 199.48 64.801 l S
202.023 64.996 m 202.023 64.801 l S
204.566 64.996 m 204.566 64.801 l S
207.105 64.996 m 207.105 64.801 l S
209.648 64.996 m 209.648 64.801 l S
212.188 64.996 m 212.188 64.801 l S
214.73 64.996 m 214.73 64.801 l S
217.27 64.996 m 217.27 64.801 l S
219.812 64.996 m 219.812 64.801 l S
222.352 64.996 m 222.352 64.801 l S
224.895 64.996 m 224.895 64.801 l S
227.434 64.996 m 227.434 64.801 l S
229.977 64.996 m 229.977 64.801 l S
232.52 64.996 m 232.52 64.801 l S
235.059 64.996 m 235.059 64.801 l S
237.602 64.996 m 237.602 64.801 l S
240.141 64.996 m 240.141 64.801 l S
242.684 64.996 m 242.684 64.801 l S
245.223 64.996 m 245.223 64.801 l S
247.766 64.996 m 247.766 64.801 l S
250.305 64.996 m 250.305 64.801 l S
252.848 64.996 m 252.848 64.801 l S
255.387 64.996 m 255.387 64.801 l S
255.387 64.996 m 255.387 64.801 l S
3.812 108.223 m 3.812 107.891 l S
6.352 118.168 m 6.352 97.738 l S
8.895 122.547 m 8.895 93.441 l S
11.434 124.645 m 11.434 91.242 l S
13.977 125.887 m 13.977 90.121 l S
16.52 126.328 m 16.52 89.66 l S
19.059 126.832 m 19.059 89.188 l S
21.602 126.957 m 21.602 89.004 l S
24.141 127.094 m 24.141 88.836 l S
26.684 127.137 m 26.684 88.777 l S
29.223 127.188 m 29.223 88.766 l S
31.766 127.246 m 31.766 88.715 l S
34.305 127.297 m 34.305 88.727 l S
36.848 127.246 m 36.848 88.707 l S
39.387 127.227 m 39.387 88.727 l S
41.93 127.242 m 41.93 88.742 l S
44.469 127.297 m 44.469 88.68 l S
47.012 127.301 m 47.012 88.668 l S
49.555 127.301 m 49.555 88.645 l S
52.094 127.336 m 52.094 88.633 l S
54.637 127.359 m 54.637 88.602 l S
57.176 127.359 m 57.176 88.605 l S
59.719 127.371 m 59.719 88.613 l S
62.258 127.414 m 62.258 88.559 l S
64.801 127.43 m 64.801 88.547 l S
67.34 127.414 m 67.34 88.539 l S
69.883 127.398 m 69.883 88.582 l S
72.422 127.406 m 72.422 88.586 l S
74.965 127.402 m 74.965 88.566 l S
77.508 127.418 m 77.508 88.551 l S
80.047 127.438 m 80.047 88.527 l S
82.59 127.492 m 82.59 88.469 l S
85.129 127.559 m 85.129 88.445 l S
87.672 127.539 m 87.672 88.445 l S
90.211 127.535 m 90.211 88.457 l S
92.754 127.531 m 92.754 88.449 l S
95.293 127.57 m 95.293 88.445 l S
97.836 127.59 m 97.836 88.41 l S
100.375 127.57 m 100.375 88.426 l S
102.918 127.566 m 102.918 88.445 l S
105.457 127.555 m 105.457 88.426 l S
108 127.531 m 108 88.457 l S
110.543 127.523 m 110.543 88.469 l S
113.082 127.512 m 113.082 88.477 l S
115.625 127.484 m 115.625 88.492 l S
118.164 127.477 m 118.164 88.48 l S
120.707 127.465 m 120.707 88.516 l S
123.246 127.5 m 123.246 88.477 l S
125.789 127.516 m 125.789 88.469 l S
128.328 127.441 m 128.328 88.539 l S
130.871 127.48 m 130.871 88.484 l S
133.41 127.527 m 133.41 88.445 l S
135.953 127.562 m 135.953 88.426 l S
138.492 127.578 m 138.492 88.391 l S
141.035 127.605 m 141.035 88.375 l S
143.578 127.602 m 143.578 88.383 l S
146.117 127.617 m 146.117 88.379 l S
148.66 127.637 m 148.66 88.363 l S
151.199 127.582 m 151.199 88.398 l S
153.742 126.754 m 153.742 89.336 l S
156.281 121.949 m 156.281 94.273 l S
158.824 118.633 m 158.824 97.684 l S
161.363 116.66 m 161.363 99.609 l S
163.906 115.223 m 163.906 101 l S
166.445 113.867 m 166.445 102.414 l S
168.988 112.52 m 168.988 103.648 l S
171.531 111.547 m 171.531 104.723 l S
174.07 110.613 m 174.07 105.555 l S
176.613 109.938 m 176.613 106.332 l S
179.152 109.285 m 179.152 106.863 l S
181.695 109 m 181.695 107.258 l S
184.234 108.707 m 184.234 107.465 l S
186.777 108.555 m 186.777 107.617 l S
189.316 108.484 m 189.316 107.734 l S
191.859 108.355 m 191.859 107.793 l S
194.398 108.293 m 194.398 107.883 l S
196.941 108.254 m 196.941 107.938 l S
199.48 108.234 m 199.48 107.957 l S
202.023 108.195 m 202.023 108 l S
204.566 108.195 m 204.566 107.996 l S
207.105 108.195 m 207.105 108 l S
209.648 108.195 m 209.648 108 l S
212.188 108.195 m 212.188 108 l S
214.73 108.195 m 214.73 108 l S
217.27 108.195 m 217.27 108 l S
219.812 108.195 m 219.812 108 l S
222.352 108.195 m 222.352 108 l S
224.895 108.195 m 224.895 108 l S
227.434 108.195 m 227.434 108 l S
229.977 108.195 m 229.977 108 l S
232.52 108.195 m 232.52 108 l S
235.059 108.195 m 235.059 108 l S
237.602 108.195 m 237.602 108 l S
240.141 108.195 m 240.141 108 l S
242.684 108.195 m 242.684 108 l S
245.223 108.195 m 245.223 108 l S
247.766 108.195 m 247.766 108 l S
250.305 108.195 m 250.305 108 l S
252.848 108.195 m 252.848 108 l S
255.387 108.195 m 255.387 108 l S
255.387 108.195 m 255.387 108 l S
3.812 151.41 m 3.812 151.148 l S
6.352 156.953 m 6.352 145.496 l S
8.895 160.52 m 8.895 142.488 l S
11.434 162.129 m 11.434 140.398 l S
13.977 163.242 m 13.977 139.578 l S
16.52 163.539 m 16.52 139.16 l S
19.059 163.898 m 19.059 138.98 l S
21.602 164.043 m 21.602 138.84 l S
24.141 164.168 m 24.141 138.758 l S
26.684 164.203 m 26.684 138.703 l S
29.223 164.246 m 29.223 138.672 l S
31.766 164.375 m 31.766 138.52 l S
34.305 164.309 m 34.305 138.609 l S
36.848 164.227 m 36.848 138.645 l S
39.387 164.223 m 39.387 138.676 l S
41.93 164.219 m 41.93 138.688 l S
44.469 164.195 m 44.469 138.688 l S
47.012 164.227 m 47.012 138.668 l S
49.555 164.23 m 49.555 138.648 l S
52.094 164.238 m 52.094 138.641 l S
54.637 164.289 m 54.637 138.629 l S
57.176 164.246 m 57.176 138.605 l S
59.719 164.242 m 59.719 138.641 l S
62.258 164.312 m 62.258 138.582 l S
64.801 164.293 m 64.801 138.621 l S
67.34 164.277 m 67.34 138.586 l S
69.883 164.281 m 69.883 138.598 l S
72.422 164.273 m 72.422 138.57 l S
74.965 164.293 m 74.965 138.621 l S
77.508 164.316 m 77.508 138.574 l S
80.047 164.27 m 80.047 138.582 l S
82.59 164.32 m 82.59 138.57 l S
85.129 164.324 m 85.129 138.59 l S
87.672 164.289 m 87.672 138.586 l S
90.211 164.328 m 90.211 138.59 l S
92.754 164.277 m 92.754 138.594 l S
95.293 164.289 m 95.293 138.633 l S
97.836 164.355 m 97.836 138.594 l S
100.375 164.293 m 100.375 138.617 l S
102.918 164.309 m 102.918 138.629 l S
105.457 164.324 m 105.457 138.609 l S
108 164.312 m 108 138.633 l S
110.543 164.312 m 110.543 138.586 l S
113.082 164.336 m 113.082 138.598 l S
115.625 164.266 m 115.625 138.57 l S
118.164 164.301 m 118.164 138.555 l S
120.707 164.312 m 120.707 138.547 l S
123.246 164.32 m 123.246 138.535 l S
125.789 164.348 m 125.789 138.559 l S
128.328 164.27 m 128.328 138.559 l S
130.871 164.355 m 130.871 138.512 l S
133.41 164.375 m 133.41 138.523 l S
135.953 164.379 m 135.953 138.516 l S
138.492 164.395 m 138.492 138.516 l S
141.035 164.367 m 141.035 138.531 l S
143.578 164.355 m 143.578 138.555 l S
146.117 164.359 m 146.117 138.547 l S
148.66 164.355 m 148.66 138.531 l S
151.199 164.27 m 151.199 138.566 l S
153.742 163.852 m 153.742 139.016 l S
156.281 160.301 m 156.281 142.316 l S
158.824 157.184 m 158.824 145.434 l S
161.363 155.93 m 161.363 146.691 l S
163.906 154.984 m 163.906 147.348 l S
166.445 154.355 m 166.445 148.387 l S
168.988 153.512 m 168.988 149.039 l S
171.531 152.906 m 171.531 149.703 l S
174.07 152.574 m 174.07 150.082 l S
176.613 152.316 m 176.613 150.43 l S
179.152 151.879 m 179.152 150.605 l S
181.695 151.805 m 181.695 150.816 l S
184.234 151.695 m 184.234 150.926 l S
186.777 151.633 m 186.777 151.016 l S
189.316 151.555 m 189.316 151.07 l S
191.859 151.492 m 191.859 151.082 l S
194.398 151.438 m 194.398 151.16 l S
196.941 151.477 m 196.941 151.16 l S
199.48 151.449 m 199.48 151.145 l S
202.023 151.445 m 202.023 151.176 l S
204.566 151.398 m 204.566 151.168 l S
207.105 151.395 m 207.105 151.199 l S
209.648 151.43 m 209.648 151.199 l S
212.188 151.395 m 212.188 151.188 l S
214.73 151.395 m 214.73 151.199 l S
217.27 151.395 m 217.27 151.199 l S
219.812 151.395 m 219.812 151.199 l S
222.352 151.395 m 222.352 151.199 l S
224.895 151.395 m 224.895 151.199 l S
227.434 151.395 m 227.434 151.199 l S
229.977 151.395 m 229.977 151.199 l S
232.52 151.395 m 232.52 151.199 l S
235.059 151.395 m 235.059 151.199 l S
237.602 151.395 m 237.602 151.199 l S
240.141 151.395 m 240.141 151.199 l S
242.684 151.395 m 242.684 151.199 l S
245.223 151.395 m 245.223 151.199 l S
247.766 151.395 m 247.766 151.199 l S
250.305 151.395 m 250.305 151.199 l S
252.848 151.395 m 252.848 151.199 l S
255.387 151.395 m 255.387 151.199 l S
255.387 151.395 m 255.387 151.199 l S
Q Q
showpage
%%Trailer
end
%%EOF
