%!PS-Adobe-3.0 EPSF-3.0
%%Creator: cairo 1.16.0 (https://cairographics.org)
%%CreationDate: Wed May 15 11:57:17 2024
%%Pages: 1
%%DocumentData: Clean7Bit
%%LanguageLevel: 2
%%Creator: Wolfram Mathematica
%%BoundingBox: 2 5 257 168
%%EndComments
%%BeginProlog
50 dict begin
/q { gsave } bind def
/Q { grestore } bind def
/cm { 6 array astore concat } bind def
/w { setlinewidth } bind def
/J { setlinecap } bind def
/j { setlinejoin } bind def
/M { setmiterlimit } bind def
/d { setdash } bind def
/m { moveto } bind def
/l { lineto } bind def
/c { curveto } bind def
/h { closepath } bind def
/re { exch dup neg 3 1 roll 5 3 roll moveto 0 rlineto
      0 exch rlineto 0 rlineto closepath } bind def
/S { stroke } bind def
/f { fill } bind def
/f* { eofill } bind def
/n { newpath } bind def
/W { clip } bind def
/W* { eoclip } bind def
/BT { } bind def
/ET { } bind def
/BDC { mark 3 1 roll /BDC pdfmark } bind def
/EMC { mark /EMC pdfmark } bind def
/cairo_store_point { /cairo_point_y exch def /cairo_point_x exch def } def
/Tj { show currentpoint cairo_store_point } bind def
/TJ {
  {
    dup
    type /stringtype eq
    { show } { -0.001 mul 0 cairo_font_matrix dtransform rmoveto } ifelse
  } forall
  currentpoint cairo_store_point
} bind def
/cairo_selectfont { cairo_font_matrix aload pop pop pop 0 0 6 array astore
    cairo_font exch selectfont cairo_point_x cairo_point_y moveto } bind def
/Tf { pop /cairo_font exch def /cairo_font_matrix where
      { pop cairo_selectfont } if } bind def
/Td { matrix translate cairo_font_matrix matrix concatmatrix dup
      /cairo_font_matrix exch def dup 4 get exch 5 get cairo_store_point
      /cairo_font where { pop cairo_selectfont } if } bind def
/Tm { 2 copy 8 2 roll 6 array astore /cairo_font_matrix exch def
      cairo_store_point /cairo_font where { pop cairo_selectfont } if } bind def
/g { setgray } bind def
/rg { setrgbcolor } bind def
/d1 { setcachedevice } bind def
/cairo_data_source {
  CairoDataIndex CairoData length lt
    { CairoData CairoDataIndex get /CairoDataIndex CairoDataIndex 1 add def }
    { () } ifelse
} def
/cairo_flush_ascii85_file { cairo_ascii85_file status { cairo_ascii85_file flushfile } if } def
/cairo_image { image cairo_flush_ascii85_file } def
/cairo_imagemask { imagemask cairo_flush_ascii85_file } def
%%EndProlog
%%BeginSetup
%%EndSetup
%%Page: 1 1
%%BeginPageSetup
%%PageBoundingBox: 2 5 257 168
%%EndPageSetup
q 2 5 255 163 rectclip
1 0 0 -1 0 173 cm q
0 g
1.796436 w
0 J
0 j
[] 0.0 d
3.25 M 3.812 21.801 m 3.812 21.594 l S
6.352 28.199 m 6.352 14.996 l S
8.895 34.371 m 8.895 8.832 l S
11.434 35.75 m 11.434 7.227 l S
13.977 37.332 m 13.977 6.297 l S
16.52 37.559 m 16.52 5.562 l S
19.059 37.973 m 19.059 5.156 l S
21.602 37.918 m 21.602 5.133 l S
24.141 37.91 m 24.141 5.113 l S
26.684 37.98 m 26.684 5.176 l S
29.223 37.871 m 29.223 5.305 l S
31.766 37.781 m 31.766 5.383 l S
34.305 37.668 m 34.305 5.402 l S
36.848 37.707 m 36.848 5.367 l S
39.387 37.699 m 39.387 5.41 l S
41.93 37.27 m 41.93 5.578 l S
44.469 37.5 m 44.469 5.758 l S
47.012 37.258 m 47.012 5.922 l S
49.555 37.059 m 49.555 6.035 l S
52.094 36.922 m 52.094 6.391 l S
54.637 36.801 m 54.637 6.406 l S
57.176 36.441 m 57.176 6.602 l S
59.719 36.648 m 59.719 6.703 l S
62.258 36.441 m 62.258 6.688 l S
64.801 36.629 m 64.801 6.625 l S
67.34 36.754 m 67.34 6.535 l S
69.883 36.918 m 69.883 6.43 l S
72.422 36.898 m 72.422 6.477 l S
74.965 36.957 m 74.965 6.387 l S
77.508 36.875 m 77.508 6.293 l S
80.047 37.09 m 80.047 6.238 l S
82.59 36.863 m 82.59 6.219 l S
85.129 36.973 m 85.129 6.285 l S
87.672 37.145 m 87.672 6.141 l S
90.211 37.062 m 90.211 6.141 l S
92.754 37.098 m 92.754 6.098 l S
95.293 36.719 m 95.293 6.207 l S
97.836 37.004 m 97.836 6.379 l S
100.375 36.922 m 100.375 6.301 l S
102.918 36.629 m 102.918 6.41 l S
105.457 36.816 m 105.457 6.504 l S
108 36.633 m 108 6.465 l S
110.543 36.789 m 110.543 6.633 l S
113.082 36.707 m 113.082 6.465 l S
115.625 36.695 m 115.625 6.512 l S
118.164 36.66 m 118.164 6.586 l S
120.707 36.586 m 120.707 6.539 l S
123.246 36.605 m 123.246 6.668 l S
125.789 36.625 m 125.789 6.629 l S
128.328 36.586 m 128.328 6.559 l S
130.871 36.723 m 130.871 6.496 l S
133.41 36.797 m 133.41 6.469 l S
135.953 36.711 m 135.953 6.43 l S
138.492 36.75 m 138.492 6.5 l S
141.035 36.816 m 141.035 6.461 l S
143.578 36.734 m 143.578 6.383 l S
146.117 36.797 m 146.117 6.422 l S
148.66 36.855 m 148.66 6.488 l S
151.199 36.871 m 151.199 6.457 l S
153.742 36.645 m 153.742 6.438 l S
156.281 36.918 m 156.281 6.355 l S
158.824 36.863 m 158.824 6.465 l S
161.363 36.914 m 161.363 6.312 l S
163.906 36.684 m 163.906 6.336 l S
166.445 36.961 m 166.445 6.301 l S
168.988 36.867 m 168.988 6.316 l S
171.531 36.973 m 171.531 6.477 l S
174.07 35.707 m 174.07 7.211 l S
176.613 32.156 m 176.613 11.047 l S
179.152 29.191 m 179.152 13.812 l S
181.695 26.781 m 181.695 16.629 l S
184.234 25.738 m 184.234 17.582 l S
186.777 24.934 m 186.777 18.508 l S
189.316 24.062 m 189.316 19.461 l S
191.859 23.445 m 191.859 19.902 l S
194.398 22.988 m 194.398 20.402 l S
196.941 22.672 m 196.941 20.801 l S
199.48 22.414 m 199.48 21.016 l S
202.023 22.207 m 202.023 21.203 l S
204.566 22.012 m 204.566 21.359 l S
207.105 21.938 m 207.105 21.449 l S
209.648 21.887 m 209.648 21.508 l S
212.188 21.828 m 212.188 21.574 l S
214.73 21.801 m 214.73 21.598 l S
217.27 21.801 m 217.27 21.605 l S
219.812 21.801 m 219.812 21.605 l S
222.352 21.801 m 222.352 21.605 l S
224.895 21.801 m 224.895 21.605 l S
227.434 21.801 m 227.434 21.605 l S
229.977 21.801 m 229.977 21.605 l S
232.52 21.801 m 232.52 21.605 l S
235.059 21.801 m 235.059 21.605 l S
237.602 21.801 m 237.602 21.605 l S
240.141 21.801 m 240.141 21.605 l S
242.684 21.801 m 242.684 21.605 l S
245.223 21.801 m 245.223 21.605 l S
247.766 21.801 m 247.766 21.605 l S
250.305 21.801 m 250.305 21.605 l S
252.848 21.801 m 252.848 21.605 l S
255.387 21.801 m 255.387 21.605 l S
255.387 21.801 m 255.387 21.605 l S
3.812 65.023 m 3.812 64.805 l S
6.352 69.906 m 6.352 59.961 l S
8.895 73.48 m 8.895 56.754 l S
11.434 73.676 m 11.434 55.898 l S
13.977 74.812 m 13.977 55.68 l S
16.52 74.535 m 16.52 55.785 l S
19.059 74.711 m 19.059 55.676 l S
21.602 74.621 m 21.602 55.57 l S
24.141 74.688 m 24.141 55.551 l S
26.684 74.723 m 26.684 55.609 l S
29.223 74.68 m 29.223 55.617 l S
31.766 74.711 m 31.766 55.66 l S
34.305 74.625 m 34.305 55.773 l S
36.848 74.625 m 36.848 55.656 l S
39.387 74.574 m 39.387 55.68 l S
41.93 74.539 m 41.93 55.707 l S
44.469 74.488 m 44.469 55.691 l S
47.012 74.566 m 47.012 55.691 l S
49.555 74.77 m 49.555 55.68 l S
52.094 74.504 m 52.094 55.617 l S
54.637 74.656 m 54.637 55.742 l S
57.176 74.535 m 57.176 55.598 l S
59.719 74.594 m 59.719 55.566 l S
62.258 74.719 m 62.258 55.707 l S
64.801 74.418 m 64.801 55.586 l S
67.34 74.594 m 67.34 55.77 l S
69.883 74.48 m 69.883 55.691 l S
72.422 74.543 m 72.422 55.781 l S
74.965 74.496 m 74.965 55.68 l S
77.508 74.562 m 77.508 55.738 l S
80.047 74.551 m 80.047 55.707 l S
82.59 74.488 m 82.59 55.734 l S
85.129 74.469 m 85.129 55.977 l S
87.672 74.441 m 87.672 55.715 l S
90.211 74.535 m 90.211 55.723 l S
92.754 74.492 m 92.754 55.832 l S
95.293 74.309 m 95.293 55.715 l S
97.836 74.527 m 97.836 55.738 l S
100.375 74.539 m 100.375 55.77 l S
102.918 74.453 m 102.918 55.75 l S
105.457 74.508 m 105.457 55.891 l S
108 74.238 m 108 55.703 l S
110.543 74.465 m 110.543 56.008 l S
113.082 74.496 m 113.082 55.73 l S
115.625 74.445 m 115.625 55.684 l S
118.164 74.496 m 118.164 56.059 l S
120.707 74.23 m 120.707 55.684 l S
123.246 74.461 m 123.246 55.828 l S
125.789 74.441 m 125.789 55.711 l S
128.328 74.469 m 128.328 55.711 l S
130.871 74.504 m 130.871 55.824 l S
133.41 74.449 m 133.41 55.695 l S
135.953 74.48 m 135.953 55.699 l S
138.492 74.457 m 138.492 55.973 l S
141.035 74.414 m 141.035 55.711 l S
143.578 74.484 m 143.578 55.758 l S
146.117 74.453 m 146.117 55.773 l S
148.66 74.477 m 148.66 55.727 l S
151.199 74.332 m 151.199 55.789 l S
153.742 74.453 m 153.742 55.699 l S
156.281 74.484 m 156.281 55.797 l S
158.824 74.488 m 158.824 55.777 l S
161.363 74.402 m 161.363 55.773 l S
163.906 74.461 m 163.906 55.746 l S
166.445 74.453 m 166.445 55.77 l S
168.988 74.391 m 168.988 55.852 l S
171.531 74.336 m 171.531 55.781 l S
174.07 74.035 m 174.07 56.332 l S
176.613 72.938 m 176.613 57.629 l S
179.152 72.016 m 179.152 58.02 l S
181.695 70.461 m 181.695 59.246 l S
184.234 69.672 m 184.234 60.312 l S
186.777 68.367 m 186.777 61.551 l S
189.316 67.57 m 189.316 62.336 l S
191.859 67.016 m 191.859 62.93 l S
194.398 66.449 m 194.398 63.34 l S
196.941 66.012 m 196.941 63.801 l S
199.48 65.684 m 199.48 64.129 l S
202.023 65.453 m 202.023 64.316 l S
204.566 65.336 m 204.566 64.496 l S
207.105 65.227 m 207.105 64.598 l S
209.648 65.145 m 209.648 64.652 l S
212.188 65.062 m 212.188 64.734 l S
214.73 65.047 m 214.73 64.77 l S
217.27 65.012 m 217.27 64.805 l S
219.812 65 m 219.812 64.805 l S
222.352 65 m 222.352 64.805 l S
224.895 65 m 224.895 64.805 l S
227.434 65 m 227.434 64.805 l S
229.977 65 m 229.977 64.805 l S
232.52 65 m 232.52 64.805 l S
235.059 65 m 235.059 64.805 l S
237.602 65 m 237.602 64.805 l S
240.141 65 m 240.141 64.805 l S
242.684 65 m 242.684 64.805 l S
245.223 65 m 245.223 64.805 l S
247.766 65 m 247.766 64.805 l S
250.305 65 m 250.305 64.805 l S
252.848 65 m 252.848 64.805 l S
255.387 65 m 255.387 64.805 l S
255.387 65 m 255.387 64.805 l S
3.812 108.297 m 3.812 107.93 l S
6.352 115.578 m 6.352 100.215 l S
8.895 123.336 m 8.895 92.332 l S
11.434 125.773 m 11.434 91.047 l S
13.977 125.719 m 13.977 89.789 l S
16.52 127.051 m 16.52 89.035 l S
19.059 127.547 m 19.059 88.578 l S
21.602 127.613 m 21.602 88.477 l S
24.141 127.637 m 24.141 88.363 l S
26.684 127.402 m 26.684 88.434 l S
29.223 127.328 m 29.223 88.574 l S
31.766 127.25 m 31.766 88.715 l S
34.305 126.977 m 34.305 88.742 l S
36.848 127.152 m 36.848 88.809 l S
39.387 127.137 m 39.387 88.93 l S
41.93 126.934 m 41.93 88.984 l S
44.469 126.543 m 44.469 89.262 l S
47.012 126.395 m 47.012 89.621 l S
49.555 126.289 m 49.555 89.645 l S
52.094 126.074 m 52.094 89.984 l S
54.637 126.148 m 54.637 89.957 l S
57.176 126.258 m 57.176 90.41 l S
59.719 125.535 m 59.719 90.105 l S
62.258 126.191 m 62.258 90.48 l S
64.801 125.344 m 64.801 90.07 l S
67.34 126.148 m 67.34 90.547 l S
69.883 125.668 m 69.883 90.094 l S
72.422 126.066 m 72.422 90.363 l S
74.965 125.984 m 74.965 90.004 l S
77.508 126.066 m 77.508 89.996 l S
80.047 126.082 m 80.047 89.934 l S
82.59 125.738 m 82.59 89.867 l S
85.129 126.109 m 85.129 90.129 l S
87.672 126.195 m 87.672 89.836 l S
90.211 126.059 m 90.211 89.77 l S
92.754 126.238 m 92.754 90.016 l S
95.293 126.082 m 95.293 89.84 l S
97.836 126.125 m 97.836 89.914 l S
100.375 126.086 m 100.375 89.918 l S
102.918 125.602 m 102.918 89.996 l S
105.457 125.957 m 105.457 90.27 l S
108 125.938 m 108 90.039 l S
110.543 125.785 m 110.543 90.145 l S
113.082 125.871 m 113.082 90.078 l S
115.625 125.426 m 115.625 90.105 l S
118.164 125.895 m 118.164 90.398 l S
120.707 125.652 m 120.707 90.137 l S
123.246 125.855 m 123.246 90.328 l S
125.789 125.859 m 125.789 90.195 l S
128.328 125.562 m 128.328 90.176 l S
130.871 125.957 m 130.871 90.195 l S
133.41 125.922 m 133.41 90.074 l S
135.953 125.527 m 135.953 90.035 l S
138.492 125.898 m 138.492 90.113 l S
141.035 125.898 m 141.035 90.117 l S
143.578 125.926 m 143.578 90.117 l S
146.117 125.793 m 146.117 90.062 l S
148.66 125.938 m 148.66 90.211 l S
151.199 125.867 m 151.199 90.059 l S
153.742 125.816 m 153.742 90.102 l S
156.281 125.879 m 156.281 90.09 l S
158.824 125.984 m 158.824 90.25 l S
161.363 125.965 m 161.363 90.066 l S
163.906 125.973 m 163.906 90.008 l S
166.445 125.852 m 166.445 90.105 l S
168.988 125.867 m 168.988 90.102 l S
171.531 125.902 m 171.531 90.273 l S
174.07 124.219 m 174.07 90.852 l S
176.613 121.422 m 176.613 94.875 l S
179.152 118.051 m 179.152 98.109 l S
181.695 116.297 m 181.695 99.801 l S
184.234 114.57 m 184.234 101.422 l S
186.777 113.266 m 186.777 102.832 l S
189.316 112.301 m 189.316 103.793 l S
191.859 111.355 m 191.859 104.805 l S
194.398 110.418 m 194.398 105.566 l S
196.941 109.754 m 196.941 106.559 l S
199.48 109.387 m 199.48 106.922 l S
202.023 108.945 m 202.023 107.211 l S
204.566 108.781 m 204.566 107.488 l S
207.105 108.641 m 207.105 107.625 l S
209.648 108.438 m 209.648 107.738 l S
212.188 108.348 m 212.188 107.855 l S
214.73 108.285 m 214.73 107.91 l S
217.27 108.23 m 217.27 107.973 l S
219.812 108.199 m 219.812 108.004 l S
222.352 108.199 m 222.352 108.004 l S
224.895 108.199 m 224.895 108.004 l S
227.434 108.199 m 227.434 108.004 l S
229.977 108.199 m 229.977 108.004 l S
232.52 108.199 m 232.52 108.004 l S
235.059 108.199 m 235.059 108.004 l S
237.602 108.199 m 237.602 108.004 l S
240.141 108.199 m 240.141 108.004 l S
242.684 108.199 m 242.684 108.004 l S
245.223 108.199 m 245.223 108.004 l S
247.766 108.199 m 247.766 108.004 l S
250.305 108.199 m 250.305 108.004 l S
252.848 108.199 m 252.848 108.004 l S
255.387 108.199 m 255.387 108.004 l S
255.387 108.199 m 255.387 108.004 l S
3.812 151.441 m 3.812 151.16 l S
6.352 158.273 m 6.352 144.438 l S
8.895 164.082 m 8.895 137.961 l S
11.434 165.789 m 11.434 136.375 l S
13.977 166.879 m 13.977 136.766 l S
16.52 167.371 m 16.52 136.043 l S
19.059 167.531 m 19.059 135.723 l S
21.602 167.965 m 21.602 135.363 l S
24.141 167.727 m 24.141 135.535 l S
26.684 167.961 m 26.684 135.387 l S
29.223 167.68 m 29.223 135.422 l S
31.766 167.555 m 31.766 135.844 l S
34.305 167.512 m 34.305 135.492 l S
36.848 167.605 m 36.848 135.613 l S
39.387 167.488 m 39.387 135.668 l S
41.93 167.309 m 41.93 135.602 l S
44.469 167.582 m 44.469 135.648 l S
47.012 167.363 m 47.012 135.633 l S
49.555 167.395 m 49.555 135.539 l S
52.094 167.582 m 52.094 135.359 l S
54.637 167.539 m 54.637 135.879 l S
57.176 166.754 m 57.176 135.191 l S
59.719 167.469 m 59.719 135.605 l S
62.258 167.328 m 62.258 135.281 l S
64.801 167.223 m 64.801 135.332 l S
67.34 166.996 m 67.34 135.57 l S
69.883 166.844 m 69.883 135.703 l S
72.422 166.59 m 72.422 135.863 l S
74.965 166.852 m 74.965 136.363 l S
77.508 166.715 m 77.508 136.137 l S
80.047 166.664 m 80.047 136.262 l S
82.59 166.684 m 82.59 136.465 l S
85.129 166.504 m 85.129 136.402 l S
87.672 166.652 m 87.672 136.406 l S
90.211 166.66 m 90.211 136.801 l S
92.754 166.383 m 92.754 136.242 l S
95.293 166.656 m 95.293 136.238 l S
97.836 166.594 m 97.836 136.477 l S
100.375 166.555 m 100.375 136.477 l S
102.918 166.57 m 102.918 136.465 l S
105.457 166.223 m 105.457 136.59 l S
108 166.492 m 108 136.77 l S
110.543 166.383 m 110.543 136.629 l S
113.082 166.207 m 113.082 136.672 l S
115.625 166.363 m 115.625 136.781 l S
118.164 165.98 m 118.164 136.723 l S
120.707 166.344 m 120.707 136.91 l S
123.246 166.223 m 123.246 136.781 l S
125.789 166.16 m 125.789 136.781 l S
128.328 166.32 m 128.328 136.945 l S
130.871 166.23 m 130.871 136.691 l S
133.41 166.215 m 133.41 136.676 l S
135.953 166.293 m 135.953 137.141 l S
138.492 166.211 m 138.492 136.652 l S
141.035 166.066 m 141.035 136.715 l S
143.578 166.16 m 143.578 136.688 l S
146.117 166.125 m 146.117 136.926 l S
148.66 165.977 m 148.66 136.707 l S
151.199 166.105 m 151.199 136.82 l S
153.742 166.164 m 153.742 136.891 l S
156.281 166.105 m 156.281 136.902 l S
158.824 166.188 m 158.824 136.781 l S
161.363 165.91 m 161.363 136.828 l S
163.906 166.133 m 163.906 136.805 l S
166.445 166.039 m 166.445 136.93 l S
168.988 166.105 m 168.988 136.809 l S
171.531 165.871 m 171.531 136.91 l S
174.07 165.422 m 174.07 138.328 l S
176.613 163.883 m 176.613 140.5 l S
179.152 160.484 m 179.152 142.941 l S
181.695 158.898 m 181.695 143.25 l S
184.234 157.875 m 184.234 144.953 l S
186.777 156.34 m 186.777 146.539 l S
189.316 155.195 m 189.316 147.496 l S
191.859 154.559 m 191.859 148.215 l S
194.398 153.809 m 194.398 148.871 l S
196.941 153.078 m 196.941 149.582 l S
199.48 152.539 m 199.48 149.977 l S
202.023 152.238 m 202.023 150.262 l S
204.566 152.039 m 204.566 150.559 l S
207.105 151.918 m 207.105 150.715 l S
209.648 151.758 m 209.648 150.789 l S
212.188 151.637 m 212.188 150.953 l S
214.73 151.602 m 214.73 151.051 l S
217.27 151.488 m 217.27 151.094 l S
219.812 151.449 m 219.812 151.156 l S
222.352 151.414 m 222.352 151.195 l S
224.895 151.402 m 224.895 151.203 l S
227.434 151.402 m 227.434 151.203 l S
229.977 151.402 m 229.977 151.203 l S
232.52 151.402 m 232.52 151.203 l S
235.059 151.402 m 235.059 151.203 l S
237.602 151.402 m 237.602 151.203 l S
240.141 151.402 m 240.141 151.203 l S
242.684 151.402 m 242.684 151.203 l S
245.223 151.402 m 245.223 151.203 l S
247.766 151.402 m 247.766 151.203 l S
250.305 151.402 m 250.305 151.203 l S
252.848 151.402 m 252.848 151.203 l S
255.387 151.402 m 255.387 151.203 l S
255.387 151.402 m 255.387 151.203 l S
Q Q
showpage
%%Trailer
end
%%EOF
