%!PS-Adobe-3.0 EPSF-3.0
%%Creator: cairo 1.16.0 (https://cairographics.org)
%%CreationDate: Wed May 15 11:57:17 2024
%%Pages: 1
%%DocumentData: Clean7Bit
%%LanguageLevel: 2
%%Creator: Wolfram Mathematica
%%BoundingBox: 2 8 257 166
%%EndComments
%%BeginProlog
50 dict begin
/q { gsave } bind def
/Q { grestore } bind def
/cm { 6 array astore concat } bind def
/w { setlinewidth } bind def
/J { setlinecap } bind def
/j { setlinejoin } bind def
/M { setmiterlimit } bind def
/d { setdash } bind def
/m { moveto } bind def
/l { lineto } bind def
/c { curveto } bind def
/h { closepath } bind def
/re { exch dup neg 3 1 roll 5 3 roll moveto 0 rlineto
      0 exch rlineto 0 rlineto closepath } bind def
/S { stroke } bind def
/f { fill } bind def
/f* { eofill } bind def
/n { newpath } bind def
/W { clip } bind def
/W* { eoclip } bind def
/BT { } bind def
/ET { } bind def
/BDC { mark 3 1 roll /BDC pdfmark } bind def
/EMC { mark /EMC pdfmark } bind def
/cairo_store_point { /cairo_point_y exch def /cairo_point_x exch def } def
/Tj { show currentpoint cairo_store_point } bind def
/TJ {
  {
    dup
    type /stringtype eq
    { show } { -0.001 mul 0 cairo_font_matrix dtransform rmoveto } ifelse
  } forall
  currentpoint cairo_store_point
} bind def
/cairo_selectfont { cairo_font_matrix aload pop pop pop 0 0 6 array astore
    cairo_font exch selectfont cairo_point_x cairo_point_y moveto } bind def
/Tf { pop /cairo_font exch def /cairo_font_matrix where
      { pop cairo_selectfont } if } bind def
/Td { matrix translate cairo_font_matrix matrix concatmatrix dup
      /cairo_font_matrix exch def dup 4 get exch 5 get cairo_store_point
      /cairo_font where { pop cairo_selectfont } if } bind def
/Tm { 2 copy 8 2 roll 6 array astore /cairo_font_matrix exch def
      cairo_store_point /cairo_font where { pop cairo_selectfont } if } bind def
/g { setgray } bind def
/rg { setrgbcolor } bind def
/d1 { setcachedevice } bind def
/cairo_data_source {
  CairoDataIndex CairoData length lt
    { CairoData CairoDataIndex get /CairoDataIndex CairoDataIndex 1 add def }
    { () } ifelse
} def
/cairo_flush_ascii85_file { cairo_ascii85_file status { cairo_ascii85_file flushfile } if } def
/cairo_image { image cairo_flush_ascii85_file } def
/cairo_imagemask { imagemask cairo_flush_ascii85_file } def
%%EndProlog
%%BeginSetup
%%EndSetup
%%Page: 1 1
%%BeginPageSetup
%%PageBoundingBox: 2 8 257 166
%%EndPageSetup
q 2 8 255 158 rectclip
1 0 0 -1 0 173 cm q
0 g
1.796436 w
0 J
0 j
[] 0.0 d
3.25 M 3.812 21.715 m 3.812 21.52 l S
6.352 21.715 m 6.352 21.52 l S
8.895 26.684 m 8.895 16.227 l S
11.434 32.09 m 11.434 11.117 l S
13.977 34.371 m 13.977 8.586 l S
16.52 35.465 m 16.52 7.691 l S
19.059 36.012 m 19.059 7.305 l S
21.602 36.117 m 21.602 7.129 l S
24.141 36.133 m 24.141 7.066 l S
26.684 36.129 m 26.684 7.07 l S
29.223 36.172 m 29.223 7.043 l S
31.766 36.18 m 31.766 7.047 l S
34.305 36.145 m 34.305 7.047 l S
36.848 36.105 m 36.848 7.113 l S
39.387 36.059 m 39.387 7.152 l S
41.93 36.004 m 41.93 7.191 l S
44.469 36.016 m 44.469 7.176 l S
47.012 35.992 m 47.012 7.188 l S
49.555 35.973 m 49.555 7.18 l S
52.094 35.938 m 52.094 7.266 l S
54.637 35.941 m 54.637 7.262 l S
57.176 35.957 m 57.176 7.242 l S
59.719 35.984 m 59.719 7.223 l S
62.258 36 m 62.258 7.18 l S
64.801 36.031 m 64.801 7.145 l S
67.34 36.051 m 67.34 7.117 l S
69.883 36.074 m 69.883 7.094 l S
72.422 36.062 m 72.422 7.086 l S
74.965 36.082 m 74.965 7.07 l S
77.508 36.082 m 77.508 7.094 l S
80.047 36.09 m 80.047 7.121 l S
82.59 36.074 m 82.59 7.121 l S
85.129 36.047 m 85.129 7.125 l S
87.672 36.039 m 87.672 7.117 l S
90.211 36.039 m 90.211 7.141 l S
92.754 36.035 m 92.754 7.148 l S
95.293 36.023 m 95.293 7.145 l S
97.836 36.051 m 97.836 7.117 l S
100.375 36.062 m 100.375 7.07 l S
102.918 36.059 m 102.918 7.074 l S
105.457 36.062 m 105.457 7.082 l S
108 36.051 m 108 7.09 l S
110.543 36.016 m 110.543 7.121 l S
113.082 36.02 m 113.082 7.133 l S
115.625 36.016 m 115.625 7.129 l S
118.164 36.031 m 118.164 7.137 l S
120.707 36.016 m 120.707 7.121 l S
123.246 36.016 m 123.246 7.137 l S
125.789 36.043 m 125.789 7.105 l S
128.328 36.062 m 128.328 7.094 l S
130.871 36.066 m 130.871 7.098 l S
133.41 36.07 m 133.41 7.082 l S
135.953 36.086 m 135.953 7.074 l S
138.492 36.105 m 138.492 7.051 l S
141.035 36.102 m 141.035 7.051 l S
143.578 36.121 m 143.578 7.031 l S
146.117 36.109 m 146.117 7.035 l S
148.66 36.09 m 148.66 7.066 l S
151.199 36.059 m 151.199 7.117 l S
153.742 36.039 m 153.742 7.129 l S
156.281 36.027 m 156.281 7.125 l S
158.824 36.086 m 158.824 7.078 l S
161.363 36.102 m 161.363 7.055 l S
163.906 36.133 m 163.906 7.035 l S
166.445 36.141 m 166.445 7.016 l S
168.988 36.137 m 168.988 7.027 l S
171.531 36.129 m 171.531 7.031 l S
174.07 36.148 m 174.07 7.027 l S
176.613 36.172 m 176.613 7.012 l S
179.152 36.18 m 179.152 7.012 l S
181.695 35.359 m 181.695 7.773 l S
184.234 31.711 m 184.234 11.434 l S
186.777 30.285 m 186.777 13.004 l S
189.316 28.23 m 189.316 15.008 l S
191.859 27.09 m 191.859 16.152 l S
194.398 26.172 m 194.398 17.195 l S
196.941 25.434 m 196.941 17.934 l S
199.48 24.641 m 199.48 18.688 l S
202.023 23.988 m 202.023 19.383 l S
204.566 23.328 m 204.566 19.957 l S
207.105 22.902 m 207.105 20.391 l S
209.648 22.496 m 209.648 20.773 l S
212.188 22.164 m 212.188 21.059 l S
214.73 21.984 m 214.73 21.281 l S
217.27 21.84 m 217.27 21.406 l S
219.812 21.758 m 219.812 21.461 l S
222.352 21.715 m 222.352 21.52 l S
224.895 21.715 m 224.895 21.52 l S
227.434 21.715 m 227.434 21.52 l S
229.977 21.715 m 229.977 21.52 l S
232.52 21.715 m 232.52 21.52 l S
235.059 21.715 m 235.059 21.52 l S
237.602 21.715 m 237.602 21.52 l S
240.141 21.715 m 240.141 21.52 l S
242.684 21.715 m 242.684 21.52 l S
245.223 21.715 m 245.223 21.52 l S
247.766 21.715 m 247.766 21.52 l S
250.305 21.715 m 250.305 21.52 l S
252.848 21.715 m 252.848 21.52 l S
255.387 21.715 m 255.387 21.52 l S
255.387 21.715 m 255.387 21.52 l S
3.812 64.918 m 3.812 64.719 l S
6.352 64.918 m 6.352 64.719 l S
8.895 68.191 m 8.895 61.508 l S
11.434 70.902 m 11.434 58.938 l S
13.977 72.367 m 13.977 57.375 l S
16.52 73.535 m 16.52 56.051 l S
19.059 74.227 m 19.059 55.453 l S
21.602 74.469 m 21.602 55.246 l S
24.141 74.555 m 24.141 55.223 l S
26.684 74.594 m 26.684 55.172 l S
29.223 74.613 m 29.223 55.125 l S
31.766 74.648 m 31.766 55.102 l S
34.305 74.629 m 34.305 55.078 l S
36.848 74.605 m 36.848 55.105 l S
39.387 74.57 m 39.387 55.133 l S
41.93 74.547 m 41.93 55.176 l S
44.469 74.527 m 44.469 55.164 l S
47.012 74.535 m 47.012 55.176 l S
49.555 74.516 m 49.555 55.172 l S
52.094 74.512 m 52.094 55.215 l S
54.637 74.473 m 54.637 55.211 l S
57.176 74.512 m 57.176 55.195 l S
59.719 74.535 m 59.719 55.184 l S
62.258 74.559 m 62.258 55.137 l S
64.801 74.617 m 64.801 55.129 l S
67.34 74.668 m 67.34 55.105 l S
69.883 74.684 m 69.883 55.105 l S
72.422 74.695 m 72.422 55.082 l S
74.965 74.723 m 74.965 55.074 l S
77.508 74.707 m 77.508 55.09 l S
80.047 74.695 m 80.047 55.117 l S
82.59 74.699 m 82.59 55.129 l S
85.129 74.691 m 85.129 55.137 l S
87.672 74.676 m 87.672 55.133 l S
90.211 74.668 m 90.211 55.125 l S
92.754 74.66 m 92.754 55.156 l S
95.293 74.656 m 95.293 55.176 l S
97.836 74.68 m 97.836 55.16 l S
100.375 74.719 m 100.375 55.125 l S
102.918 74.727 m 102.918 55.121 l S
105.457 74.73 m 105.457 55.117 l S
108 74.711 m 108 55.141 l S
110.543 74.676 m 110.543 55.168 l S
113.082 74.668 m 113.082 55.168 l S
115.625 74.676 m 115.625 55.156 l S
118.164 74.664 m 118.164 55.176 l S
120.707 74.66 m 120.707 55.164 l S
123.246 74.684 m 123.246 55.164 l S
125.789 74.695 m 125.789 55.145 l S
128.328 74.703 m 128.328 55.133 l S
130.871 74.723 m 130.871 55.121 l S
133.41 74.727 m 133.41 55.117 l S
135.953 74.746 m 135.953 55.121 l S
138.492 74.754 m 138.492 55.102 l S
141.035 74.777 m 141.035 55.094 l S
143.578 74.805 m 143.578 55.07 l S
146.117 74.797 m 146.117 55.051 l S
148.66 74.789 m 148.66 55.102 l S
151.199 74.719 m 151.199 55.121 l S
153.742 74.68 m 153.742 55.164 l S
156.281 74.684 m 156.281 55.168 l S
158.824 74.711 m 158.824 55.137 l S
161.363 74.754 m 161.363 55.098 l S
163.906 74.812 m 163.906 55.059 l S
166.445 74.809 m 166.445 55.082 l S
168.988 74.789 m 168.988 55.066 l S
171.531 74.824 m 171.531 55.066 l S
174.07 74.809 m 174.07 55.055 l S
176.613 74.836 m 176.613 55.051 l S
179.152 74.848 m 179.152 55.051 l S
181.695 74.254 m 181.695 55.559 l S
184.234 70.875 m 184.234 58.617 l S
186.777 69.172 m 186.777 60.621 l S
189.316 68.762 m 189.316 60.945 l S
191.859 68.219 m 191.859 61.574 l S
194.398 67.57 m 194.398 62.137 l S
196.941 67.031 m 196.941 62.582 l S
199.48 66.645 m 199.48 63.004 l S
202.023 66.223 m 202.023 63.395 l S
204.566 65.914 m 204.566 63.785 l S
207.105 65.625 m 207.105 64.016 l S
209.648 65.426 m 209.648 64.238 l S
212.188 65.191 m 212.188 64.406 l S
214.73 65.055 m 214.73 64.566 l S
217.27 64.984 m 217.27 64.641 l S
219.812 64.926 m 219.812 64.719 l S
222.352 64.918 m 222.352 64.719 l S
224.895 64.918 m 224.895 64.719 l S
227.434 64.918 m 227.434 64.719 l S
229.977 64.918 m 229.977 64.719 l S
232.52 64.918 m 232.52 64.719 l S
235.059 64.918 m 235.059 64.719 l S
237.602 64.918 m 237.602 64.719 l S
240.141 64.918 m 240.141 64.719 l S
242.684 64.918 m 242.684 64.719 l S
245.223 64.918 m 245.223 64.719 l S
247.766 64.918 m 247.766 64.719 l S
250.305 64.918 m 250.305 64.719 l S
252.848 64.918 m 252.848 64.719 l S
255.387 64.918 m 255.387 64.719 l S
255.387 64.918 m 255.387 64.719 l S
3.812 108.117 m 3.812 107.918 l S
6.352 108.152 m 6.352 107.863 l S
8.895 115.094 m 8.895 100.918 l S
11.434 121.461 m 11.434 94.562 l S
13.977 124.312 m 13.977 91.598 l S
16.52 125.789 m 16.52 90.008 l S
19.059 126.816 m 19.059 89.246 l S
21.602 126.988 m 21.602 88.965 l S
24.141 127.109 m 24.141 88.816 l S
26.684 127.27 m 26.684 88.703 l S
29.223 127.324 m 29.223 88.602 l S
31.766 127.363 m 31.766 88.547 l S
34.305 127.398 m 34.305 88.535 l S
36.848 127.328 m 36.848 88.59 l S
39.387 127.281 m 39.387 88.645 l S
41.93 127.277 m 41.93 88.676 l S
44.469 127.301 m 44.469 88.672 l S
47.012 127.312 m 47.012 88.66 l S
49.555 127.297 m 49.555 88.668 l S
52.094 127.242 m 52.094 88.734 l S
54.637 127.25 m 54.637 88.719 l S
57.176 127.293 m 57.176 88.68 l S
59.719 127.316 m 59.719 88.66 l S
62.258 127.359 m 62.258 88.625 l S
64.801 127.391 m 64.801 88.582 l S
67.34 127.449 m 67.34 88.543 l S
69.883 127.488 m 69.883 88.508 l S
72.422 127.5 m 72.422 88.484 l S
74.965 127.539 m 74.965 88.473 l S
77.508 127.465 m 77.508 88.465 l S
80.047 127.469 m 80.047 88.523 l S
82.59 127.469 m 82.59 88.535 l S
85.129 127.469 m 85.129 88.555 l S
87.672 127.449 m 87.672 88.559 l S
90.211 127.438 m 90.211 88.566 l S
92.754 127.426 m 92.754 88.586 l S
95.293 127.43 m 95.293 88.574 l S
97.836 127.48 m 97.836 88.559 l S
100.375 127.527 m 100.375 88.512 l S
102.918 127.547 m 102.918 88.504 l S
105.457 127.512 m 105.457 88.5 l S
108 127.488 m 108 88.527 l S
110.543 127.441 m 110.543 88.574 l S
113.082 127.453 m 113.082 88.578 l S
115.625 127.457 m 115.625 88.574 l S
118.164 127.449 m 118.164 88.574 l S
120.707 127.457 m 120.707 88.57 l S
123.246 127.461 m 123.246 88.562 l S
125.789 127.488 m 125.789 88.535 l S
128.328 127.5 m 128.328 88.523 l S
130.871 127.508 m 130.871 88.512 l S
133.41 127.516 m 133.41 88.5 l S
135.953 127.535 m 135.953 88.473 l S
138.492 127.57 m 138.492 88.469 l S
141.035 127.559 m 141.035 88.449 l S
143.578 127.594 m 143.578 88.441 l S
146.117 127.594 m 146.117 88.434 l S
148.66 127.531 m 148.66 88.477 l S
151.199 127.48 m 151.199 88.543 l S
153.742 127.461 m 153.742 88.562 l S
156.281 127.484 m 156.281 88.57 l S
158.824 127.531 m 158.824 88.52 l S
161.363 127.559 m 161.363 88.473 l S
163.906 127.602 m 163.906 88.434 l S
166.445 127.617 m 166.445 88.41 l S
168.988 127.621 m 168.988 88.418 l S
171.531 127.605 m 171.531 88.418 l S
174.07 127.605 m 174.07 88.402 l S
176.613 127.637 m 176.613 88.363 l S
179.152 127.637 m 179.152 88.375 l S
181.695 126.586 m 181.695 89.609 l S
184.234 122.02 m 184.234 94.34 l S
186.777 119.191 m 186.777 96.707 l S
189.316 117.539 m 189.316 98.629 l S
191.859 115.863 m 191.859 100.148 l S
194.398 114.219 m 194.398 101.539 l S
196.941 113.066 m 196.941 102.844 l S
199.48 112.062 m 199.48 103.887 l S
202.023 111.258 m 202.023 104.758 l S
204.566 110.559 m 204.566 105.535 l S
207.105 109.898 m 207.105 106.184 l S
209.648 109.375 m 209.648 106.695 l S
212.188 108.871 m 212.188 107.098 l S
214.73 108.578 m 214.73 107.418 l S
217.27 108.41 m 217.27 107.691 l S
219.812 108.227 m 219.812 107.82 l S
222.352 108.152 m 222.352 107.879 l S
224.895 108.117 m 224.895 107.918 l S
227.434 108.117 m 227.434 107.918 l S
229.977 108.117 m 229.977 107.918 l S
232.52 108.117 m 232.52 107.918 l S
235.059 108.117 m 235.059 107.918 l S
237.602 108.117 m 237.602 107.918 l S
240.141 108.117 m 240.141 107.918 l S
242.684 108.117 m 242.684 107.918 l S
245.223 108.117 m 245.223 107.918 l S
247.766 108.117 m 247.766 107.918 l S
250.305 108.117 m 250.305 107.918 l S
252.848 108.117 m 252.848 107.918 l S
255.387 108.117 m 255.387 107.918 l S
255.387 108.117 m 255.387 107.918 l S
3.812 151.316 m 3.812 151.121 l S
6.352 151.316 m 6.352 151.121 l S
8.895 155.469 m 8.895 146.797 l S
11.434 159.746 m 11.434 142.781 l S
13.977 162.25 m 13.977 140.668 l S
16.52 163.422 m 16.52 139.633 l S
19.059 164.27 m 19.059 139.207 l S
21.602 164.469 m 21.602 138.922 l S
24.141 164.594 m 24.141 138.969 l S
26.684 164.535 m 26.684 139.031 l S
29.223 164.574 m 29.223 138.973 l S
31.766 164.605 m 31.766 139 l S
34.305 164.59 m 34.305 139.008 l S
36.848 164.496 m 36.848 139.07 l S
39.387 164.406 m 39.387 139.168 l S
41.93 164.336 m 41.93 139.238 l S
44.469 164.312 m 44.469 139.27 l S
47.012 164.336 m 47.012 139.277 l S
49.555 164.289 m 49.555 139.359 l S
52.094 164.234 m 52.094 139.359 l S
54.637 164.223 m 54.637 139.375 l S
57.176 164.273 m 57.176 139.363 l S
59.719 164.281 m 59.719 139.355 l S
62.258 164.297 m 62.258 139.324 l S
64.801 164.371 m 64.801 139.277 l S
67.34 164.398 m 67.34 139.215 l S
69.883 164.367 m 69.883 139.238 l S
72.422 164.434 m 72.422 139.164 l S
74.965 164.402 m 74.965 139.199 l S
77.508 164.395 m 77.508 139.207 l S
80.047 164.395 m 80.047 139.219 l S
82.59 164.375 m 82.59 139.207 l S
85.129 164.371 m 85.129 139.25 l S
87.672 164.371 m 87.672 139.254 l S
90.211 164.348 m 90.211 139.168 l S
92.754 164.367 m 92.754 139.23 l S
95.293 164.332 m 95.293 139.293 l S
97.836 164.352 m 97.836 139.258 l S
100.375 164.434 m 100.375 139.254 l S
102.918 164.422 m 102.918 139.207 l S
105.457 164.402 m 105.457 139.199 l S
108 164.391 m 108 139.266 l S
110.543 164.336 m 110.543 139.309 l S
113.082 164.324 m 113.082 139.301 l S
115.625 164.363 m 115.625 139.293 l S
118.164 164.336 m 118.164 139.289 l S
120.707 164.34 m 120.707 139.301 l S
123.246 164.359 m 123.246 139.309 l S
125.789 164.363 m 125.789 139.262 l S
128.328 164.398 m 128.328 139.234 l S
130.871 164.383 m 130.871 139.227 l S
133.41 164.414 m 133.41 139.238 l S
135.953 164.406 m 135.953 139.215 l S
138.492 164.422 m 138.492 139.168 l S
141.035 164.453 m 141.035 139.16 l S
143.578 164.465 m 143.578 139.16 l S
146.117 164.469 m 146.117 139.168 l S
148.66 164.426 m 148.66 139.176 l S
151.199 164.379 m 151.199 139.273 l S
153.742 164.344 m 153.742 139.301 l S
156.281 164.34 m 156.281 139.289 l S
158.824 164.387 m 158.824 139.242 l S
161.363 164.449 m 161.363 139.188 l S
163.906 164.453 m 163.906 139.105 l S
166.445 164.477 m 166.445 139.148 l S
168.988 164.461 m 168.988 139.129 l S
171.531 164.477 m 171.531 139.129 l S
174.07 164.473 m 174.07 139.09 l S
176.613 164.504 m 176.613 139.078 l S
179.152 164.488 m 179.152 139.094 l S
181.695 163.734 m 181.695 139.762 l S
184.234 160.473 m 184.234 142.066 l S
186.777 157.871 m 186.777 144.238 l S
189.316 157.277 m 189.316 144.875 l S
191.859 156.102 m 191.859 146.281 l S
194.398 155.262 m 194.398 147.035 l S
196.941 154.469 m 196.941 147.93 l S
199.48 153.801 m 199.48 148.547 l S
202.023 153.152 m 202.023 149.215 l S
204.566 152.625 m 204.566 149.867 l S
207.105 152.281 m 207.105 150.188 l S
209.648 151.977 m 209.648 150.531 l S
212.188 151.66 m 212.188 150.691 l S
214.73 151.527 m 214.73 150.891 l S
217.27 151.441 m 217.27 150.98 l S
219.812 151.359 m 219.812 151.109 l S
222.352 151.316 m 222.352 151.121 l S
224.895 151.316 m 224.895 151.121 l S
227.434 151.316 m 227.434 151.121 l S
229.977 151.316 m 229.977 151.121 l S
232.52 151.316 m 232.52 151.121 l S
235.059 151.316 m 235.059 151.121 l S
237.602 151.316 m 237.602 151.121 l S
240.141 151.316 m 240.141 151.121 l S
242.684 151.316 m 242.684 151.121 l S
245.223 151.316 m 245.223 151.121 l S
247.766 151.316 m 247.766 151.121 l S
250.305 151.316 m 250.305 151.121 l S
252.848 151.316 m 252.848 151.121 l S
255.387 151.316 m 255.387 151.121 l S
255.387 151.316 m 255.387 151.121 l S
Q Q
showpage
%%Trailer
end
%%EOF
