%!PS-Adobe-3.0 EPSF-3.0
%%Creator: cairo 1.16.0 (https://cairographics.org)
%%CreationDate: Wed May 15 11:57:18 2024
%%Pages: 1
%%DocumentData: Clean7Bit
%%LanguageLevel: 2
%%Creator: Wolfram Mathematica
%%BoundingBox: 2 2 257 161
%%EndComments
%%BeginProlog
50 dict begin
/q { gsave } bind def
/Q { grestore } bind def
/cm { 6 array astore concat } bind def
/w { setlinewidth } bind def
/J { setlinecap } bind def
/j { setlinejoin } bind def
/M { setmiterlimit } bind def
/d { setdash } bind def
/m { moveto } bind def
/l { lineto } bind def
/c { curveto } bind def
/h { closepath } bind def
/re { exch dup neg 3 1 roll 5 3 roll moveto 0 rlineto
      0 exch rlineto 0 rlineto closepath } bind def
/S { stroke } bind def
/f { fill } bind def
/f* { eofill } bind def
/n { newpath } bind def
/W { clip } bind def
/W* { eoclip } bind def
/BT { } bind def
/ET { } bind def
/BDC { mark 3 1 roll /BDC pdfmark } bind def
/EMC { mark /EMC pdfmark } bind def
/cairo_store_point { /cairo_point_y exch def /cairo_point_x exch def } def
/Tj { show currentpoint cairo_store_point } bind def
/TJ {
  {
    dup
    type /stringtype eq
    { show } { -0.001 mul 0 cairo_font_matrix dtransform rmoveto } ifelse
  } forall
  currentpoint cairo_store_point
} bind def
/cairo_selectfont { cairo_font_matrix aload pop pop pop 0 0 6 array astore
    cairo_font exch selectfont cairo_point_x cairo_point_y moveto } bind def
/Tf { pop /cairo_font exch def /cairo_font_matrix where
      { pop cairo_selectfont } if } bind def
/Td { matrix translate cairo_font_matrix matrix concatmatrix dup
      /cairo_font_matrix exch def dup 4 get exch 5 get cairo_store_point
      /cairo_font where { pop cairo_selectfont } if } bind def
/Tm { 2 copy 8 2 roll 6 array astore /cairo_font_matrix exch def
      cairo_store_point /cairo_font where { pop cairo_selectfont } if } bind def
/g { setgray } bind def
/rg { setrgbcolor } bind def
/d1 { setcachedevice } bind def
/cairo_data_source {
  CairoDataIndex CairoData length lt
    { CairoData CairoDataIndex get /CairoDataIndex CairoDataIndex 1 add def }
    { () } ifelse
} def
/cairo_flush_ascii85_file { cairo_ascii85_file status { cairo_ascii85_file flushfile } if } def
/cairo_image { image cairo_flush_ascii85_file } def
/cairo_imagemask { imagemask cairo_flush_ascii85_file } def
%%EndProlog
%%BeginSetup
%%EndSetup
%%Page: 1 1
%%BeginPageSetup
%%PageBoundingBox: 2 2 257 161
%%EndPageSetup
q 2 2 255 159 rectclip
1 0 0 -1 0 173 cm q
0 g
1.796436 w
0 J
0 j
[] 0.0 d
3.25 M 3.812 21.578 m 3.812 21.383 l S
6.352 22.184 m 6.352 20.641 l S
8.895 24.227 m 8.895 18.68 l S
11.434 26.836 m 11.434 16.152 l S
13.977 28.531 m 13.977 14.602 l S
16.52 28.91 m 16.52 13.852 l S
19.059 29.75 m 19.059 13.32 l S
21.602 29.957 m 21.602 12.883 l S
24.141 30.191 m 24.141 12.621 l S
26.684 30.32 m 26.684 12.547 l S
29.223 30.32 m 29.223 12.469 l S
31.766 30.395 m 31.766 12.477 l S
34.305 30.355 m 34.305 12.41 l S
36.848 30.398 m 36.848 12.418 l S
39.387 30.379 m 39.387 12.406 l S
41.93 30.414 m 41.93 12.34 l S
44.469 30.395 m 44.469 12.387 l S
47.012 30.383 m 47.012 12.434 l S
49.555 30.371 m 49.555 12.449 l S
52.094 30.336 m 52.094 12.48 l S
54.637 30.301 m 54.637 12.527 l S
57.176 30.297 m 57.176 12.539 l S
59.719 30.266 m 59.719 12.547 l S
62.258 30.266 m 62.258 12.574 l S
64.801 30.277 m 64.801 12.562 l S
67.34 30.195 m 67.34 12.637 l S
69.883 30.176 m 69.883 12.676 l S
72.422 30.191 m 72.422 12.668 l S
74.965 30.184 m 74.965 12.645 l S
77.508 30.195 m 77.508 12.652 l S
80.047 30.242 m 80.047 12.656 l S
82.59 30.188 m 82.59 12.66 l S
85.129 30.191 m 85.129 12.68 l S
87.672 30.168 m 87.672 12.734 l S
90.211 30.121 m 90.211 12.781 l S
92.754 30.074 m 92.754 12.754 l S
95.293 30.09 m 95.293 12.789 l S
97.836 30.043 m 97.836 12.805 l S
100.375 30.055 m 100.375 12.781 l S
102.918 30.047 m 102.918 12.832 l S
105.457 30.035 m 105.457 12.848 l S
108 30.027 m 108 12.824 l S
110.543 30.004 m 110.543 12.906 l S
113.082 29.992 m 113.082 12.898 l S
115.625 30.012 m 115.625 12.898 l S
118.164 30.027 m 118.164 12.902 l S
120.707 30.027 m 120.707 12.879 l S
123.246 30.055 m 123.246 12.848 l S
125.789 30.062 m 125.789 12.824 l S
128.328 30.066 m 128.328 12.801 l S
130.871 30.09 m 130.871 12.781 l S
133.41 30.102 m 133.41 12.789 l S
135.953 30.094 m 135.953 12.773 l S
138.492 30.055 m 138.492 12.82 l S
141.035 30.074 m 141.035 12.844 l S
143.578 30.02 m 143.578 12.863 l S
146.117 30.039 m 146.117 12.852 l S
148.66 30.02 m 148.66 12.867 l S
151.199 29.992 m 151.199 12.871 l S
153.742 29.996 m 153.742 12.863 l S
156.281 30.012 m 156.281 12.891 l S
158.824 29.984 m 158.824 12.906 l S
161.363 29.973 m 161.363 12.941 l S
163.906 29.98 m 163.906 12.926 l S
166.445 29.973 m 166.445 12.949 l S
168.988 29.977 m 168.988 12.918 l S
171.531 29.977 m 171.531 12.934 l S
174.07 29.996 m 174.07 12.867 l S
176.613 30.016 m 176.613 12.859 l S
179.152 30.035 m 179.152 12.848 l S
181.695 30.023 m 181.695 12.887 l S
184.234 30.016 m 184.234 12.867 l S
186.777 30.039 m 186.777 12.852 l S
189.316 29.961 m 189.316 12.914 l S
191.859 29.254 m 191.859 13.676 l S
194.398 26.426 m 194.398 16.75 l S
196.941 24.43 m 196.941 18.551 l S
199.48 24.02 m 199.48 18.949 l S
202.023 23.434 m 202.023 19.434 l S
204.566 23.074 m 204.566 19.836 l S
207.105 22.656 m 207.105 20.23 l S
209.648 22.473 m 209.648 20.539 l S
212.188 22.188 m 212.188 20.734 l S
214.73 22.023 m 214.73 20.898 l S
217.27 21.898 m 217.27 21.012 l S
219.812 21.844 m 219.812 21.141 l S
222.352 21.738 m 222.352 21.234 l S
224.895 21.68 m 224.895 21.285 l S
227.434 21.617 m 227.434 21.332 l S
229.977 21.582 m 229.977 21.371 l S
232.52 21.578 m 232.52 21.383 l S
235.059 21.578 m 235.059 21.383 l S
237.602 21.578 m 237.602 21.383 l S
240.141 21.578 m 240.141 21.383 l S
242.684 21.578 m 242.684 21.383 l S
245.223 21.578 m 245.223 21.383 l S
247.766 21.578 m 247.766 21.383 l S
250.305 21.578 m 250.305 21.383 l S
252.848 21.578 m 252.848 21.383 l S
255.387 21.578 m 255.387 21.383 l S
255.387 21.578 m 255.387 21.383 l S
3.812 64.777 m 3.812 64.582 l S
6.352 65.676 m 6.352 63.555 l S
8.895 68.254 m 8.895 61.199 l S
11.434 70.898 m 11.434 58.414 l S
13.977 72.105 m 13.977 57.059 l S
16.52 72.867 m 16.52 56.211 l S
19.059 73.219 m 19.059 55.945 l S
21.602 73.543 m 21.602 55.551 l S
24.141 73.816 m 24.141 55.285 l S
26.684 73.867 m 26.684 55.215 l S
29.223 73.863 m 29.223 55.207 l S
31.766 73.949 m 31.766 55.137 l S
34.305 73.953 m 34.305 55.074 l S
36.848 74.023 m 36.848 54.969 l S
39.387 74.113 m 39.387 54.953 l S
41.93 74.012 m 41.93 54.969 l S
44.469 74.004 m 44.469 55.078 l S
47.012 73.98 m 47.012 55.062 l S
49.555 74.016 m 49.555 55.094 l S
52.094 73.965 m 52.094 55.113 l S
54.637 73.922 m 54.637 55.145 l S
57.176 73.93 m 57.176 55.133 l S
59.719 73.879 m 59.719 55.137 l S
62.258 73.922 m 62.258 55.156 l S
64.801 73.934 m 64.801 55.137 l S
67.34 73.914 m 67.34 55.16 l S
69.883 73.84 m 69.883 55.199 l S
72.422 73.875 m 72.422 55.203 l S
74.965 73.863 m 74.965 55.207 l S
77.508 73.844 m 77.508 55.199 l S
80.047 73.828 m 80.047 55.227 l S
82.59 73.852 m 82.59 55.246 l S
85.129 73.836 m 85.129 55.164 l S
87.672 73.828 m 87.672 55.207 l S
90.211 73.77 m 90.211 55.273 l S
92.754 73.773 m 92.754 55.285 l S
95.293 73.75 m 95.293 55.32 l S
97.836 73.73 m 97.836 55.344 l S
100.375 73.73 m 100.375 55.344 l S
102.918 73.723 m 102.918 55.348 l S
105.457 73.684 m 105.457 55.352 l S
108 73.68 m 108 55.434 l S
110.543 73.656 m 110.543 55.43 l S
113.082 73.633 m 113.082 55.406 l S
115.625 73.605 m 115.625 55.383 l S
118.164 73.625 m 118.164 55.422 l S
120.707 73.648 m 120.707 55.398 l S
123.246 73.691 m 123.246 55.379 l S
125.789 73.695 m 125.789 55.359 l S
128.328 73.691 m 128.328 55.348 l S
130.871 73.723 m 130.871 55.344 l S
133.41 73.797 m 133.41 55.324 l S
135.953 73.766 m 135.953 55.262 l S
138.492 73.742 m 138.492 55.328 l S
141.035 73.707 m 141.035 55.375 l S
143.578 73.711 m 143.578 55.336 l S
146.117 73.68 m 146.117 55.336 l S
148.66 73.676 m 148.66 55.363 l S
151.199 73.668 m 151.199 55.391 l S
153.742 73.648 m 153.742 55.434 l S
156.281 73.629 m 156.281 55.41 l S
158.824 73.668 m 158.824 55.414 l S
161.363 73.586 m 161.363 55.5 l S
163.906 73.602 m 163.906 55.441 l S
166.445 73.625 m 166.445 55.449 l S
168.988 73.617 m 168.988 55.469 l S
171.531 73.672 m 171.531 55.434 l S
174.07 73.621 m 174.07 55.426 l S
176.613 73.664 m 176.613 55.43 l S
179.152 73.66 m 179.152 55.422 l S
181.695 73.672 m 181.695 55.391 l S
184.234 73.668 m 184.234 55.406 l S
186.777 73.672 m 186.777 55.402 l S
189.316 73.578 m 189.316 55.484 l S
191.859 73.219 m 191.859 55.992 l S
194.398 71.621 m 194.398 57.73 l S
196.941 69.664 m 196.941 59.512 l S
199.48 68.73 m 199.48 60.641 l S
202.023 67.922 m 202.023 61.355 l S
204.566 67.297 m 204.566 62.027 l S
207.105 66.719 m 207.105 62.605 l S
209.648 66.309 m 209.648 63.039 l S
212.188 65.953 m 212.188 63.391 l S
214.73 65.691 m 214.73 63.688 l S
217.27 65.496 m 217.27 63.906 l S
219.812 65.316 m 219.812 64.074 l S
222.352 65.152 m 222.352 64.199 l S
224.895 65.051 m 224.895 64.336 l S
227.434 64.957 m 227.434 64.406 l S
229.977 64.871 m 229.977 64.5 l S
232.52 64.812 m 232.52 64.551 l S
235.059 64.777 m 235.059 64.578 l S
237.602 64.777 m 237.602 64.582 l S
240.141 64.777 m 240.141 64.582 l S
242.684 64.777 m 242.684 64.582 l S
245.223 64.777 m 245.223 64.582 l S
247.766 64.777 m 247.766 64.582 l S
250.305 64.777 m 250.305 64.582 l S
252.848 64.777 m 252.848 64.582 l S
255.387 64.777 m 255.387 64.582 l S
255.387 64.777 m 255.387 64.582 l S
3.812 107.98 m 3.812 107.781 l S
6.352 108.727 m 6.352 106.871 l S
8.895 111.281 m 8.895 104.625 l S
11.434 114.434 m 11.434 101.531 l S
13.977 116.434 m 13.977 99.602 l S
16.52 116.906 m 16.52 99.137 l S
19.059 117.293 m 19.059 98.66 l S
21.602 117.719 m 21.602 98.254 l S
24.141 117.875 m 24.141 98.121 l S
26.684 118.078 m 26.684 97.949 l S
29.223 118.074 m 29.223 97.887 l S
31.766 118.148 m 31.766 97.875 l S
34.305 118.164 m 34.305 97.863 l S
36.848 118.172 m 36.848 97.801 l S
39.387 118.258 m 39.387 97.738 l S
41.93 118.336 m 41.93 97.766 l S
44.469 118.18 m 44.469 97.773 l S
47.012 118.164 m 47.012 97.844 l S
49.555 118.148 m 49.555 97.875 l S
52.094 118.117 m 52.094 97.816 l S
54.637 118.121 m 54.637 97.906 l S
57.176 118.09 m 57.176 97.879 l S
59.719 118.086 m 59.719 97.914 l S
62.258 118.07 m 62.258 97.922 l S
64.801 118.047 m 64.801 97.926 l S
67.34 118.02 m 67.34 97.984 l S
69.883 117.961 m 69.883 98.027 l S
72.422 117.992 m 72.422 97.98 l S
74.965 118.055 m 74.965 97.988 l S
77.508 118.043 m 77.508 97.988 l S
80.047 118.031 m 80.047 97.996 l S
82.59 118.023 m 82.59 98.004 l S
85.129 118.012 m 85.129 98 l S
87.672 117.977 m 87.672 97.996 l S
90.211 117.914 m 90.211 98.105 l S
92.754 117.91 m 92.754 98.125 l S
95.293 117.809 m 95.293 98.152 l S
97.836 117.809 m 97.836 98.203 l S
100.375 117.805 m 100.375 98.18 l S
102.918 117.793 m 102.918 98.207 l S
105.457 117.766 m 105.457 98.207 l S
108 117.793 m 108 98.215 l S
110.543 117.734 m 110.543 98.289 l S
113.082 117.711 m 113.082 98.293 l S
115.625 117.746 m 115.625 98.289 l S
118.164 117.746 m 118.164 98.246 l S
120.707 117.742 m 120.707 98.23 l S
123.246 117.754 m 123.246 98.203 l S
125.789 117.832 m 125.789 98.227 l S
128.328 117.836 m 128.328 98.172 l S
130.871 117.875 m 130.871 98.102 l S
133.41 117.898 m 133.41 98.133 l S
135.953 117.848 m 135.953 98.137 l S
138.492 117.859 m 138.492 98.188 l S
141.035 117.836 m 141.035 98.195 l S
143.578 117.781 m 143.578 98.223 l S
146.117 117.77 m 146.117 98.227 l S
148.66 117.75 m 148.66 98.223 l S
151.199 117.758 m 151.199 98.238 l S
153.742 117.773 m 153.742 98.305 l S
156.281 117.699 m 156.281 98.285 l S
158.824 117.691 m 158.824 98.316 l S
161.363 117.676 m 161.363 98.344 l S
163.906 117.68 m 163.906 98.309 l S
166.445 117.609 m 166.445 98.355 l S
168.988 117.656 m 168.988 98.34 l S
171.531 117.66 m 171.531 98.348 l S
174.07 117.703 m 174.07 98.281 l S
176.613 117.758 m 176.613 98.266 l S
179.152 117.777 m 179.152 98.23 l S
181.695 117.723 m 181.695 98.238 l S
184.234 117.75 m 184.234 98.289 l S
186.777 117.766 m 186.777 98.277 l S
189.316 117.652 m 189.316 98.316 l S
191.859 116.648 m 191.859 99.398 l S
194.398 113.648 m 194.398 102.043 l S
196.941 113.059 m 196.941 102.957 l S
199.48 111.727 m 199.48 104.039 l S
202.023 110.801 m 202.023 104.934 l S
204.566 110.078 m 204.566 105.762 l S
207.105 109.578 m 207.105 106.238 l S
209.648 109.105 m 209.648 106.664 l S
212.188 108.867 m 212.188 106.961 l S
214.73 108.57 m 214.73 107.16 l S
217.27 108.453 m 217.27 107.352 l S
219.812 108.301 m 219.812 107.473 l S
222.352 108.191 m 222.352 107.543 l S
224.895 108.129 m 224.895 107.613 l S
227.434 108.074 m 227.434 107.703 l S
229.977 108.004 m 229.977 107.742 l S
232.52 107.992 m 232.52 107.781 l S
235.059 107.98 m 235.059 107.781 l S
237.602 107.98 m 237.602 107.781 l S
240.141 107.98 m 240.141 107.781 l S
242.684 107.98 m 242.684 107.781 l S
245.223 107.98 m 245.223 107.781 l S
247.766 107.98 m 247.766 107.781 l S
250.305 107.98 m 250.305 107.781 l S
252.848 107.98 m 252.848 107.781 l S
255.387 107.98 m 255.387 107.781 l S
255.387 107.98 m 255.387 107.781 l S
3.812 151.18 m 3.812 150.98 l S
6.352 153.531 m 6.352 148.398 l S
8.895 159.887 m 8.895 142.559 l S
11.434 166.086 m 11.434 136.141 l S
13.977 169.035 m 13.977 133.336 l S
16.52 169.777 m 16.52 132.562 l S
19.059 170.094 m 19.059 132.133 l S
21.602 170.48 m 21.602 131.895 l S
24.141 170.504 m 24.141 131.84 l S
26.684 170.664 m 26.684 131.668 l S
29.223 170.684 m 29.223 131.672 l S
31.766 170.738 m 31.766 131.633 l S
34.305 170.633 m 34.305 131.66 l S
36.848 170.785 m 36.848 131.574 l S
39.387 170.836 m 39.387 131.562 l S
41.93 170.836 m 41.93 131.594 l S
44.469 170.754 m 44.469 131.664 l S
47.012 170.719 m 47.012 131.633 l S
49.555 170.707 m 49.555 131.664 l S
52.094 170.66 m 52.094 131.785 l S
54.637 170.629 m 54.637 131.781 l S
57.176 170.707 m 57.176 131.75 l S
59.719 170.695 m 59.719 131.812 l S
62.258 170.652 m 62.258 131.797 l S
64.801 170.625 m 64.801 131.816 l S
67.34 170.551 m 67.34 131.863 l S
69.883 170.598 m 69.883 131.879 l S
72.422 170.652 m 72.422 131.82 l S
74.965 170.621 m 74.965 131.82 l S
77.508 170.625 m 77.508 131.848 l S
80.047 170.59 m 80.047 131.879 l S
82.59 170.613 m 82.59 131.816 l S
85.129 170.59 m 85.129 131.789 l S
87.672 170.598 m 87.672 131.934 l S
90.211 170.516 m 90.211 131.949 l S
92.754 170.469 m 92.754 131.965 l S
95.293 170.48 m 95.293 131.996 l S
97.836 170.508 m 97.836 131.988 l S
100.375 170.512 m 100.375 131.961 l S
102.918 170.449 m 102.918 132 l S
105.457 170.441 m 105.457 132.031 l S
108 170.445 m 108 132.039 l S
110.543 170.387 m 110.543 132.008 l S
113.082 170.418 m 113.082 132.039 l S
115.625 170.418 m 115.625 131.992 l S
118.164 170.434 m 118.164 131.977 l S
120.707 170.422 m 120.707 131.965 l S
123.246 170.484 m 123.246 131.969 l S
125.789 170.484 m 125.789 131.918 l S
128.328 170.477 m 128.328 131.906 l S
130.871 170.527 m 130.871 131.848 l S
133.41 170.539 m 133.41 131.891 l S
135.953 170.508 m 135.953 131.879 l S
138.492 170.504 m 138.492 131.902 l S
141.035 170.449 m 141.035 131.953 l S
143.578 170.402 m 143.578 131.934 l S
146.117 170.434 m 146.117 131.949 l S
148.66 170.449 m 148.66 131.941 l S
151.199 170.477 m 151.199 131.953 l S
153.742 170.398 m 153.742 131.969 l S
156.281 170.418 m 156.281 131.996 l S
158.824 170.395 m 158.824 131.988 l S
161.363 170.406 m 161.363 132.004 l S
163.906 170.434 m 163.906 131.957 l S
166.445 170.371 m 166.445 132.012 l S
168.988 170.391 m 168.988 131.945 l S
171.531 170.449 m 171.531 131.961 l S
174.07 170.422 m 174.07 131.949 l S
176.613 170.469 m 176.613 131.895 l S
179.152 170.477 m 179.152 131.895 l S
181.695 170.539 m 181.695 131.934 l S
184.234 170.504 m 184.234 131.93 l S
186.777 170.492 m 186.777 131.898 l S
189.316 170.43 m 189.316 131.914 l S
191.859 169.66 m 191.859 132.691 l S
194.398 167.605 m 194.398 134.516 l S
196.941 165.477 m 196.941 136.922 l S
199.48 162.961 m 199.48 139.18 l S
202.023 160.898 m 202.023 141.066 l S
204.566 159.246 m 204.566 142.902 l S
207.105 157.711 m 207.105 144.395 l S
209.648 156.41 m 209.648 145.746 l S
212.188 155.262 m 212.188 146.805 l S
214.73 154.52 m 214.73 147.688 l S
217.27 153.797 m 217.27 148.348 l S
219.812 153.223 m 219.812 148.949 l S
222.352 152.762 m 222.352 149.438 l S
224.895 152.355 m 224.895 149.82 l S
227.434 152.02 m 227.434 150.125 l S
229.977 151.762 m 229.977 150.375 l S
232.52 151.578 m 232.52 150.598 l S
235.059 151.438 m 235.059 150.723 l S
237.602 151.312 m 237.602 150.832 l S
240.141 151.246 m 240.141 150.922 l S
242.684 151.191 m 242.684 150.98 l S
245.223 151.18 m 245.223 150.98 l S
247.766 151.18 m 247.766 150.98 l S
250.305 151.18 m 250.305 150.98 l S
252.848 151.18 m 252.848 150.98 l S
255.387 151.18 m 255.387 150.98 l S
255.387 151.18 m 255.387 150.98 l S
Q Q
showpage
%%Trailer
end
%%EOF
