%!PS-Adobe-3.0 EPSF-3.0
%%Creator: cairo 1.16.0 (https://cairographics.org)
%%CreationDate: Wed May 15 11:57:18 2024
%%Pages: 1
%%DocumentData: Clean7Bit
%%LanguageLevel: 2
%%Creator: Wolfram Mathematica
%%BoundingBox: 2 8 257 167
%%EndComments
%%BeginProlog
50 dict begin
/q { gsave } bind def
/Q { grestore } bind def
/cm { 6 array astore concat } bind def
/w { setlinewidth } bind def
/J { setlinecap } bind def
/j { setlinejoin } bind def
/M { setmiterlimit } bind def
/d { setdash } bind def
/m { moveto } bind def
/l { lineto } bind def
/c { curveto } bind def
/h { closepath } bind def
/re { exch dup neg 3 1 roll 5 3 roll moveto 0 rlineto
      0 exch rlineto 0 rlineto closepath } bind def
/S { stroke } bind def
/f { fill } bind def
/f* { eofill } bind def
/n { newpath } bind def
/W { clip } bind def
/W* { eoclip } bind def
/BT { } bind def
/ET { } bind def
/BDC { mark 3 1 roll /BDC pdfmark } bind def
/EMC { mark /EMC pdfmark } bind def
/cairo_store_point { /cairo_point_y exch def /cairo_point_x exch def } def
/Tj { show currentpoint cairo_store_point } bind def
/TJ {
  {
    dup
    type /stringtype eq
    { show } { -0.001 mul 0 cairo_font_matrix dtransform rmoveto } ifelse
  } forall
  currentpoint cairo_store_point
} bind def
/cairo_selectfont { cairo_font_matrix aload pop pop pop 0 0 6 array astore
    cairo_font exch selectfont cairo_point_x cairo_point_y moveto } bind def
/Tf { pop /cairo_font exch def /cairo_font_matrix where
      { pop cairo_selectfont } if } bind def
/Td { matrix translate cairo_font_matrix matrix concatmatrix dup
      /cairo_font_matrix exch def dup 4 get exch 5 get cairo_store_point
      /cairo_font where { pop cairo_selectfont } if } bind def
/Tm { 2 copy 8 2 roll 6 array astore /cairo_font_matrix exch def
      cairo_store_point /cairo_font where { pop cairo_selectfont } if } bind def
/g { setgray } bind def
/rg { setrgbcolor } bind def
/d1 { setcachedevice } bind def
/cairo_data_source {
  CairoDataIndex CairoData length lt
    { CairoData CairoDataIndex get /CairoDataIndex CairoDataIndex 1 add def }
    { () } ifelse
} def
/cairo_flush_ascii85_file { cairo_ascii85_file status { cairo_ascii85_file flushfile } if } def
/cairo_image { image cairo_flush_ascii85_file } def
/cairo_imagemask { imagemask cairo_flush_ascii85_file } def
%%EndProlog
%%BeginSetup
%%EndSetup
%%Page: 1 1
%%BeginPageSetup
%%PageBoundingBox: 2 8 257 167
%%EndPageSetup
q 2 8 255 159 rectclip
1 0 0 -1 0 173 cm q
0 g
1.796436 w
0 J
0 j
[] 0.0 d
3.25 M 3.812 21.598 m 3.812 21.398 l S
6.352 24.441 m 6.352 18.367 l S
8.895 30.156 m 8.895 13 l S
11.434 33.863 m 11.434 9.02 l S
13.977 34.719 m 13.977 8.062 l S
16.52 35.191 m 16.52 7.758 l S
19.059 35.441 m 19.059 7.492 l S
21.602 35.613 m 21.602 7.316 l S
24.141 35.652 m 24.141 7.246 l S
26.684 35.676 m 26.684 7.164 l S
29.223 35.715 m 29.223 7.094 l S
31.766 35.719 m 31.766 7.094 l S
34.305 35.703 m 34.305 7.098 l S
36.848 35.711 m 36.848 7.078 l S
39.387 35.758 m 39.387 7.004 l S
41.93 35.766 m 41.93 6.996 l S
44.469 35.762 m 44.469 6.996 l S
47.012 35.781 m 47.012 6.969 l S
49.555 35.812 m 49.555 6.945 l S
52.094 35.816 m 52.094 6.941 l S
54.637 35.82 m 54.637 6.957 l S
57.176 35.801 m 57.176 6.984 l S
59.719 35.789 m 59.719 7.012 l S
62.258 35.793 m 62.258 7.008 l S
64.801 35.789 m 64.801 7.008 l S
67.34 35.801 m 67.34 6.992 l S
69.883 35.801 m 69.883 7.004 l S
72.422 35.809 m 72.422 7.012 l S
74.965 35.805 m 74.965 7.004 l S
77.508 35.809 m 77.508 6.988 l S
80.047 35.812 m 80.047 6.992 l S
82.59 35.824 m 82.59 6.98 l S
85.129 35.824 m 85.129 6.969 l S
87.672 35.816 m 87.672 6.977 l S
90.211 35.82 m 90.211 6.973 l S
92.754 35.816 m 92.754 6.977 l S
95.293 35.809 m 95.293 6.984 l S
97.836 35.801 m 97.836 7.012 l S
100.375 35.793 m 100.375 7.027 l S
102.918 35.805 m 102.918 7.004 l S
105.457 35.824 m 105.457 6.98 l S
108 35.824 m 108 6.977 l S
110.543 35.812 m 110.543 6.969 l S
113.082 35.812 m 113.082 6.961 l S
115.625 35.816 m 115.625 6.977 l S
118.164 35.812 m 118.164 6.973 l S
120.707 35.812 m 120.707 6.969 l S
123.246 35.82 m 123.246 6.969 l S
125.789 35.824 m 125.789 6.969 l S
128.328 35.836 m 128.328 6.957 l S
130.871 35.824 m 130.871 6.953 l S
133.41 35.836 m 133.41 6.957 l S
135.953 35.832 m 135.953 6.953 l S
138.492 35.832 m 138.492 6.941 l S
141.035 35.848 m 141.035 6.941 l S
143.578 35.848 m 143.578 6.934 l S
146.117 35.848 m 146.117 6.941 l S
148.66 35.855 m 148.66 6.934 l S
151.199 35.867 m 151.199 6.918 l S
153.742 35.867 m 153.742 6.922 l S
156.281 35.852 m 156.281 6.918 l S
158.824 35.84 m 158.824 6.93 l S
161.363 35.84 m 161.363 6.945 l S
163.906 35.836 m 163.906 6.945 l S
166.445 35.832 m 166.445 6.957 l S
168.988 35.836 m 168.988 6.957 l S
171.531 35.84 m 171.531 6.961 l S
174.07 35.84 m 174.07 6.953 l S
176.613 35.84 m 176.613 6.957 l S
179.152 35.836 m 179.152 6.953 l S
181.695 35.84 m 181.695 6.941 l S
184.234 35.84 m 184.234 6.965 l S
186.777 35.832 m 186.777 6.961 l S
189.316 35.848 m 189.316 6.965 l S
191.859 35.844 m 191.859 6.949 l S
194.398 35.824 m 194.398 6.984 l S
196.941 33.789 m 196.941 8.957 l S
199.48 31.621 m 199.48 11.703 l S
202.023 29.43 m 202.023 13.762 l S
204.566 27.422 m 204.566 15.406 l S
207.105 26.324 m 207.105 16.672 l S
209.648 25.406 m 209.648 17.645 l S
212.188 24.574 m 212.188 18.484 l S
214.73 23.902 m 214.73 19.148 l S
217.27 23.285 m 217.27 19.742 l S
219.812 22.793 m 219.812 20.277 l S
222.352 22.414 m 222.352 20.598 l S
224.895 22.145 m 224.895 20.914 l S
227.434 21.93 m 227.434 21.074 l S
229.977 21.766 m 229.977 21.23 l S
232.52 21.676 m 232.52 21.324 l S
235.059 21.613 m 235.059 21.387 l S
237.602 21.598 m 237.602 21.398 l S
240.141 21.598 m 240.141 21.398 l S
242.684 21.598 m 242.684 21.398 l S
245.223 21.598 m 245.223 21.398 l S
247.766 21.598 m 247.766 21.398 l S
250.305 21.598 m 250.305 21.398 l S
252.848 21.598 m 252.848 21.398 l S
255.387 21.598 m 255.387 21.398 l S
255.387 21.598 m 255.387 21.398 l S
3.812 64.797 m 3.812 64.602 l S
6.352 66.75 m 6.352 62.777 l S
8.895 69.48 m 8.895 60.098 l S
11.434 71.777 m 11.434 57.914 l S
13.977 72.746 m 13.977 56.605 l S
16.52 73.395 m 16.52 55.992 l S
19.059 73.785 m 19.059 55.668 l S
21.602 73.965 m 21.602 55.484 l S
24.141 74.039 m 24.141 55.383 l S
26.684 74.098 m 26.684 55.328 l S
29.223 74.152 m 29.223 55.246 l S
31.766 74.164 m 31.766 55.199 l S
34.305 74.164 m 34.305 55.203 l S
36.848 74.188 m 36.848 55.199 l S
39.387 74.27 m 39.387 55.141 l S
41.93 74.258 m 41.93 55.125 l S
44.469 74.289 m 44.469 55.098 l S
47.012 74.316 m 47.012 55.102 l S
49.555 74.348 m 49.555 55.086 l S
52.094 74.375 m 52.094 55.066 l S
54.637 74.352 m 54.637 55.066 l S
57.176 74.316 m 57.176 55.082 l S
59.719 74.305 m 59.719 55.113 l S
62.258 74.324 m 62.258 55.109 l S
64.801 74.328 m 64.801 55.102 l S
67.34 74.324 m 67.34 55.105 l S
69.883 74.332 m 69.883 55.113 l S
72.422 74.289 m 72.422 55.129 l S
74.965 74.301 m 74.965 55.121 l S
77.508 74.297 m 77.508 55.125 l S
80.047 74.316 m 80.047 55.117 l S
82.59 74.328 m 82.59 55.117 l S
85.129 74.355 m 85.129 55.062 l S
87.672 74.426 m 87.672 55.047 l S
90.211 74.355 m 90.211 55.109 l S
92.754 74.355 m 92.754 55.07 l S
95.293 74.316 m 95.293 55.094 l S
97.836 74.32 m 97.836 55.148 l S
100.375 74.285 m 100.375 55.133 l S
102.918 74.289 m 102.918 55.148 l S
105.457 74.297 m 105.457 55.141 l S
108 74.316 m 108 55.129 l S
110.543 74.328 m 110.543 55.109 l S
113.082 74.316 m 113.082 55.113 l S
115.625 74.316 m 115.625 55.109 l S
118.164 74.328 m 118.164 55.102 l S
120.707 74.332 m 120.707 55.113 l S
123.246 74.312 m 123.246 55.105 l S
125.789 74.367 m 125.789 55.125 l S
128.328 74.348 m 128.328 55.121 l S
130.871 74.34 m 130.871 55.09 l S
133.41 74.371 m 133.41 55.031 l S
135.953 74.348 m 135.953 55.086 l S
138.492 74.348 m 138.492 55.113 l S
141.035 74.344 m 141.035 55.113 l S
143.578 74.359 m 143.578 55.07 l S
146.117 74.348 m 146.117 55.094 l S
148.66 74.367 m 148.66 55.062 l S
151.199 74.383 m 151.199 55.051 l S
153.742 74.359 m 153.742 55.059 l S
156.281 74.363 m 156.281 55.055 l S
158.824 74.348 m 158.824 55.09 l S
161.363 74.336 m 161.363 55.098 l S
163.906 74.344 m 163.906 55.094 l S
166.445 74.312 m 166.445 55.094 l S
168.988 74.324 m 168.988 55.105 l S
171.531 74.328 m 171.531 55.082 l S
174.07 74.316 m 174.07 55.098 l S
176.613 74.336 m 176.613 55.082 l S
179.152 74.324 m 179.152 55.094 l S
181.695 74.332 m 181.695 55.102 l S
184.234 74.324 m 184.234 55.117 l S
186.777 74.312 m 186.777 55.125 l S
189.316 74.305 m 189.316 55.133 l S
191.859 74.309 m 191.859 55.109 l S
194.398 74.246 m 194.398 55.121 l S
196.941 72.742 m 196.941 56.527 l S
199.48 69.609 m 199.48 59.855 l S
202.023 68.609 m 202.023 60.809 l S
204.566 68.375 m 204.566 61.164 l S
207.105 67.504 m 207.105 61.895 l S
209.648 66.879 m 209.648 62.449 l S
212.188 66.543 m 212.188 62.871 l S
214.73 66.172 m 214.73 63.254 l S
217.27 65.82 m 217.27 63.625 l S
219.812 65.535 m 219.812 63.895 l S
222.352 65.312 m 222.352 64.09 l S
224.895 65.109 m 224.895 64.297 l S
227.434 64.988 m 227.434 64.398 l S
229.977 64.883 m 229.977 64.539 l S
232.52 64.809 m 232.52 64.582 l S
235.059 64.797 m 235.059 64.602 l S
237.602 64.797 m 237.602 64.602 l S
240.141 64.797 m 240.141 64.602 l S
242.684 64.797 m 242.684 64.602 l S
245.223 64.797 m 245.223 64.602 l S
247.766 64.797 m 247.766 64.602 l S
250.305 64.797 m 250.305 64.602 l S
252.848 64.797 m 252.848 64.602 l S
255.387 64.797 m 255.387 64.602 l S
255.387 64.797 m 255.387 64.602 l S
3.812 107.996 m 3.812 107.801 l S
6.352 112.41 m 6.352 103.504 l S
8.895 118.949 m 8.895 96.602 l S
11.434 123.637 m 11.434 92.18 l S
13.977 124.984 m 13.977 90.672 l S
16.52 125.926 m 16.52 89.91 l S
19.059 126.52 m 19.059 89.406 l S
21.602 126.809 m 21.602 89.07 l S
24.141 126.875 m 24.141 88.934 l S
26.684 126.992 m 26.684 88.824 l S
29.223 127.133 m 29.223 88.727 l S
31.766 127.141 m 31.766 88.676 l S
34.305 127.152 m 34.305 88.691 l S
36.848 127.199 m 36.848 88.648 l S
39.387 127.293 m 39.387 88.574 l S
41.93 127.305 m 41.93 88.57 l S
44.469 127.34 m 44.469 88.547 l S
47.012 127.367 m 47.012 88.523 l S
49.555 127.422 m 49.555 88.5 l S
52.094 127.422 m 52.094 88.48 l S
54.637 127.465 m 54.637 88.457 l S
57.176 127.387 m 57.176 88.512 l S
59.719 127.379 m 59.719 88.535 l S
62.258 127.391 m 62.258 88.52 l S
64.801 127.422 m 64.801 88.52 l S
67.34 127.434 m 67.34 88.516 l S
69.883 127.418 m 69.883 88.516 l S
72.422 127.469 m 72.422 88.461 l S
74.965 127.457 m 74.965 88.465 l S
77.508 127.441 m 77.508 88.477 l S
80.047 127.473 m 80.047 88.465 l S
82.59 127.527 m 82.59 88.43 l S
85.129 127.496 m 85.129 88.449 l S
87.672 127.555 m 87.672 88.453 l S
90.211 127.523 m 90.211 88.414 l S
92.754 127.516 m 92.754 88.461 l S
95.293 127.484 m 95.293 88.473 l S
97.836 127.465 m 97.836 88.508 l S
100.375 127.426 m 100.375 88.523 l S
102.918 127.461 m 102.918 88.516 l S
105.457 127.473 m 105.457 88.492 l S
108 127.461 m 108 88.484 l S
110.543 127.461 m 110.543 88.488 l S
113.082 127.527 m 113.082 88.434 l S
115.625 127.449 m 115.625 88.496 l S
118.164 127.473 m 118.164 88.504 l S
120.707 127.461 m 120.707 88.492 l S
123.246 127.469 m 123.246 88.48 l S
125.789 127.496 m 125.789 88.449 l S
128.328 127.535 m 128.328 88.461 l S
130.871 127.574 m 130.871 88.434 l S
133.41 127.535 m 133.41 88.445 l S
135.953 127.496 m 135.953 88.441 l S
138.492 127.523 m 138.492 88.453 l S
141.035 127.555 m 141.035 88.438 l S
143.578 127.637 m 143.578 88.363 l S
146.117 127.535 m 146.117 88.422 l S
148.66 127.523 m 148.66 88.43 l S
151.199 127.559 m 151.199 88.41 l S
153.742 127.535 m 153.742 88.414 l S
156.281 127.598 m 156.281 88.398 l S
158.824 127.574 m 158.824 88.422 l S
161.363 127.535 m 161.363 88.438 l S
163.906 127.508 m 163.906 88.449 l S
166.445 127.477 m 166.445 88.469 l S
168.988 127.512 m 168.988 88.469 l S
171.531 127.512 m 171.531 88.422 l S
174.07 127.547 m 174.07 88.457 l S
176.613 127.539 m 176.613 88.445 l S
179.152 127.547 m 179.152 88.43 l S
181.695 127.531 m 181.695 88.422 l S
184.234 127.492 m 184.234 88.461 l S
186.777 127.512 m 186.777 88.465 l S
189.316 127.492 m 189.316 88.426 l S
191.859 127.484 m 191.859 88.48 l S
194.398 127.395 m 194.398 88.527 l S
196.941 124.777 m 196.941 90.996 l S
199.48 120.812 m 199.48 95.145 l S
202.023 118.414 m 202.023 97.145 l S
204.566 116.336 m 204.566 99.219 l S
207.105 114.672 m 207.105 100.906 l S
209.648 113.219 m 209.648 102.297 l S
212.188 112.188 m 212.188 103.535 l S
214.73 111.266 m 214.73 104.465 l S
217.27 110.457 m 217.27 105.289 l S
219.812 109.805 m 219.812 105.922 l S
222.352 109.254 m 222.352 106.402 l S
224.895 108.879 m 224.895 106.961 l S
227.434 108.566 m 227.434 107.246 l S
229.977 108.355 m 229.977 107.484 l S
232.52 108.168 m 232.52 107.605 l S
235.059 108.078 m 235.059 107.688 l S
237.602 108.027 m 237.602 107.789 l S
240.141 107.996 m 240.141 107.801 l S
242.684 107.996 m 242.684 107.801 l S
245.223 107.996 m 245.223 107.801 l S
247.766 107.996 m 247.766 107.801 l S
250.305 107.996 m 250.305 107.801 l S
252.848 107.996 m 252.848 107.801 l S
255.387 107.996 m 255.387 107.801 l S
255.387 107.996 m 255.387 107.801 l S
3.812 151.195 m 3.812 151 l S
6.352 153.805 m 6.352 148.449 l S
8.895 157.875 m 8.895 144.066 l S
11.434 161.402 m 11.434 141.145 l S
13.977 162.582 m 13.977 140.172 l S
16.52 162.996 m 16.52 139.605 l S
19.059 163.551 m 19.059 139.477 l S
21.602 163.848 m 21.602 139.355 l S
24.141 163.887 m 24.141 139.328 l S
26.684 163.949 m 26.684 139.293 l S
29.223 163.941 m 29.223 139.234 l S
31.766 163.984 m 31.766 139.215 l S
34.305 163.961 m 34.305 139.215 l S
36.848 163.941 m 36.848 139.227 l S
39.387 164.004 m 39.387 139.238 l S
41.93 164.047 m 41.93 139.219 l S
44.469 164.047 m 44.469 139.223 l S
47.012 164.043 m 47.012 139.207 l S
49.555 164.094 m 49.555 139.188 l S
52.094 164.145 m 52.094 139.156 l S
54.637 164.102 m 54.637 139.16 l S
57.176 164.082 m 57.176 139.172 l S
59.719 164.023 m 59.719 139.18 l S
62.258 163.992 m 62.258 139.191 l S
64.801 163.992 m 64.801 139.207 l S
67.34 163.996 m 67.34 139.207 l S
69.883 164.012 m 69.883 139.188 l S
72.422 164.004 m 72.422 139.203 l S
74.965 163.988 m 74.965 139.223 l S
77.508 164.027 m 77.508 139.207 l S
80.047 164 m 80.047 139.199 l S
82.59 164.027 m 82.59 139.211 l S
85.129 164.031 m 85.129 139.055 l S
87.672 164.121 m 87.672 139.109 l S
90.211 164.059 m 90.211 139.184 l S
92.754 164.066 m 92.754 139.133 l S
95.293 164.02 m 95.293 139.156 l S
97.836 163.988 m 97.836 139.23 l S
100.375 163.977 m 100.375 139.219 l S
102.918 164.02 m 102.918 139.211 l S
105.457 164.043 m 105.457 139.203 l S
108 164.035 m 108 139.199 l S
110.543 164.027 m 110.543 139.184 l S
113.082 164.027 m 113.082 139.188 l S
115.625 164.031 m 115.625 139.223 l S
118.164 164.047 m 118.164 139.191 l S
120.707 164.031 m 120.707 139.223 l S
123.246 164.043 m 123.246 139.219 l S
125.789 164.039 m 125.789 139.211 l S
128.328 164.062 m 128.328 139.18 l S
130.871 164.043 m 130.871 139.145 l S
133.41 164.055 m 133.41 139.07 l S
135.953 164.086 m 135.953 139.176 l S
138.492 164.047 m 138.492 139.172 l S
141.035 164.082 m 141.035 139.191 l S
143.578 164.078 m 143.578 139.148 l S
146.117 164.059 m 146.117 139.18 l S
148.66 164.094 m 148.66 139.102 l S
151.199 164.125 m 151.199 139.07 l S
153.742 164.156 m 153.742 139.117 l S
156.281 164.125 m 156.281 139.074 l S
158.824 164.074 m 158.824 139.203 l S
161.363 164.043 m 161.363 139.18 l S
163.906 164.051 m 163.906 139.141 l S
166.445 164.039 m 166.445 139.141 l S
168.988 164.039 m 168.988 139.207 l S
171.531 164.051 m 171.531 139.148 l S
174.07 164.062 m 174.07 139.203 l S
176.613 164.062 m 176.613 139.109 l S
179.152 164.109 m 179.152 139.109 l S
181.695 164.086 m 181.695 139.121 l S
184.234 164.086 m 184.234 139.164 l S
186.777 164.074 m 186.777 139.145 l S
189.316 164.035 m 189.316 139.148 l S
191.859 164.062 m 191.859 139.152 l S
194.398 164.051 m 194.398 139.238 l S
196.941 161.859 m 196.941 140.461 l S
199.48 158.801 m 199.48 143.582 l S
202.023 156.953 m 202.023 144.809 l S
204.566 156.191 m 204.566 145.664 l S
207.105 155.176 m 207.105 146.828 l S
209.648 154.371 m 209.648 147.777 l S
212.188 153.684 m 212.188 148.535 l S
214.73 153.117 m 214.73 149.094 l S
217.27 152.5 m 217.27 149.703 l S
219.812 152.07 m 219.812 150.117 l S
222.352 151.863 m 222.352 150.344 l S
224.895 151.559 m 224.895 150.621 l S
227.434 151.453 m 227.434 150.742 l S
229.977 151.336 m 229.977 150.891 l S
232.52 151.27 m 232.52 150.941 l S
235.059 151.195 m 235.059 151 l S
237.602 151.195 m 237.602 151 l S
240.141 151.195 m 240.141 151 l S
242.684 151.195 m 242.684 151 l S
245.223 151.195 m 245.223 151 l S
247.766 151.195 m 247.766 151 l S
250.305 151.195 m 250.305 151 l S
252.848 151.195 m 252.848 151 l S
255.387 151.195 m 255.387 151 l S
255.387 151.195 m 255.387 151 l S
Q Q
showpage
%%Trailer
end
%%EOF
