%!PS-Adobe-3.0 EPSF-3.0
%%Creator: cairo 1.16.0 (https://cairographics.org)
%%CreationDate: Wed May 15 11:57:18 2024
%%Pages: 1
%%DocumentData: Clean7Bit
%%LanguageLevel: 2
%%Creator: Wolfram Mathematica
%%BoundingBox: 2 2 257 160
%%EndComments
%%BeginProlog
50 dict begin
/q { gsave } bind def
/Q { grestore } bind def
/cm { 6 array astore concat } bind def
/w { setlinewidth } bind def
/J { setlinecap } bind def
/j { setlinejoin } bind def
/M { setmiterlimit } bind def
/d { setdash } bind def
/m { moveto } bind def
/l { lineto } bind def
/c { curveto } bind def
/h { closepath } bind def
/re { exch dup neg 3 1 roll 5 3 roll moveto 0 rlineto
      0 exch rlineto 0 rlineto closepath } bind def
/S { stroke } bind def
/f { fill } bind def
/f* { eofill } bind def
/n { newpath } bind def
/W { clip } bind def
/W* { eoclip } bind def
/BT { } bind def
/ET { } bind def
/BDC { mark 3 1 roll /BDC pdfmark } bind def
/EMC { mark /EMC pdfmark } bind def
/cairo_store_point { /cairo_point_y exch def /cairo_point_x exch def } def
/Tj { show currentpoint cairo_store_point } bind def
/TJ {
  {
    dup
    type /stringtype eq
    { show } { -0.001 mul 0 cairo_font_matrix dtransform rmoveto } ifelse
  } forall
  currentpoint cairo_store_point
} bind def
/cairo_selectfont { cairo_font_matrix aload pop pop pop 0 0 6 array astore
    cairo_font exch selectfont cairo_point_x cairo_point_y moveto } bind def
/Tf { pop /cairo_font exch def /cairo_font_matrix where
      { pop cairo_selectfont } if } bind def
/Td { matrix translate cairo_font_matrix matrix concatmatrix dup
      /cairo_font_matrix exch def dup 4 get exch 5 get cairo_store_point
      /cairo_font where { pop cairo_selectfont } if } bind def
/Tm { 2 copy 8 2 roll 6 array astore /cairo_font_matrix exch def
      cairo_store_point /cairo_font where { pop cairo_selectfont } if } bind def
/g { setgray } bind def
/rg { setrgbcolor } bind def
/d1 { setcachedevice } bind def
/cairo_data_source {
  CairoDataIndex CairoData length lt
    { CairoData CairoDataIndex get /CairoDataIndex CairoDataIndex 1 add def }
    { () } ifelse
} def
/cairo_flush_ascii85_file { cairo_ascii85_file status { cairo_ascii85_file flushfile } if } def
/cairo_image { image cairo_flush_ascii85_file } def
/cairo_imagemask { imagemask cairo_flush_ascii85_file } def
%%EndProlog
%%BeginSetup
%%EndSetup
%%Page: 1 1
%%BeginPageSetup
%%PageBoundingBox: 2 2 257 160
%%EndPageSetup
q 2 2 255 158 rectclip
1 0 0 -1 0 173 cm q
0 g
1.796436 w
0 J
0 j
[] 0.0 d
3.25 M 3.812 21.656 m 3.812 21.461 l S
6.352 21.691 m 6.352 21.445 l S
8.895 22.621 m 8.895 20.203 l S
11.434 24.637 m 11.434 18.457 l S
13.977 25.625 m 13.977 17.594 l S
16.52 26.25 m 16.52 16.863 l S
19.059 26.922 m 19.059 16.301 l S
21.602 27.266 m 21.602 15.852 l S
24.141 27.641 m 24.141 15.41 l S
26.684 27.922 m 26.684 15.176 l S
29.223 28.102 m 29.223 15.02 l S
31.766 28.242 m 31.766 14.895 l S
34.305 28.387 m 34.305 14.715 l S
36.848 28.512 m 36.848 14.609 l S
39.387 28.574 m 39.387 14.543 l S
41.93 28.672 m 41.93 14.508 l S
44.469 28.711 m 44.469 14.414 l S
47.012 28.766 m 47.012 14.344 l S
49.555 28.828 m 49.555 14.289 l S
52.094 28.875 m 52.094 14.199 l S
54.637 28.984 m 54.637 14.117 l S
57.176 29.027 m 57.176 14.051 l S
59.719 29.078 m 59.719 13.949 l S
62.258 29.121 m 62.258 13.945 l S
64.801 29.141 m 64.801 13.945 l S
67.34 29.145 m 67.34 13.945 l S
69.883 29.121 m 69.883 13.961 l S
72.422 29.109 m 72.422 13.926 l S
74.965 29.109 m 74.965 13.969 l S
77.508 29.074 m 77.508 14.004 l S
80.047 29.062 m 80.047 14.031 l S
82.59 29.039 m 82.59 14.055 l S
85.129 29.02 m 85.129 14.051 l S
87.672 29.004 m 87.672 14.121 l S
90.211 28.93 m 90.211 14.156 l S
92.754 28.898 m 92.754 14.199 l S
95.293 28.875 m 95.293 14.211 l S
97.836 28.824 m 97.836 14.316 l S
100.375 28.82 m 100.375 14.312 l S
102.918 28.801 m 102.918 14.363 l S
105.457 28.832 m 105.457 14.305 l S
108 28.844 m 108 14.293 l S
110.543 28.836 m 110.543 14.273 l S
113.082 28.824 m 113.082 14.297 l S
115.625 28.766 m 115.625 14.344 l S
118.164 28.762 m 118.164 14.348 l S
120.707 28.742 m 120.707 14.363 l S
123.246 28.777 m 123.246 14.371 l S
125.789 28.766 m 125.789 14.383 l S
128.328 28.766 m 128.328 14.359 l S
130.871 28.766 m 130.871 14.348 l S
133.41 28.762 m 133.41 14.34 l S
135.953 28.754 m 135.953 14.383 l S
138.492 28.762 m 138.492 14.371 l S
141.035 28.773 m 141.035 14.371 l S
143.578 28.758 m 143.578 14.359 l S
146.117 28.77 m 146.117 14.332 l S
148.66 28.793 m 148.66 14.355 l S
151.199 28.805 m 151.199 14.352 l S
153.742 28.832 m 153.742 14.328 l S
156.281 28.824 m 156.281 14.34 l S
158.824 28.844 m 158.824 14.277 l S
161.363 28.859 m 161.363 14.27 l S
163.906 28.859 m 163.906 14.277 l S
166.445 28.891 m 166.445 14.258 l S
168.988 28.887 m 168.988 14.246 l S
171.531 28.879 m 171.531 14.238 l S
174.07 28.832 m 174.07 14.32 l S
176.613 28.141 m 176.613 15.121 l S
179.152 25.215 m 179.152 17.762 l S
181.695 24.57 m 181.695 18.691 l S
184.234 23.98 m 184.234 19.117 l S
186.777 23.438 m 186.777 19.633 l S
189.316 22.973 m 189.316 20.164 l S
191.859 22.656 m 191.859 20.43 l S
194.398 22.449 m 194.398 20.719 l S
196.941 22.18 m 196.941 20.902 l S
199.48 22.059 m 199.48 21.078 l S
202.023 21.93 m 202.023 21.207 l S
204.566 21.863 m 204.566 21.266 l S
207.105 21.777 m 207.105 21.324 l S
209.648 21.719 m 209.648 21.371 l S
212.188 21.684 m 212.188 21.426 l S
214.73 21.664 m 214.73 21.438 l S
217.27 21.656 m 217.27 21.461 l S
219.812 21.656 m 219.812 21.461 l S
222.352 21.656 m 222.352 21.461 l S
224.895 21.656 m 224.895 21.461 l S
227.434 21.656 m 227.434 21.461 l S
229.977 21.656 m 229.977 21.461 l S
232.52 21.656 m 232.52 21.461 l S
235.059 21.656 m 235.059 21.461 l S
237.602 21.656 m 237.602 21.461 l S
240.141 21.656 m 240.141 21.461 l S
242.684 21.656 m 242.684 21.461 l S
245.223 21.656 m 245.223 21.461 l S
247.766 21.656 m 247.766 21.461 l S
250.305 21.656 m 250.305 21.461 l S
252.848 21.656 m 252.848 21.461 l S
255.387 21.656 m 255.387 21.461 l S
255.387 21.656 m 255.387 21.461 l S
3.812 64.855 m 3.812 64.66 l S
6.352 64.906 m 6.352 64.613 l S
8.895 66.586 m 8.895 62.781 l S
11.434 69.004 m 11.434 60.617 l S
13.977 70.148 m 13.977 59.164 l S
16.52 71.016 m 16.52 58.344 l S
19.059 71.633 m 19.059 57.848 l S
21.602 72.004 m 21.602 57.344 l S
24.141 72.305 m 24.141 57.168 l S
26.684 72.391 m 26.684 56.996 l S
29.223 72.52 m 29.223 56.789 l S
31.766 72.707 m 31.766 56.594 l S
34.305 72.793 m 34.305 56.469 l S
36.848 72.906 m 36.848 56.363 l S
39.387 72.973 m 39.387 56.297 l S
41.93 73.043 m 41.93 56.254 l S
44.469 73.055 m 44.469 56.148 l S
47.012 73.098 m 47.012 56.129 l S
49.555 73.141 m 49.555 56.047 l S
52.094 73.289 m 52.094 55.945 l S
54.637 73.34 m 54.637 55.852 l S
57.176 73.398 m 57.176 55.824 l S
59.719 73.41 m 59.719 55.797 l S
62.258 73.445 m 62.258 55.762 l S
64.801 73.43 m 64.801 55.809 l S
67.34 73.418 m 67.34 55.797 l S
69.883 73.441 m 69.883 55.742 l S
72.422 73.473 m 72.422 55.801 l S
74.965 73.402 m 74.965 55.777 l S
77.508 73.402 m 77.508 55.82 l S
80.047 73.422 m 80.047 55.762 l S
82.59 73.367 m 82.59 55.785 l S
85.129 73.355 m 85.129 55.855 l S
87.672 73.336 m 87.672 55.871 l S
90.211 73.32 m 90.211 55.938 l S
92.754 73.293 m 92.754 55.941 l S
95.293 73.238 m 95.293 56.012 l S
97.836 73.301 m 97.836 56.027 l S
100.375 73.199 m 100.375 56.031 l S
102.918 73.188 m 102.918 56.035 l S
105.457 73.219 m 105.457 56.043 l S
108 73.223 m 108 55.973 l S
110.543 73.227 m 110.543 55.941 l S
113.082 73.258 m 113.082 55.965 l S
115.625 73.203 m 115.625 56.051 l S
118.164 73.219 m 118.164 55.988 l S
120.707 73.215 m 120.707 55.996 l S
123.246 73.207 m 123.246 56.035 l S
125.789 73.164 m 125.789 56.059 l S
128.328 73.211 m 128.328 56.043 l S
130.871 73.242 m 130.871 56.016 l S
133.41 73.184 m 133.41 56.039 l S
135.953 73.195 m 135.953 56.043 l S
138.492 73.215 m 138.492 56.051 l S
141.035 73.277 m 141.035 56.047 l S
143.578 73.27 m 143.578 55.977 l S
146.117 73.262 m 146.117 55.977 l S
148.66 73.223 m 148.66 55.953 l S
151.199 73.297 m 151.199 55.949 l S
153.742 73.305 m 153.742 55.973 l S
156.281 73.281 m 156.281 55.945 l S
158.824 73.281 m 158.824 55.957 l S
161.363 73.293 m 161.363 55.953 l S
163.906 73.297 m 163.906 55.934 l S
166.445 73.289 m 166.445 55.926 l S
168.988 73.312 m 168.988 55.891 l S
171.531 73.273 m 171.531 55.957 l S
174.07 73.238 m 174.07 56 l S
176.613 72.609 m 176.613 56.566 l S
179.152 71.094 m 179.152 58.348 l S
181.695 69.309 m 181.695 60.121 l S
184.234 68.535 m 184.234 60.984 l S
186.777 67.715 m 186.777 61.715 l S
189.316 66.992 m 189.316 62.461 l S
191.859 66.539 m 191.859 62.957 l S
194.398 66.199 m 194.398 63.309 l S
196.941 65.891 m 196.941 63.672 l S
199.48 65.566 m 199.48 63.883 l S
202.023 65.406 m 202.023 64.086 l S
204.566 65.266 m 204.566 64.207 l S
207.105 65.207 m 207.105 64.391 l S
209.648 65.059 m 209.648 64.457 l S
212.188 65.008 m 212.188 64.492 l S
214.73 64.926 m 214.73 64.582 l S
217.27 64.902 m 217.27 64.609 l S
219.812 64.863 m 219.812 64.637 l S
222.352 64.871 m 222.352 64.652 l S
224.895 64.875 m 224.895 64.66 l S
227.434 64.855 m 227.434 64.66 l S
229.977 64.855 m 229.977 64.66 l S
232.52 64.855 m 232.52 64.66 l S
235.059 64.855 m 235.059 64.66 l S
237.602 64.855 m 237.602 64.66 l S
240.141 64.855 m 240.141 64.66 l S
242.684 64.855 m 242.684 64.66 l S
245.223 64.855 m 245.223 64.66 l S
247.766 64.855 m 247.766 64.66 l S
250.305 64.855 m 250.305 64.66 l S
252.848 64.855 m 252.848 64.66 l S
255.387 64.855 m 255.387 64.66 l S
255.387 64.855 m 255.387 64.66 l S
3.812 108.055 m 3.812 107.859 l S
6.352 108.105 m 6.352 107.816 l S
8.895 109.492 m 8.895 106.402 l S
11.434 111.977 m 11.434 104.039 l S
13.977 113.219 m 13.977 102.715 l S
16.52 114.133 m 16.52 101.844 l S
19.059 114.777 m 19.059 101.098 l S
21.602 115.281 m 21.602 100.543 l S
24.141 115.727 m 24.141 100.23 l S
26.684 115.934 m 26.684 100.098 l S
29.223 116.145 m 29.223 99.93 l S
31.766 116.336 m 31.766 99.777 l S
34.305 116.492 m 34.305 99.582 l S
36.848 116.625 m 36.848 99.441 l S
39.387 116.699 m 39.387 99.402 l S
41.93 116.773 m 41.93 99.316 l S
44.469 116.805 m 44.469 99.254 l S
47.012 116.91 m 47.012 99.145 l S
49.555 117 m 49.555 99.098 l S
52.094 117.082 m 52.094 98.98 l S
54.637 117.129 m 54.637 98.887 l S
57.176 117.184 m 57.176 98.848 l S
59.719 117.199 m 59.719 98.863 l S
62.258 117.219 m 62.258 98.879 l S
64.801 117.238 m 64.801 98.82 l S
67.34 117.207 m 67.34 98.902 l S
69.883 117.184 m 69.883 98.852 l S
72.422 117.234 m 72.422 98.887 l S
74.965 117.188 m 74.965 98.855 l S
77.508 117.207 m 77.508 98.871 l S
80.047 117.145 m 80.047 98.895 l S
82.59 117.172 m 82.59 98.883 l S
85.129 117.141 m 85.129 98.91 l S
87.672 117.125 m 87.672 98.969 l S
90.211 117.082 m 90.211 99 l S
92.754 117.109 m 92.754 98.984 l S
95.293 117.051 m 95.293 99.039 l S
97.836 117.031 m 97.836 99.086 l S
100.375 116.965 m 100.375 99.113 l S
102.918 117.008 m 102.918 99.098 l S
105.457 117.023 m 105.457 99.039 l S
108 117.074 m 108 98.984 l S
110.543 117.051 m 110.543 99.008 l S
113.082 117.016 m 113.082 99.043 l S
115.625 117.02 m 115.625 99.082 l S
118.164 117.02 m 118.164 99.074 l S
120.707 116.996 m 120.707 99.043 l S
123.246 117.008 m 123.246 99.039 l S
125.789 116.988 m 125.789 99.094 l S
128.328 117.008 m 128.328 99.051 l S
130.871 116.98 m 130.871 99.082 l S
133.41 117.023 m 133.41 99.09 l S
135.953 116.941 m 135.953 99.102 l S
138.492 117.016 m 138.492 99.09 l S
141.035 117.016 m 141.035 99.047 l S
143.578 117.012 m 143.578 99.035 l S
146.117 117.023 m 146.117 99.031 l S
148.66 117.078 m 148.66 99.062 l S
151.199 117.062 m 151.199 98.922 l S
153.742 117.062 m 153.742 99 l S
156.281 117.059 m 156.281 98.988 l S
158.824 117.113 m 158.824 98.934 l S
161.363 117.047 m 161.363 98.965 l S
163.906 117.09 m 163.906 99.004 l S
166.445 117.156 m 166.445 98.945 l S
168.988 117.109 m 168.988 98.977 l S
171.531 117.137 m 171.531 98.973 l S
174.07 117.016 m 174.07 99 l S
176.613 115.914 m 176.613 99.965 l S
179.152 114.078 m 179.152 101.98 l S
181.695 112.508 m 181.695 103.297 l S
184.234 111.449 m 184.234 104.566 l S
186.777 110.32 m 186.777 105.527 l S
189.316 109.656 m 189.316 106.219 l S
191.859 109.242 m 191.859 106.621 l S
194.398 108.953 m 194.398 106.93 l S
196.941 108.742 m 196.941 107.246 l S
199.48 108.488 m 199.48 107.363 l S
202.023 108.43 m 202.023 107.492 l S
204.566 108.273 m 204.566 107.562 l S
207.105 108.262 m 207.105 107.691 l S
209.648 108.188 m 209.648 107.734 l S
212.188 108.16 m 212.188 107.77 l S
214.73 108.105 m 214.73 107.824 l S
217.27 108.078 m 217.27 107.84 l S
219.812 108.055 m 219.812 107.859 l S
222.352 108.066 m 222.352 107.859 l S
224.895 108.07 m 224.895 107.859 l S
227.434 108.055 m 227.434 107.859 l S
229.977 108.055 m 229.977 107.859 l S
232.52 108.055 m 232.52 107.859 l S
235.059 108.055 m 235.059 107.859 l S
237.602 108.055 m 237.602 107.859 l S
240.141 108.055 m 240.141 107.859 l S
242.684 108.055 m 242.684 107.859 l S
245.223 108.055 m 245.223 107.859 l S
247.766 108.055 m 247.766 107.859 l S
250.305 108.055 m 250.305 107.859 l S
252.848 108.055 m 252.848 107.859 l S
255.387 108.055 m 255.387 107.859 l S
255.387 108.055 m 255.387 107.859 l S
3.812 151.258 m 3.812 151.059 l S
6.352 151.523 m 6.352 150.734 l S
8.895 155.871 m 8.895 146.023 l S
11.434 162.215 m 11.434 140.043 l S
13.977 165.027 m 13.977 136.98 l S
16.52 166.637 m 16.52 135.551 l S
19.059 167.867 m 19.059 134.305 l S
21.602 168.598 m 21.602 133.602 l S
24.141 169.215 m 24.141 133.148 l S
26.684 169.461 m 26.684 132.934 l S
29.223 169.68 m 29.223 132.711 l S
31.766 169.836 m 31.766 132.516 l S
34.305 169.898 m 34.305 132.359 l S
36.848 170.02 m 36.848 132.297 l S
39.387 170.078 m 39.387 132.234 l S
41.93 170.215 m 41.93 132.129 l S
44.469 170.27 m 44.469 132.074 l S
47.012 170.359 m 47.012 131.973 l S
49.555 170.469 m 49.555 131.898 l S
52.094 170.648 m 52.094 131.742 l S
54.637 170.734 m 54.637 131.66 l S
57.176 170.77 m 57.176 131.59 l S
59.719 170.812 m 59.719 131.566 l S
62.258 170.828 m 62.258 131.562 l S
64.801 170.836 m 64.801 131.582 l S
67.34 170.824 m 67.34 131.586 l S
69.883 170.812 m 69.883 131.609 l S
72.422 170.801 m 72.422 131.609 l S
74.965 170.766 m 74.965 131.605 l S
77.508 170.754 m 77.508 131.637 l S
80.047 170.73 m 80.047 131.613 l S
82.59 170.766 m 82.59 131.617 l S
85.129 170.707 m 85.129 131.688 l S
87.672 170.641 m 87.672 131.707 l S
90.211 170.605 m 90.211 131.793 l S
92.754 170.656 m 92.754 131.801 l S
95.293 170.551 m 95.293 131.867 l S
97.836 170.594 m 97.836 131.797 l S
100.375 170.531 m 100.375 131.883 l S
102.918 170.539 m 102.918 131.84 l S
105.457 170.582 m 105.457 131.84 l S
108 170.617 m 108 131.812 l S
110.543 170.629 m 110.543 131.824 l S
113.082 170.559 m 113.082 131.801 l S
115.625 170.555 m 115.625 131.82 l S
118.164 170.535 m 118.164 131.848 l S
120.707 170.523 m 120.707 131.855 l S
123.246 170.527 m 123.246 131.859 l S
125.789 170.492 m 125.789 131.875 l S
128.328 170.527 m 128.328 131.852 l S
130.871 170.52 m 130.871 131.859 l S
133.41 170.555 m 133.41 131.879 l S
135.953 170.48 m 135.953 131.867 l S
138.492 170.516 m 138.492 131.859 l S
141.035 170.59 m 141.035 131.812 l S
143.578 170.539 m 143.578 131.805 l S
146.117 170.559 m 146.117 131.828 l S
148.66 170.602 m 148.66 131.746 l S
151.199 170.637 m 151.199 131.77 l S
153.742 170.68 m 153.742 131.738 l S
156.281 170.648 m 156.281 131.727 l S
158.824 170.695 m 158.824 131.691 l S
161.363 170.652 m 161.363 131.68 l S
163.906 170.684 m 163.906 131.691 l S
166.445 170.695 m 166.445 131.691 l S
168.988 170.695 m 168.988 131.664 l S
171.531 170.656 m 171.531 131.695 l S
174.07 170.625 m 174.07 131.75 l S
176.613 169.953 m 176.613 132.211 l S
179.152 167.547 m 179.152 134.789 l S
181.695 164.695 m 181.695 137.586 l S
184.234 162.117 m 184.234 140.289 l S
186.777 159.734 m 186.777 142.395 l S
189.316 158.172 m 189.316 144.082 l S
191.859 156.852 m 191.859 145.453 l S
194.398 155.723 m 194.398 146.586 l S
196.941 154.871 m 196.941 147.562 l S
199.48 153.926 m 199.48 148.27 l S
202.023 153.344 m 202.023 148.926 l S
204.566 152.879 m 204.566 149.367 l S
207.105 152.539 m 207.105 149.883 l S
209.648 152.164 m 209.648 150.164 l S
212.188 151.965 m 212.188 150.316 l S
214.73 151.73 m 214.73 150.555 l S
217.27 151.629 m 217.27 150.711 l S
219.812 151.523 m 219.812 150.781 l S
222.352 151.473 m 222.352 150.859 l S
224.895 151.426 m 224.895 150.906 l S
227.434 151.348 m 227.434 150.98 l S
229.977 151.273 m 229.977 150.945 l S
232.52 151.258 m 232.52 151.059 l S
235.059 151.258 m 235.059 151.059 l S
237.602 151.258 m 237.602 151.059 l S
240.141 151.258 m 240.141 151.059 l S
242.684 151.258 m 242.684 151.059 l S
245.223 151.258 m 245.223 151.059 l S
247.766 151.258 m 247.766 151.059 l S
250.305 151.258 m 250.305 151.059 l S
252.848 151.258 m 252.848 151.059 l S
255.387 151.258 m 255.387 151.059 l S
255.387 151.258 m 255.387 151.059 l S
Q Q
showpage
%%Trailer
end
%%EOF
