%!PS-Adobe-3.0 EPSF-3.0
%%Creator: cairo 1.16.0 (https://cairographics.org)
%%CreationDate: Wed May 15 11:57:18 2024
%%Pages: 1
%%DocumentData: Clean7Bit
%%LanguageLevel: 2
%%Creator: Wolfram Mathematica
%%BoundingBox: 2 8 257 167
%%EndComments
%%BeginProlog
50 dict begin
/q { gsave } bind def
/Q { grestore } bind def
/cm { 6 array astore concat } bind def
/w { setlinewidth } bind def
/J { setlinecap } bind def
/j { setlinejoin } bind def
/M { setmiterlimit } bind def
/d { setdash } bind def
/m { moveto } bind def
/l { lineto } bind def
/c { curveto } bind def
/h { closepath } bind def
/re { exch dup neg 3 1 roll 5 3 roll moveto 0 rlineto
      0 exch rlineto 0 rlineto closepath } bind def
/S { stroke } bind def
/f { fill } bind def
/f* { eofill } bind def
/n { newpath } bind def
/W { clip } bind def
/W* { eoclip } bind def
/BT { } bind def
/ET { } bind def
/BDC { mark 3 1 roll /BDC pdfmark } bind def
/EMC { mark /EMC pdfmark } bind def
/cairo_store_point { /cairo_point_y exch def /cairo_point_x exch def } def
/Tj { show currentpoint cairo_store_point } bind def
/TJ {
  {
    dup
    type /stringtype eq
    { show } { -0.001 mul 0 cairo_font_matrix dtransform rmoveto } ifelse
  } forall
  currentpoint cairo_store_point
} bind def
/cairo_selectfont { cairo_font_matrix aload pop pop pop 0 0 6 array astore
    cairo_font exch selectfont cairo_point_x cairo_point_y moveto } bind def
/Tf { pop /cairo_font exch def /cairo_font_matrix where
      { pop cairo_selectfont } if } bind def
/Td { matrix translate cairo_font_matrix matrix concatmatrix dup
      /cairo_font_matrix exch def dup 4 get exch 5 get cairo_store_point
      /cairo_font where { pop cairo_selectfont } if } bind def
/Tm { 2 copy 8 2 roll 6 array astore /cairo_font_matrix exch def
      cairo_store_point /cairo_font where { pop cairo_selectfont } if } bind def
/g { setgray } bind def
/rg { setrgbcolor } bind def
/d1 { setcachedevice } bind def
/cairo_data_source {
  CairoDataIndex CairoData length lt
    { CairoData CairoDataIndex get /CairoDataIndex CairoDataIndex 1 add def }
    { () } ifelse
} def
/cairo_flush_ascii85_file { cairo_ascii85_file status { cairo_ascii85_file flushfile } if } def
/cairo_image { image cairo_flush_ascii85_file } def
/cairo_imagemask { imagemask cairo_flush_ascii85_file } def
%%EndProlog
%%BeginSetup
%%EndSetup
%%Page: 1 1
%%BeginPageSetup
%%PageBoundingBox: 2 8 257 167
%%EndPageSetup
q 2 8 255 159 rectclip
1 0 0 -1 0 173 cm q
0 g
1.796436 w
0 J
0 j
[] 0.0 d
3.25 M 3.812 21.727 m 3.812 21.531 l S
6.352 25.223 m 6.352 18.109 l S
8.895 30.98 m 8.895 12.328 l S
11.434 34.32 m 11.434 8.762 l S
13.977 35.305 m 13.977 7.77 l S
16.52 35.777 m 16.52 7.508 l S
19.059 36.117 m 19.059 7.188 l S
21.602 36.191 m 21.602 7.043 l S
24.141 36.254 m 24.141 6.984 l S
26.684 36.258 m 26.684 6.977 l S
29.223 36.254 m 29.223 6.988 l S
31.766 36.23 m 31.766 7 l S
34.305 36.211 m 34.305 7.035 l S
36.848 36.195 m 36.848 7.086 l S
39.387 36.16 m 39.387 7.098 l S
41.93 36.141 m 41.93 7.129 l S
44.469 36.156 m 44.469 7.117 l S
47.012 36.156 m 47.012 7.117 l S
49.555 36.148 m 49.555 7.129 l S
52.094 36.148 m 52.094 7.133 l S
54.637 36.102 m 54.637 7.203 l S
57.176 36.07 m 57.176 7.254 l S
59.719 36.004 m 59.719 7.309 l S
62.258 35.934 m 62.258 7.387 l S
64.801 35.879 m 64.801 7.43 l S
67.34 35.805 m 67.34 7.52 l S
69.883 35.766 m 69.883 7.566 l S
72.422 35.793 m 72.422 7.512 l S
74.965 35.832 m 74.965 7.496 l S
77.508 35.832 m 77.508 7.492 l S
80.047 35.824 m 80.047 7.504 l S
82.59 35.801 m 82.59 7.539 l S
85.129 35.754 m 85.129 7.594 l S
87.672 35.73 m 87.672 7.609 l S
90.211 35.734 m 90.211 7.609 l S
92.754 35.734 m 92.754 7.609 l S
95.293 35.715 m 95.293 7.629 l S
97.836 35.676 m 97.836 7.652 l S
100.375 35.664 m 100.375 7.664 l S
102.918 35.633 m 102.918 7.688 l S
105.457 35.574 m 105.457 7.695 l S
108 35.566 m 108 7.711 l S
110.543 35.566 m 110.543 7.719 l S
113.082 35.539 m 113.082 7.723 l S
115.625 35.52 m 115.625 7.738 l S
118.164 35.488 m 118.164 7.762 l S
120.707 35.484 m 120.707 7.754 l S
123.246 35.48 m 123.246 7.766 l S
125.789 35.477 m 125.789 7.773 l S
128.328 35.445 m 128.328 7.777 l S
130.871 35.383 m 130.871 7.84 l S
133.41 35.375 m 133.41 7.832 l S
135.953 35.352 m 135.953 7.848 l S
138.492 35.34 m 138.492 7.852 l S
141.035 35.336 m 141.035 7.852 l S
143.578 35.289 m 143.578 7.883 l S
146.117 35.301 m 146.117 7.852 l S
148.66 35.348 m 148.66 7.832 l S
151.199 35.367 m 151.199 7.82 l S
153.742 35.387 m 153.742 7.801 l S
156.281 35.352 m 156.281 7.828 l S
158.824 35.328 m 158.824 7.859 l S
161.363 35.328 m 161.363 7.855 l S
163.906 35.324 m 163.906 7.852 l S
166.445 35.32 m 166.445 7.852 l S
168.988 35.336 m 168.988 7.844 l S
171.531 35.332 m 171.531 7.836 l S
174.07 35.34 m 174.07 7.848 l S
176.613 35.332 m 176.613 7.848 l S
179.152 35.324 m 179.152 7.871 l S
181.695 35.02 m 181.695 8.203 l S
184.234 33.184 m 184.234 9.93 l S
186.777 30.707 m 186.777 12.32 l S
189.316 29.004 m 189.316 14.188 l S
191.859 27.652 m 191.859 15.777 l S
194.398 26.516 m 194.398 16.707 l S
196.941 25.836 m 196.941 17.434 l S
199.48 24.875 m 199.48 18.395 l S
202.023 24.273 m 202.023 19.023 l S
204.566 23.605 m 204.566 19.684 l S
207.105 23.07 m 207.105 20.277 l S
209.648 22.672 m 209.648 20.664 l S
212.188 22.305 m 212.188 20.996 l S
214.73 22.062 m 214.73 21.18 l S
217.27 21.93 m 217.27 21.324 l S
219.812 21.824 m 219.812 21.445 l S
222.352 21.746 m 222.352 21.52 l S
224.895 21.727 m 224.895 21.531 l S
227.434 21.727 m 227.434 21.531 l S
229.977 21.727 m 229.977 21.531 l S
232.52 21.727 m 232.52 21.531 l S
235.059 21.727 m 235.059 21.531 l S
237.602 21.727 m 237.602 21.531 l S
240.141 21.727 m 240.141 21.531 l S
242.684 21.727 m 242.684 21.531 l S
245.223 21.727 m 245.223 21.531 l S
247.766 21.727 m 247.766 21.531 l S
250.305 21.727 m 250.305 21.531 l S
252.848 21.727 m 252.848 21.531 l S
255.387 21.727 m 255.387 21.531 l S
255.387 21.727 m 255.387 21.531 l S
3.812 64.926 m 3.812 64.73 l S
6.352 67.227 m 6.352 62.703 l S
8.895 70.07 m 8.895 59.816 l S
11.434 72.008 m 11.434 57.824 l S
13.977 73.098 m 13.977 56.535 l S
16.52 73.852 m 16.52 55.938 l S
19.059 74.16 m 19.059 55.559 l S
21.602 74.309 m 21.602 55.383 l S
24.141 74.445 m 24.141 55.27 l S
26.684 74.445 m 26.684 55.285 l S
29.223 74.469 m 29.223 55.254 l S
31.766 74.469 m 31.766 55.266 l S
34.305 74.434 m 34.305 55.281 l S
36.848 74.402 m 36.848 55.312 l S
39.387 74.375 m 39.387 55.344 l S
41.93 74.359 m 41.93 55.367 l S
44.469 74.379 m 44.469 55.324 l S
47.012 74.383 m 47.012 55.336 l S
49.555 74.387 m 49.555 55.348 l S
52.094 74.367 m 52.094 55.316 l S
54.637 74.344 m 54.637 55.398 l S
57.176 74.289 m 57.176 55.406 l S
59.719 74.223 m 59.719 55.539 l S
62.258 74.145 m 62.258 55.59 l S
64.801 74.137 m 64.801 55.656 l S
67.34 74.098 m 67.34 55.711 l S
69.883 74.074 m 69.883 55.738 l S
72.422 74.074 m 72.422 55.723 l S
74.965 74.102 m 74.965 55.715 l S
77.508 74.113 m 77.508 55.699 l S
80.047 74.113 m 80.047 55.73 l S
82.59 74.059 m 82.59 55.738 l S
85.129 74.055 m 85.129 55.762 l S
87.672 74.016 m 87.672 55.793 l S
90.211 74.047 m 90.211 55.75 l S
92.754 74.043 m 92.754 55.762 l S
95.293 74.062 m 95.293 55.762 l S
97.836 74.02 m 97.836 55.789 l S
100.375 73.996 m 100.375 55.789 l S
102.918 73.949 m 102.918 55.82 l S
105.457 73.93 m 105.457 55.844 l S
108 73.898 m 108 55.828 l S
110.543 73.918 m 110.543 55.844 l S
113.082 73.891 m 113.082 55.855 l S
115.625 73.883 m 115.625 55.871 l S
118.164 73.836 m 118.164 55.875 l S
120.707 73.832 m 120.707 55.895 l S
123.246 73.844 m 123.246 55.887 l S
125.789 73.832 m 125.789 55.891 l S
128.328 73.793 m 128.328 55.926 l S
130.871 73.746 m 130.871 55.941 l S
133.41 73.75 m 133.41 55.941 l S
135.953 73.754 m 135.953 55.949 l S
138.492 73.734 m 138.492 55.961 l S
141.035 73.746 m 141.035 55.969 l S
143.578 73.66 m 143.578 55.996 l S
146.117 73.688 m 146.117 55.957 l S
148.66 73.738 m 148.66 55.949 l S
151.199 73.809 m 151.199 55.926 l S
153.742 73.75 m 153.742 55.945 l S
156.281 73.754 m 156.281 55.922 l S
158.824 73.719 m 158.824 55.957 l S
161.363 73.715 m 161.363 55.941 l S
163.906 73.723 m 163.906 55.965 l S
166.445 73.695 m 166.445 55.98 l S
168.988 73.742 m 168.988 55.93 l S
171.531 73.738 m 171.531 55.922 l S
174.07 73.75 m 174.07 55.961 l S
176.613 73.738 m 176.613 55.965 l S
179.152 73.684 m 179.152 55.969 l S
181.695 73.453 m 181.695 56.25 l S
184.234 71.641 m 184.234 58.227 l S
186.777 69.594 m 186.777 60.453 l S
189.316 69.055 m 189.316 60.789 l S
191.859 68.5 m 191.859 61.242 l S
194.398 67.746 m 194.398 61.902 l S
196.941 67.289 m 196.941 62.43 l S
199.48 66.832 m 199.48 62.816 l S
202.023 66.402 m 202.023 63.164 l S
204.566 66.117 m 204.566 63.605 l S
207.105 65.766 m 207.105 63.875 l S
209.648 65.566 m 209.648 64.137 l S
212.188 65.332 m 212.188 64.305 l S
214.73 65.164 m 214.73 64.473 l S
217.27 65.051 m 217.27 64.59 l S
219.812 64.973 m 219.812 64.695 l S
222.352 64.926 m 222.352 64.719 l S
224.895 64.926 m 224.895 64.73 l S
227.434 64.926 m 227.434 64.73 l S
229.977 64.926 m 229.977 64.73 l S
232.52 64.926 m 232.52 64.73 l S
235.059 64.926 m 235.059 64.73 l S
237.602 64.926 m 237.602 64.73 l S
240.141 64.926 m 240.141 64.73 l S
242.684 64.926 m 242.684 64.73 l S
245.223 64.926 m 245.223 64.73 l S
247.766 64.926 m 247.766 64.73 l S
250.305 64.926 m 250.305 64.73 l S
252.848 64.926 m 252.848 64.73 l S
255.387 64.926 m 255.387 64.73 l S
255.387 64.926 m 255.387 64.73 l S
3.812 108.125 m 3.812 107.93 l S
6.352 112.984 m 6.352 103.473 l S
8.895 119.996 m 8.895 95.891 l S
11.434 124.211 m 11.434 91.836 l S
13.977 125.848 m 13.977 90.145 l S
16.52 126.73 m 16.52 89.387 l S
19.059 127.191 m 19.059 88.891 l S
21.602 127.414 m 21.602 88.633 l S
24.141 127.523 m 24.141 88.465 l S
26.684 127.59 m 26.684 88.402 l S
29.223 127.637 m 29.223 88.363 l S
31.766 127.605 m 31.766 88.363 l S
34.305 127.594 m 34.305 88.391 l S
36.848 127.559 m 36.848 88.422 l S
39.387 127.523 m 39.387 88.457 l S
41.93 127.496 m 41.93 88.469 l S
44.469 127.527 m 44.469 88.449 l S
47.012 127.551 m 47.012 88.453 l S
49.555 127.566 m 49.555 88.477 l S
52.094 127.488 m 52.094 88.469 l S
54.637 127.469 m 54.637 88.559 l S
57.176 127.383 m 57.176 88.613 l S
59.719 127.312 m 59.719 88.711 l S
62.258 127.227 m 62.258 88.84 l S
64.801 127.184 m 64.801 88.922 l S
67.34 127.133 m 67.34 89.02 l S
69.883 127.07 m 69.883 89.039 l S
72.422 127.125 m 72.422 89.016 l S
74.965 127.152 m 74.965 88.977 l S
77.508 127.168 m 77.508 88.984 l S
80.047 127.141 m 80.047 88.996 l S
82.59 127.109 m 82.59 89.031 l S
85.129 127.051 m 85.129 89.074 l S
87.672 127.023 m 87.672 89.086 l S
90.211 127.043 m 90.211 89.09 l S
92.754 127.02 m 92.754 89.086 l S
95.293 127.016 m 95.293 89.098 l S
97.836 126.988 m 97.836 89.137 l S
100.375 126.965 m 100.375 89.164 l S
102.918 126.891 m 102.918 89.191 l S
105.457 126.855 m 105.457 89.258 l S
108 126.84 m 108 89.238 l S
110.543 126.828 m 110.543 89.277 l S
113.082 126.797 m 113.082 89.285 l S
115.625 126.773 m 115.625 89.289 l S
118.164 126.715 m 118.164 89.348 l S
120.707 126.699 m 120.707 89.344 l S
123.246 126.703 m 123.246 89.348 l S
125.789 126.688 m 125.789 89.352 l S
128.328 126.664 m 128.328 89.387 l S
130.871 126.562 m 130.871 89.441 l S
133.41 126.559 m 133.41 89.453 l S
135.953 126.531 m 135.953 89.469 l S
138.492 126.496 m 138.492 89.488 l S
141.035 126.508 m 141.035 89.512 l S
143.578 126.422 m 143.578 89.551 l S
146.117 126.473 m 146.117 89.527 l S
148.66 126.523 m 148.66 89.496 l S
151.199 126.566 m 151.199 89.449 l S
153.742 126.562 m 153.742 89.441 l S
156.281 126.543 m 156.281 89.457 l S
158.824 126.531 m 158.824 89.512 l S
161.363 126.5 m 161.363 89.5 l S
163.906 126.484 m 163.906 89.516 l S
166.445 126.469 m 166.445 89.531 l S
168.988 126.504 m 168.988 89.484 l S
171.531 126.516 m 171.531 89.477 l S
174.07 126.504 m 174.07 89.488 l S
176.613 126.508 m 176.613 89.504 l S
179.152 126.461 m 179.152 89.496 l S
181.695 126.055 m 181.695 90 l S
184.234 123.555 m 184.234 92.852 l S
186.777 120.41 m 186.777 95.734 l S
189.316 118.301 m 189.316 97.551 l S
191.859 116.445 m 191.859 99.449 l S
194.398 114.914 m 194.398 101.07 l S
196.941 113.695 m 196.941 102.414 l S
199.48 112.594 m 199.48 103.316 l S
202.023 111.676 m 202.023 104.242 l S
204.566 110.867 m 204.566 105.172 l S
207.105 110.285 m 207.105 105.793 l S
209.648 109.641 m 209.648 106.43 l S
212.188 109.156 m 212.188 106.863 l S
214.73 108.793 m 214.73 107.254 l S
217.27 108.496 m 217.27 107.535 l S
219.812 108.352 m 219.812 107.727 l S
222.352 108.227 m 222.352 107.801 l S
224.895 108.148 m 224.895 107.891 l S
227.434 108.125 m 227.434 107.93 l S
229.977 108.125 m 229.977 107.93 l S
232.52 108.125 m 232.52 107.93 l S
235.059 108.125 m 235.059 107.93 l S
237.602 108.125 m 237.602 107.93 l S
240.141 108.125 m 240.141 107.93 l S
242.684 108.125 m 242.684 107.93 l S
245.223 108.125 m 245.223 107.93 l S
247.766 108.125 m 247.766 107.93 l S
250.305 108.125 m 250.305 107.93 l S
252.848 108.125 m 252.848 107.93 l S
255.387 108.125 m 255.387 107.93 l S
255.387 108.125 m 255.387 107.93 l S
3.812 151.328 m 3.812 151.129 l S
6.352 154.41 m 6.352 148.555 l S
8.895 158.594 m 8.895 143.52 l S
11.434 161.445 m 11.434 141.074 l S
13.977 162.766 m 13.977 140.148 l S
16.52 163.543 m 16.52 139.586 l S
19.059 163.988 m 19.059 139.391 l S
21.602 164.145 m 21.602 139.266 l S
24.141 164.211 m 24.141 139.277 l S
26.684 164.258 m 26.684 139.215 l S
29.223 164.258 m 29.223 139.277 l S
31.766 164.223 m 31.766 139.309 l S
34.305 164.168 m 34.305 139.316 l S
36.848 164.109 m 36.848 139.363 l S
39.387 164.023 m 39.387 139.391 l S
41.93 163.98 m 41.93 139.398 l S
44.469 164.016 m 44.469 139.379 l S
47.012 164.012 m 47.012 139.379 l S
49.555 164.012 m 49.555 139.395 l S
52.094 163.977 m 52.094 139.418 l S
54.637 163.895 m 54.637 139.465 l S
57.176 163.984 m 57.176 139.398 l S
59.719 163.824 m 59.719 139.535 l S
62.258 163.762 m 62.258 139.582 l S
64.801 163.688 m 64.801 139.656 l S
67.34 163.617 m 67.34 139.688 l S
69.883 163.641 m 69.883 139.68 l S
72.422 163.586 m 72.422 139.633 l S
74.965 163.625 m 74.965 139.691 l S
77.508 163.609 m 77.508 139.695 l S
80.047 163.629 m 80.047 139.711 l S
82.59 163.527 m 82.59 139.688 l S
85.129 163.512 m 85.129 139.77 l S
87.672 163.449 m 87.672 139.742 l S
90.211 163.438 m 90.211 139.742 l S
92.754 163.496 m 92.754 139.762 l S
95.293 163.516 m 95.293 139.656 l S
97.836 163.414 m 97.836 139.738 l S
100.375 163.379 m 100.375 139.758 l S
102.918 163.375 m 102.918 139.742 l S
105.457 163.32 m 105.457 139.797 l S
108 163.266 m 108 139.754 l S
110.543 163.297 m 110.543 139.797 l S
113.082 163.258 m 113.082 139.797 l S
115.625 163.262 m 115.625 139.809 l S
118.164 163.172 m 118.164 139.828 l S
120.707 163.184 m 120.707 139.832 l S
123.246 163.18 m 123.246 139.852 l S
125.789 163.156 m 125.789 139.867 l S
128.328 163.16 m 128.328 139.875 l S
130.871 163.066 m 130.871 139.891 l S
133.41 163.062 m 133.41 139.887 l S
135.953 163.062 m 135.953 139.879 l S
138.492 163.059 m 138.492 139.875 l S
141.035 163.07 m 141.035 139.922 l S
143.578 163.012 m 143.578 139.91 l S
146.117 163.035 m 146.117 139.875 l S
148.66 163.07 m 148.66 139.883 l S
151.199 163.113 m 151.199 139.863 l S
153.742 163.07 m 153.742 139.891 l S
156.281 163.117 m 156.281 139.781 l S
158.824 163.055 m 158.824 139.844 l S
161.363 163.066 m 161.363 139.863 l S
163.906 163.027 m 163.906 139.914 l S
166.445 163 m 166.445 139.922 l S
168.988 163.074 m 168.988 139.855 l S
171.531 163.047 m 171.531 139.832 l S
174.07 163.098 m 174.07 139.848 l S
176.613 163.086 m 176.613 139.867 l S
179.152 163.004 m 179.152 139.895 l S
181.695 162.75 m 181.695 140.223 l S
184.234 161.105 m 184.234 141.859 l S
186.777 157.965 m 186.777 144.121 l S
189.316 157.281 m 189.316 145.059 l S
191.859 156.555 m 191.859 145.996 l S
194.398 155.535 m 194.398 147.094 l S
196.941 154.902 m 196.941 147.688 l S
199.48 154.004 m 199.48 148.461 l S
202.023 153.355 m 202.023 148.926 l S
204.566 152.836 m 204.566 149.664 l S
207.105 152.391 m 207.105 150.066 l S
209.648 152.082 m 209.648 150.34 l S
212.188 151.797 m 212.188 150.582 l S
214.73 151.625 m 214.73 150.766 l S
217.27 151.484 m 217.27 150.984 l S
219.812 151.406 m 219.812 151.074 l S
222.352 151.336 m 222.352 151.074 l S
224.895 151.328 m 224.895 151.129 l S
227.434 151.328 m 227.434 151.129 l S
229.977 151.328 m 229.977 151.129 l S
232.52 151.328 m 232.52 151.129 l S
235.059 151.328 m 235.059 151.129 l S
237.602 151.328 m 237.602 151.129 l S
240.141 151.328 m 240.141 151.129 l S
242.684 151.328 m 242.684 151.129 l S
245.223 151.328 m 245.223 151.129 l S
247.766 151.328 m 247.766 151.129 l S
250.305 151.328 m 250.305 151.129 l S
252.848 151.328 m 252.848 151.129 l S
255.387 151.328 m 255.387 151.129 l S
255.387 151.328 m 255.387 151.129 l S
Q Q
showpage
%%Trailer
end
%%EOF
