%!PS-Adobe-3.0 EPSF-3.0
%%Creator: cairo 1.16.0 (https://cairographics.org)
%%CreationDate: Wed May 15 11:57:18 2024
%%Pages: 1
%%DocumentData: Clean7Bit
%%LanguageLevel: 2
%%Creator: Wolfram Mathematica
%%BoundingBox: 2 2 257 166
%%EndComments
%%BeginProlog
50 dict begin
/q { gsave } bind def
/Q { grestore } bind def
/cm { 6 array astore concat } bind def
/w { setlinewidth } bind def
/J { setlinecap } bind def
/j { setlinejoin } bind def
/M { setmiterlimit } bind def
/d { setdash } bind def
/m { moveto } bind def
/l { lineto } bind def
/c { curveto } bind def
/h { closepath } bind def
/re { exch dup neg 3 1 roll 5 3 roll moveto 0 rlineto
      0 exch rlineto 0 rlineto closepath } bind def
/S { stroke } bind def
/f { fill } bind def
/f* { eofill } bind def
/n { newpath } bind def
/W { clip } bind def
/W* { eoclip } bind def
/BT { } bind def
/ET { } bind def
/BDC { mark 3 1 roll /BDC pdfmark } bind def
/EMC { mark /EMC pdfmark } bind def
/cairo_store_point { /cairo_point_y exch def /cairo_point_x exch def } def
/Tj { show currentpoint cairo_store_point } bind def
/TJ {
  {
    dup
    type /stringtype eq
    { show } { -0.001 mul 0 cairo_font_matrix dtransform rmoveto } ifelse
  } forall
  currentpoint cairo_store_point
} bind def
/cairo_selectfont { cairo_font_matrix aload pop pop pop 0 0 6 array astore
    cairo_font exch selectfont cairo_point_x cairo_point_y moveto } bind def
/Tf { pop /cairo_font exch def /cairo_font_matrix where
      { pop cairo_selectfont } if } bind def
/Td { matrix translate cairo_font_matrix matrix concatmatrix dup
      /cairo_font_matrix exch def dup 4 get exch 5 get cairo_store_point
      /cairo_font where { pop cairo_selectfont } if } bind def
/Tm { 2 copy 8 2 roll 6 array astore /cairo_font_matrix exch def
      cairo_store_point /cairo_font where { pop cairo_selectfont } if } bind def
/g { setgray } bind def
/rg { setrgbcolor } bind def
/d1 { setcachedevice } bind def
/cairo_data_source {
  CairoDataIndex CairoData length lt
    { CairoData CairoDataIndex get /CairoDataIndex CairoDataIndex 1 add def }
    { () } ifelse
} def
/cairo_flush_ascii85_file { cairo_ascii85_file status { cairo_ascii85_file flushfile } if } def
/cairo_image { image cairo_flush_ascii85_file } def
/cairo_imagemask { imagemask cairo_flush_ascii85_file } def
%%EndProlog
%%BeginSetup
%%EndSetup
%%Page: 1 1
%%BeginPageSetup
%%PageBoundingBox: 2 2 257 166
%%EndPageSetup
q 2 2 255 164 rectclip
1 0 0 -1 0 173 cm q
0 g
1.796436 w
0 J
0 j
[] 0.0 d
3.25 M 3.812 21.473 m 3.812 21.254 l S
6.352 25.418 m 6.352 16.758 l S
8.895 28.477 m 8.895 14.191 l S
11.434 29.484 m 11.434 12.805 l S
13.977 30.578 m 13.977 11.875 l S
16.52 31.168 m 16.52 11.484 l S
19.059 31.391 m 19.059 10.68 l S
21.602 31.816 m 21.602 10.613 l S
24.141 32.047 m 24.141 10.328 l S
26.684 32.285 m 26.684 9.98 l S
29.223 32.434 m 29.223 9.773 l S
31.766 32.773 m 31.766 9.422 l S
34.305 32.945 m 34.305 9.117 l S
36.848 33.375 m 36.848 9.012 l S
39.387 33.777 m 39.387 8.875 l S
41.93 33.828 m 41.93 8.57 l S
44.469 34.004 m 44.469 8.395 l S
47.012 34.125 m 47.012 8.359 l S
49.555 34.238 m 49.555 8.184 l S
52.094 34.398 m 52.094 8.094 l S
54.637 34.332 m 54.637 7.875 l S
57.176 34.488 m 57.176 8.109 l S
59.719 34.492 m 59.719 8.07 l S
62.258 34.496 m 62.258 8.023 l S
64.801 34.52 m 64.801 8.266 l S
67.34 34.434 m 67.34 8.051 l S
69.883 34.387 m 69.883 8.16 l S
72.422 34.164 m 72.422 8.164 l S
74.965 34.258 m 74.965 8.113 l S
77.508 34.262 m 77.508 8.113 l S
80.047 34.316 m 80.047 8.094 l S
82.59 34.434 m 82.59 8.25 l S
85.129 34.246 m 85.129 8.168 l S
87.672 34.25 m 87.672 8.094 l S
90.211 34.312 m 90.211 8.113 l S
92.754 34.355 m 92.754 8.277 l S
95.293 34.152 m 95.293 8.23 l S
97.836 34.133 m 97.836 8.008 l S
100.375 34.426 m 100.375 8.285 l S
102.918 34.359 m 102.918 8.156 l S
105.457 34.23 m 105.457 8.113 l S
108 34.238 m 108 8.551 l S
110.543 34.363 m 110.543 8.004 l S
113.082 34.422 m 113.082 7.977 l S
115.625 34.473 m 115.625 7.875 l S
118.164 34.457 m 118.164 7.883 l S
120.707 34.441 m 120.707 7.891 l S
123.246 34.398 m 123.246 8 l S
125.789 34.625 m 125.789 7.891 l S
128.328 34.641 m 128.328 8.355 l S
130.871 34.496 m 130.871 7.848 l S
133.41 34.477 m 133.41 7.812 l S
135.953 34.488 m 135.953 7.848 l S
138.492 34.477 m 138.492 7.867 l S
141.035 34.449 m 141.035 7.855 l S
143.578 34.629 m 143.578 7.957 l S
146.117 34.793 m 146.117 7.699 l S
148.66 34.668 m 148.66 8.168 l S
151.199 34.66 m 151.199 7.746 l S
153.742 34.84 m 153.742 7.836 l S
156.281 34.59 m 156.281 7.621 l S
158.824 34.559 m 158.824 7.816 l S
161.363 34.898 m 161.363 8.078 l S
163.906 34.633 m 163.906 7.648 l S
166.445 34.82 m 166.445 7.777 l S
168.988 34.508 m 168.988 7.719 l S
171.531 34.754 m 171.531 7.723 l S
174.07 34.551 m 174.07 7.941 l S
176.613 34.797 m 176.613 8.117 l S
179.152 34.594 m 179.152 7.668 l S
181.695 34.422 m 181.695 7.805 l S
184.234 34.691 m 184.234 7.824 l S
186.777 34.73 m 186.777 7.688 l S
189.316 34.414 m 189.316 8.047 l S
191.859 33.973 m 191.859 8.391 l S
194.398 32.082 m 194.398 10.059 l S
196.941 29.77 m 196.941 12.543 l S
199.48 28.707 m 199.48 14 l S
202.023 27.48 m 202.023 15.543 l S
204.566 26.234 m 204.566 16.852 l S
207.105 24.988 m 207.105 17.684 l S
209.648 24.23 m 209.648 18.641 l S
212.188 23.523 m 212.188 19.355 l S
214.73 22.887 m 214.73 19.883 l S
217.27 22.449 m 217.27 20.305 l S
219.812 22.156 m 219.812 20.609 l S
222.352 21.852 m 222.352 20.836 l S
224.895 21.746 m 224.895 20.969 l S
227.434 21.633 m 227.434 21.102 l S
229.977 21.523 m 229.977 21.23 l S
232.52 21.484 m 232.52 21.273 l S
235.059 21.473 m 235.059 21.277 l S
237.602 21.473 m 237.602 21.277 l S
240.141 21.473 m 240.141 21.277 l S
242.684 21.473 m 242.684 21.277 l S
245.223 21.473 m 245.223 21.277 l S
247.766 21.473 m 247.766 21.277 l S
250.305 21.473 m 250.305 21.277 l S
252.848 21.473 m 252.848 21.277 l S
255.387 21.473 m 255.387 21.277 l S
255.387 21.473 m 255.387 21.277 l S
3.812 64.672 m 3.812 64.473 l S
6.352 69.164 m 6.352 59.629 l S
8.895 71.438 m 8.895 57.832 l S
11.434 72.367 m 11.434 56.344 l S
13.977 73.234 m 13.977 55.641 l S
16.52 73.602 m 16.52 55.453 l S
19.059 73.879 m 19.059 55.176 l S
21.602 74.164 m 21.602 55.023 l S
24.141 74.293 m 24.141 55.016 l S
26.684 74.293 m 26.684 54.84 l S
29.223 74.359 m 29.223 54.719 l S
31.766 74.379 m 31.766 54.676 l S
34.305 74.484 m 34.305 54.676 l S
36.848 74.523 m 36.848 54.582 l S
39.387 74.555 m 39.387 54.648 l S
41.93 74.426 m 41.93 54.805 l S
44.469 74.465 m 44.469 54.738 l S
47.012 74.672 m 47.012 54.746 l S
49.555 74.59 m 49.555 54.691 l S
52.094 74.66 m 52.094 54.758 l S
54.637 74.562 m 54.637 54.625 l S
57.176 74.664 m 57.176 54.594 l S
59.719 74.402 m 59.719 54.688 l S
62.258 74.637 m 62.258 54.688 l S
64.801 74.66 m 64.801 54.695 l S
67.34 74.691 m 67.34 54.699 l S
69.883 74.574 m 69.883 54.668 l S
72.422 74.645 m 72.422 54.703 l S
74.965 74.566 m 74.965 54.723 l S
77.508 74.43 m 77.508 54.641 l S
80.047 74.52 m 80.047 54.719 l S
82.59 74.586 m 82.59 54.598 l S
85.129 74.496 m 85.129 54.832 l S
87.672 74.457 m 87.672 54.691 l S
90.211 74.512 m 90.211 54.602 l S
92.754 74.586 m 92.754 54.652 l S
95.293 74.5 m 95.293 54.652 l S
97.836 74.488 m 97.836 54.645 l S
100.375 74.609 m 100.375 54.547 l S
102.918 74.43 m 102.918 54.652 l S
105.457 74.57 m 105.457 54.652 l S
108 74.547 m 108 54.68 l S
110.543 74.52 m 110.543 54.641 l S
113.082 74.582 m 113.082 54.668 l S
115.625 74.523 m 115.625 54.578 l S
118.164 74.594 m 118.164 54.719 l S
120.707 74.598 m 120.707 54.711 l S
123.246 74.621 m 123.246 54.773 l S
125.789 74.48 m 125.789 54.625 l S
128.328 74.41 m 128.328 54.59 l S
130.871 74.562 m 130.871 54.621 l S
133.41 74.531 m 133.41 54.594 l S
135.953 74.555 m 135.953 54.664 l S
138.492 74.559 m 138.492 54.68 l S
141.035 74.633 m 141.035 54.758 l S
143.578 74.594 m 143.578 54.672 l S
146.117 74.465 m 146.117 54.527 l S
148.66 74.457 m 148.66 54.574 l S
151.199 74.578 m 151.199 54.691 l S
153.742 74.547 m 153.742 54.59 l S
156.281 74.48 m 156.281 54.906 l S
158.824 74.527 m 158.824 54.715 l S
161.363 74.391 m 161.363 54.641 l S
163.906 74.402 m 163.906 54.68 l S
166.445 74.531 m 166.445 54.73 l S
168.988 74.387 m 168.988 55.004 l S
171.531 74.484 m 171.531 54.617 l S
174.07 74.473 m 174.07 54.801 l S
176.613 74.238 m 176.613 54.699 l S
179.152 74.41 m 179.152 54.738 l S
181.695 74.555 m 181.695 54.824 l S
184.234 74.414 m 184.234 55.07 l S
186.777 74.414 m 186.777 54.656 l S
189.316 74.426 m 189.316 54.805 l S
191.859 74.145 m 191.859 55.148 l S
194.398 73.59 m 194.398 56.152 l S
196.941 71.711 m 196.941 57.789 l S
199.48 70.523 m 199.48 58.938 l S
202.023 69.434 m 202.023 59.953 l S
204.566 68.797 m 204.566 60.672 l S
207.105 67.758 m 207.105 61.512 l S
209.648 67.07 m 209.648 62.113 l S
212.188 66.543 m 212.188 62.504 l S
214.73 66.062 m 214.73 63.172 l S
217.27 65.77 m 217.27 63.523 l S
219.812 65.281 m 219.812 63.824 l S
222.352 65.105 m 222.352 64.062 l S
224.895 64.961 m 224.895 64.168 l S
227.434 64.797 m 227.434 64.309 l S
229.977 64.727 m 229.977 64.418 l S
232.52 64.684 m 232.52 64.461 l S
235.059 64.672 m 235.059 64.477 l S
237.602 64.672 m 237.602 64.477 l S
240.141 64.672 m 240.141 64.477 l S
242.684 64.672 m 242.684 64.477 l S
245.223 64.672 m 245.223 64.477 l S
247.766 64.672 m 247.766 64.477 l S
250.305 64.672 m 250.305 64.477 l S
252.848 64.672 m 252.848 64.477 l S
255.387 64.672 m 255.387 64.477 l S
255.387 64.672 m 255.387 64.477 l S
3.812 107.926 m 3.812 107.641 l S
6.352 113.875 m 6.352 101.031 l S
8.895 117.035 m 8.895 99.125 l S
11.434 119.555 m 11.434 96.238 l S
13.977 120.992 m 13.977 95.227 l S
16.52 121.051 m 16.52 94.176 l S
19.059 122.016 m 19.059 93.461 l S
21.602 122.648 m 21.602 93.629 l S
24.141 122.828 m 24.141 93.172 l S
26.684 122.781 m 26.684 92.812 l S
29.223 123.461 m 29.223 92.555 l S
31.766 123.523 m 31.766 92.273 l S
34.305 123.371 m 34.305 92.152 l S
36.848 124.016 m 36.848 91.906 l S
39.387 123.602 m 39.387 91.781 l S
41.93 123.977 m 41.93 91.762 l S
44.469 124.184 m 44.469 91.52 l S
47.012 124.312 m 47.012 91.184 l S
49.555 124.691 m 49.555 91.07 l S
52.094 124.895 m 52.094 91.109 l S
54.637 125.082 m 54.637 90.805 l S
57.176 124.664 m 57.176 91.066 l S
59.719 125.172 m 59.719 90.84 l S
62.258 125.25 m 62.258 90.691 l S
64.801 125.23 m 64.801 90.746 l S
67.34 125.156 m 67.34 90.84 l S
69.883 125.109 m 69.883 90.824 l S
72.422 125.004 m 72.422 90.809 l S
74.965 124.926 m 74.965 91.238 l S
77.508 124.906 m 77.508 90.742 l S
80.047 124.949 m 80.047 90.742 l S
82.59 124.781 m 82.59 91.043 l S
85.129 124.816 m 85.129 90.875 l S
87.672 124.863 m 87.672 90.785 l S
90.211 124.977 m 90.211 90.82 l S
92.754 124.621 m 92.754 91.137 l S
95.293 124.82 m 95.293 90.941 l S
97.836 124.953 m 97.836 90.789 l S
100.375 124.488 m 100.375 90.938 l S
102.918 125.039 m 102.918 90.926 l S
105.457 124.844 m 105.457 90.699 l S
108 124.922 m 108 90.672 l S
110.543 124.918 m 110.543 90.57 l S
113.082 124.93 m 113.082 90.566 l S
115.625 125.02 m 115.625 90.562 l S
118.164 125.004 m 118.164 91.246 l S
120.707 125.133 m 120.707 90.488 l S
123.246 125.301 m 123.246 90.578 l S
125.789 124.719 m 125.789 90.594 l S
128.328 125.297 m 128.328 90.574 l S
130.871 125.105 m 130.871 90.574 l S
133.41 125.043 m 133.41 90.578 l S
135.953 125.055 m 135.953 90.492 l S
138.492 125.113 m 138.492 91.051 l S
141.035 125.289 m 141.035 90.488 l S
143.578 125.414 m 143.578 90.566 l S
146.117 124.707 m 146.117 90.496 l S
148.66 125.195 m 148.66 90.469 l S
151.199 125.383 m 151.199 90.473 l S
153.742 125.355 m 153.742 90.539 l S
156.281 125.242 m 156.281 90.414 l S
158.824 124.84 m 158.824 90.465 l S
161.363 125.391 m 161.363 90.441 l S
163.906 125.199 m 163.906 90.465 l S
166.445 125.414 m 166.445 90.664 l S
168.988 125.273 m 168.988 90.457 l S
171.531 125.035 m 171.531 90.496 l S
174.07 125.266 m 174.07 90.523 l S
176.613 125.367 m 176.613 90.469 l S
179.152 125.121 m 179.152 90.52 l S
181.695 125.34 m 181.695 90.672 l S
184.234 125.262 m 184.234 90.566 l S
186.777 125.086 m 186.777 90.543 l S
189.316 125.117 m 189.316 90.562 l S
191.859 124.848 m 191.859 91.637 l S
194.398 122.457 m 194.398 93.059 l S
196.941 119.258 m 196.941 95.789 l S
199.48 117.035 m 199.48 98.555 l S
202.023 115.109 m 202.023 99.746 l S
204.566 113.953 m 204.566 101.195 l S
207.105 112.656 m 207.105 102.891 l S
209.648 111.77 m 209.648 103.703 l S
212.188 110.781 m 212.188 104.809 l S
214.73 109.91 m 214.73 105.473 l S
217.27 109.371 m 217.27 106.066 l S
219.812 108.883 m 219.812 106.594 l S
222.352 108.594 m 222.352 106.895 l S
224.895 108.289 m 224.895 107.242 l S
227.434 108.137 m 227.434 107.422 l S
229.977 108.031 m 229.977 107.512 l S
232.52 107.926 m 232.52 107.629 l S
235.059 107.871 m 235.059 107.676 l S
237.602 107.871 m 237.602 107.676 l S
240.141 107.871 m 240.141 107.676 l S
242.684 107.871 m 242.684 107.676 l S
245.223 107.871 m 245.223 107.676 l S
247.766 107.871 m 247.766 107.676 l S
250.305 107.871 m 250.305 107.676 l S
252.848 107.871 m 252.848 107.676 l S
255.387 107.871 m 255.387 107.676 l S
255.387 107.871 m 255.387 107.676 l S
3.812 151.086 m 3.812 150.812 l S
6.352 160.352 m 6.352 141.789 l S
8.895 164.27 m 8.895 137.723 l S
11.434 166.262 m 11.434 135.25 l S
13.977 168.602 m 13.977 133.984 l S
16.52 168.961 m 16.52 133.055 l S
19.059 169.539 m 19.059 132.594 l S
21.602 169.816 m 21.602 132.391 l S
24.141 169.859 m 24.141 132.633 l S
26.684 170.258 m 26.684 131.988 l S
29.223 170.039 m 29.223 132.133 l S
31.766 170.395 m 31.766 131.832 l S
34.305 170.289 m 34.305 132.086 l S
36.848 170.539 m 36.848 131.891 l S
39.387 170.617 m 39.387 132.047 l S
41.93 170.422 m 41.93 132.066 l S
44.469 170.305 m 44.469 131.992 l S
47.012 170.609 m 47.012 131.957 l S
49.555 170.836 m 49.555 131.891 l S
52.094 170.742 m 52.094 131.902 l S
54.637 170.699 m 54.637 131.562 l S
57.176 170.551 m 57.176 131.746 l S
59.719 170.602 m 59.719 131.691 l S
62.258 170.652 m 62.258 131.715 l S
64.801 170.613 m 64.801 131.668 l S
67.34 170.18 m 67.34 131.809 l S
69.883 170.531 m 69.883 131.809 l S
72.422 170.629 m 72.422 131.73 l S
74.965 170.648 m 74.965 131.727 l S
77.508 170.645 m 77.508 131.82 l S
80.047 170.633 m 80.047 131.844 l S
82.59 170.562 m 82.59 131.613 l S
85.129 170.746 m 85.129 131.688 l S
87.672 170.672 m 87.672 132.27 l S
90.211 170.594 m 90.211 131.766 l S
92.754 170.547 m 92.754 131.988 l S
95.293 170.723 m 95.293 131.617 l S
97.836 170.699 m 97.836 131.691 l S
100.375 170.523 m 100.375 131.859 l S
102.918 170.73 m 102.918 131.703 l S
105.457 170.762 m 105.457 131.676 l S
108 170.711 m 108 131.684 l S
110.543 170.652 m 110.543 131.727 l S
113.082 170.625 m 113.082 131.738 l S
115.625 170.609 m 115.625 131.773 l S
118.164 170.621 m 118.164 131.793 l S
120.707 170.605 m 120.707 131.777 l S
123.246 170.605 m 123.246 131.816 l S
125.789 170.504 m 125.789 131.816 l S
128.328 170.625 m 128.328 131.773 l S
130.871 169.773 m 130.871 131.699 l S
133.41 170.551 m 133.41 131.801 l S
135.953 170.527 m 135.953 131.812 l S
138.492 170.594 m 138.492 131.793 l S
141.035 170.605 m 141.035 131.812 l S
143.578 170.527 m 143.578 132.094 l S
146.117 170.535 m 146.117 131.934 l S
148.66 170.461 m 148.66 131.836 l S
151.199 170.09 m 151.199 131.848 l S
153.742 170.512 m 153.742 131.973 l S
156.281 170.484 m 156.281 131.895 l S
158.824 170.531 m 158.824 132.254 l S
161.363 170.402 m 161.363 131.996 l S
163.906 169.648 m 163.906 131.836 l S
166.445 170.469 m 166.445 131.961 l S
168.988 170.301 m 168.988 131.965 l S
171.531 170.344 m 171.531 132.809 l S
174.07 170.387 m 174.07 131.918 l S
176.613 170.328 m 176.613 132.09 l S
179.152 169.461 m 179.152 131.93 l S
181.695 170.25 m 181.695 131.973 l S
184.234 170.234 m 184.234 132.07 l S
186.777 170.305 m 186.777 132.047 l S
189.316 170.27 m 189.316 132.094 l S
191.859 169.113 m 191.859 132.324 l S
194.398 169.215 m 194.398 133.941 l S
196.941 165.73 m 196.941 136.953 l S
199.48 163.48 m 199.48 139.344 l S
202.023 160.723 m 202.023 141.574 l S
204.566 159.293 m 204.566 143.277 l S
207.105 157.305 m 207.105 144.559 l S
209.648 156.223 m 209.648 145.91 l S
212.188 154.992 m 212.188 147.242 l S
214.73 154.258 m 214.73 147.961 l S
217.27 153.371 m 217.27 148.625 l S
219.812 152.68 m 219.812 149.25 l S
222.352 152.297 m 222.352 149.738 l S
224.895 151.902 m 224.895 149.941 l S
227.434 151.602 m 227.434 150.375 l S
229.977 151.406 m 229.977 150.539 l S
232.52 151.266 m 232.52 150.664 l S
235.059 151.191 m 235.059 150.77 l S
237.602 151.133 m 237.602 150.812 l S
240.141 151.074 m 240.141 150.859 l S
242.684 151.074 m 242.684 150.875 l S
245.223 151.074 m 245.223 150.875 l S
247.766 151.074 m 247.766 150.875 l S
250.305 151.074 m 250.305 150.875 l S
252.848 151.074 m 252.848 150.875 l S
255.387 151.074 m 255.387 150.875 l S
255.387 151.074 m 255.387 150.875 l S
Q Q
showpage
%%Trailer
end
%%EOF
