%!PS-Adobe-3.0 EPSF-3.0
%%Creator: cairo 1.16.0 (https://cairographics.org)
%%CreationDate: Wed May 15 11:57:19 2024
%%Pages: 1
%%DocumentData: Clean7Bit
%%LanguageLevel: 2
%%Creator: Wolfram Mathematica
%%BoundingBox: 2 7 257 167
%%EndComments
%%BeginProlog
50 dict begin
/q { gsave } bind def
/Q { grestore } bind def
/cm { 6 array astore concat } bind def
/w { setlinewidth } bind def
/J { setlinecap } bind def
/j { setlinejoin } bind def
/M { setmiterlimit } bind def
/d { setdash } bind def
/m { moveto } bind def
/l { lineto } bind def
/c { curveto } bind def
/h { closepath } bind def
/re { exch dup neg 3 1 roll 5 3 roll moveto 0 rlineto
      0 exch rlineto 0 rlineto closepath } bind def
/S { stroke } bind def
/f { fill } bind def
/f* { eofill } bind def
/n { newpath } bind def
/W { clip } bind def
/W* { eoclip } bind def
/BT { } bind def
/ET { } bind def
/BDC { mark 3 1 roll /BDC pdfmark } bind def
/EMC { mark /EMC pdfmark } bind def
/cairo_store_point { /cairo_point_y exch def /cairo_point_x exch def } def
/Tj { show currentpoint cairo_store_point } bind def
/TJ {
  {
    dup
    type /stringtype eq
    { show } { -0.001 mul 0 cairo_font_matrix dtransform rmoveto } ifelse
  } forall
  currentpoint cairo_store_point
} bind def
/cairo_selectfont { cairo_font_matrix aload pop pop pop 0 0 6 array astore
    cairo_font exch selectfont cairo_point_x cairo_point_y moveto } bind def
/Tf { pop /cairo_font exch def /cairo_font_matrix where
      { pop cairo_selectfont } if } bind def
/Td { matrix translate cairo_font_matrix matrix concatmatrix dup
      /cairo_font_matrix exch def dup 4 get exch 5 get cairo_store_point
      /cairo_font where { pop cairo_selectfont } if } bind def
/Tm { 2 copy 8 2 roll 6 array astore /cairo_font_matrix exch def
      cairo_store_point /cairo_font where { pop cairo_selectfont } if } bind def
/g { setgray } bind def
/rg { setrgbcolor } bind def
/d1 { setcachedevice } bind def
/cairo_data_source {
  CairoDataIndex CairoData length lt
    { CairoData CairoDataIndex get /CairoDataIndex CairoDataIndex 1 add def }
    { () } ifelse
} def
/cairo_flush_ascii85_file { cairo_ascii85_file status { cairo_ascii85_file flushfile } if } def
/cairo_image { image cairo_flush_ascii85_file } def
/cairo_imagemask { imagemask cairo_flush_ascii85_file } def
%%EndProlog
%%BeginSetup
%%EndSetup
%%Page: 1 1
%%BeginPageSetup
%%PageBoundingBox: 2 7 257 167
%%EndPageSetup
q 2 7 255 160 rectclip
1 0 0 -1 0 173 cm q
0 g
1.796436 w
0 J
0 j
[] 0.0 d
3.25 M 3.812 21.723 m 3.812 21.527 l S
6.352 23.129 m 6.352 20.312 l S
8.895 30.816 m 8.895 12.391 l S
11.434 35.09 m 11.434 8.141 l S
13.977 36.527 m 13.977 6.547 l S
16.52 36.887 m 16.52 6.297 l S
19.059 36.93 m 19.059 6.23 l S
21.602 36.945 m 21.602 6.25 l S
24.141 36.965 m 24.141 6.254 l S
26.684 37.027 m 26.684 6.223 l S
29.223 37.051 m 29.223 6.227 l S
31.766 37.031 m 31.766 6.266 l S
34.305 37.012 m 34.305 6.262 l S
36.848 37.004 m 36.848 6.25 l S
39.387 37.016 m 39.387 6.242 l S
41.93 37.027 m 41.93 6.227 l S
44.469 37.039 m 44.469 6.219 l S
47.012 37.039 m 47.012 6.219 l S
49.555 37.039 m 49.555 6.203 l S
52.094 37.031 m 52.094 6.207 l S
54.637 37 m 54.637 6.242 l S
57.176 36.992 m 57.176 6.238 l S
59.719 36.969 m 59.719 6.25 l S
62.258 36.934 m 62.258 6.285 l S
64.801 36.918 m 64.801 6.262 l S
67.34 36.871 m 67.34 6.297 l S
69.883 36.871 m 69.883 6.281 l S
72.422 36.883 m 72.422 6.266 l S
74.965 36.914 m 74.965 6.254 l S
77.508 36.914 m 77.508 6.258 l S
80.047 36.902 m 80.047 6.273 l S
82.59 36.875 m 82.59 6.285 l S
85.129 36.891 m 85.129 6.258 l S
87.672 36.906 m 87.672 6.238 l S
90.211 36.906 m 90.211 6.25 l S
92.754 36.887 m 92.754 6.266 l S
95.293 36.867 m 95.293 6.273 l S
97.836 36.879 m 97.836 6.254 l S
100.375 36.895 m 100.375 6.254 l S
102.918 36.883 m 102.918 6.25 l S
105.457 36.898 m 105.457 6.234 l S
108 36.906 m 108 6.23 l S
110.543 36.914 m 110.543 6.227 l S
113.082 36.91 m 113.082 6.23 l S
115.625 36.91 m 115.625 6.238 l S
118.164 36.902 m 118.164 6.23 l S
120.707 36.902 m 120.707 6.227 l S
123.246 36.887 m 123.246 6.238 l S
125.789 36.926 m 125.789 6.195 l S
128.328 36.914 m 128.328 6.215 l S
130.871 36.914 m 130.871 6.223 l S
133.41 36.902 m 133.41 6.223 l S
135.953 36.887 m 135.953 6.246 l S
138.492 36.844 m 138.492 6.289 l S
141.035 36.789 m 141.035 6.312 l S
143.578 36.762 m 143.578 6.309 l S
146.117 36.77 m 146.117 6.309 l S
148.66 36.754 m 148.66 6.32 l S
151.199 36.742 m 151.199 6.312 l S
153.742 36.734 m 153.742 6.328 l S
156.281 36.738 m 156.281 6.32 l S
158.824 36.758 m 158.824 6.305 l S
161.363 36.742 m 161.363 6.312 l S
163.906 36.75 m 163.906 6.312 l S
166.445 36.75 m 166.445 6.305 l S
168.988 36.777 m 168.988 6.273 l S
171.531 36.793 m 171.531 6.273 l S
174.07 36.789 m 174.07 6.281 l S
176.613 36.773 m 176.613 6.293 l S
179.152 36.531 m 179.152 6.469 l S
181.695 34.258 m 181.695 8.656 l S
184.234 31.086 m 184.234 12.102 l S
186.777 28.668 m 186.777 14.562 l S
189.316 27.68 m 189.316 15.68 l S
191.859 26.672 m 191.859 16.703 l S
194.398 25.785 m 194.398 17.594 l S
196.941 24.938 m 196.941 18.418 l S
199.48 24.266 m 199.48 19.129 l S
202.023 23.551 m 202.023 19.742 l S
204.566 23.043 m 204.566 20.242 l S
207.105 22.695 m 207.105 20.621 l S
209.648 22.371 m 209.648 20.895 l S
212.188 22.164 m 212.188 21.078 l S
214.73 22.012 m 214.73 21.223 l S
217.27 21.91 m 217.27 21.344 l S
219.812 21.84 m 219.812 21.398 l S
222.352 21.773 m 222.352 21.473 l S
224.895 21.734 m 224.895 21.512 l S
227.434 21.723 m 227.434 21.527 l S
229.977 21.723 m 229.977 21.527 l S
232.52 21.723 m 232.52 21.527 l S
235.059 21.723 m 235.059 21.527 l S
237.602 21.723 m 237.602 21.527 l S
240.141 21.723 m 240.141 21.527 l S
242.684 21.723 m 242.684 21.527 l S
245.223 21.723 m 245.223 21.527 l S
247.766 21.723 m 247.766 21.527 l S
250.305 21.723 m 250.305 21.527 l S
252.848 21.723 m 252.848 21.527 l S
255.387 21.723 m 255.387 21.527 l S
255.387 21.723 m 255.387 21.527 l S
3.812 64.922 m 3.812 64.727 l S
6.352 65.918 m 6.352 63.832 l S
8.895 70.613 m 8.895 58.863 l S
11.434 74.156 m 11.434 55.508 l S
13.977 75.191 m 13.977 54.844 l S
16.52 75.492 m 16.52 54.734 l S
19.059 75.562 m 19.059 54.742 l S
21.602 75.598 m 21.602 54.75 l S
24.141 75.598 m 24.141 54.727 l S
26.684 75.633 m 26.684 54.688 l S
29.223 75.641 m 29.223 54.672 l S
31.766 75.66 m 31.766 54.684 l S
34.305 75.68 m 34.305 54.68 l S
36.848 75.723 m 36.848 54.672 l S
39.387 75.711 m 39.387 54.68 l S
41.93 75.715 m 41.93 54.676 l S
44.469 75.738 m 44.469 54.68 l S
47.012 75.723 m 47.012 54.699 l S
49.555 75.738 m 49.555 54.711 l S
52.094 75.727 m 52.094 54.727 l S
54.637 75.719 m 54.637 54.734 l S
57.176 75.723 m 57.176 54.75 l S
59.719 75.707 m 59.719 54.746 l S
62.258 75.691 m 62.258 54.746 l S
64.801 75.695 m 64.801 54.758 l S
67.34 75.684 m 67.34 54.738 l S
69.883 75.695 m 69.883 54.754 l S
72.422 75.707 m 72.422 54.758 l S
74.965 75.699 m 74.965 54.754 l S
77.508 75.691 m 77.508 54.746 l S
80.047 75.684 m 80.047 54.762 l S
82.59 75.703 m 82.59 54.77 l S
85.129 75.691 m 85.129 54.758 l S
87.672 75.695 m 87.672 54.766 l S
90.211 75.699 m 90.211 54.762 l S
92.754 75.684 m 92.754 54.77 l S
95.293 75.695 m 95.293 54.77 l S
97.836 75.695 m 97.836 54.766 l S
100.375 75.719 m 100.375 54.762 l S
102.918 75.699 m 102.918 54.766 l S
105.457 75.695 m 105.457 54.758 l S
108 75.703 m 108 54.766 l S
110.543 75.699 m 110.543 54.758 l S
113.082 75.695 m 113.082 54.766 l S
115.625 75.699 m 115.625 54.773 l S
118.164 75.688 m 118.164 54.754 l S
120.707 75.707 m 120.707 54.77 l S
123.246 75.703 m 123.246 54.762 l S
125.789 75.723 m 125.789 54.754 l S
128.328 75.723 m 128.328 54.746 l S
130.871 75.723 m 130.871 54.75 l S
133.41 75.715 m 133.41 54.766 l S
135.953 75.695 m 135.953 54.75 l S
138.492 75.68 m 138.492 54.781 l S
141.035 75.668 m 141.035 54.793 l S
143.578 75.652 m 143.578 54.766 l S
146.117 75.672 m 146.117 54.789 l S
148.66 75.664 m 148.66 54.766 l S
151.199 75.656 m 151.199 54.754 l S
153.742 75.656 m 153.742 54.754 l S
156.281 75.664 m 156.281 54.773 l S
158.824 75.672 m 158.824 54.77 l S
161.363 75.68 m 161.363 54.754 l S
163.906 75.691 m 163.906 54.75 l S
166.445 75.691 m 166.445 54.766 l S
168.988 75.684 m 168.988 54.738 l S
171.531 75.691 m 171.531 54.75 l S
174.07 75.684 m 174.07 54.738 l S
176.613 75.672 m 176.613 54.727 l S
179.152 75.531 m 179.152 54.855 l S
181.695 74.066 m 181.695 55.902 l S
184.234 72.023 m 184.234 57.707 l S
186.777 69.691 m 186.777 60.078 l S
189.316 68.57 m 189.316 61.137 l S
191.859 67.559 m 191.859 62.125 l S
194.398 66.875 m 194.398 62.812 l S
196.941 66.48 m 196.941 63.195 l S
199.48 66.148 m 199.48 63.535 l S
202.023 65.844 m 202.023 63.887 l S
204.566 65.609 m 204.566 64.039 l S
207.105 65.43 m 207.105 64.266 l S
209.648 65.25 m 209.648 64.418 l S
212.188 65.156 m 212.188 64.52 l S
214.73 65.047 m 214.73 64.602 l S
217.27 64.984 m 217.27 64.656 l S
219.812 64.957 m 219.812 64.699 l S
222.352 64.926 m 222.352 64.727 l S
224.895 64.922 m 224.895 64.727 l S
227.434 64.922 m 227.434 64.727 l S
229.977 64.922 m 229.977 64.727 l S
232.52 64.922 m 232.52 64.727 l S
235.059 64.922 m 235.059 64.727 l S
237.602 64.922 m 237.602 64.727 l S
240.141 64.922 m 240.141 64.727 l S
242.684 64.922 m 242.684 64.727 l S
245.223 64.922 m 245.223 64.727 l S
247.766 64.922 m 247.766 64.727 l S
250.305 64.922 m 250.305 64.727 l S
252.848 64.922 m 252.848 64.727 l S
255.387 64.922 m 255.387 64.727 l S
255.387 64.922 m 255.387 64.727 l S
3.812 108.125 m 3.812 107.926 l S
6.352 110.699 m 6.352 105.402 l S
8.895 120.301 m 8.895 95.824 l S
11.434 125.453 m 11.434 90.574 l S
13.977 126.613 m 13.977 89.5 l S
16.52 126.996 m 16.52 89.082 l S
19.059 127.137 m 19.059 88.902 l S
21.602 127.289 m 21.602 88.812 l S
24.141 127.344 m 24.141 88.727 l S
26.684 127.445 m 26.684 88.617 l S
29.223 127.473 m 29.223 88.566 l S
31.766 127.473 m 31.766 88.57 l S
34.305 127.477 m 34.305 88.562 l S
36.848 127.504 m 36.848 88.512 l S
39.387 127.535 m 39.387 88.461 l S
41.93 127.578 m 41.93 88.434 l S
44.469 127.621 m 44.469 88.391 l S
47.012 127.621 m 47.012 88.398 l S
49.555 127.637 m 49.555 88.375 l S
52.094 127.625 m 52.094 88.363 l S
54.637 127.605 m 54.637 88.422 l S
57.176 127.598 m 57.176 88.422 l S
59.719 127.586 m 59.719 88.449 l S
62.258 127.547 m 62.258 88.484 l S
64.801 127.559 m 64.801 88.477 l S
67.34 127.5 m 67.34 88.531 l S
69.883 127.508 m 69.883 88.527 l S
72.422 127.547 m 72.422 88.488 l S
74.965 127.555 m 74.965 88.469 l S
77.508 127.57 m 77.508 88.477 l S
80.047 127.547 m 80.047 88.488 l S
82.59 127.512 m 82.59 88.531 l S
85.129 127.547 m 85.129 88.504 l S
87.672 127.562 m 87.672 88.484 l S
90.211 127.562 m 90.211 88.48 l S
92.754 127.535 m 92.754 88.508 l S
95.293 127.539 m 95.293 88.523 l S
97.836 127.547 m 97.836 88.52 l S
100.375 127.555 m 100.375 88.504 l S
102.918 127.555 m 102.918 88.496 l S
105.457 127.586 m 105.457 88.469 l S
108 127.598 m 108 88.477 l S
110.543 127.59 m 110.543 88.469 l S
113.082 127.594 m 113.082 88.473 l S
115.625 127.578 m 115.625 88.484 l S
118.164 127.57 m 118.164 88.492 l S
120.707 127.57 m 120.707 88.496 l S
123.246 127.555 m 123.246 88.516 l S
125.789 127.617 m 125.789 88.465 l S
128.328 127.609 m 128.328 88.449 l S
130.871 127.594 m 130.871 88.457 l S
133.41 127.57 m 133.41 88.48 l S
135.953 127.547 m 135.953 88.512 l S
138.492 127.492 m 138.492 88.562 l S
141.035 127.422 m 141.035 88.648 l S
143.578 127.395 m 143.578 88.648 l S
146.117 127.387 m 146.117 88.66 l S
148.66 127.359 m 148.66 88.68 l S
151.199 127.375 m 151.199 88.699 l S
153.742 127.344 m 153.742 88.719 l S
156.281 127.332 m 156.281 88.719 l S
158.824 127.359 m 158.824 88.707 l S
161.363 127.371 m 161.363 88.691 l S
163.906 127.355 m 163.906 88.688 l S
166.445 127.383 m 166.445 88.68 l S
168.988 127.406 m 168.988 88.664 l S
171.531 127.414 m 171.531 88.641 l S
174.07 127.422 m 174.07 88.633 l S
176.613 127.379 m 176.613 88.645 l S
179.152 127.066 m 179.152 89.059 l S
181.695 124.16 m 181.695 92.211 l S
184.234 121.211 m 184.234 95.012 l S
186.777 118.613 m 186.777 97.164 l S
189.316 116.969 m 189.316 99.012 l S
191.859 115.531 m 191.859 100.41 l S
194.398 114.285 m 194.398 101.707 l S
196.941 113.199 m 196.941 102.77 l S
199.48 112.137 m 199.48 103.828 l S
202.023 111.371 m 202.023 104.637 l S
204.566 110.645 m 204.566 105.375 l S
207.105 109.973 m 207.105 106.098 l S
209.648 109.453 m 209.648 106.586 l S
212.188 109.074 m 212.188 107.004 l S
214.73 108.781 m 214.73 107.305 l S
217.27 108.598 m 217.27 107.477 l S
219.812 108.41 m 219.812 107.645 l S
222.352 108.336 m 222.352 107.73 l S
224.895 108.234 m 224.895 107.801 l S
227.434 108.168 m 227.434 107.883 l S
229.977 108.137 m 229.977 107.906 l S
232.52 108.125 m 232.52 107.926 l S
235.059 108.125 m 235.059 107.926 l S
237.602 108.125 m 237.602 107.926 l S
240.141 108.125 m 240.141 107.926 l S
242.684 108.125 m 242.684 107.926 l S
245.223 108.125 m 245.223 107.926 l S
247.766 108.125 m 247.766 107.926 l S
250.305 108.125 m 250.305 107.926 l S
252.848 108.125 m 252.848 107.926 l S
255.387 108.125 m 255.387 107.926 l S
255.387 108.125 m 255.387 107.926 l S
3.812 151.324 m 3.812 151.125 l S
6.352 152.672 m 6.352 149.926 l S
8.895 159.441 m 8.895 143.113 l S
11.434 163.715 m 11.434 138.949 l S
13.977 165.074 m 13.977 138.145 l S
16.52 165.219 m 16.52 137.969 l S
19.059 165.242 m 19.059 138.008 l S
21.602 165.246 m 21.602 138.051 l S
24.141 165.23 m 24.141 138.059 l S
26.684 165.25 m 26.684 138.066 l S
29.223 165.238 m 29.223 138.059 l S
31.766 165.23 m 31.766 138.066 l S
34.305 165.203 m 34.305 138.082 l S
36.848 165.199 m 36.848 138.055 l S
39.387 165.195 m 39.387 138.039 l S
41.93 165.215 m 41.93 138.051 l S
44.469 165.219 m 44.469 138.043 l S
47.012 165.203 m 47.012 138.039 l S
49.555 165.215 m 49.555 138.043 l S
52.094 165.211 m 52.094 138.023 l S
54.637 165.203 m 54.637 138.066 l S
57.176 165.207 m 57.176 138.09 l S
59.719 165.176 m 59.719 138.086 l S
62.258 165.156 m 62.258 138.086 l S
64.801 165.164 m 64.801 138.07 l S
67.34 165.133 m 67.34 138.082 l S
69.883 165.137 m 69.883 138.09 l S
72.422 165.168 m 72.422 138.062 l S
74.965 165.176 m 74.965 138.062 l S
77.508 165.176 m 77.508 138.066 l S
80.047 165.199 m 80.047 138.066 l S
82.59 165.152 m 82.59 138.074 l S
85.129 165.176 m 85.129 138.078 l S
87.672 165.18 m 87.672 138.066 l S
90.211 165.172 m 90.211 138.062 l S
92.754 165.18 m 92.754 138.094 l S
95.293 165.188 m 95.293 138.078 l S
97.836 165.18 m 97.836 138.078 l S
100.375 165.215 m 100.375 138.059 l S
102.918 165.207 m 102.918 138.066 l S
105.457 165.195 m 105.457 138.059 l S
108 165.184 m 108 138.027 l S
110.543 165.191 m 110.543 138.059 l S
113.082 165.184 m 113.082 138.059 l S
115.625 165.191 m 115.625 138.055 l S
118.164 165.195 m 118.164 138.062 l S
120.707 165.188 m 120.707 138.043 l S
123.246 165.184 m 123.246 138.062 l S
125.789 165.266 m 125.789 138.023 l S
128.328 165.203 m 128.328 138.023 l S
130.871 165.234 m 130.871 138.027 l S
133.41 165.219 m 133.41 138.016 l S
135.953 165.18 m 135.953 138.094 l S
138.492 165.156 m 138.492 138.102 l S
141.035 165.137 m 141.035 138.156 l S
143.578 165.156 m 143.578 138.152 l S
146.117 165.16 m 146.117 138.164 l S
148.66 165.191 m 148.66 138.145 l S
151.199 165.176 m 151.199 138.16 l S
153.742 165.164 m 153.742 138.129 l S
156.281 165.18 m 156.281 138.172 l S
158.824 165.203 m 158.824 138.18 l S
161.363 165.188 m 161.363 138.164 l S
163.906 165.184 m 163.906 138.156 l S
166.445 165.168 m 166.445 138.133 l S
168.988 165.184 m 168.988 138.121 l S
171.531 165.184 m 171.531 138.105 l S
174.07 165.207 m 174.07 138.109 l S
176.613 165.191 m 176.613 138.074 l S
179.152 165.039 m 179.152 138.266 l S
181.695 163.469 m 181.695 139.402 l S
184.234 160.492 m 184.234 142.5 l S
186.777 158 m 186.777 144.188 l S
189.316 156.684 m 189.316 145.965 l S
191.859 155.375 m 191.859 146.969 l S
194.398 154.547 m 194.398 147.754 l S
196.941 154.074 m 196.941 148.301 l S
199.48 153.418 m 199.48 148.969 l S
202.023 152.855 m 202.023 149.625 l S
204.566 152.543 m 204.566 149.918 l S
207.105 152.188 m 207.105 150.285 l S
209.648 151.906 m 209.648 150.504 l S
212.188 151.754 m 212.188 150.73 l S
214.73 151.59 m 214.73 150.84 l S
217.27 151.512 m 217.27 150.953 l S
219.812 151.434 m 219.812 151.027 l S
222.352 151.383 m 222.352 151.07 l S
224.895 151.336 m 224.895 151.121 l S
227.434 151.324 m 227.434 151.125 l S
229.977 151.324 m 229.977 151.125 l S
232.52 151.324 m 232.52 151.125 l S
235.059 151.324 m 235.059 151.125 l S
237.602 151.324 m 237.602 151.125 l S
240.141 151.324 m 240.141 151.125 l S
242.684 151.324 m 242.684 151.125 l S
245.223 151.324 m 245.223 151.125 l S
247.766 151.324 m 247.766 151.125 l S
250.305 151.324 m 250.305 151.125 l S
252.848 151.324 m 252.848 151.125 l S
255.387 151.324 m 255.387 151.125 l S
255.387 151.324 m 255.387 151.125 l S
Q Q
showpage
%%Trailer
end
%%EOF
