%!PS-Adobe-3.0 EPSF-3.0
%%Creator: cairo 1.16.0 (https://cairographics.org)
%%CreationDate: Wed May 15 11:57:19 2024
%%Pages: 1
%%DocumentData: Clean7Bit
%%LanguageLevel: 2
%%Creator: Wolfram Mathematica
%%BoundingBox: 2 2 257 163
%%EndComments
%%BeginProlog
50 dict begin
/q { gsave } bind def
/Q { grestore } bind def
/cm { 6 array astore concat } bind def
/w { setlinewidth } bind def
/J { setlinecap } bind def
/j { setlinejoin } bind def
/M { setmiterlimit } bind def
/d { setdash } bind def
/m { moveto } bind def
/l { lineto } bind def
/c { curveto } bind def
/h { closepath } bind def
/re { exch dup neg 3 1 roll 5 3 roll moveto 0 rlineto
      0 exch rlineto 0 rlineto closepath } bind def
/S { stroke } bind def
/f { fill } bind def
/f* { eofill } bind def
/n { newpath } bind def
/W { clip } bind def
/W* { eoclip } bind def
/BT { } bind def
/ET { } bind def
/BDC { mark 3 1 roll /BDC pdfmark } bind def
/EMC { mark /EMC pdfmark } bind def
/cairo_store_point { /cairo_point_y exch def /cairo_point_x exch def } def
/Tj { show currentpoint cairo_store_point } bind def
/TJ {
  {
    dup
    type /stringtype eq
    { show } { -0.001 mul 0 cairo_font_matrix dtransform rmoveto } ifelse
  } forall
  currentpoint cairo_store_point
} bind def
/cairo_selectfont { cairo_font_matrix aload pop pop pop 0 0 6 array astore
    cairo_font exch selectfont cairo_point_x cairo_point_y moveto } bind def
/Tf { pop /cairo_font exch def /cairo_font_matrix where
      { pop cairo_selectfont } if } bind def
/Td { matrix translate cairo_font_matrix matrix concatmatrix dup
      /cairo_font_matrix exch def dup 4 get exch 5 get cairo_store_point
      /cairo_font where { pop cairo_selectfont } if } bind def
/Tm { 2 copy 8 2 roll 6 array astore /cairo_font_matrix exch def
      cairo_store_point /cairo_font where { pop cairo_selectfont } if } bind def
/g { setgray } bind def
/rg { setrgbcolor } bind def
/d1 { setcachedevice } bind def
/cairo_data_source {
  CairoDataIndex CairoData length lt
    { CairoData CairoDataIndex get /CairoDataIndex CairoDataIndex 1 add def }
    { () } ifelse
} def
/cairo_flush_ascii85_file { cairo_ascii85_file status { cairo_ascii85_file flushfile } if } def
/cairo_image { image cairo_flush_ascii85_file } def
/cairo_imagemask { imagemask cairo_flush_ascii85_file } def
%%EndProlog
%%BeginSetup
%%EndSetup
%%Page: 1 1
%%BeginPageSetup
%%PageBoundingBox: 2 2 257 163
%%EndPageSetup
q 2 2 255 161 rectclip
1 0 0 -1 0 173 cm q
0 g
1.796436 w
0 J
0 j
[] 0.0 d
3.25 M 3.812 21.625 m 3.812 21.43 l S
6.352 23.793 m 6.352 18.984 l S
8.895 27.668 m 8.895 15.293 l S
11.434 29.441 m 11.434 13.406 l S
13.977 30.516 m 13.977 12.344 l S
16.52 31.227 m 16.52 11.715 l S
19.059 31.562 m 19.059 11.426 l S
21.602 31.84 m 21.602 11.141 l S
24.141 32.004 m 24.141 10.98 l S
26.684 32.109 m 26.684 10.863 l S
29.223 32.121 m 29.223 10.883 l S
31.766 32.086 m 31.766 10.855 l S
34.305 32.074 m 34.305 10.867 l S
36.848 32.074 m 36.848 10.84 l S
39.387 32.117 m 39.387 10.82 l S
41.93 32.16 m 41.93 10.758 l S
44.469 32.23 m 44.469 10.688 l S
47.012 32.352 m 47.012 10.555 l S
49.555 32.453 m 49.555 10.531 l S
52.094 32.512 m 52.094 10.438 l S
54.637 32.586 m 54.637 10.379 l S
57.176 32.715 m 57.176 10.344 l S
59.719 32.766 m 59.719 10.305 l S
62.258 32.828 m 62.258 10.262 l S
64.801 32.848 m 64.801 10.227 l S
67.34 32.879 m 67.34 10.191 l S
69.883 32.891 m 69.883 10.188 l S
72.422 32.902 m 72.422 10.195 l S
74.965 32.93 m 74.965 10.164 l S
77.508 32.934 m 77.508 10.191 l S
80.047 32.902 m 80.047 10.18 l S
82.59 32.887 m 82.59 10.195 l S
85.129 32.828 m 85.129 10.191 l S
87.672 32.844 m 87.672 10.238 l S
90.211 32.859 m 90.211 10.227 l S
92.754 32.84 m 92.754 10.215 l S
95.293 32.762 m 95.293 10.246 l S
97.836 32.766 m 97.836 10.285 l S
100.375 32.758 m 100.375 10.281 l S
102.918 32.703 m 102.918 10.301 l S
105.457 32.695 m 105.457 10.305 l S
108 32.664 m 108 10.309 l S
110.543 32.645 m 110.543 10.289 l S
113.082 32.66 m 113.082 10.309 l S
115.625 32.625 m 115.625 10.305 l S
118.164 32.645 m 118.164 10.32 l S
120.707 32.652 m 120.707 10.309 l S
123.246 32.68 m 123.246 10.289 l S
125.789 32.68 m 125.789 10.254 l S
128.328 32.664 m 128.328 10.266 l S
130.871 32.711 m 130.871 10.262 l S
133.41 32.703 m 133.41 10.25 l S
135.953 32.695 m 135.953 10.246 l S
138.492 32.734 m 138.492 10.219 l S
141.035 32.715 m 141.035 10.246 l S
143.578 32.688 m 143.578 10.266 l S
146.117 32.699 m 146.117 10.293 l S
148.66 32.66 m 148.66 10.293 l S
151.199 32.684 m 151.199 10.301 l S
153.742 32.688 m 153.742 10.258 l S
156.281 32.645 m 156.281 10.258 l S
158.824 32.652 m 158.824 10.273 l S
161.363 32.621 m 161.363 10.297 l S
163.906 32.633 m 163.906 10.316 l S
166.445 32.418 m 166.445 10.508 l S
168.988 31.441 m 168.988 11.531 l S
171.531 29.285 m 171.531 13.746 l S
174.07 27.434 m 174.07 15.438 l S
176.613 26.145 m 176.613 16.855 l S
179.152 25.125 m 179.152 18.027 l S
181.695 24.184 m 181.695 18.918 l S
184.234 23.613 m 184.234 19.465 l S
186.777 23.09 m 186.777 19.98 l S
189.316 22.695 m 189.316 20.348 l S
191.859 22.414 m 191.859 20.695 l S
194.398 22.18 m 194.398 20.898 l S
196.941 22.047 m 196.941 21.031 l S
199.48 21.91 m 199.48 21.141 l S
202.023 21.82 m 202.023 21.227 l S
204.566 21.758 m 204.566 21.293 l S
207.105 21.699 m 207.105 21.348 l S
209.648 21.66 m 209.648 21.387 l S
212.188 21.637 m 212.188 21.41 l S
214.73 21.625 m 214.73 21.43 l S
217.27 21.625 m 217.27 21.43 l S
219.812 21.625 m 219.812 21.43 l S
222.352 21.625 m 222.352 21.43 l S
224.895 21.625 m 224.895 21.43 l S
227.434 21.625 m 227.434 21.43 l S
229.977 21.625 m 229.977 21.43 l S
232.52 21.625 m 232.52 21.43 l S
235.059 21.625 m 235.059 21.43 l S
237.602 21.625 m 237.602 21.43 l S
240.141 21.625 m 240.141 21.43 l S
242.684 21.625 m 242.684 21.43 l S
245.223 21.625 m 245.223 21.43 l S
247.766 21.625 m 247.766 21.43 l S
250.305 21.625 m 250.305 21.43 l S
252.848 21.625 m 252.848 21.43 l S
255.387 21.625 m 255.387 21.43 l S
255.387 21.625 m 255.387 21.43 l S
3.812 64.824 m 3.812 64.629 l S
6.352 67.688 m 6.352 61.789 l S
8.895 71.742 m 8.895 57.707 l S
11.434 73.32 m 11.434 56.105 l S
13.977 73.977 m 13.977 55.5 l S
16.52 74.469 m 16.52 54.82 l S
19.059 74.746 m 19.059 54.488 l S
21.602 74.914 m 21.602 54.27 l S
24.141 75.141 m 24.141 54.023 l S
26.684 75.23 m 26.684 53.945 l S
29.223 75.18 m 29.223 53.895 l S
31.766 75.254 m 31.766 53.895 l S
34.305 75.238 m 34.305 53.938 l S
36.848 75.273 m 36.848 53.852 l S
39.387 75.312 m 39.387 53.879 l S
41.93 75.316 m 41.93 53.852 l S
44.469 75.367 m 44.469 53.695 l S
47.012 75.465 m 47.012 53.609 l S
49.555 75.605 m 49.555 53.559 l S
52.094 75.711 m 52.094 53.531 l S
54.637 75.762 m 54.637 53.418 l S
57.176 75.809 m 57.176 53.375 l S
59.719 75.824 m 59.719 53.383 l S
62.258 75.871 m 62.258 53.371 l S
64.801 75.891 m 64.801 53.305 l S
67.34 75.934 m 67.34 53.273 l S
69.883 75.918 m 69.883 53.25 l S
72.422 75.996 m 72.422 53.172 l S
74.965 75.914 m 74.965 53.219 l S
77.508 76.07 m 77.508 53.203 l S
80.047 75.984 m 80.047 53.246 l S
82.59 75.898 m 82.59 53.27 l S
85.129 75.957 m 85.129 53.242 l S
87.672 75.867 m 87.672 53.305 l S
90.211 75.883 m 90.211 53.277 l S
92.754 75.902 m 92.754 53.301 l S
95.293 75.879 m 95.293 53.289 l S
97.836 75.84 m 97.836 53.281 l S
100.375 75.867 m 100.375 53.352 l S
102.918 75.789 m 102.918 53.367 l S
105.457 75.832 m 105.457 53.34 l S
108 75.914 m 108 53.293 l S
110.543 75.824 m 110.543 53.289 l S
113.082 75.789 m 113.082 53.355 l S
115.625 75.789 m 115.625 53.332 l S
118.164 75.781 m 118.164 53.375 l S
120.707 75.848 m 120.707 53.262 l S
123.246 75.875 m 123.246 53.316 l S
125.789 75.883 m 125.789 53.156 l S
128.328 75.812 m 128.328 53.297 l S
130.871 75.793 m 130.871 53.32 l S
133.41 75.781 m 133.41 53.34 l S
135.953 75.828 m 135.953 53.332 l S
138.492 75.855 m 138.492 53.289 l S
141.035 75.84 m 141.035 53.293 l S
143.578 75.832 m 143.578 53.32 l S
146.117 75.801 m 146.117 53.355 l S
148.66 75.816 m 148.66 53.344 l S
151.199 75.84 m 151.199 53.309 l S
153.742 75.734 m 153.742 53.32 l S
156.281 75.797 m 156.281 53.355 l S
158.824 75.789 m 158.824 53.359 l S
161.363 75.738 m 161.363 53.355 l S
163.906 75.777 m 163.906 53.426 l S
166.445 75.637 m 166.445 53.645 l S
168.988 74.996 m 168.988 54.75 l S
171.531 73.516 m 171.531 55.844 l S
174.07 71.922 m 174.07 57.582 l S
176.613 70.621 m 176.613 58.746 l S
179.152 69.426 m 179.152 59.836 l S
181.695 68.418 m 181.695 60.992 l S
184.234 67.613 m 184.234 61.758 l S
186.777 66.992 m 186.777 62.504 l S
189.316 66.395 m 189.316 62.988 l S
191.859 66.043 m 191.859 63.5 l S
194.398 65.734 m 194.398 63.758 l S
196.941 65.477 m 196.941 63.977 l S
199.48 65.293 m 199.48 64.098 l S
202.023 65.152 m 202.023 64.234 l S
204.566 65.074 m 204.566 64.379 l S
207.105 65.004 m 207.105 64.465 l S
209.648 64.938 m 209.648 64.52 l S
212.188 64.895 m 212.188 64.555 l S
214.73 64.859 m 214.73 64.594 l S
217.27 64.832 m 217.27 64.613 l S
219.812 64.824 m 219.812 64.629 l S
222.352 64.824 m 222.352 64.629 l S
224.895 64.824 m 224.895 64.629 l S
227.434 64.824 m 227.434 64.629 l S
229.977 64.824 m 229.977 64.629 l S
232.52 64.824 m 232.52 64.629 l S
235.059 64.824 m 235.059 64.629 l S
237.602 64.824 m 237.602 64.629 l S
240.141 64.824 m 240.141 64.629 l S
242.684 64.824 m 242.684 64.629 l S
245.223 64.824 m 245.223 64.629 l S
247.766 64.824 m 247.766 64.629 l S
250.305 64.824 m 250.305 64.629 l S
252.848 64.824 m 252.848 64.629 l S
255.387 64.824 m 255.387 64.629 l S
255.387 64.824 m 255.387 64.629 l S
3.812 108.023 m 3.812 107.828 l S
6.352 110.773 m 6.352 105.25 l S
8.895 114.844 m 8.895 101.188 l S
11.434 116.809 m 11.434 99.086 l S
13.977 118.047 m 13.977 97.883 l S
16.52 118.973 m 16.52 96.969 l S
19.059 119.309 m 19.059 96.477 l S
21.602 119.797 m 21.602 96.137 l S
24.141 119.922 m 24.141 95.875 l S
26.684 120.016 m 26.684 95.645 l S
29.223 120.07 m 29.223 95.602 l S
31.766 120.148 m 31.766 95.66 l S
34.305 120.105 m 34.305 95.672 l S
36.848 120.145 m 36.848 95.652 l S
39.387 120.156 m 39.387 95.609 l S
41.93 120.227 m 41.93 95.531 l S
44.469 120.41 m 44.469 95.484 l S
47.012 120.504 m 47.012 95.324 l S
49.555 120.621 m 49.555 95.238 l S
52.094 120.695 m 52.094 95.148 l S
54.637 120.77 m 54.637 95.109 l S
57.176 120.941 m 57.176 95.008 l S
59.719 120.91 m 59.719 94.938 l S
62.258 120.957 m 62.258 94.988 l S
64.801 120.988 m 64.801 94.941 l S
67.34 121.023 m 67.34 94.918 l S
69.883 121.027 m 69.883 94.891 l S
72.422 121.02 m 72.422 94.898 l S
74.965 121.023 m 74.965 94.852 l S
77.508 121.043 m 77.508 94.871 l S
80.047 121.012 m 80.047 94.875 l S
82.59 120.996 m 82.59 94.883 l S
85.129 120.957 m 85.129 94.965 l S
87.672 120.949 m 87.672 94.961 l S
90.211 120.941 m 90.211 94.98 l S
92.754 121.047 m 92.754 94.887 l S
95.293 120.945 m 95.293 94.953 l S
97.836 120.918 m 97.836 94.984 l S
100.375 120.91 m 100.375 95.012 l S
102.918 120.914 m 102.918 95.023 l S
105.457 120.922 m 105.457 94.977 l S
108 120.953 m 108 94.926 l S
110.543 120.906 m 110.543 94.969 l S
113.082 120.898 m 113.082 94.977 l S
115.625 120.883 m 115.625 95.02 l S
118.164 120.879 m 118.164 95.008 l S
120.707 121.031 m 120.707 94.891 l S
123.246 121.043 m 123.246 94.906 l S
125.789 120.984 m 125.789 94.887 l S
128.328 120.938 m 128.328 94.98 l S
130.871 120.918 m 130.871 94.969 l S
133.41 120.902 m 133.41 94.969 l S
135.953 120.918 m 135.953 94.969 l S
138.492 120.941 m 138.492 94.895 l S
141.035 120.902 m 141.035 94.973 l S
143.578 120.941 m 143.578 94.984 l S
146.117 120.918 m 146.117 94.973 l S
148.66 120.902 m 148.66 94.949 l S
151.199 120.855 m 151.199 94.934 l S
153.742 120.906 m 153.742 95.023 l S
156.281 120.883 m 156.281 95 l S
158.824 120.926 m 158.824 94.98 l S
161.363 120.828 m 161.363 95.012 l S
163.906 120.875 m 163.906 95.031 l S
166.445 120.504 m 166.445 95.402 l S
168.988 119.141 m 168.988 96.859 l S
171.531 116.543 m 171.531 99.508 l S
174.07 114.402 m 174.07 101.57 l S
176.613 112.777 m 176.613 103.121 l S
179.152 111.449 m 179.152 104.258 l S
181.695 110.434 m 181.695 105.402 l S
184.234 109.961 m 184.234 105.883 l S
186.777 109.488 m 186.777 106.492 l S
189.316 109.051 m 189.316 106.762 l S
191.859 108.805 m 191.859 107.133 l S
194.398 108.57 m 194.398 107.281 l S
196.941 108.461 m 196.941 107.41 l S
199.48 108.328 m 199.48 107.508 l S
202.023 108.238 m 202.023 107.586 l S
204.566 108.199 m 204.566 107.633 l S
207.105 108.176 m 207.105 107.699 l S
209.648 108.109 m 209.648 107.754 l S
212.188 108.066 m 212.188 107.781 l S
214.73 108.051 m 214.73 107.812 l S
217.27 108.023 m 217.27 107.828 l S
219.812 108.023 m 219.812 107.828 l S
222.352 108.023 m 222.352 107.828 l S
224.895 108.023 m 224.895 107.828 l S
227.434 108.023 m 227.434 107.828 l S
229.977 108.023 m 229.977 107.828 l S
232.52 108.023 m 232.52 107.828 l S
235.059 108.023 m 235.059 107.828 l S
237.602 108.023 m 237.602 107.828 l S
240.141 108.023 m 240.141 107.828 l S
242.684 108.023 m 242.684 107.828 l S
245.223 108.023 m 245.223 107.828 l S
247.766 108.023 m 247.766 107.828 l S
250.305 108.023 m 250.305 107.828 l S
252.848 108.023 m 252.848 107.828 l S
255.387 108.023 m 255.387 107.828 l S
255.387 108.023 m 255.387 107.828 l S
3.812 151.223 m 3.812 151.02 l S
6.352 157.414 m 6.352 145.004 l S
8.895 164.496 m 8.895 137.832 l S
11.434 166.73 m 11.434 135.473 l S
13.977 167.809 m 13.977 134.496 l S
16.52 168.602 m 16.52 133.652 l S
19.059 169.004 m 19.059 133.402 l S
21.602 169.512 m 21.602 132.98 l S
24.141 169.637 m 24.141 132.727 l S
26.684 169.781 m 26.684 132.594 l S
29.223 169.859 m 29.223 132.531 l S
31.766 169.848 m 31.766 132.535 l S
34.305 169.848 m 34.305 132.562 l S
36.848 169.848 m 36.848 132.602 l S
39.387 169.863 m 39.387 132.59 l S
41.93 169.926 m 41.93 132.52 l S
44.469 170.02 m 44.469 132.418 l S
47.012 170.16 m 47.012 132.301 l S
49.555 170.211 m 49.555 132.152 l S
52.094 170.375 m 52.094 132.031 l S
54.637 170.426 m 54.637 131.938 l S
57.176 170.5 m 57.176 131.91 l S
59.719 170.559 m 59.719 131.859 l S
62.258 170.66 m 62.258 131.836 l S
64.801 170.652 m 64.801 131.754 l S
67.34 170.754 m 67.34 131.676 l S
69.883 170.684 m 69.883 131.746 l S
72.422 170.785 m 72.422 131.617 l S
74.965 170.773 m 74.965 131.723 l S
77.508 170.836 m 77.508 131.562 l S
80.047 170.777 m 80.047 131.656 l S
82.59 170.656 m 82.59 131.695 l S
85.129 170.648 m 85.129 131.727 l S
87.672 170.613 m 87.672 131.828 l S
90.211 170.594 m 90.211 131.871 l S
92.754 170.75 m 92.754 131.844 l S
95.293 170.559 m 95.293 131.871 l S
97.836 170.523 m 97.836 131.926 l S
100.375 170.523 m 100.375 131.934 l S
102.918 170.465 m 102.918 131.973 l S
105.457 170.512 m 105.457 131.949 l S
108 170.559 m 108 131.945 l S
110.543 170.527 m 110.543 131.996 l S
113.082 170.59 m 113.082 131.977 l S
115.625 170.461 m 115.625 131.996 l S
118.164 170.574 m 118.164 132 l S
120.707 170.656 m 120.707 131.816 l S
123.246 170.633 m 123.246 131.93 l S
125.789 170.637 m 125.789 131.883 l S
128.328 170.57 m 128.328 131.871 l S
130.871 170.551 m 130.871 131.949 l S
133.41 170.535 m 133.41 131.906 l S
135.953 170.527 m 135.953 131.875 l S
138.492 170.551 m 138.492 131.883 l S
141.035 170.578 m 141.035 131.84 l S
143.578 170.555 m 143.578 131.934 l S
146.117 170.488 m 146.117 131.945 l S
148.66 170.508 m 148.66 131.93 l S
151.199 170.504 m 151.199 131.93 l S
153.742 170.621 m 153.742 131.887 l S
156.281 170.496 m 156.281 131.973 l S
158.824 170.586 m 158.824 131.984 l S
161.363 170.461 m 161.363 131.977 l S
163.906 170.566 m 163.906 132.02 l S
166.445 170.145 m 166.445 132.238 l S
168.988 168.938 m 168.988 133.359 l S
171.531 167.059 m 171.531 135.57 l S
174.07 164.508 m 174.07 137.875 l S
176.613 162.418 m 176.613 139.906 l S
179.152 160.508 m 179.152 141.605 l S
181.695 159.066 m 181.695 143.043 l S
184.234 157.656 m 184.234 144.484 l S
186.777 156.453 m 186.777 145.891 l S
189.316 155.234 m 189.316 147.012 l S
191.859 154.414 m 191.859 147.902 l S
194.398 153.664 m 194.398 148.641 l S
196.941 153.023 m 196.941 149.242 l S
199.48 152.523 m 199.48 149.699 l S
202.023 152.211 m 202.023 149.969 l S
204.566 151.996 m 204.566 150.301 l S
207.105 151.773 m 207.105 150.512 l S
209.648 151.656 m 209.648 150.598 l S
212.188 151.52 m 212.188 150.711 l S
214.73 151.438 m 214.73 150.801 l S
217.27 151.359 m 217.27 150.875 l S
219.812 151.328 m 219.812 150.953 l S
222.352 151.289 m 222.352 150.988 l S
224.895 151.246 m 224.895 151.027 l S
227.434 151.223 m 227.434 151.027 l S
229.977 151.223 m 229.977 151.027 l S
232.52 151.223 m 232.52 151.027 l S
235.059 151.223 m 235.059 151.027 l S
237.602 151.223 m 237.602 151.027 l S
240.141 151.223 m 240.141 151.027 l S
242.684 151.223 m 242.684 151.027 l S
245.223 151.223 m 245.223 151.027 l S
247.766 151.223 m 247.766 151.027 l S
250.305 151.223 m 250.305 151.027 l S
252.848 151.223 m 252.848 151.027 l S
255.387 151.223 m 255.387 151.027 l S
255.387 151.223 m 255.387 151.027 l S
Q Q
showpage
%%Trailer
end
%%EOF
