%!PS-Adobe-3.0 EPSF-3.0
%%Creator: cairo 1.16.0 (https://cairographics.org)
%%CreationDate: Wed May 15 11:57:19 2024
%%Pages: 1
%%DocumentData: Clean7Bit
%%LanguageLevel: 2
%%Creator: Wolfram Mathematica
%%BoundingBox: 2 7 257 167
%%EndComments
%%BeginProlog
50 dict begin
/q { gsave } bind def
/Q { grestore } bind def
/cm { 6 array astore concat } bind def
/w { setlinewidth } bind def
/J { setlinecap } bind def
/j { setlinejoin } bind def
/M { setmiterlimit } bind def
/d { setdash } bind def
/m { moveto } bind def
/l { lineto } bind def
/c { curveto } bind def
/h { closepath } bind def
/re { exch dup neg 3 1 roll 5 3 roll moveto 0 rlineto
      0 exch rlineto 0 rlineto closepath } bind def
/S { stroke } bind def
/f { fill } bind def
/f* { eofill } bind def
/n { newpath } bind def
/W { clip } bind def
/W* { eoclip } bind def
/BT { } bind def
/ET { } bind def
/BDC { mark 3 1 roll /BDC pdfmark } bind def
/EMC { mark /EMC pdfmark } bind def
/cairo_store_point { /cairo_point_y exch def /cairo_point_x exch def } def
/Tj { show currentpoint cairo_store_point } bind def
/TJ {
  {
    dup
    type /stringtype eq
    { show } { -0.001 mul 0 cairo_font_matrix dtransform rmoveto } ifelse
  } forall
  currentpoint cairo_store_point
} bind def
/cairo_selectfont { cairo_font_matrix aload pop pop pop 0 0 6 array astore
    cairo_font exch selectfont cairo_point_x cairo_point_y moveto } bind def
/Tf { pop /cairo_font exch def /cairo_font_matrix where
      { pop cairo_selectfont } if } bind def
/Td { matrix translate cairo_font_matrix matrix concatmatrix dup
      /cairo_font_matrix exch def dup 4 get exch 5 get cairo_store_point
      /cairo_font where { pop cairo_selectfont } if } bind def
/Tm { 2 copy 8 2 roll 6 array astore /cairo_font_matrix exch def
      cairo_store_point /cairo_font where { pop cairo_selectfont } if } bind def
/g { setgray } bind def
/rg { setrgbcolor } bind def
/d1 { setcachedevice } bind def
/cairo_data_source {
  CairoDataIndex CairoData length lt
    { CairoData CairoDataIndex get /CairoDataIndex CairoDataIndex 1 add def }
    { () } ifelse
} def
/cairo_flush_ascii85_file { cairo_ascii85_file status { cairo_ascii85_file flushfile } if } def
/cairo_image { image cairo_flush_ascii85_file } def
/cairo_imagemask { imagemask cairo_flush_ascii85_file } def
%%EndProlog
%%BeginSetup
%%EndSetup
%%Page: 1 1
%%BeginPageSetup
%%PageBoundingBox: 2 7 257 167
%%EndPageSetup
q 2 7 255 160 rectclip
1 0 0 -1 0 173 cm q
0 g
1.796436 w
0 J
0 j
[] 0.0 d
3.25 M 3.812 21.812 m 3.812 21.062 l S
6.352 26.961 m 6.352 16.195 l S
8.895 32.414 m 8.895 10.352 l S
11.434 34.277 m 11.434 8.891 l S
13.977 35.352 m 13.977 7.648 l S
16.52 36.156 m 16.52 7.027 l S
19.059 36.383 m 19.059 6.578 l S
21.602 36.59 m 21.602 6.445 l S
24.141 36.609 m 24.141 6.34 l S
26.684 36.602 m 26.684 6.293 l S
29.223 36.574 m 29.223 6.254 l S
31.766 36.57 m 31.766 6.234 l S
34.305 36.59 m 34.305 6.23 l S
36.848 36.598 m 36.848 6.207 l S
39.387 36.609 m 39.387 6.215 l S
41.93 36.613 m 41.93 6.223 l S
44.469 36.613 m 44.469 6.219 l S
47.012 36.629 m 47.012 6.207 l S
49.555 36.621 m 49.555 6.195 l S
52.094 36.633 m 52.094 6.199 l S
54.637 36.617 m 54.637 6.195 l S
57.176 36.625 m 57.176 6.234 l S
59.719 36.637 m 59.719 6.227 l S
62.258 36.641 m 62.258 6.199 l S
64.801 36.652 m 64.801 6.203 l S
67.34 36.641 m 67.34 6.195 l S
69.883 36.613 m 69.883 6.203 l S
72.422 36.578 m 72.422 6.184 l S
74.965 36.594 m 74.965 6.184 l S
77.508 36.605 m 77.508 6.188 l S
80.047 36.633 m 80.047 6.176 l S
82.59 36.637 m 82.59 6.125 l S
85.129 36.551 m 85.129 6.148 l S
87.672 36.57 m 87.672 6.172 l S
90.211 36.598 m 90.211 6.172 l S
92.754 36.562 m 92.754 6.199 l S
95.293 36.516 m 95.293 6.246 l S
97.836 36.5 m 97.836 6.293 l S
100.375 36.492 m 100.375 6.305 l S
102.918 36.5 m 102.918 6.293 l S
105.457 36.535 m 105.457 6.258 l S
108 36.539 m 108 6.242 l S
110.543 36.547 m 110.543 6.242 l S
113.082 36.535 m 113.082 6.25 l S
115.625 36.523 m 115.625 6.254 l S
118.164 36.547 m 118.164 6.25 l S
120.707 36.531 m 120.707 6.25 l S
123.246 36.516 m 123.246 6.258 l S
125.789 36.527 m 125.789 6.254 l S
128.328 36.555 m 128.328 6.246 l S
130.871 36.551 m 130.871 6.223 l S
133.41 36.562 m 133.41 6.227 l S
135.953 36.566 m 135.953 6.23 l S
138.492 36.531 m 138.492 6.258 l S
141.035 36.535 m 141.035 6.27 l S
143.578 36.547 m 143.578 6.258 l S
146.117 36.559 m 146.117 6.238 l S
148.66 36.57 m 148.66 6.242 l S
151.199 36.555 m 151.199 6.246 l S
153.742 36.547 m 153.742 6.258 l S
156.281 36.551 m 156.281 6.277 l S
158.824 36.547 m 158.824 6.281 l S
161.363 36.543 m 161.363 6.277 l S
163.906 36.543 m 163.906 6.293 l S
166.445 36.547 m 166.445 6.309 l S
168.988 36.516 m 168.988 6.328 l S
171.531 36.539 m 171.531 6.355 l S
174.07 36.527 m 174.07 6.332 l S
176.613 36.523 m 176.613 6.348 l S
179.152 36.422 m 179.152 6.48 l S
181.695 34.367 m 181.695 8.781 l S
184.234 31.141 m 184.234 11.898 l S
186.777 29.07 m 186.777 14.094 l S
189.316 27.84 m 189.316 15.277 l S
191.859 26.621 m 191.859 16.418 l S
194.398 25.598 m 194.398 17.387 l S
196.941 24.824 m 196.941 18.219 l S
199.48 24.18 m 199.48 18.805 l S
202.023 23.613 m 202.023 19.367 l S
204.566 23.113 m 204.566 19.848 l S
207.105 22.648 m 207.105 20.285 l S
209.648 22.402 m 209.648 20.516 l S
212.188 22.164 m 212.188 20.738 l S
214.73 21.961 m 214.73 20.957 l S
217.27 21.832 m 217.27 21.051 l S
219.812 21.715 m 219.812 21.188 l S
222.352 21.645 m 222.352 21.234 l S
224.895 21.586 m 224.895 21.312 l S
227.434 21.547 m 227.434 21.344 l S
229.977 21.547 m 229.977 21.352 l S
232.52 21.547 m 232.52 21.352 l S
235.059 21.547 m 235.059 21.352 l S
237.602 21.547 m 237.602 21.352 l S
240.141 21.547 m 240.141 21.352 l S
242.684 21.547 m 242.684 21.352 l S
245.223 21.547 m 245.223 21.352 l S
247.766 21.547 m 247.766 21.352 l S
250.305 21.547 m 250.305 21.352 l S
252.848 21.547 m 252.848 21.352 l S
255.387 21.547 m 255.387 21.352 l S
255.387 21.547 m 255.387 21.352 l S
3.812 64.914 m 3.812 64.348 l S
6.352 68.105 m 6.352 61.449 l S
8.895 71.883 m 8.895 57.375 l S
11.434 73.891 m 11.434 55.695 l S
13.977 74.496 m 13.977 55.043 l S
16.52 74.949 m 16.52 54.484 l S
19.059 75.098 m 19.059 54.34 l S
21.602 75.219 m 21.602 54.203 l S
24.141 75.328 m 24.141 54.164 l S
26.684 75.336 m 26.684 54.141 l S
29.223 75.367 m 29.223 54.148 l S
31.766 75.402 m 31.766 54.156 l S
34.305 75.418 m 34.305 54.141 l S
36.848 75.422 m 36.848 54.121 l S
39.387 75.418 m 39.387 54.137 l S
41.93 75.426 m 41.93 54.133 l S
44.469 75.418 m 44.469 54.156 l S
47.012 75.453 m 47.012 54.141 l S
49.555 75.441 m 49.555 54.16 l S
52.094 75.445 m 52.094 54.129 l S
54.637 75.449 m 54.637 54.172 l S
57.176 75.426 m 57.176 54.164 l S
59.719 75.441 m 59.719 54.164 l S
62.258 75.453 m 62.258 54.148 l S
64.801 75.453 m 64.801 54.152 l S
67.34 75.457 m 67.34 54.145 l S
69.883 75.461 m 69.883 54.156 l S
72.422 75.438 m 72.422 54.164 l S
74.965 75.441 m 74.965 54.168 l S
77.508 75.449 m 77.508 54.164 l S
80.047 75.465 m 80.047 54.156 l S
82.59 75.5 m 82.59 54.129 l S
85.129 75.512 m 85.129 54.148 l S
87.672 75.453 m 87.672 54.191 l S
90.211 75.457 m 90.211 54.129 l S
92.754 75.449 m 92.754 54.137 l S
95.293 75.441 m 95.293 54.203 l S
97.836 75.363 m 97.836 54.195 l S
100.375 75.355 m 100.375 54.18 l S
102.918 75.352 m 102.918 54.184 l S
105.457 75.367 m 105.457 54.18 l S
108 75.375 m 108 54.176 l S
110.543 75.391 m 110.543 54.152 l S
113.082 75.395 m 113.082 54.164 l S
115.625 75.383 m 115.625 54.148 l S
118.164 75.387 m 118.164 54.145 l S
120.707 75.406 m 120.707 54.133 l S
123.246 75.398 m 123.246 54.168 l S
125.789 75.379 m 125.789 54.176 l S
128.328 75.379 m 128.328 54.148 l S
130.871 75.406 m 130.871 54.156 l S
133.41 75.41 m 133.41 54.145 l S
135.953 75.402 m 135.953 54.148 l S
138.492 75.391 m 138.492 54.156 l S
141.035 75.375 m 141.035 54.156 l S
143.578 75.391 m 143.578 54.133 l S
146.117 75.402 m 146.117 54.129 l S
148.66 75.402 m 148.66 54.133 l S
151.199 75.398 m 151.199 54.137 l S
153.742 75.391 m 153.742 54.141 l S
156.281 75.375 m 156.281 54.152 l S
158.824 75.359 m 158.824 54.16 l S
161.363 75.371 m 161.363 54.152 l S
163.906 75.355 m 163.906 54.148 l S
166.445 75.363 m 166.445 54.152 l S
168.988 75.344 m 168.988 54.152 l S
171.531 75.367 m 171.531 54.168 l S
174.07 75.344 m 174.07 54.172 l S
176.613 75.32 m 176.613 54.145 l S
179.152 75.215 m 179.152 54.246 l S
181.695 74.23 m 181.695 55.547 l S
184.234 71.457 m 184.234 57.695 l S
186.777 69.18 m 186.777 59.777 l S
189.316 68.242 m 189.316 61.043 l S
191.859 67.184 m 191.859 62.043 l S
194.398 66.672 m 194.398 62.703 l S
196.941 66.391 m 196.941 63.043 l S
199.48 66 m 199.48 63.305 l S
202.023 65.711 m 202.023 63.582 l S
204.566 65.504 m 204.566 63.852 l S
207.105 65.324 m 207.105 64.047 l S
209.648 65.148 m 209.648 64.164 l S
212.188 65.02 m 212.188 64.277 l S
214.73 64.922 m 214.73 64.352 l S
217.27 64.852 m 217.27 64.426 l S
219.812 64.82 m 219.812 64.504 l S
222.352 64.762 m 222.352 64.527 l S
224.895 64.746 m 224.895 64.551 l S
227.434 64.746 m 227.434 64.551 l S
229.977 64.746 m 229.977 64.551 l S
232.52 64.746 m 232.52 64.551 l S
235.059 64.746 m 235.059 64.551 l S
237.602 64.746 m 237.602 64.551 l S
240.141 64.746 m 240.141 64.551 l S
242.684 64.746 m 242.684 64.551 l S
245.223 64.746 m 245.223 64.551 l S
247.766 64.746 m 247.766 64.551 l S
250.305 64.746 m 250.305 64.551 l S
252.848 64.746 m 252.848 64.551 l S
255.387 64.746 m 255.387 64.551 l S
255.387 64.746 m 255.387 64.551 l S
3.812 108.625 m 3.812 106.867 l S
6.352 115.594 m 6.352 100.48 l S
8.895 122.723 m 8.895 93.141 l S
11.434 124.84 m 11.434 90.703 l S
13.977 126.184 m 13.977 89.781 l S
16.52 126.543 m 16.52 89.137 l S
19.059 126.848 m 19.059 88.914 l S
21.602 127.066 m 21.602 88.746 l S
24.141 127.223 m 24.141 88.641 l S
26.684 127.312 m 26.684 88.598 l S
29.223 127.352 m 29.223 88.578 l S
31.766 127.391 m 31.766 88.523 l S
34.305 127.426 m 34.305 88.523 l S
36.848 127.484 m 36.848 88.461 l S
39.387 127.457 m 39.387 88.484 l S
41.93 127.461 m 41.93 88.48 l S
44.469 127.504 m 44.469 88.449 l S
47.012 127.516 m 47.012 88.422 l S
49.555 127.5 m 49.555 88.453 l S
52.094 127.582 m 52.094 88.363 l S
54.637 127.512 m 54.637 88.441 l S
57.176 127.477 m 57.176 88.465 l S
59.719 127.516 m 59.719 88.434 l S
62.258 127.551 m 62.258 88.434 l S
64.801 127.543 m 64.801 88.43 l S
67.34 127.523 m 67.34 88.445 l S
69.883 127.531 m 69.883 88.469 l S
72.422 127.57 m 72.422 88.434 l S
74.965 127.547 m 74.965 88.453 l S
77.508 127.574 m 77.508 88.398 l S
80.047 127.629 m 80.047 88.383 l S
82.59 127.637 m 82.59 88.418 l S
85.129 127.527 m 85.129 88.449 l S
87.672 127.477 m 87.672 88.457 l S
90.211 127.488 m 90.211 88.441 l S
92.754 127.477 m 92.754 88.492 l S
95.293 127.418 m 95.293 88.5 l S
97.836 127.363 m 97.836 88.547 l S
100.375 127.297 m 100.375 88.551 l S
102.918 127.328 m 102.918 88.543 l S
105.457 127.391 m 105.457 88.457 l S
108 127.391 m 108 88.488 l S
110.543 127.449 m 110.543 88.488 l S
113.082 127.441 m 113.082 88.527 l S
115.625 127.547 m 115.625 88.422 l S
118.164 127.426 m 118.164 88.484 l S
120.707 127.383 m 120.707 88.488 l S
123.246 127.414 m 123.246 88.48 l S
125.789 127.391 m 125.789 88.473 l S
128.328 127.426 m 128.328 88.469 l S
130.871 127.48 m 130.871 88.449 l S
133.41 127.434 m 133.41 88.449 l S
135.953 127.359 m 135.953 88.461 l S
138.492 127.379 m 138.492 88.512 l S
141.035 127.43 m 141.035 88.426 l S
143.578 127.375 m 143.578 88.5 l S
146.117 127.441 m 146.117 88.43 l S
148.66 127.461 m 148.66 88.441 l S
151.199 127.406 m 151.199 88.477 l S
153.742 127.395 m 153.742 88.488 l S
156.281 127.402 m 156.281 88.457 l S
158.824 127.449 m 158.824 88.438 l S
161.363 127.391 m 161.363 88.461 l S
163.906 127.344 m 163.906 88.457 l S
166.445 127.297 m 166.445 88.531 l S
168.988 127.293 m 168.988 88.477 l S
171.531 127.281 m 171.531 88.531 l S
174.07 127.246 m 174.07 88.543 l S
176.613 127.23 m 176.613 88.551 l S
179.152 127.062 m 179.152 88.781 l S
181.695 124.492 m 181.695 91.473 l S
184.234 121.418 m 184.234 94.312 l S
186.777 118.672 m 186.777 96.746 l S
189.316 116.934 m 189.316 98.551 l S
191.859 115.508 m 191.859 100.051 l S
194.398 114.211 m 194.398 101.422 l S
196.941 113.02 m 196.941 102.492 l S
199.48 112.168 m 199.48 103.539 l S
202.023 111.262 m 202.023 104.387 l S
204.566 110.523 m 204.566 105.066 l S
207.105 110.059 m 207.105 105.602 l S
209.648 109.535 m 209.648 106.102 l S
212.188 109.102 m 212.188 106.574 l S
214.73 108.805 m 214.73 106.871 l S
217.27 108.57 m 217.27 107.152 l S
219.812 108.367 m 219.812 107.355 l S
222.352 108.207 m 222.352 107.461 l S
224.895 108.121 m 224.895 107.586 l S
227.434 108.047 m 227.434 107.641 l S
229.977 107.988 m 229.977 107.719 l S
232.52 107.953 m 232.52 107.738 l S
235.059 107.945 m 235.059 107.75 l S
237.602 107.945 m 237.602 107.75 l S
240.141 107.945 m 240.141 107.75 l S
242.684 107.945 m 242.684 107.75 l S
245.223 107.945 m 245.223 107.75 l S
247.766 107.945 m 247.766 107.75 l S
250.305 107.945 m 250.305 107.75 l S
252.848 107.945 m 252.848 107.75 l S
255.387 107.945 m 255.387 107.75 l S
255.387 107.945 m 255.387 107.75 l S
3.812 151.449 m 3.812 150.5 l S
6.352 155.863 m 6.352 146.484 l S
8.895 161.102 m 8.895 141.609 l S
11.434 162.906 m 11.434 138.824 l S
13.977 164.07 m 13.977 138.148 l S
16.52 164.512 m 16.52 137.867 l S
19.059 164.785 m 19.059 137.418 l S
21.602 165.035 m 21.602 137.324 l S
24.141 165.172 m 24.141 137.312 l S
26.684 165.211 m 26.684 137.266 l S
29.223 165.203 m 29.223 137.266 l S
31.766 165.207 m 31.766 137.27 l S
34.305 165.242 m 34.305 137.238 l S
36.848 165.242 m 36.848 137.223 l S
39.387 165.254 m 39.387 137.258 l S
41.93 165.281 m 41.93 137.27 l S
44.469 165.246 m 44.469 137.277 l S
47.012 165.258 m 47.012 137.246 l S
49.555 165.254 m 49.555 137.27 l S
52.094 165.27 m 52.094 137.246 l S
54.637 165.273 m 54.637 137.246 l S
57.176 165.215 m 57.176 137.262 l S
59.719 165.246 m 59.719 137.289 l S
62.258 165.277 m 62.258 137.246 l S
64.801 165.309 m 64.801 137.238 l S
67.34 165.305 m 67.34 137.227 l S
69.883 165.277 m 69.883 137.219 l S
72.422 165.289 m 72.422 137.219 l S
74.965 165.332 m 74.965 137.234 l S
77.508 165.281 m 77.508 137.215 l S
80.047 165.289 m 80.047 137.211 l S
82.59 165.371 m 82.59 137.203 l S
85.129 165.422 m 85.129 137.273 l S
87.672 165.387 m 87.672 137.324 l S
90.211 165.41 m 90.211 137.301 l S
92.754 165.391 m 92.754 137.34 l S
95.293 165.324 m 95.293 137.363 l S
97.836 165.246 m 97.836 137.391 l S
100.375 165.254 m 100.375 137.367 l S
102.918 165.254 m 102.918 137.352 l S
105.457 165.324 m 105.457 137.34 l S
108 165.324 m 108 137.34 l S
110.543 165.348 m 110.543 137.34 l S
113.082 165.363 m 113.082 137.359 l S
115.625 165.301 m 115.625 137.355 l S
118.164 165.309 m 118.164 137.336 l S
120.707 165.379 m 120.707 137.336 l S
123.246 165.328 m 123.246 137.348 l S
125.789 165.312 m 125.789 137.312 l S
128.328 165.328 m 128.328 137.312 l S
130.871 165.352 m 130.871 137.309 l S
133.41 165.367 m 133.41 137.293 l S
135.953 165.324 m 135.953 137.32 l S
138.492 165.328 m 138.492 137.305 l S
141.035 165.32 m 141.035 137.266 l S
143.578 165.293 m 143.578 137.27 l S
146.117 165.281 m 146.117 137.281 l S
148.66 165.277 m 148.66 137.285 l S
151.199 165.363 m 151.199 137.293 l S
153.742 165.285 m 153.742 137.297 l S
156.281 165.238 m 156.281 137.289 l S
158.824 165.254 m 158.824 137.297 l S
161.363 165.293 m 161.363 137.262 l S
163.906 165.23 m 163.906 137.277 l S
166.445 165.234 m 166.445 137.254 l S
168.988 165.172 m 168.988 137.297 l S
171.531 165.121 m 171.531 137.285 l S
174.07 165.16 m 174.07 137.289 l S
176.613 165.098 m 176.613 137.277 l S
179.152 164.938 m 179.152 137.395 l S
181.695 163.219 m 181.695 139.133 l S
184.234 160.203 m 184.234 142.438 l S
186.777 158.043 m 186.777 143.93 l S
189.316 156.512 m 189.316 145.676 l S
191.859 155.23 m 191.859 146.727 l S
194.398 154.414 m 194.398 147.578 l S
196.941 153.891 m 196.941 148.18 l S
199.48 153.359 m 199.48 148.648 l S
202.023 152.828 m 202.023 149.156 l S
204.566 152.43 m 204.566 149.688 l S
207.105 152.121 m 207.105 150.012 l S
209.648 151.844 m 209.648 150.18 l S
212.188 151.656 m 212.188 150.402 l S
214.73 151.488 m 214.73 150.594 l S
217.27 151.41 m 217.27 150.676 l S
219.812 151.289 m 219.812 150.754 l S
222.352 151.215 m 222.352 150.852 l S
224.895 151.18 m 224.895 150.887 l S
227.434 151.16 m 227.434 150.934 l S
229.977 151.145 m 229.977 150.949 l S
232.52 151.145 m 232.52 150.949 l S
235.059 151.145 m 235.059 150.949 l S
237.602 151.145 m 237.602 150.949 l S
240.141 151.145 m 240.141 150.949 l S
242.684 151.145 m 242.684 150.949 l S
245.223 151.145 m 245.223 150.949 l S
247.766 151.145 m 247.766 150.949 l S
250.305 151.145 m 250.305 150.949 l S
252.848 151.145 m 252.848 150.949 l S
255.387 151.145 m 255.387 150.949 l S
255.387 151.145 m 255.387 150.949 l S
Q Q
showpage
%%Trailer
end
%%EOF
