%!PS-Adobe-3.0 EPSF-3.0
%%Creator: cairo 1.16.0 (https://cairographics.org)
%%CreationDate: Wed May 15 11:57:19 2024
%%Pages: 1
%%DocumentData: Clean7Bit
%%LanguageLevel: 2
%%Creator: Wolfram Mathematica
%%BoundingBox: 2 2 257 163
%%EndComments
%%BeginProlog
50 dict begin
/q { gsave } bind def
/Q { grestore } bind def
/cm { 6 array astore concat } bind def
/w { setlinewidth } bind def
/J { setlinecap } bind def
/j { setlinejoin } bind def
/M { setmiterlimit } bind def
/d { setdash } bind def
/m { moveto } bind def
/l { lineto } bind def
/c { curveto } bind def
/h { closepath } bind def
/re { exch dup neg 3 1 roll 5 3 roll moveto 0 rlineto
      0 exch rlineto 0 rlineto closepath } bind def
/S { stroke } bind def
/f { fill } bind def
/f* { eofill } bind def
/n { newpath } bind def
/W { clip } bind def
/W* { eoclip } bind def
/BT { } bind def
/ET { } bind def
/BDC { mark 3 1 roll /BDC pdfmark } bind def
/EMC { mark /EMC pdfmark } bind def
/cairo_store_point { /cairo_point_y exch def /cairo_point_x exch def } def
/Tj { show currentpoint cairo_store_point } bind def
/TJ {
  {
    dup
    type /stringtype eq
    { show } { -0.001 mul 0 cairo_font_matrix dtransform rmoveto } ifelse
  } forall
  currentpoint cairo_store_point
} bind def
/cairo_selectfont { cairo_font_matrix aload pop pop pop 0 0 6 array astore
    cairo_font exch selectfont cairo_point_x cairo_point_y moveto } bind def
/Tf { pop /cairo_font exch def /cairo_font_matrix where
      { pop cairo_selectfont } if } bind def
/Td { matrix translate cairo_font_matrix matrix concatmatrix dup
      /cairo_font_matrix exch def dup 4 get exch 5 get cairo_store_point
      /cairo_font where { pop cairo_selectfont } if } bind def
/Tm { 2 copy 8 2 roll 6 array astore /cairo_font_matrix exch def
      cairo_store_point /cairo_font where { pop cairo_selectfont } if } bind def
/g { setgray } bind def
/rg { setrgbcolor } bind def
/d1 { setcachedevice } bind def
/cairo_data_source {
  CairoDataIndex CairoData length lt
    { CairoData CairoDataIndex get /CairoDataIndex CairoDataIndex 1 add def }
    { () } ifelse
} def
/cairo_flush_ascii85_file { cairo_ascii85_file status { cairo_ascii85_file flushfile } if } def
/cairo_image { image cairo_flush_ascii85_file } def
/cairo_imagemask { imagemask cairo_flush_ascii85_file } def
%%EndProlog
%%BeginSetup
%%EndSetup
%%Page: 1 1
%%BeginPageSetup
%%PageBoundingBox: 2 2 257 163
%%EndPageSetup
q 2 2 255 161 rectclip
1 0 0 -1 0 173 cm q
0 g
1.796436 w
0 J
0 j
[] 0.0 d
3.25 M 3.812 21.641 m 3.812 21.445 l S
6.352 21.703 m 6.352 21.414 l S
8.895 22.941 m 8.895 20.16 l S
11.434 25.188 m 11.434 17.938 l S
13.977 26.711 m 13.977 16.309 l S
16.52 28.066 m 16.52 15.098 l S
19.059 28.961 m 19.059 14.129 l S
21.602 29.488 m 21.602 13.59 l S
24.141 29.914 m 24.141 13.016 l S
26.684 30.449 m 26.684 12.559 l S
29.223 30.781 m 29.223 12.223 l S
31.766 31.004 m 31.766 11.977 l S
34.305 31.254 m 34.305 11.75 l S
36.848 31.488 m 36.848 11.52 l S
39.387 31.711 m 39.387 11.344 l S
41.93 31.766 m 41.93 11.215 l S
44.469 31.855 m 44.469 11.137 l S
47.012 31.922 m 47.012 11.074 l S
49.555 32.008 m 49.555 10.965 l S
52.094 32.137 m 52.094 10.844 l S
54.637 32.332 m 54.637 10.703 l S
57.176 32.445 m 57.176 10.629 l S
59.719 32.48 m 59.719 10.484 l S
62.258 32.566 m 62.258 10.477 l S
64.801 32.641 m 64.801 10.402 l S
67.34 32.738 m 67.34 10.324 l S
69.883 32.75 m 69.883 10.293 l S
72.422 32.824 m 72.422 10.285 l S
74.965 32.809 m 74.965 10.254 l S
77.508 32.863 m 77.508 10.238 l S
80.047 32.836 m 80.047 10.293 l S
82.59 32.77 m 82.59 10.324 l S
85.129 32.703 m 85.129 10.371 l S
87.672 32.641 m 87.672 10.406 l S
90.211 32.605 m 90.211 10.426 l S
92.754 32.602 m 92.754 10.438 l S
95.293 32.566 m 95.293 10.465 l S
97.836 32.547 m 97.836 10.453 l S
100.375 32.543 m 100.375 10.457 l S
102.918 32.52 m 102.918 10.453 l S
105.457 32.523 m 105.457 10.461 l S
108 32.527 m 108 10.488 l S
110.543 32.508 m 110.543 10.52 l S
113.082 32.484 m 113.082 10.516 l S
115.625 32.496 m 115.625 10.535 l S
118.164 32.523 m 118.164 10.484 l S
120.707 32.512 m 120.707 10.453 l S
123.246 32.586 m 123.246 10.441 l S
125.789 32.566 m 125.789 10.414 l S
128.328 32.57 m 128.328 10.43 l S
130.871 32.566 m 130.871 10.438 l S
133.41 32.586 m 133.41 10.434 l S
135.953 32.609 m 135.953 10.402 l S
138.492 32.617 m 138.492 10.422 l S
141.035 32.621 m 141.035 10.438 l S
143.578 32.559 m 143.578 10.434 l S
146.117 32.543 m 146.117 10.492 l S
148.66 32.527 m 148.66 10.488 l S
151.199 32.523 m 151.199 10.512 l S
153.742 32.527 m 153.742 10.504 l S
156.281 32.539 m 156.281 10.492 l S
158.824 32.535 m 158.824 10.496 l S
161.363 32.559 m 161.363 10.473 l S
163.906 32.539 m 163.906 10.457 l S
166.445 32.496 m 166.445 10.516 l S
168.988 32 m 168.988 11.164 l S
171.531 30.25 m 171.531 12.656 l S
174.07 28.414 m 174.07 14.672 l S
176.613 26.676 m 176.613 16.172 l S
179.152 25.633 m 179.152 17.324 l S
181.695 24.688 m 181.695 18.344 l S
184.234 24.016 m 184.234 19.082 l S
186.777 23.57 m 186.777 19.52 l S
189.316 23.145 m 189.316 19.93 l S
191.859 22.809 m 191.859 20.242 l S
194.398 22.5 m 194.398 20.59 l S
196.941 22.277 m 196.941 20.832 l S
199.48 22.113 m 199.48 20.996 l S
202.023 21.973 m 202.023 21.137 l S
204.566 21.859 m 204.566 21.238 l S
207.105 21.797 m 207.105 21.293 l S
209.648 21.707 m 209.648 21.367 l S
212.188 21.684 m 212.188 21.395 l S
214.73 21.652 m 214.73 21.434 l S
217.27 21.641 m 217.27 21.445 l S
219.812 21.641 m 219.812 21.445 l S
222.352 21.641 m 222.352 21.445 l S
224.895 21.641 m 224.895 21.445 l S
227.434 21.641 m 227.434 21.445 l S
229.977 21.641 m 229.977 21.445 l S
232.52 21.641 m 232.52 21.445 l S
235.059 21.641 m 235.059 21.445 l S
237.602 21.641 m 237.602 21.445 l S
240.141 21.641 m 240.141 21.445 l S
242.684 21.641 m 242.684 21.445 l S
245.223 21.641 m 245.223 21.445 l S
247.766 21.641 m 247.766 21.445 l S
250.305 21.641 m 250.305 21.445 l S
252.848 21.641 m 252.848 21.445 l S
255.387 21.641 m 255.387 21.445 l S
255.387 21.641 m 255.387 21.445 l S
3.812 64.844 m 3.812 64.645 l S
6.352 64.934 m 6.352 64.57 l S
8.895 66.535 m 8.895 62.852 l S
11.434 69.406 m 11.434 60.039 l S
13.977 70.973 m 13.977 58.375 l S
16.52 72.145 m 16.52 57.293 l S
19.059 72.867 m 19.059 56.551 l S
21.602 73.441 m 21.602 56.004 l S
24.141 73.738 m 24.141 55.727 l S
26.684 74.051 m 26.684 55.508 l S
29.223 74.219 m 29.223 55.332 l S
31.766 74.414 m 31.766 55.117 l S
34.305 74.613 m 34.305 54.93 l S
36.848 74.832 m 36.848 54.66 l S
39.387 74.844 m 39.387 54.484 l S
41.93 74.934 m 41.93 54.348 l S
44.469 74.926 m 44.469 54.207 l S
47.012 75.02 m 47.012 54.113 l S
49.555 75.027 m 49.555 54.008 l S
52.094 75.141 m 52.094 53.891 l S
54.637 75.297 m 54.637 53.73 l S
57.176 75.488 m 57.176 53.57 l S
59.719 75.473 m 59.719 53.477 l S
62.258 75.559 m 62.258 53.504 l S
64.801 75.656 m 64.801 53.438 l S
67.34 75.734 m 67.34 53.348 l S
69.883 75.719 m 69.883 53.324 l S
72.422 75.797 m 72.422 53.328 l S
74.965 75.844 m 74.965 53.289 l S
77.508 75.824 m 77.508 53.277 l S
80.047 75.781 m 80.047 53.238 l S
82.59 75.754 m 82.59 53.336 l S
85.129 75.727 m 85.129 53.324 l S
87.672 75.699 m 87.672 53.379 l S
90.211 75.656 m 90.211 53.43 l S
92.754 75.629 m 92.754 53.41 l S
95.293 75.598 m 95.293 53.445 l S
97.836 75.633 m 97.836 53.395 l S
100.375 75.59 m 100.375 53.449 l S
102.918 75.598 m 102.918 53.48 l S
105.457 75.613 m 105.457 53.398 l S
108 75.605 m 108 53.383 l S
110.543 75.57 m 110.543 53.473 l S
113.082 75.57 m 113.082 53.504 l S
115.625 75.586 m 115.625 53.473 l S
118.164 75.562 m 118.164 53.477 l S
120.707 75.594 m 120.707 53.461 l S
123.246 75.637 m 123.246 53.441 l S
125.789 75.633 m 125.789 53.43 l S
128.328 75.609 m 128.328 53.426 l S
130.871 75.629 m 130.871 53.422 l S
133.41 75.668 m 133.41 53.391 l S
135.953 75.648 m 135.953 53.383 l S
138.492 75.684 m 138.492 53.414 l S
141.035 75.668 m 141.035 53.391 l S
143.578 75.605 m 143.578 53.453 l S
146.117 75.598 m 146.117 53.465 l S
148.66 75.555 m 148.66 53.457 l S
151.199 75.562 m 151.199 53.504 l S
153.742 75.59 m 153.742 53.5 l S
156.281 75.617 m 156.281 53.484 l S
158.824 75.629 m 158.824 53.484 l S
161.363 75.613 m 161.363 53.488 l S
163.906 75.629 m 163.906 53.41 l S
166.445 75.48 m 166.445 53.434 l S
168.988 75.055 m 168.988 54.035 l S
171.531 74.008 m 171.531 55.539 l S
174.07 72.73 m 174.07 56.734 l S
176.613 71.176 m 176.613 58.227 l S
179.152 70.141 m 179.152 59.469 l S
181.695 69.129 m 181.695 60.434 l S
184.234 68.207 m 184.234 61.344 l S
186.777 67.457 m 186.777 62.051 l S
189.316 66.949 m 189.316 62.559 l S
191.859 66.457 m 191.859 63.062 l S
194.398 66.105 m 194.398 63.441 l S
196.941 65.785 m 196.941 63.719 l S
199.48 65.535 m 199.48 63.93 l S
202.023 65.359 m 202.023 64.156 l S
204.566 65.176 m 204.566 64.262 l S
207.105 65.125 m 207.105 64.383 l S
209.648 65.02 m 209.648 64.465 l S
212.188 65.008 m 212.188 64.484 l S
214.73 64.906 m 214.73 64.57 l S
217.27 64.867 m 217.27 64.609 l S
219.812 64.848 m 219.812 64.637 l S
222.352 64.844 m 222.352 64.621 l S
224.895 64.844 m 224.895 64.645 l S
227.434 64.844 m 227.434 64.645 l S
229.977 64.844 m 229.977 64.645 l S
232.52 64.844 m 232.52 64.645 l S
235.059 64.844 m 235.059 64.645 l S
237.602 64.844 m 237.602 64.645 l S
240.141 64.844 m 240.141 64.645 l S
242.684 64.844 m 242.684 64.645 l S
245.223 64.844 m 245.223 64.645 l S
247.766 64.844 m 247.766 64.645 l S
250.305 64.844 m 250.305 64.645 l S
252.848 64.844 m 252.848 64.645 l S
255.387 64.844 m 255.387 64.645 l S
255.387 64.844 m 255.387 64.645 l S
3.812 108.043 m 3.812 107.848 l S
6.352 108.082 m 6.352 107.801 l S
8.895 109.465 m 8.895 106.273 l S
11.434 112.082 m 11.434 103.879 l S
13.977 113.605 m 13.977 102.25 l S
16.52 114.953 m 16.52 101.043 l S
19.059 116.012 m 19.059 99.824 l S
21.602 116.695 m 21.602 99.117 l S
24.141 117.305 m 24.141 98.582 l S
26.684 117.766 m 26.684 98.09 l S
29.223 118.152 m 29.223 97.793 l S
31.766 118.43 m 31.766 97.379 l S
34.305 118.793 m 34.305 97.117 l S
36.848 119.246 m 36.848 96.746 l S
39.387 119.418 m 39.387 96.516 l S
41.93 119.594 m 41.93 96.312 l S
44.469 119.727 m 44.469 96.16 l S
47.012 119.844 m 47.012 96.016 l S
49.555 120.023 m 49.555 95.828 l S
52.094 120.242 m 52.094 95.613 l S
54.637 120.414 m 54.637 95.445 l S
57.176 120.516 m 57.176 95.301 l S
59.719 120.645 m 59.719 95.176 l S
62.258 120.676 m 62.258 95.164 l S
64.801 120.797 m 64.801 95.09 l S
67.34 120.859 m 67.34 94.996 l S
69.883 120.879 m 69.883 94.988 l S
72.422 120.938 m 72.422 94.906 l S
74.965 120.957 m 74.965 94.938 l S
77.508 120.938 m 77.508 94.938 l S
80.047 120.906 m 80.047 94.914 l S
82.59 120.879 m 82.59 94.984 l S
85.129 120.793 m 85.129 95.059 l S
87.672 120.816 m 87.672 95.098 l S
90.211 120.789 m 90.211 95.113 l S
92.754 120.762 m 92.754 95.133 l S
95.293 120.762 m 95.293 95.129 l S
97.836 120.754 m 97.836 95.137 l S
100.375 120.727 m 100.375 95.121 l S
102.918 120.738 m 102.918 95.16 l S
105.457 120.711 m 105.457 95.172 l S
108 120.699 m 108 95.137 l S
110.543 120.691 m 110.543 95.129 l S
113.082 120.676 m 113.082 95.199 l S
115.625 120.648 m 115.625 95.145 l S
118.164 120.684 m 118.164 95.156 l S
120.707 120.77 m 120.707 95.145 l S
123.246 120.754 m 123.246 95.105 l S
125.789 120.75 m 125.789 95.086 l S
128.328 120.758 m 128.328 95.133 l S
130.871 120.773 m 130.871 95.121 l S
133.41 120.762 m 133.41 95.102 l S
135.953 120.785 m 135.953 95.105 l S
138.492 120.75 m 138.492 95.113 l S
141.035 120.801 m 141.035 95.113 l S
143.578 120.773 m 143.578 95.137 l S
146.117 120.656 m 146.117 95.199 l S
148.66 120.676 m 148.66 95.199 l S
151.199 120.672 m 151.199 95.199 l S
153.742 120.645 m 153.742 95.164 l S
156.281 120.699 m 156.281 95.18 l S
158.824 120.688 m 158.824 95.164 l S
161.363 120.734 m 161.363 95.152 l S
163.906 120.699 m 163.906 95.137 l S
166.445 120.66 m 166.445 95.219 l S
168.988 119.883 m 168.988 96.047 l S
171.531 117.324 m 171.531 98.516 l S
174.07 115.219 m 174.07 100.738 l S
176.613 113.508 m 176.613 102.531 l S
179.152 112.293 m 179.152 103.766 l S
181.695 111.246 m 181.695 104.734 l S
184.234 110.316 m 184.234 105.605 l S
186.777 109.75 m 186.777 106.039 l S
189.316 109.414 m 189.316 106.477 l S
191.859 109.055 m 191.859 106.828 l S
194.398 108.828 m 194.398 107.098 l S
196.941 108.594 m 196.941 107.293 l S
199.48 108.48 m 199.48 107.379 l S
202.023 108.336 m 202.023 107.523 l S
204.566 108.262 m 204.566 107.613 l S
207.105 108.227 m 207.105 107.672 l S
209.648 108.16 m 209.648 107.699 l S
212.188 108.168 m 212.188 107.738 l S
214.73 108.125 m 214.73 107.805 l S
217.27 108.055 m 217.27 107.82 l S
219.812 108.043 m 219.812 107.848 l S
222.352 108.043 m 222.352 107.844 l S
224.895 108.043 m 224.895 107.848 l S
227.434 108.043 m 227.434 107.848 l S
229.977 108.043 m 229.977 107.848 l S
232.52 108.043 m 232.52 107.848 l S
235.059 108.043 m 235.059 107.848 l S
237.602 108.043 m 237.602 107.848 l S
240.141 108.043 m 240.141 107.848 l S
242.684 108.043 m 242.684 107.848 l S
245.223 108.043 m 245.223 107.848 l S
247.766 108.043 m 247.766 107.848 l S
250.305 108.043 m 250.305 107.848 l S
252.848 108.043 m 252.848 107.848 l S
255.387 108.043 m 255.387 107.848 l S
255.387 108.043 m 255.387 107.848 l S
3.812 151.242 m 3.812 151.047 l S
6.352 151.566 m 6.352 150.688 l S
8.895 155.227 m 8.895 146.719 l S
11.434 160.949 m 11.434 141.207 l S
13.977 163.332 m 13.977 138.711 l S
16.52 165.008 m 16.52 137.293 l S
19.059 165.984 m 19.059 136.277 l S
21.602 166.77 m 21.602 135.488 l S
24.141 167.305 m 24.141 135.008 l S
26.684 167.617 m 26.684 134.473 l S
29.223 167.98 m 29.223 134.234 l S
31.766 168.324 m 31.766 133.754 l S
34.305 168.82 m 34.305 133.504 l S
36.848 169.254 m 36.848 133.121 l S
39.387 169.309 m 39.387 132.91 l S
41.93 169.441 m 41.93 132.746 l S
44.469 169.508 m 44.469 132.727 l S
47.012 169.637 m 47.012 132.664 l S
49.555 169.785 m 49.555 132.555 l S
52.094 170.039 m 52.094 132.348 l S
54.637 170.211 m 54.637 132.203 l S
57.176 170.367 m 57.176 132.055 l S
59.719 170.496 m 59.719 131.984 l S
62.258 170.523 m 62.258 131.906 l S
64.801 170.68 m 64.801 131.75 l S
67.34 170.797 m 67.34 131.68 l S
69.883 170.723 m 69.883 131.645 l S
72.422 170.82 m 72.422 131.59 l S
74.965 170.762 m 74.965 131.613 l S
77.508 170.836 m 77.508 131.594 l S
80.047 170.758 m 80.047 131.562 l S
82.59 170.691 m 82.59 131.699 l S
85.129 170.68 m 85.129 131.766 l S
87.672 170.621 m 87.672 131.805 l S
90.211 170.656 m 90.211 131.82 l S
92.754 170.621 m 92.754 131.848 l S
95.293 170.582 m 95.293 131.871 l S
97.836 170.645 m 97.836 131.793 l S
100.375 170.523 m 100.375 131.918 l S
102.918 170.605 m 102.918 131.922 l S
105.457 170.594 m 105.457 131.887 l S
108 170.566 m 108 131.801 l S
110.543 170.527 m 110.543 131.93 l S
113.082 170.504 m 113.082 131.949 l S
115.625 170.539 m 115.625 131.906 l S
118.164 170.539 m 118.164 131.887 l S
120.707 170.574 m 120.707 131.855 l S
123.246 170.574 m 123.246 131.766 l S
125.789 170.598 m 125.789 131.871 l S
128.328 170.629 m 128.328 131.883 l S
130.871 170.672 m 130.871 131.797 l S
133.41 170.621 m 133.41 131.812 l S
135.953 170.645 m 135.953 131.773 l S
138.492 170.629 m 138.492 131.84 l S
141.035 170.625 m 141.035 131.828 l S
143.578 170.574 m 143.578 131.91 l S
146.117 170.527 m 146.117 131.941 l S
148.66 170.543 m 148.66 131.934 l S
151.199 170.562 m 151.199 131.949 l S
153.742 170.523 m 153.742 131.879 l S
156.281 170.539 m 156.281 131.906 l S
158.824 170.566 m 158.824 131.93 l S
161.363 170.594 m 161.363 131.895 l S
163.906 170.605 m 163.906 131.891 l S
166.445 170.445 m 166.445 131.941 l S
168.988 169.562 m 168.988 132.625 l S
171.531 167.648 m 171.531 134.66 l S
174.07 165.707 m 174.07 136.887 l S
176.613 163.23 m 176.613 139.164 l S
179.152 161.527 m 179.152 140.977 l S
181.695 159.922 m 181.695 142.43 l S
184.234 158.594 m 184.234 143.816 l S
186.777 157.168 m 186.777 144.898 l S
189.316 156.211 m 189.316 146.105 l S
191.859 155.156 m 191.859 147.047 l S
194.398 154.398 m 194.398 147.992 l S
196.941 153.68 m 196.941 148.695 l S
199.48 153.129 m 199.48 149.207 l S
202.023 152.695 m 202.023 149.5 l S
204.566 152.27 m 204.566 149.992 l S
207.105 152.074 m 207.105 150.211 l S
209.648 151.832 m 209.648 150.477 l S
212.188 151.695 m 212.188 150.613 l S
214.73 151.551 m 214.73 150.715 l S
217.27 151.48 m 217.27 150.82 l S
219.812 151.391 m 219.812 150.898 l S
222.352 151.359 m 222.352 150.898 l S
224.895 151.266 m 224.895 150.961 l S
227.434 151.254 m 227.434 151.012 l S
229.977 151.242 m 229.977 151.047 l S
232.52 151.242 m 232.52 151.047 l S
235.059 151.242 m 235.059 151.047 l S
237.602 151.242 m 237.602 151.047 l S
240.141 151.242 m 240.141 151.047 l S
242.684 151.242 m 242.684 151.047 l S
245.223 151.242 m 245.223 151.047 l S
247.766 151.242 m 247.766 151.047 l S
250.305 151.242 m 250.305 151.047 l S
252.848 151.242 m 252.848 151.047 l S
255.387 151.242 m 255.387 151.047 l S
255.387 151.242 m 255.387 151.047 l S
Q Q
showpage
%%Trailer
end
%%EOF
