%!PS-Adobe-3.0 EPSF-3.0
%%Creator: cairo 1.16.0 (https://cairographics.org)
%%CreationDate: Wed May 15 11:57:19 2024
%%Pages: 1
%%DocumentData: Clean7Bit
%%LanguageLevel: 2
%%Creator: Wolfram Mathematica
%%BoundingBox: 2 8 257 167
%%EndComments
%%BeginProlog
50 dict begin
/q { gsave } bind def
/Q { grestore } bind def
/cm { 6 array astore concat } bind def
/w { setlinewidth } bind def
/J { setlinecap } bind def
/j { setlinejoin } bind def
/M { setmiterlimit } bind def
/d { setdash } bind def
/m { moveto } bind def
/l { lineto } bind def
/c { curveto } bind def
/h { closepath } bind def
/re { exch dup neg 3 1 roll 5 3 roll moveto 0 rlineto
      0 exch rlineto 0 rlineto closepath } bind def
/S { stroke } bind def
/f { fill } bind def
/f* { eofill } bind def
/n { newpath } bind def
/W { clip } bind def
/W* { eoclip } bind def
/BT { } bind def
/ET { } bind def
/BDC { mark 3 1 roll /BDC pdfmark } bind def
/EMC { mark /EMC pdfmark } bind def
/cairo_store_point { /cairo_point_y exch def /cairo_point_x exch def } def
/Tj { show currentpoint cairo_store_point } bind def
/TJ {
  {
    dup
    type /stringtype eq
    { show } { -0.001 mul 0 cairo_font_matrix dtransform rmoveto } ifelse
  } forall
  currentpoint cairo_store_point
} bind def
/cairo_selectfont { cairo_font_matrix aload pop pop pop 0 0 6 array astore
    cairo_font exch selectfont cairo_point_x cairo_point_y moveto } bind def
/Tf { pop /cairo_font exch def /cairo_font_matrix where
      { pop cairo_selectfont } if } bind def
/Td { matrix translate cairo_font_matrix matrix concatmatrix dup
      /cairo_font_matrix exch def dup 4 get exch 5 get cairo_store_point
      /cairo_font where { pop cairo_selectfont } if } bind def
/Tm { 2 copy 8 2 roll 6 array astore /cairo_font_matrix exch def
      cairo_store_point /cairo_font where { pop cairo_selectfont } if } bind def
/g { setgray } bind def
/rg { setrgbcolor } bind def
/d1 { setcachedevice } bind def
/cairo_data_source {
  CairoDataIndex CairoData length lt
    { CairoData CairoDataIndex get /CairoDataIndex CairoDataIndex 1 add def }
    { () } ifelse
} def
/cairo_flush_ascii85_file { cairo_ascii85_file status { cairo_ascii85_file flushfile } if } def
/cairo_image { image cairo_flush_ascii85_file } def
/cairo_imagemask { imagemask cairo_flush_ascii85_file } def
%%EndProlog
%%BeginSetup
%%EndSetup
%%Page: 1 1
%%BeginPageSetup
%%PageBoundingBox: 2 8 257 167
%%EndPageSetup
q 2 8 255 159 rectclip
1 0 0 -1 0 173 cm q
0 g
1.796436 w
0 J
0 j
[] 0.0 d
3.25 M 3.812 21.711 m 3.812 21.512 l S
6.352 26.438 m 6.352 16.52 l S
8.895 33.816 m 8.895 9.754 l S
11.434 36.16 m 11.434 6.887 l S
13.977 36.707 m 13.977 6.438 l S
16.52 36.848 m 16.52 6.332 l S
19.059 36.855 m 19.059 6.289 l S
21.602 36.797 m 21.602 6.312 l S
24.141 36.77 m 24.141 6.355 l S
26.684 36.797 m 26.684 6.352 l S
29.223 36.789 m 29.223 6.363 l S
31.766 36.785 m 31.766 6.375 l S
34.305 36.785 m 34.305 6.387 l S
36.848 36.773 m 36.848 6.398 l S
39.387 36.777 m 39.387 6.402 l S
41.93 36.797 m 41.93 6.406 l S
44.469 36.816 m 44.469 6.371 l S
47.012 36.816 m 47.012 6.359 l S
49.555 36.859 m 49.555 6.293 l S
52.094 36.871 m 52.094 6.277 l S
54.637 36.867 m 54.637 6.246 l S
57.176 36.883 m 57.176 6.23 l S
59.719 36.871 m 59.719 6.234 l S
62.258 36.863 m 62.258 6.246 l S
64.801 36.852 m 64.801 6.266 l S
67.34 36.773 m 67.34 6.348 l S
69.883 36.738 m 69.883 6.449 l S
72.422 36.824 m 72.422 6.359 l S
74.965 36.867 m 74.965 6.305 l S
77.508 36.871 m 77.508 6.285 l S
80.047 36.816 m 80.047 6.305 l S
82.59 36.828 m 82.59 6.324 l S
85.129 36.848 m 85.129 6.285 l S
87.672 36.848 m 87.672 6.25 l S
90.211 36.871 m 90.211 6.238 l S
92.754 36.852 m 92.754 6.258 l S
95.293 36.859 m 95.293 6.246 l S
97.836 36.852 m 97.836 6.254 l S
100.375 36.836 m 100.375 6.277 l S
102.918 36.871 m 102.918 6.246 l S
105.457 36.914 m 105.457 6.195 l S
108 36.926 m 108 6.176 l S
110.543 36.898 m 110.543 6.188 l S
113.082 36.879 m 113.082 6.223 l S
115.625 36.852 m 115.625 6.238 l S
118.164 36.836 m 118.164 6.27 l S
120.707 36.859 m 120.707 6.277 l S
123.246 36.883 m 123.246 6.258 l S
125.789 36.898 m 125.789 6.219 l S
128.328 36.871 m 128.328 6.234 l S
130.871 36.859 m 130.871 6.246 l S
133.41 36.855 m 133.41 6.25 l S
135.953 36.832 m 135.953 6.289 l S
138.492 36.832 m 138.492 6.293 l S
141.035 36.855 m 141.035 6.27 l S
143.578 36.863 m 143.578 6.266 l S
146.117 36.852 m 146.117 6.281 l S
148.66 36.863 m 148.66 6.277 l S
151.199 36.887 m 151.199 6.25 l S
153.742 36.898 m 153.742 6.211 l S
156.281 36.898 m 156.281 6.219 l S
158.824 36.902 m 158.824 6.203 l S
161.363 36.941 m 161.363 6.164 l S
163.906 36.965 m 163.906 6.098 l S
166.445 36.98 m 166.445 6.062 l S
168.988 36.98 m 168.988 6.066 l S
171.531 36.977 m 171.531 6.062 l S
174.07 36.961 m 174.07 6.082 l S
176.613 36.949 m 176.613 6.098 l S
179.152 36.305 m 179.152 6.859 l S
181.695 33.836 m 181.695 9.461 l S
184.234 30.496 m 184.234 12.723 l S
186.777 28.289 m 186.777 14.828 l S
189.316 27.211 m 189.316 16.086 l S
191.859 26.234 m 191.859 16.996 l S
194.398 25.371 m 194.398 18.012 l S
196.941 24.707 m 196.941 18.574 l S
199.48 24.188 m 199.48 19.066 l S
202.023 23.738 m 202.023 19.602 l S
204.566 23.227 m 204.566 20 l S
207.105 22.812 m 207.105 20.453 l S
209.648 22.566 m 209.648 20.695 l S
212.188 22.336 m 212.188 20.914 l S
214.73 22.141 m 214.73 21.113 l S
217.27 22.008 m 217.27 21.219 l S
219.812 21.891 m 219.812 21.352 l S
222.352 21.824 m 222.352 21.398 l S
224.895 21.754 m 224.895 21.473 l S
227.434 21.715 m 227.434 21.512 l S
229.977 21.711 m 229.977 21.512 l S
232.52 21.711 m 232.52 21.512 l S
235.059 21.711 m 235.059 21.512 l S
237.602 21.711 m 237.602 21.512 l S
240.141 21.711 m 240.141 21.512 l S
242.684 21.711 m 242.684 21.512 l S
245.223 21.711 m 245.223 21.512 l S
247.766 21.711 m 247.766 21.512 l S
250.305 21.711 m 250.305 21.512 l S
252.848 21.711 m 252.848 21.512 l S
255.387 21.711 m 255.387 21.512 l S
255.387 21.711 m 255.387 21.512 l S
3.812 64.91 m 3.812 64.715 l S
6.352 67.949 m 6.352 61.664 l S
8.895 73 m 8.895 56.688 l S
11.434 74.863 m 11.434 55.055 l S
13.977 75.25 m 13.977 54.867 l S
16.52 75.34 m 16.52 54.871 l S
19.059 75.285 m 19.059 54.895 l S
21.602 75.273 m 21.602 54.914 l S
24.141 75.332 m 24.141 54.918 l S
26.684 75.336 m 26.684 54.898 l S
29.223 75.336 m 29.223 54.902 l S
31.766 75.363 m 31.766 54.918 l S
34.305 75.395 m 34.305 54.895 l S
36.848 75.34 m 36.848 54.945 l S
39.387 75.367 m 39.387 54.941 l S
41.93 75.355 m 41.93 54.934 l S
44.469 75.336 m 44.469 54.949 l S
47.012 75.363 m 47.012 54.953 l S
49.555 75.383 m 49.555 54.922 l S
52.094 75.391 m 52.094 54.887 l S
54.637 75.398 m 54.637 54.898 l S
57.176 75.402 m 57.176 54.914 l S
59.719 75.398 m 59.719 54.883 l S
62.258 75.395 m 62.258 54.898 l S
64.801 75.383 m 64.801 54.93 l S
67.34 75.312 m 67.34 54.969 l S
69.883 75.34 m 69.883 54.98 l S
72.422 75.391 m 72.422 54.945 l S
74.965 75.391 m 74.965 54.93 l S
77.508 75.402 m 77.508 54.93 l S
80.047 75.355 m 80.047 54.977 l S
82.59 75.383 m 82.59 54.977 l S
85.129 75.387 m 85.129 54.965 l S
87.672 75.391 m 87.672 54.879 l S
90.211 75.391 m 90.211 54.934 l S
92.754 75.379 m 92.754 54.934 l S
95.293 75.402 m 95.293 54.953 l S
97.836 75.391 m 97.836 54.953 l S
100.375 75.387 m 100.375 54.949 l S
102.918 75.402 m 102.918 54.938 l S
105.457 75.422 m 105.457 54.918 l S
108 75.426 m 108 54.887 l S
110.543 75.41 m 110.543 54.926 l S
113.082 75.395 m 113.082 54.938 l S
115.625 75.402 m 115.625 54.953 l S
118.164 75.391 m 118.164 54.953 l S
120.707 75.406 m 120.707 54.957 l S
123.246 75.41 m 123.246 54.945 l S
125.789 75.43 m 125.789 54.934 l S
128.328 75.402 m 128.328 54.91 l S
130.871 75.426 m 130.871 54.938 l S
133.41 75.426 m 133.41 54.93 l S
135.953 75.383 m 135.953 54.961 l S
138.492 75.418 m 138.492 54.957 l S
141.035 75.422 m 141.035 54.938 l S
143.578 75.406 m 143.578 54.914 l S
146.117 75.379 m 146.117 54.961 l S
148.66 75.402 m 148.66 54.969 l S
151.199 75.441 m 151.199 54.938 l S
153.742 75.414 m 153.742 54.906 l S
156.281 75.418 m 156.281 54.938 l S
158.824 75.449 m 158.824 54.883 l S
161.363 75.445 m 161.363 54.91 l S
163.906 75.473 m 163.906 54.863 l S
166.445 75.48 m 166.445 54.859 l S
168.988 75.488 m 168.988 54.875 l S
171.531 75.473 m 171.531 54.875 l S
174.07 75.449 m 174.07 54.91 l S
176.613 75.441 m 176.613 54.926 l S
179.152 75.055 m 179.152 55.168 l S
181.695 73.66 m 181.695 56.352 l S
184.234 71.395 m 184.234 58.359 l S
186.777 69.062 m 186.777 60.48 l S
189.316 68.102 m 189.316 61.59 l S
191.859 67.121 m 191.859 62.395 l S
194.398 66.762 m 194.398 63.023 l S
196.941 66.383 m 196.941 63.258 l S
199.48 66.168 m 199.48 63.578 l S
202.023 65.859 m 202.023 63.762 l S
204.566 65.637 m 204.566 64.035 l S
207.105 65.461 m 207.105 64.188 l S
209.648 65.312 m 209.648 64.316 l S
212.188 65.203 m 212.188 64.398 l S
214.73 65.129 m 214.73 64.559 l S
217.27 65.027 m 217.27 64.586 l S
219.812 64.988 m 219.812 64.633 l S
222.352 64.941 m 222.352 64.68 l S
224.895 64.91 m 224.895 64.715 l S
227.434 64.91 m 227.434 64.715 l S
229.977 64.91 m 229.977 64.715 l S
232.52 64.91 m 232.52 64.715 l S
235.059 64.91 m 235.059 64.715 l S
237.602 64.91 m 237.602 64.715 l S
240.141 64.91 m 240.141 64.715 l S
242.684 64.91 m 242.684 64.715 l S
245.223 64.91 m 245.223 64.715 l S
247.766 64.91 m 247.766 64.715 l S
250.305 64.91 m 250.305 64.715 l S
252.848 64.91 m 252.848 64.715 l S
255.387 64.91 m 255.387 64.715 l S
255.387 64.91 m 255.387 64.715 l S
3.812 108.109 m 3.812 107.91 l S
6.352 114.746 m 6.352 101.035 l S
8.895 123.758 m 8.895 92.055 l S
11.434 126.34 m 11.434 89.715 l S
13.977 126.93 m 13.977 89.113 l S
16.52 127.102 m 16.52 88.875 l S
19.059 127.152 m 19.059 88.82 l S
21.602 127.098 m 21.602 88.832 l S
24.141 127.152 m 24.141 88.816 l S
26.684 127.168 m 26.684 88.793 l S
29.223 127.199 m 29.223 88.777 l S
31.766 127.219 m 31.766 88.754 l S
34.305 127.211 m 34.305 88.727 l S
36.848 127.184 m 36.848 88.77 l S
39.387 127.227 m 39.387 88.77 l S
41.93 127.188 m 41.93 88.738 l S
44.469 127.23 m 44.469 88.699 l S
47.012 127.285 m 47.012 88.664 l S
49.555 127.344 m 49.555 88.59 l S
52.094 127.422 m 52.094 88.559 l S
54.637 127.41 m 54.637 88.539 l S
57.176 127.43 m 57.176 88.516 l S
59.719 127.434 m 59.719 88.516 l S
62.258 127.414 m 62.258 88.547 l S
64.801 127.414 m 64.801 88.562 l S
67.34 127.234 m 67.34 88.676 l S
69.883 127.203 m 69.883 88.801 l S
72.422 127.34 m 72.422 88.684 l S
74.965 127.379 m 74.965 88.598 l S
77.508 127.398 m 77.508 88.59 l S
80.047 127.328 m 80.047 88.629 l S
82.59 127.359 m 82.59 88.637 l S
85.129 127.375 m 85.129 88.609 l S
87.672 127.426 m 87.672 88.562 l S
90.211 127.438 m 90.211 88.547 l S
92.754 127.406 m 92.754 88.578 l S
95.293 127.422 m 95.293 88.57 l S
97.836 127.406 m 97.836 88.582 l S
100.375 127.379 m 100.375 88.613 l S
102.918 127.469 m 102.918 88.574 l S
105.457 127.516 m 105.457 88.492 l S
108 127.504 m 108 88.465 l S
110.543 127.48 m 110.543 88.508 l S
113.082 127.453 m 113.082 88.531 l S
115.625 127.426 m 115.625 88.59 l S
118.164 127.34 m 118.164 88.617 l S
120.707 127.395 m 120.707 88.621 l S
123.246 127.465 m 123.246 88.566 l S
125.789 127.477 m 125.789 88.535 l S
128.328 127.422 m 128.328 88.562 l S
130.871 127.426 m 130.871 88.586 l S
133.41 127.445 m 133.41 88.605 l S
135.953 127.363 m 135.953 88.645 l S
138.492 127.383 m 138.492 88.652 l S
141.035 127.414 m 141.035 88.621 l S
143.578 127.418 m 143.578 88.602 l S
146.117 127.387 m 146.117 88.633 l S
148.66 127.375 m 148.66 88.637 l S
151.199 127.434 m 151.199 88.594 l S
153.742 127.422 m 153.742 88.562 l S
156.281 127.449 m 156.281 88.59 l S
158.824 127.484 m 158.824 88.527 l S
161.363 127.512 m 161.363 88.5 l S
163.906 127.578 m 163.906 88.43 l S
166.445 127.637 m 166.445 88.379 l S
168.988 127.633 m 168.988 88.383 l S
171.531 127.617 m 171.531 88.363 l S
174.07 127.586 m 174.07 88.41 l S
176.613 127.551 m 176.613 88.457 l S
179.152 126.66 m 179.152 89.457 l S
181.695 123.594 m 181.695 92.676 l S
184.234 120.562 m 184.234 95.535 l S
186.777 117.922 m 186.777 97.914 l S
189.316 116.469 m 189.316 99.566 l S
191.859 114.953 m 191.859 101.031 l S
194.398 113.855 m 194.398 102.164 l S
196.941 112.855 m 196.941 103.047 l S
199.48 112.012 m 199.48 103.938 l S
202.023 111.238 m 202.023 104.637 l S
204.566 110.699 m 204.566 105.383 l S
207.105 110.156 m 207.105 105.812 l S
209.648 109.695 m 209.648 106.305 l S
212.188 109.227 m 212.188 106.672 l S
214.73 109.02 m 214.73 107.066 l S
217.27 108.703 m 217.27 107.246 l S
219.812 108.547 m 219.812 107.484 l S
222.352 108.398 m 222.352 107.609 l S
224.895 108.297 m 224.895 107.742 l S
227.434 108.219 m 227.434 107.809 l S
229.977 108.156 m 229.977 107.863 l S
232.52 108.121 m 232.52 107.898 l S
235.059 108.109 m 235.059 107.914 l S
237.602 108.109 m 237.602 107.914 l S
240.141 108.109 m 240.141 107.914 l S
242.684 108.109 m 242.684 107.914 l S
245.223 108.109 m 245.223 107.914 l S
247.766 108.109 m 247.766 107.914 l S
250.305 108.109 m 250.305 107.914 l S
252.848 108.109 m 252.848 107.914 l S
255.387 108.109 m 255.387 107.914 l S
255.387 108.109 m 255.387 107.914 l S
3.812 151.309 m 3.812 151.113 l S
6.352 155.43 m 6.352 146.727 l S
8.895 162.094 m 8.895 140.074 l S
11.434 164.391 m 11.434 138.59 l S
13.977 164.664 m 13.977 138.156 l S
16.52 164.68 m 16.52 138.117 l S
19.059 164.699 m 19.059 138.203 l S
21.602 164.699 m 21.602 138.145 l S
24.141 164.672 m 24.141 138.184 l S
26.684 164.668 m 26.684 138.172 l S
29.223 164.68 m 29.223 138.148 l S
31.766 164.656 m 31.766 138.211 l S
34.305 164.719 m 34.305 138.203 l S
36.848 164.602 m 36.848 138.234 l S
39.387 164.645 m 39.387 138.191 l S
41.93 164.648 m 41.93 138.238 l S
44.469 164.645 m 44.469 138.23 l S
47.012 164.703 m 47.012 138.184 l S
49.555 164.711 m 49.555 138.168 l S
52.094 164.754 m 52.094 138.086 l S
54.637 164.727 m 54.637 138.145 l S
57.176 164.766 m 57.176 138.129 l S
59.719 164.797 m 59.719 138.07 l S
62.258 164.723 m 62.258 138.125 l S
64.801 164.707 m 64.801 138.168 l S
67.34 164.625 m 67.34 138.18 l S
69.883 164.641 m 69.883 138.234 l S
72.422 164.703 m 72.422 138.203 l S
74.965 164.773 m 74.965 138.227 l S
77.508 164.801 m 77.508 138.137 l S
80.047 164.723 m 80.047 138.215 l S
82.59 164.707 m 82.59 138.172 l S
85.129 164.734 m 85.129 138.168 l S
87.672 164.758 m 87.672 138.117 l S
90.211 164.746 m 90.211 138.148 l S
92.754 164.754 m 92.754 138.152 l S
95.293 164.727 m 95.293 138.152 l S
97.836 164.746 m 97.836 138.16 l S
100.375 164.73 m 100.375 138.148 l S
102.918 164.766 m 102.918 138.164 l S
105.457 164.797 m 105.457 138.125 l S
108 164.805 m 108 138.102 l S
110.543 164.758 m 110.543 138.113 l S
113.082 164.785 m 113.082 138.117 l S
115.625 164.742 m 115.625 138.164 l S
118.164 164.742 m 118.164 138.148 l S
120.707 164.754 m 120.707 138.172 l S
123.246 164.801 m 123.246 138.172 l S
125.789 164.816 m 125.789 138.156 l S
128.328 164.777 m 128.328 138.133 l S
130.871 164.805 m 130.871 138.148 l S
133.41 164.789 m 133.41 138.148 l S
135.953 164.742 m 135.953 138.203 l S
138.492 164.75 m 138.492 138.164 l S
141.035 164.785 m 141.035 138.145 l S
143.578 164.77 m 143.578 138.113 l S
146.117 164.727 m 146.117 138.145 l S
148.66 164.754 m 148.66 138.148 l S
151.199 164.785 m 151.199 138.105 l S
153.742 164.785 m 153.742 138.086 l S
156.281 164.797 m 156.281 138.109 l S
158.824 164.824 m 158.824 138.074 l S
161.363 164.797 m 161.363 138.102 l S
163.906 164.816 m 163.906 138.043 l S
166.445 164.871 m 166.445 138.02 l S
168.988 164.879 m 168.988 138.047 l S
171.531 164.844 m 171.531 138.055 l S
174.07 164.812 m 174.07 138.07 l S
176.613 164.832 m 176.613 138.062 l S
179.152 164.359 m 179.152 138.422 l S
181.695 162.711 m 181.695 139.875 l S
184.234 159.773 m 184.234 142.914 l S
186.777 157.637 m 186.777 144.812 l S
189.316 156.246 m 189.316 146.117 l S
191.859 155 m 191.859 147.254 l S
194.398 154.258 m 194.398 148.059 l S
196.941 153.773 m 196.941 148.52 l S
199.48 153.266 m 199.48 148.977 l S
202.023 152.941 m 202.023 149.422 l S
204.566 152.574 m 204.566 149.93 l S
207.105 152.23 m 207.105 150.199 l S
209.648 152 m 209.648 150.316 l S
212.188 151.828 m 212.188 150.449 l S
214.73 151.664 m 214.73 150.711 l S
217.27 151.598 m 217.27 150.805 l S
219.812 151.535 m 219.812 150.898 l S
222.352 151.43 m 222.352 151.004 l S
224.895 151.375 m 224.895 151.066 l S
227.434 151.332 m 227.434 151.059 l S
229.977 151.344 m 229.977 151.094 l S
232.52 151.309 m 232.52 151.113 l S
235.059 151.309 m 235.059 151.113 l S
237.602 151.309 m 237.602 151.113 l S
240.141 151.309 m 240.141 151.113 l S
242.684 151.309 m 242.684 151.113 l S
245.223 151.309 m 245.223 151.113 l S
247.766 151.309 m 247.766 151.113 l S
250.305 151.309 m 250.305 151.113 l S
252.848 151.309 m 252.848 151.113 l S
255.387 151.309 m 255.387 151.113 l S
255.387 151.309 m 255.387 151.113 l S
Q Q
showpage
%%Trailer
end
%%EOF
