%!PS-Adobe-3.0 EPSF-3.0
%%Creator: cairo 1.16.0 (https://cairographics.org)
%%CreationDate: Wed May 15 11:57:20 2024
%%Pages: 1
%%DocumentData: Clean7Bit
%%LanguageLevel: 2
%%Creator: Wolfram Mathematica
%%BoundingBox: 2 2 257 167
%%EndComments
%%BeginProlog
50 dict begin
/q { gsave } bind def
/Q { grestore } bind def
/cm { 6 array astore concat } bind def
/w { setlinewidth } bind def
/J { setlinecap } bind def
/j { setlinejoin } bind def
/M { setmiterlimit } bind def
/d { setdash } bind def
/m { moveto } bind def
/l { lineto } bind def
/c { curveto } bind def
/h { closepath } bind def
/re { exch dup neg 3 1 roll 5 3 roll moveto 0 rlineto
      0 exch rlineto 0 rlineto closepath } bind def
/S { stroke } bind def
/f { fill } bind def
/f* { eofill } bind def
/n { newpath } bind def
/W { clip } bind def
/W* { eoclip } bind def
/BT { } bind def
/ET { } bind def
/BDC { mark 3 1 roll /BDC pdfmark } bind def
/EMC { mark /EMC pdfmark } bind def
/cairo_store_point { /cairo_point_y exch def /cairo_point_x exch def } def
/Tj { show currentpoint cairo_store_point } bind def
/TJ {
  {
    dup
    type /stringtype eq
    { show } { -0.001 mul 0 cairo_font_matrix dtransform rmoveto } ifelse
  } forall
  currentpoint cairo_store_point
} bind def
/cairo_selectfont { cairo_font_matrix aload pop pop pop 0 0 6 array astore
    cairo_font exch selectfont cairo_point_x cairo_point_y moveto } bind def
/Tf { pop /cairo_font exch def /cairo_font_matrix where
      { pop cairo_selectfont } if } bind def
/Td { matrix translate cairo_font_matrix matrix concatmatrix dup
      /cairo_font_matrix exch def dup 4 get exch 5 get cairo_store_point
      /cairo_font where { pop cairo_selectfont } if } bind def
/Tm { 2 copy 8 2 roll 6 array astore /cairo_font_matrix exch def
      cairo_store_point /cairo_font where { pop cairo_selectfont } if } bind def
/g { setgray } bind def
/rg { setrgbcolor } bind def
/d1 { setcachedevice } bind def
/cairo_data_source {
  CairoDataIndex CairoData length lt
    { CairoData CairoDataIndex get /CairoDataIndex CairoDataIndex 1 add def }
    { () } ifelse
} def
/cairo_flush_ascii85_file { cairo_ascii85_file status { cairo_ascii85_file flushfile } if } def
/cairo_image { image cairo_flush_ascii85_file } def
/cairo_imagemask { imagemask cairo_flush_ascii85_file } def
%%EndProlog
%%BeginSetup
%%EndSetup
%%Page: 1 1
%%BeginPageSetup
%%PageBoundingBox: 2 2 257 167
%%EndPageSetup
q 2 2 255 165 rectclip
1 0 0 -1 0 173 cm q
0 g
1.796436 w
0 J
0 j
[] 0.0 d
3.25 M 3.812 21.559 m 3.812 21.359 l S
6.352 21.559 m 6.352 21.359 l S
8.895 23.77 m 8.895 19.141 l S
11.434 26.98 m 11.434 16.27 l S
13.977 29.184 m 13.977 13.734 l S
16.52 30.176 m 16.52 12.852 l S
19.059 31.035 m 19.059 11.777 l S
21.602 31.445 m 21.602 11.441 l S
24.141 31.691 m 24.141 11.09 l S
26.684 31.961 m 26.684 10.918 l S
29.223 32.25 m 29.223 10.645 l S
31.766 32.43 m 31.766 10.383 l S
34.305 32.359 m 34.305 10.301 l S
36.848 32.797 m 36.848 10.066 l S
39.387 32.926 m 39.387 9.906 l S
41.93 33.25 m 41.93 9.562 l S
44.469 33.223 m 44.469 9.414 l S
47.012 33.383 m 47.012 9.25 l S
49.555 33.551 m 49.555 9.047 l S
52.094 33.812 m 52.094 8.719 l S
54.637 34.078 m 54.637 8.832 l S
57.176 34.406 m 57.176 8.129 l S
59.719 35.016 m 59.719 7.414 l S
62.258 35.266 m 62.258 6.926 l S
64.801 36.332 m 64.801 6.695 l S
67.34 36.332 m 67.34 6.344 l S
69.883 36.41 m 69.883 6.176 l S
72.422 36.484 m 72.422 6.473 l S
74.965 36.332 m 74.965 6.188 l S
77.508 36.586 m 77.508 6.086 l S
80.047 36.688 m 80.047 6.383 l S
82.59 36.348 m 82.59 6.215 l S
85.129 36.734 m 85.129 6.758 l S
87.672 36.434 m 87.672 6.312 l S
90.211 36.344 m 90.211 6.203 l S
92.754 36.777 m 92.754 6.77 l S
95.293 36.184 m 95.293 6.227 l S
97.836 36.457 m 97.836 6.695 l S
100.375 36.707 m 100.375 6.625 l S
102.918 36.074 m 102.918 6.328 l S
105.457 36.359 m 105.457 6.805 l S
108 36.672 m 108 6.961 l S
110.543 36.395 m 110.543 6.715 l S
113.082 35.996 m 113.082 6.5 l S
115.625 36.062 m 115.625 6.652 l S
118.164 36.395 m 118.164 6.918 l S
120.707 36.695 m 120.707 7.199 l S
123.246 36.461 m 123.246 6.852 l S
125.789 36.25 m 125.789 6.57 l S
128.328 35.828 m 128.328 6.617 l S
130.871 36.008 m 130.871 6.828 l S
133.41 36.191 m 133.41 6.84 l S
135.953 36.688 m 135.953 7.348 l S
138.492 36.617 m 138.492 7.273 l S
141.035 36.496 m 141.035 7.148 l S
143.578 36.5 m 143.578 6.895 l S
146.117 36.262 m 146.117 6.781 l S
148.66 35.688 m 148.66 6.641 l S
151.199 35.625 m 151.199 6.738 l S
153.742 35.719 m 153.742 6.781 l S
156.281 35.781 m 156.281 6.816 l S
158.824 35.805 m 158.824 6.895 l S
161.363 35.805 m 161.363 7.008 l S
163.906 35.867 m 163.906 7.266 l S
166.445 35.953 m 166.445 7.469 l S
168.988 36.152 m 168.988 7.598 l S
171.531 36.219 m 171.531 7.762 l S
174.07 36.23 m 174.07 7.781 l S
176.613 36.191 m 176.613 7.789 l S
179.152 36.191 m 179.152 7.82 l S
181.695 36.09 m 181.695 7.793 l S
184.234 36 m 184.234 7.812 l S
186.777 35.617 m 186.777 8.086 l S
189.316 34.02 m 189.316 9.766 l S
191.859 31.152 m 191.859 10.996 l S
194.398 30.066 m 194.398 13.281 l S
196.941 28.586 m 196.941 14.688 l S
199.48 27.41 m 199.48 15.449 l S
202.023 26.414 m 202.023 16.746 l S
204.566 25.363 m 204.566 17.469 l S
207.105 24.688 m 207.105 18.488 l S
209.648 23.863 m 209.648 19.156 l S
212.188 23.297 m 212.188 19.668 l S
214.73 22.684 m 214.73 20.203 l S
217.27 22.453 m 217.27 20.508 l S
219.812 22.094 m 219.812 20.832 l S
222.352 21.941 m 222.352 21.004 l S
224.895 21.773 m 224.895 21.156 l S
227.434 21.688 m 227.434 21.227 l S
229.977 21.633 m 229.977 21.293 l S
232.52 21.578 m 232.52 21.328 l S
235.059 21.559 m 235.059 21.359 l S
237.602 21.559 m 237.602 21.359 l S
240.141 21.559 m 240.141 21.359 l S
242.684 21.559 m 242.684 21.359 l S
245.223 21.559 m 245.223 21.359 l S
247.766 21.559 m 247.766 21.359 l S
250.305 21.559 m 250.305 21.359 l S
252.848 21.559 m 252.848 21.359 l S
255.387 21.559 m 255.387 21.359 l S
255.387 21.559 m 255.387 21.359 l S
3.812 64.758 m 3.812 64.562 l S
6.352 64.758 m 6.352 64.562 l S
8.895 67.141 m 8.895 62.305 l S
11.434 70.555 m 11.434 58.59 l S
13.977 72.207 m 13.977 56.82 l S
16.52 73.246 m 16.52 56.227 l S
19.059 73.633 m 19.059 55.512 l S
21.602 74.07 m 21.602 54.969 l S
24.141 74.289 m 24.141 54.73 l S
26.684 74.367 m 26.684 54.656 l S
29.223 74.477 m 29.223 54.633 l S
31.766 74.594 m 31.766 54.594 l S
34.305 74.57 m 34.305 54.543 l S
36.848 74.656 m 36.848 54.562 l S
39.387 74.727 m 39.387 54.312 l S
41.93 74.809 m 41.93 54.422 l S
44.469 74.812 m 44.469 54.379 l S
47.012 74.789 m 47.012 54.113 l S
49.555 74.867 m 49.555 54.102 l S
52.094 74.977 m 52.094 54.145 l S
54.637 75.332 m 54.637 53.91 l S
57.176 75.402 m 57.176 53.816 l S
59.719 76.223 m 59.719 53.445 l S
62.258 76.473 m 62.258 52.965 l S
64.801 76.504 m 64.801 52.508 l S
67.34 76.781 m 67.34 52.504 l S
69.883 76.488 m 69.883 52.602 l S
72.422 76.973 m 72.422 52.438 l S
74.965 77.105 m 74.965 52.961 l S
77.508 76.906 m 77.508 52.418 l S
80.047 77.043 m 80.047 52.707 l S
82.59 76.652 m 82.59 52.477 l S
85.129 77.031 m 85.129 52.918 l S
87.672 76.711 m 87.672 52.52 l S
90.211 76.859 m 90.211 52.73 l S
92.754 76.953 m 92.754 52.934 l S
95.293 76.246 m 95.293 52.395 l S
97.836 76.895 m 97.836 52.984 l S
100.375 76.852 m 100.375 52.863 l S
102.918 76.152 m 102.918 52.492 l S
105.457 76.715 m 105.457 52.926 l S
108 76.848 m 108 53.277 l S
110.543 76.457 m 110.543 52.672 l S
113.082 76.305 m 113.082 52.578 l S
115.625 76.727 m 115.625 52.961 l S
118.164 76.727 m 118.164 53.379 l S
120.707 76.66 m 120.707 53.352 l S
123.246 76.383 m 123.246 52.945 l S
125.789 75.938 m 125.789 52.672 l S
128.328 76.324 m 128.328 52.852 l S
130.871 76.594 m 130.871 53.031 l S
133.41 76.555 m 133.41 53.309 l S
135.953 76.734 m 135.953 53.699 l S
138.492 76.586 m 138.492 53.422 l S
141.035 76.445 m 141.035 53.262 l S
143.578 76.32 m 143.578 53.059 l S
146.117 76.031 m 146.117 52.762 l S
148.66 75.922 m 148.66 52.777 l S
151.199 76.105 m 151.199 53.043 l S
153.742 76.215 m 153.742 53.074 l S
156.281 76.359 m 156.281 53.133 l S
158.824 76.293 m 158.824 53.328 l S
161.363 76.309 m 161.363 53.496 l S
163.906 76.242 m 163.906 53.535 l S
166.445 76.258 m 166.445 53.613 l S
168.988 76.199 m 168.988 53.77 l S
171.531 76.242 m 171.531 53.844 l S
174.07 76.172 m 174.07 53.797 l S
176.613 76.137 m 176.613 53.785 l S
179.152 76.152 m 179.152 53.77 l S
181.695 76.156 m 181.695 53.719 l S
184.234 76.102 m 184.234 53.797 l S
186.777 75.758 m 186.777 54.102 l S
189.316 74.234 m 189.316 55.391 l S
191.859 72.371 m 191.859 56.457 l S
194.398 71.355 m 194.398 58.434 l S
196.941 69.977 m 196.941 59.695 l S
199.48 68.754 m 199.48 60.832 l S
202.023 68.137 m 202.023 61.379 l S
204.566 67.398 m 204.566 62.242 l S
207.105 66.902 m 207.105 62.617 l S
209.648 66.305 m 209.648 63.016 l S
212.188 65.934 m 212.188 63.441 l S
214.73 65.66 m 214.73 63.816 l S
217.27 65.328 m 217.27 63.922 l S
219.812 65.156 m 219.812 64.227 l S
222.352 64.98 m 222.352 64.312 l S
224.895 64.883 m 224.895 64.41 l S
227.434 64.84 m 227.434 64.473 l S
229.977 64.809 m 229.977 64.523 l S
232.52 64.844 m 232.52 64.512 l S
235.059 64.758 m 235.059 64.562 l S
237.602 64.758 m 237.602 64.562 l S
240.141 64.758 m 240.141 64.562 l S
242.684 64.758 m 242.684 64.562 l S
245.223 64.758 m 245.223 64.562 l S
247.766 64.758 m 247.766 64.562 l S
250.305 64.758 m 250.305 64.562 l S
252.848 64.758 m 252.848 64.562 l S
255.387 64.758 m 255.387 64.562 l S
255.387 64.758 m 255.387 64.562 l S
3.812 107.957 m 3.812 107.762 l S
6.352 107.957 m 6.352 107.738 l S
8.895 111.023 m 8.895 105.328 l S
11.434 114.645 m 11.434 100.973 l S
13.977 116.941 m 13.977 98.812 l S
16.52 118.441 m 16.52 97.238 l S
19.059 119.145 m 19.059 96.316 l S
21.602 119.996 m 21.602 95.965 l S
24.141 120.625 m 24.141 95.312 l S
26.684 120.434 m 26.684 95.148 l S
29.223 121.098 m 29.223 94.812 l S
31.766 121.457 m 31.766 94.402 l S
34.305 121.367 m 34.305 94.297 l S
36.848 121.691 m 36.848 94.074 l S
39.387 121.887 m 39.387 93.992 l S
41.93 122.168 m 41.93 93.695 l S
44.469 122.781 m 44.469 93.121 l S
47.012 122.996 m 47.012 92.727 l S
49.555 123.477 m 49.555 92.242 l S
52.094 123.688 m 52.094 92.305 l S
54.637 124.238 m 54.637 91.125 l S
57.176 125.309 m 57.176 90.801 l S
59.719 125.996 m 59.719 90.285 l S
62.258 126.402 m 62.258 89.551 l S
64.801 126.344 m 64.801 89.223 l S
67.34 127.141 m 67.34 90.043 l S
69.883 126.969 m 69.883 89.156 l S
72.422 127.07 m 72.422 88.742 l S
74.965 127.254 m 74.965 89.23 l S
77.508 126.07 m 77.508 88.648 l S
80.047 127.34 m 80.047 89.43 l S
82.59 126.465 m 82.59 88.672 l S
85.129 127.406 m 85.129 89.32 l S
87.672 126.203 m 87.672 88.633 l S
90.211 127.398 m 90.211 89.312 l S
92.754 126.844 m 92.754 88.492 l S
95.293 127.039 m 95.293 88.688 l S
97.836 127.301 m 97.836 89.523 l S
100.375 126.582 m 100.375 88.562 l S
102.918 126.418 m 102.918 88.645 l S
105.457 127.281 m 105.457 89.336 l S
108 127.07 m 108 88.996 l S
110.543 126.047 m 110.543 88.543 l S
113.082 126.227 m 113.082 88.672 l S
115.625 127.184 m 115.625 89.207 l S
118.164 127.168 m 118.164 89.41 l S
120.707 126.988 m 120.707 88.652 l S
123.246 125.68 m 123.246 88.57 l S
125.789 125.992 m 125.789 88.652 l S
128.328 126.723 m 128.328 88.918 l S
130.871 127.148 m 130.871 89.379 l S
133.41 127.25 m 133.41 89.617 l S
135.953 127.23 m 135.953 89.418 l S
138.492 127.102 m 138.492 89.094 l S
141.035 126.551 m 141.035 88.594 l S
143.578 125.578 m 143.578 88.562 l S
146.117 125.738 m 146.117 88.703 l S
148.66 125.941 m 148.66 88.789 l S
151.199 126.16 m 151.199 88.859 l S
153.742 126.5 m 153.742 89.098 l S
156.281 126.871 m 156.281 89.379 l S
158.824 127.07 m 158.824 89.66 l S
161.363 127.059 m 161.363 89.914 l S
163.906 127.164 m 163.906 89.895 l S
166.445 127.156 m 166.445 89.695 l S
168.988 127.191 m 168.988 89.84 l S
171.531 127.031 m 171.531 89.93 l S
174.07 127.02 m 174.07 89.859 l S
176.613 127.074 m 176.613 89.848 l S
179.152 127.02 m 179.152 90.035 l S
181.695 126.93 m 181.695 90.078 l S
184.234 126.918 m 184.234 90.211 l S
186.777 126.383 m 186.777 90.777 l S
189.316 123.938 m 189.316 92.152 l S
191.859 121 m 191.859 94.461 l S
194.398 119.504 m 194.398 96.332 l S
196.941 117.586 m 196.941 98.145 l S
199.48 116.062 m 199.48 99.711 l S
202.023 114.844 m 202.023 100.715 l S
204.566 113.621 m 204.566 101.945 l S
207.105 112.348 m 207.105 103.062 l S
209.648 111.555 m 209.648 104.012 l S
212.188 110.688 m 212.188 105.008 l S
214.73 110.039 m 214.73 105.473 l S
217.27 109.434 m 217.27 106.293 l S
219.812 109.109 m 219.812 106.727 l S
222.352 108.668 m 222.352 107.047 l S
224.895 108.441 m 224.895 107.254 l S
227.434 108.309 m 227.434 107.465 l S
229.977 108.172 m 229.977 107.543 l S
232.52 108.164 m 232.52 107.621 l S
235.059 108.031 m 235.059 107.727 l S
237.602 107.961 m 237.602 107.75 l S
240.141 107.957 m 240.141 107.762 l S
242.684 107.957 m 242.684 107.762 l S
245.223 107.957 m 245.223 107.762 l S
247.766 107.957 m 247.766 107.762 l S
250.305 107.957 m 250.305 107.762 l S
252.848 107.957 m 252.848 107.762 l S
255.387 107.957 m 255.387 107.762 l S
255.387 107.957 m 255.387 107.762 l S
3.812 151.156 m 3.812 150.961 l S
6.352 151.172 m 6.352 150.949 l S
8.895 157.285 m 8.895 145.676 l S
11.434 162.176 m 11.434 139.957 l S
13.977 164.184 m 13.977 137.621 l S
16.52 165.695 m 16.52 136.238 l S
19.059 166.531 m 19.059 135.488 l S
21.602 166.844 m 21.602 135.371 l S
24.141 167.207 m 24.141 134.633 l S
26.684 167.668 m 26.684 134.578 l S
29.223 167.598 m 29.223 134.48 l S
31.766 167.883 m 31.766 134.574 l S
34.305 167.895 m 34.305 134.379 l S
36.848 167.758 m 36.848 134.383 l S
39.387 168.383 m 39.387 134.383 l S
41.93 168.035 m 41.93 134.527 l S
44.469 168.281 m 44.469 134.219 l S
47.012 168.57 m 47.012 133.883 l S
49.555 168.758 m 49.555 133.586 l S
52.094 168.875 m 52.094 133.504 l S
54.637 168.68 m 54.637 133.523 l S
57.176 169.492 m 57.176 133.156 l S
59.719 169.691 m 59.719 133.031 l S
62.258 170.137 m 62.258 132.375 l S
64.801 170.668 m 64.801 131.965 l S
67.34 170.816 m 67.34 132.43 l S
69.883 170.836 m 69.883 131.562 l S
72.422 170.254 m 72.422 131.656 l S
74.965 170.562 m 74.965 131.77 l S
77.508 170.668 m 77.508 132.762 l S
80.047 170.086 m 80.047 132.117 l S
82.59 170.336 m 82.59 132.688 l S
85.129 169.805 m 85.129 132.211 l S
87.672 170.27 m 87.672 132.859 l S
90.211 169.828 m 90.211 132.426 l S
92.754 169.559 m 92.754 132.297 l S
95.293 170.02 m 95.293 133.93 l S
97.836 169.195 m 97.836 132.559 l S
100.375 168.773 m 100.375 132.637 l S
102.918 169.711 m 102.918 133.602 l S
105.457 169.648 m 105.457 133.055 l S
108 168.461 m 108 132.742 l S
110.543 168.828 m 110.543 133.199 l S
113.082 169.625 m 113.082 133.988 l S
115.625 169.527 m 115.625 133.965 l S
118.164 168.848 m 118.164 132.945 l S
120.707 167.301 m 120.707 133.168 l S
123.246 168.508 m 123.246 133.445 l S
125.789 169.32 m 125.789 134.016 l S
128.328 169.367 m 128.328 135.02 l S
130.871 169.215 m 130.871 134.273 l S
133.41 168.82 m 133.41 133.57 l S
135.953 168.25 m 135.953 133.105 l S
138.492 166.969 m 138.492 133.129 l S
141.035 167.43 m 141.035 133.391 l S
143.578 168 m 143.578 133.637 l S
146.117 168.391 m 146.117 134.059 l S
148.66 169.094 m 148.66 134.562 l S
151.199 169.074 m 151.199 135.598 l S
153.742 168.996 m 153.742 135.098 l S
156.281 168.785 m 156.281 134.844 l S
158.824 168.527 m 158.824 134.648 l S
161.363 168.266 m 161.363 134.324 l S
163.906 168.137 m 163.906 134.258 l S
166.445 167.797 m 166.445 133.887 l S
168.988 167.594 m 168.988 133.809 l S
171.531 167.238 m 171.531 133.84 l S
174.07 167.156 m 174.07 133.84 l S
176.613 167.141 m 176.613 133.895 l S
179.152 167.176 m 179.152 133.996 l S
181.695 167.355 m 181.695 134.188 l S
184.234 167.473 m 184.234 134.461 l S
186.777 167.223 m 186.777 135.059 l S
189.316 165.078 m 189.316 136.344 l S
191.859 162.754 m 191.859 139.559 l S
194.398 161.918 m 194.398 140.953 l S
196.941 160.031 m 196.941 142.688 l S
199.48 158.465 m 199.48 144.086 l S
202.023 157.414 m 202.023 145.098 l S
204.566 156.293 m 204.566 146.066 l S
207.105 154.879 m 207.105 146.828 l S
209.648 154.34 m 209.648 147.746 l S
212.188 153.344 m 212.188 148.582 l S
214.73 152.711 m 214.73 148.941 l S
217.27 152.387 m 217.27 149.793 l S
219.812 152.148 m 219.812 150.094 l S
222.352 151.688 m 222.352 150.406 l S
224.895 151.551 m 224.895 150.602 l S
227.434 151.48 m 227.434 150.758 l S
229.977 151.441 m 229.977 150.758 l S
232.52 151.285 m 232.52 150.793 l S
235.059 151.195 m 235.059 150.945 l S
237.602 151.156 m 237.602 150.961 l S
240.141 151.156 m 240.141 150.961 l S
242.684 151.156 m 242.684 150.961 l S
245.223 151.156 m 245.223 150.961 l S
247.766 151.156 m 247.766 150.961 l S
250.305 151.156 m 250.305 150.961 l S
252.848 151.156 m 252.848 150.961 l S
255.387 151.156 m 255.387 150.961 l S
255.387 151.156 m 255.387 150.961 l S
Q Q
showpage
%%Trailer
end
%%EOF
