%!PS-Adobe-3.0 EPSF-3.0
%%Creator: cairo 1.16.0 (https://cairographics.org)
%%CreationDate: Wed May 15 11:57:20 2024
%%Pages: 1
%%DocumentData: Clean7Bit
%%LanguageLevel: 2
%%Creator: Wolfram Mathematica
%%BoundingBox: 2 8 257 165
%%EndComments
%%BeginProlog
50 dict begin
/q { gsave } bind def
/Q { grestore } bind def
/cm { 6 array astore concat } bind def
/w { setlinewidth } bind def
/J { setlinecap } bind def
/j { setlinejoin } bind def
/M { setmiterlimit } bind def
/d { setdash } bind def
/m { moveto } bind def
/l { lineto } bind def
/c { curveto } bind def
/h { closepath } bind def
/re { exch dup neg 3 1 roll 5 3 roll moveto 0 rlineto
      0 exch rlineto 0 rlineto closepath } bind def
/S { stroke } bind def
/f { fill } bind def
/f* { eofill } bind def
/n { newpath } bind def
/W { clip } bind def
/W* { eoclip } bind def
/BT { } bind def
/ET { } bind def
/BDC { mark 3 1 roll /BDC pdfmark } bind def
/EMC { mark /EMC pdfmark } bind def
/cairo_store_point { /cairo_point_y exch def /cairo_point_x exch def } def
/Tj { show currentpoint cairo_store_point } bind def
/TJ {
  {
    dup
    type /stringtype eq
    { show } { -0.001 mul 0 cairo_font_matrix dtransform rmoveto } ifelse
  } forall
  currentpoint cairo_store_point
} bind def
/cairo_selectfont { cairo_font_matrix aload pop pop pop 0 0 6 array astore
    cairo_font exch selectfont cairo_point_x cairo_point_y moveto } bind def
/Tf { pop /cairo_font exch def /cairo_font_matrix where
      { pop cairo_selectfont } if } bind def
/Td { matrix translate cairo_font_matrix matrix concatmatrix dup
      /cairo_font_matrix exch def dup 4 get exch 5 get cairo_store_point
      /cairo_font where { pop cairo_selectfont } if } bind def
/Tm { 2 copy 8 2 roll 6 array astore /cairo_font_matrix exch def
      cairo_store_point /cairo_font where { pop cairo_selectfont } if } bind def
/g { setgray } bind def
/rg { setrgbcolor } bind def
/d1 { setcachedevice } bind def
/cairo_data_source {
  CairoDataIndex CairoData length lt
    { CairoData CairoDataIndex get /CairoDataIndex CairoDataIndex 1 add def }
    { () } ifelse
} def
/cairo_flush_ascii85_file { cairo_ascii85_file status { cairo_ascii85_file flushfile } if } def
/cairo_image { image cairo_flush_ascii85_file } def
/cairo_imagemask { imagemask cairo_flush_ascii85_file } def
%%EndProlog
%%BeginSetup
%%EndSetup
%%Page: 1 1
%%BeginPageSetup
%%PageBoundingBox: 2 8 257 165
%%EndPageSetup
q 2 8 255 157 rectclip
1 0 0 -1 0 173 cm q
0 g
1.796436 w
0 J
0 j
[] 0.0 d
3.25 M 3.812 21.777 m 3.812 21.582 l S
6.352 24.719 m 6.352 18.848 l S
8.895 32.383 m 8.895 11.059 l S
11.434 33.633 m 11.434 9.641 l S
13.977 33.973 m 13.977 8.934 l S
16.52 34.258 m 16.52 8.77 l S
19.059 34.527 m 19.059 8.496 l S
21.602 34.621 m 21.602 8.461 l S
24.141 34.613 m 24.141 8.594 l S
26.684 34.465 m 26.684 8.723 l S
29.223 34.352 m 29.223 8.879 l S
31.766 34.184 m 31.766 8.992 l S
34.305 34.02 m 34.305 9.133 l S
36.848 33.969 m 36.848 9.113 l S
39.387 34.043 m 39.387 9.055 l S
41.93 34.098 m 41.93 9.02 l S
44.469 34.117 m 44.469 8.996 l S
47.012 34.094 m 47.012 9.004 l S
49.555 34.113 m 49.555 8.996 l S
52.094 34.125 m 52.094 9 l S
54.637 34.121 m 54.637 8.973 l S
57.176 34.18 m 57.176 8.965 l S
59.719 34.191 m 59.719 8.969 l S
62.258 34.168 m 62.258 8.98 l S
64.801 34.207 m 64.801 8.953 l S
67.34 34.219 m 67.34 8.93 l S
69.883 34.254 m 69.883 8.898 l S
72.422 34.262 m 72.422 8.906 l S
74.965 34.293 m 74.965 8.883 l S
77.508 34.344 m 77.508 8.836 l S
80.047 34.348 m 80.047 8.809 l S
82.59 34.328 m 82.59 8.871 l S
85.129 34.301 m 85.129 8.891 l S
87.672 34.355 m 87.672 8.832 l S
90.211 34.406 m 90.211 8.785 l S
92.754 34.418 m 92.754 8.789 l S
95.293 34.449 m 95.293 8.77 l S
97.836 34.488 m 97.836 8.723 l S
100.375 34.504 m 100.375 8.711 l S
102.918 34.5 m 102.918 8.703 l S
105.457 34.453 m 105.457 8.758 l S
108 34.438 m 108 8.797 l S
110.543 34.418 m 110.543 8.793 l S
113.082 34.406 m 113.082 8.797 l S
115.625 34.457 m 115.625 8.75 l S
118.164 34.469 m 118.164 8.734 l S
120.707 34.484 m 120.707 8.723 l S
123.246 34.453 m 123.246 8.75 l S
125.789 34.52 m 125.789 8.711 l S
128.328 34.547 m 128.328 8.695 l S
130.871 34.621 m 130.871 8.621 l S
133.41 34.66 m 133.41 8.578 l S
135.953 34.672 m 135.953 8.602 l S
138.492 34.68 m 138.492 8.594 l S
141.035 34.703 m 141.035 8.582 l S
143.578 34.715 m 143.578 8.551 l S
146.117 34.734 m 146.117 8.559 l S
148.66 34.688 m 148.66 8.598 l S
151.199 34.691 m 151.199 8.594 l S
153.742 34.73 m 153.742 8.535 l S
156.281 34.773 m 156.281 8.5 l S
158.824 34.793 m 158.824 8.484 l S
161.363 34.828 m 161.363 8.469 l S
163.906 34.836 m 163.906 8.465 l S
166.445 34.828 m 166.445 8.449 l S
168.988 34.859 m 168.988 8.438 l S
171.531 34.879 m 171.531 8.406 l S
174.07 34.918 m 174.07 8.379 l S
176.613 34.957 m 176.613 8.344 l S
179.152 34.949 m 179.152 8.352 l S
181.695 34.805 m 181.695 8.496 l S
184.234 33.047 m 184.234 10.332 l S
186.777 31.203 m 186.777 12.379 l S
189.316 28.965 m 189.316 14.258 l S
191.859 27.832 m 191.859 15.57 l S
194.398 26.504 m 194.398 16.973 l S
196.941 25.398 m 196.941 18.059 l S
199.48 24.504 m 199.48 18.961 l S
202.023 23.809 m 202.023 19.672 l S
204.566 23.242 m 204.566 20.156 l S
207.105 22.836 m 207.105 20.543 l S
209.648 22.531 m 209.648 20.832 l S
212.188 22.293 m 212.188 21.066 l S
214.73 22.117 m 214.73 21.25 l S
217.27 22.008 m 217.27 21.363 l S
219.812 21.902 m 219.812 21.449 l S
222.352 21.84 m 222.352 21.516 l S
224.895 21.801 m 224.895 21.566 l S
227.434 21.777 m 227.434 21.582 l S
229.977 21.777 m 229.977 21.582 l S
232.52 21.777 m 232.52 21.582 l S
235.059 21.777 m 235.059 21.582 l S
237.602 21.777 m 237.602 21.582 l S
240.141 21.777 m 240.141 21.582 l S
242.684 21.777 m 242.684 21.582 l S
245.223 21.777 m 245.223 21.582 l S
247.766 21.777 m 247.766 21.582 l S
250.305 21.777 m 250.305 21.582 l S
252.848 21.777 m 252.848 21.582 l S
255.387 21.777 m 255.387 21.582 l S
255.387 21.777 m 255.387 21.582 l S
3.812 64.977 m 3.812 64.781 l S
6.352 67.133 m 6.352 62.379 l S
8.895 72.641 m 8.895 57.41 l S
11.434 73.438 m 11.434 56.465 l S
13.977 73.84 m 13.977 56.367 l S
16.52 73.992 m 16.52 56.164 l S
19.059 74.102 m 19.059 56.023 l S
21.602 74.23 m 21.602 55.934 l S
24.141 74.23 m 24.141 55.902 l S
26.684 74.258 m 26.684 55.828 l S
29.223 74.316 m 29.223 55.809 l S
31.766 74.285 m 31.766 55.781 l S
34.305 74.258 m 34.305 55.832 l S
36.848 74.266 m 36.848 55.809 l S
39.387 74.297 m 39.387 55.82 l S
41.93 74.293 m 41.93 55.785 l S
44.469 74.316 m 44.469 55.746 l S
47.012 74.328 m 47.012 55.727 l S
49.555 74.32 m 49.555 55.719 l S
52.094 74.371 m 52.094 55.723 l S
54.637 74.355 m 54.637 55.73 l S
57.176 74.359 m 57.176 55.715 l S
59.719 74.352 m 59.719 55.719 l S
62.258 74.355 m 62.258 55.727 l S
64.801 74.367 m 64.801 55.723 l S
67.34 74.395 m 67.34 55.699 l S
69.883 74.402 m 69.883 55.691 l S
72.422 74.398 m 72.422 55.684 l S
74.965 74.418 m 74.965 55.719 l S
77.508 74.457 m 77.508 55.676 l S
80.047 74.469 m 80.047 55.637 l S
82.59 74.434 m 82.59 55.645 l S
85.129 74.426 m 85.129 55.695 l S
87.672 74.465 m 87.672 55.711 l S
90.211 74.461 m 90.211 55.699 l S
92.754 74.484 m 92.754 55.707 l S
95.293 74.457 m 95.293 55.68 l S
97.836 74.504 m 97.836 55.668 l S
100.375 74.504 m 100.375 55.645 l S
102.918 74.504 m 102.918 55.625 l S
105.457 74.488 m 105.457 55.637 l S
108 74.488 m 108 55.637 l S
110.543 74.5 m 110.543 55.664 l S
113.082 74.477 m 113.082 55.672 l S
115.625 74.48 m 115.625 55.664 l S
118.164 74.52 m 118.164 55.641 l S
120.707 74.512 m 120.707 55.625 l S
123.246 74.473 m 123.246 55.672 l S
125.789 74.492 m 125.789 55.688 l S
128.328 74.508 m 128.328 55.688 l S
130.871 74.543 m 130.871 55.676 l S
133.41 74.547 m 133.41 55.672 l S
135.953 74.578 m 135.953 55.656 l S
138.492 74.602 m 138.492 55.621 l S
141.035 74.57 m 141.035 55.656 l S
143.578 74.586 m 143.578 55.629 l S
146.117 74.578 m 146.117 55.66 l S
148.66 74.566 m 148.66 55.664 l S
151.199 74.582 m 151.199 55.691 l S
153.742 74.602 m 153.742 55.676 l S
156.281 74.637 m 156.281 55.68 l S
158.824 74.605 m 158.824 55.68 l S
161.363 74.637 m 161.363 55.672 l S
163.906 74.625 m 163.906 55.688 l S
166.445 74.613 m 166.445 55.719 l S
168.988 74.648 m 168.988 55.711 l S
171.531 74.656 m 171.531 55.703 l S
174.07 74.652 m 174.07 55.684 l S
176.613 74.66 m 176.613 55.684 l S
179.152 74.645 m 179.152 55.699 l S
181.695 74.512 m 181.695 55.805 l S
184.234 73.309 m 184.234 56.738 l S
186.777 71.82 m 186.777 58.285 l S
189.316 70.531 m 189.316 59.445 l S
191.859 69.543 m 191.859 60.227 l S
194.398 68.562 m 194.398 61.262 l S
196.941 67.738 m 196.941 62.098 l S
199.48 67.082 m 199.48 62.738 l S
202.023 66.52 m 202.023 63.238 l S
204.566 66.145 m 204.566 63.672 l S
207.105 65.801 m 207.105 63.969 l S
209.648 65.531 m 209.648 64.215 l S
212.188 65.406 m 212.188 64.395 l S
214.73 65.223 m 214.73 64.516 l S
217.27 65.113 m 217.27 64.633 l S
219.812 65.07 m 219.812 64.695 l S
222.352 65.016 m 222.352 64.762 l S
224.895 64.977 m 224.895 64.777 l S
227.434 64.977 m 227.434 64.781 l S
229.977 64.977 m 229.977 64.781 l S
232.52 64.977 m 232.52 64.781 l S
235.059 64.977 m 235.059 64.781 l S
237.602 64.977 m 237.602 64.781 l S
240.141 64.977 m 240.141 64.781 l S
242.684 64.977 m 242.684 64.781 l S
245.223 64.977 m 245.223 64.781 l S
247.766 64.977 m 247.766 64.781 l S
250.305 64.977 m 250.305 64.781 l S
252.848 64.977 m 252.848 64.781 l S
255.387 64.977 m 255.387 64.781 l S
255.387 64.977 m 255.387 64.781 l S
3.812 108.18 m 3.812 107.98 l S
6.352 113.18 m 6.352 101.746 l S
8.895 122.492 m 8.895 93.953 l S
11.434 124.477 m 11.434 91.367 l S
13.977 125.516 m 13.977 90.555 l S
16.52 126.074 m 16.52 90.031 l S
19.059 126.328 m 19.059 89.918 l S
21.602 126.402 m 21.602 89.715 l S
24.141 126.68 m 24.141 89.293 l S
26.684 127.043 m 26.684 88.98 l S
29.223 127.316 m 29.223 88.766 l S
31.766 127.426 m 31.766 88.617 l S
34.305 127.414 m 34.305 88.637 l S
36.848 127.398 m 36.848 88.625 l S
39.387 127.438 m 39.387 88.641 l S
41.93 127.402 m 41.93 88.617 l S
44.469 127.52 m 44.469 88.574 l S
47.012 127.527 m 47.012 88.523 l S
49.555 127.617 m 49.555 88.48 l S
52.094 127.531 m 52.094 88.477 l S
54.637 127.527 m 54.637 88.531 l S
57.176 127.496 m 57.176 88.527 l S
59.719 127.523 m 59.719 88.52 l S
62.258 127.508 m 62.258 88.527 l S
64.801 127.473 m 64.801 88.57 l S
67.34 127.48 m 67.34 88.555 l S
69.883 127.508 m 69.883 88.523 l S
72.422 127.48 m 72.422 88.543 l S
74.965 127.512 m 74.965 88.539 l S
77.508 127.5 m 77.508 88.535 l S
80.047 127.539 m 80.047 88.496 l S
82.59 127.562 m 82.59 88.465 l S
85.129 127.535 m 85.129 88.504 l S
87.672 127.469 m 87.672 88.57 l S
90.211 127.434 m 90.211 88.582 l S
92.754 127.441 m 92.754 88.594 l S
95.293 127.469 m 95.293 88.57 l S
97.836 127.523 m 97.836 88.531 l S
100.375 127.543 m 100.375 88.477 l S
102.918 127.621 m 102.918 88.418 l S
105.457 127.637 m 105.457 88.363 l S
108 127.625 m 108 88.395 l S
110.543 127.617 m 110.543 88.418 l S
113.082 127.613 m 113.082 88.449 l S
115.625 127.551 m 115.625 88.465 l S
118.164 127.586 m 118.164 88.492 l S
120.707 127.582 m 120.707 88.484 l S
123.246 127.52 m 123.246 88.504 l S
125.789 127.438 m 125.789 88.594 l S
128.328 127.375 m 128.328 88.656 l S
130.871 127.352 m 130.871 88.711 l S
133.41 127.34 m 133.41 88.699 l S
135.953 127.355 m 135.953 88.703 l S
138.492 127.336 m 138.492 88.672 l S
141.035 127.324 m 141.035 88.695 l S
143.578 127.344 m 143.578 88.691 l S
146.117 127.371 m 146.117 88.66 l S
148.66 127.336 m 148.66 88.672 l S
151.199 127.309 m 151.199 88.723 l S
153.742 127.242 m 153.742 88.762 l S
156.281 127.23 m 156.281 88.809 l S
158.824 127.215 m 158.824 88.82 l S
161.363 127.191 m 161.363 88.883 l S
163.906 127.113 m 163.906 88.906 l S
166.445 127.078 m 166.445 88.949 l S
168.988 127.039 m 168.988 89.027 l S
171.531 126.953 m 171.531 89.078 l S
174.07 126.914 m 174.07 89.18 l S
176.613 126.902 m 176.613 89.25 l S
179.152 126.867 m 179.152 89.281 l S
181.695 126.613 m 181.695 89.5 l S
184.234 124.156 m 184.234 92.145 l S
186.777 121.242 m 186.777 94.879 l S
189.316 118.84 m 189.316 97.289 l S
191.859 117.191 m 191.859 98.938 l S
194.398 115.637 m 194.398 100.523 l S
196.941 114.125 m 196.941 102.02 l S
199.48 112.91 m 199.48 103.305 l S
202.023 111.703 m 202.023 104.336 l S
204.566 110.789 m 204.566 105.363 l S
207.105 110.094 m 207.105 106.031 l S
209.648 109.566 m 209.648 106.578 l S
212.188 109.211 m 212.188 107 l S
214.73 108.871 m 214.73 107.301 l S
217.27 108.648 m 217.27 107.527 l S
219.812 108.465 m 219.812 107.68 l S
222.352 108.398 m 222.352 107.793 l S
224.895 108.289 m 224.895 107.867 l S
227.434 108.223 m 227.434 107.922 l S
229.977 108.184 m 229.977 107.965 l S
232.52 108.18 m 232.52 107.98 l S
235.059 108.18 m 235.059 107.98 l S
237.602 108.18 m 237.602 107.98 l S
240.141 108.18 m 240.141 107.98 l S
242.684 108.18 m 242.684 107.98 l S
245.223 108.18 m 245.223 107.98 l S
247.766 108.18 m 247.766 107.98 l S
250.305 108.18 m 250.305 107.98 l S
252.848 108.18 m 252.848 107.98 l S
255.387 108.18 m 255.387 107.98 l S
255.387 108.18 m 255.387 107.98 l S
3.812 151.379 m 3.812 151.184 l S
6.352 154.316 m 6.352 147.781 l S
8.895 161.5 m 8.895 141.438 l S
11.434 163.23 m 11.434 139.887 l S
13.977 163.793 m 13.977 139.477 l S
16.52 163.941 m 16.52 139.438 l S
19.059 164.191 m 19.059 139.113 l S
21.602 164.234 m 21.602 139.078 l S
24.141 164.121 m 24.141 139.168 l S
26.684 164.309 m 26.684 139.168 l S
29.223 164.527 m 29.223 139.211 l S
31.766 164.516 m 31.766 139.18 l S
34.305 164.504 m 34.305 139.113 l S
36.848 164.438 m 36.848 139.117 l S
39.387 164.387 m 39.387 139.074 l S
41.93 164.34 m 41.93 139.098 l S
44.469 164.434 m 44.469 139.094 l S
47.012 164.414 m 47.012 139.156 l S
49.555 164.402 m 49.555 139.152 l S
52.094 164.418 m 52.094 139.102 l S
54.637 164.414 m 54.637 139.191 l S
57.176 164.438 m 57.176 139.18 l S
59.719 164.414 m 59.719 139.23 l S
62.258 164.395 m 62.258 139.199 l S
64.801 164.352 m 64.801 139.219 l S
67.34 164.387 m 67.34 139.219 l S
69.883 164.426 m 69.883 139.234 l S
72.422 164.418 m 72.422 139.195 l S
74.965 164.402 m 74.965 139.258 l S
77.508 164.457 m 77.508 139.238 l S
80.047 164.492 m 80.047 139.176 l S
82.59 164.461 m 82.59 139.254 l S
85.129 164.469 m 85.129 139.234 l S
87.672 164.395 m 87.672 139.273 l S
90.211 164.398 m 90.211 139.258 l S
92.754 164.41 m 92.754 139.215 l S
95.293 164.422 m 95.293 139.266 l S
97.836 164.473 m 97.836 139.223 l S
100.375 164.52 m 100.375 139.195 l S
102.918 164.562 m 102.918 139.188 l S
105.457 164.59 m 105.457 139.234 l S
108 164.555 m 108 139.25 l S
110.543 164.586 m 110.543 139.254 l S
113.082 164.504 m 113.082 139.273 l S
115.625 164.445 m 115.625 139.273 l S
118.164 164.516 m 118.164 139.223 l S
120.707 164.523 m 120.707 139.203 l S
123.246 164.496 m 123.246 139.273 l S
125.789 164.496 m 125.789 139.285 l S
128.328 164.391 m 128.328 139.266 l S
130.871 164.379 m 130.871 139.246 l S
133.41 164.395 m 133.41 139.227 l S
135.953 164.395 m 135.953 139.238 l S
138.492 164.453 m 138.492 139.227 l S
141.035 164.422 m 141.035 139.27 l S
143.578 164.402 m 143.578 139.199 l S
146.117 164.438 m 146.117 139.199 l S
148.66 164.41 m 148.66 139.262 l S
151.199 164.414 m 151.199 139.262 l S
153.742 164.355 m 153.742 139.227 l S
156.281 164.363 m 156.281 139.219 l S
158.824 164.309 m 158.824 139.195 l S
161.363 164.328 m 161.363 139.18 l S
163.906 164.297 m 163.906 139.207 l S
166.445 164.227 m 166.445 139.227 l S
168.988 164.211 m 168.988 139.188 l S
171.531 164.184 m 171.531 139.145 l S
174.07 164.148 m 174.07 139.137 l S
176.613 164.148 m 176.613 139.156 l S
179.152 164.145 m 179.152 139.195 l S
181.695 163.891 m 181.695 139.359 l S
184.234 162.504 m 184.234 141.035 l S
186.777 160.266 m 186.777 142.469 l S
189.316 158.551 m 189.316 143.816 l S
191.859 157.391 m 191.859 145.199 l S
194.398 156.059 m 194.398 146.512 l S
196.941 155.066 m 196.941 147.691 l S
199.48 154.34 m 199.48 148.477 l S
202.023 153.527 m 202.023 149.07 l S
204.566 152.926 m 204.566 149.641 l S
207.105 152.535 m 207.105 150.059 l S
209.648 152.168 m 209.648 150.422 l S
212.188 151.953 m 212.188 150.59 l S
214.73 151.758 m 214.73 150.77 l S
217.27 151.625 m 217.27 150.945 l S
219.812 151.531 m 219.812 151.023 l S
222.352 151.453 m 222.352 151.094 l S
224.895 151.445 m 224.895 151.141 l S
227.434 151.379 m 227.434 151.184 l S
229.977 151.379 m 229.977 151.184 l S
232.52 151.379 m 232.52 151.184 l S
235.059 151.379 m 235.059 151.184 l S
237.602 151.379 m 237.602 151.184 l S
240.141 151.379 m 240.141 151.184 l S
242.684 151.379 m 242.684 151.184 l S
245.223 151.379 m 245.223 151.184 l S
247.766 151.379 m 247.766 151.184 l S
250.305 151.379 m 250.305 151.184 l S
252.848 151.379 m 252.848 151.184 l S
255.387 151.379 m 255.387 151.184 l S
255.387 151.379 m 255.387 151.184 l S
Q Q
showpage
%%Trailer
end
%%EOF
