%!PS-Adobe-3.0 EPSF-3.0
%%Creator: cairo 1.16.0 (https://cairographics.org)
%%CreationDate: Wed May 15 11:57:20 2024
%%Pages: 1
%%DocumentData: Clean7Bit
%%LanguageLevel: 2
%%Creator: Wolfram Mathematica
%%BoundingBox: 2 2 257 164
%%EndComments
%%BeginProlog
50 dict begin
/q { gsave } bind def
/Q { grestore } bind def
/cm { 6 array astore concat } bind def
/w { setlinewidth } bind def
/J { setlinecap } bind def
/j { setlinejoin } bind def
/M { setmiterlimit } bind def
/d { setdash } bind def
/m { moveto } bind def
/l { lineto } bind def
/c { curveto } bind def
/h { closepath } bind def
/re { exch dup neg 3 1 roll 5 3 roll moveto 0 rlineto
      0 exch rlineto 0 rlineto closepath } bind def
/S { stroke } bind def
/f { fill } bind def
/f* { eofill } bind def
/n { newpath } bind def
/W { clip } bind def
/W* { eoclip } bind def
/BT { } bind def
/ET { } bind def
/BDC { mark 3 1 roll /BDC pdfmark } bind def
/EMC { mark /EMC pdfmark } bind def
/cairo_store_point { /cairo_point_y exch def /cairo_point_x exch def } def
/Tj { show currentpoint cairo_store_point } bind def
/TJ {
  {
    dup
    type /stringtype eq
    { show } { -0.001 mul 0 cairo_font_matrix dtransform rmoveto } ifelse
  } forall
  currentpoint cairo_store_point
} bind def
/cairo_selectfont { cairo_font_matrix aload pop pop pop 0 0 6 array astore
    cairo_font exch selectfont cairo_point_x cairo_point_y moveto } bind def
/Tf { pop /cairo_font exch def /cairo_font_matrix where
      { pop cairo_selectfont } if } bind def
/Td { matrix translate cairo_font_matrix matrix concatmatrix dup
      /cairo_font_matrix exch def dup 4 get exch 5 get cairo_store_point
      /cairo_font where { pop cairo_selectfont } if } bind def
/Tm { 2 copy 8 2 roll 6 array astore /cairo_font_matrix exch def
      cairo_store_point /cairo_font where { pop cairo_selectfont } if } bind def
/g { setgray } bind def
/rg { setrgbcolor } bind def
/d1 { setcachedevice } bind def
/cairo_data_source {
  CairoDataIndex CairoData length lt
    { CairoData CairoDataIndex get /CairoDataIndex CairoDataIndex 1 add def }
    { () } ifelse
} def
/cairo_flush_ascii85_file { cairo_ascii85_file status { cairo_ascii85_file flushfile } if } def
/cairo_image { image cairo_flush_ascii85_file } def
/cairo_imagemask { imagemask cairo_flush_ascii85_file } def
%%EndProlog
%%BeginSetup
%%EndSetup
%%Page: 1 1
%%BeginPageSetup
%%PageBoundingBox: 2 2 257 164
%%EndPageSetup
q 2 2 255 162 rectclip
1 0 0 -1 0 173 cm q
0 g
1.796436 w
0 J
0 j
[] 0.0 d
3.25 M 3.812 21.59 m 3.812 21.395 l S
6.352 21.59 m 6.352 21.395 l S
8.895 22.195 m 8.895 20.832 l S
11.434 23.758 m 11.434 19.285 l S
13.977 25.93 m 13.977 16.973 l S
16.52 28.219 m 16.52 14.797 l S
19.059 29.719 m 19.059 13.293 l S
21.602 30.699 m 21.602 12.312 l S
24.141 31.312 m 24.141 11.664 l S
26.684 31.742 m 26.684 11.172 l S
29.223 32.023 m 29.223 10.883 l S
31.766 32.23 m 31.766 10.68 l S
34.305 32.344 m 34.305 10.52 l S
36.848 32.395 m 36.848 10.496 l S
39.387 32.418 m 39.387 10.5 l S
41.93 32.445 m 41.93 10.438 l S
44.469 32.469 m 44.469 10.418 l S
47.012 32.418 m 47.012 10.461 l S
49.555 32.398 m 49.555 10.48 l S
52.094 32.363 m 52.094 10.52 l S
54.637 32.348 m 54.637 10.531 l S
57.176 32.359 m 57.176 10.504 l S
59.719 32.367 m 59.719 10.523 l S
62.258 32.422 m 62.258 10.477 l S
64.801 32.43 m 64.801 10.469 l S
67.34 32.453 m 67.34 10.445 l S
69.883 32.453 m 69.883 10.43 l S
72.422 32.473 m 72.422 10.41 l S
74.965 32.512 m 74.965 10.391 l S
77.508 32.492 m 77.508 10.387 l S
80.047 32.52 m 80.047 10.359 l S
82.59 32.547 m 82.59 10.352 l S
85.129 32.543 m 85.129 10.332 l S
87.672 32.594 m 87.672 10.293 l S
90.211 32.605 m 90.211 10.266 l S
92.754 32.645 m 92.754 10.258 l S
95.293 32.66 m 95.293 10.234 l S
97.836 32.742 m 97.836 10.152 l S
100.375 32.777 m 100.375 10.043 l S
102.918 32.828 m 102.918 10.059 l S
105.457 32.828 m 105.457 10.023 l S
108 32.805 m 108 10.043 l S
110.543 32.828 m 110.543 10.074 l S
113.082 32.777 m 113.082 10.082 l S
115.625 32.766 m 115.625 10.094 l S
118.164 32.828 m 118.164 10.129 l S
120.707 32.797 m 120.707 10.102 l S
123.246 32.766 m 123.246 10.086 l S
125.789 32.77 m 125.789 10.098 l S
128.328 32.793 m 128.328 10.027 l S
130.871 32.781 m 130.871 10.047 l S
133.41 32.824 m 133.41 10.09 l S
135.953 32.785 m 135.953 10.09 l S
138.492 32.742 m 138.492 10.148 l S
141.035 32.734 m 141.035 10.129 l S
143.578 32.75 m 143.578 10.109 l S
146.117 32.801 m 146.117 10.078 l S
148.66 32.777 m 148.66 10.031 l S
151.199 32.816 m 151.199 10.012 l S
153.742 32.898 m 153.742 9.988 l S
156.281 32.883 m 156.281 9.949 l S
158.824 32.91 m 158.824 9.961 l S
161.363 32.965 m 161.363 9.891 l S
163.906 32.973 m 163.906 9.895 l S
166.445 33.016 m 166.445 9.863 l S
168.988 32.98 m 168.988 9.848 l S
171.531 33 m 171.531 9.855 l S
174.07 33.004 m 174.07 9.844 l S
176.613 32.977 m 176.613 9.871 l S
179.152 32.941 m 179.152 9.871 l S
181.695 32.93 m 181.695 9.926 l S
184.234 32.957 m 184.234 9.898 l S
186.777 32.945 m 186.777 9.867 l S
189.316 32.891 m 189.316 9.941 l S
191.859 32.121 m 191.859 10.914 l S
194.398 29.836 m 194.398 13.172 l S
196.941 28.129 m 196.941 14.914 l S
199.48 26.637 m 199.48 16.457 l S
202.023 25.496 m 202.023 17.504 l S
204.566 24.5 m 204.566 18.465 l S
207.105 23.875 m 207.105 19.086 l S
209.648 23.406 m 209.648 19.57 l S
212.188 23 m 212.188 19.875 l S
214.73 22.672 m 214.73 20.27 l S
217.27 22.434 m 217.27 20.578 l S
219.812 22.207 m 219.812 20.785 l S
222.352 22.027 m 222.352 20.957 l S
224.895 21.879 m 224.895 21.109 l S
227.434 21.773 m 227.434 21.203 l S
229.977 21.703 m 229.977 21.285 l S
232.52 21.645 m 232.52 21.344 l S
235.059 21.59 m 235.059 21.395 l S
237.602 21.59 m 237.602 21.395 l S
240.141 21.59 m 240.141 21.395 l S
242.684 21.59 m 242.684 21.395 l S
245.223 21.59 m 245.223 21.395 l S
247.766 21.59 m 247.766 21.395 l S
250.305 21.59 m 250.305 21.395 l S
252.848 21.59 m 252.848 21.395 l S
255.387 21.59 m 255.387 21.395 l S
255.387 21.59 m 255.387 21.395 l S
3.812 64.789 m 3.812 64.594 l S
6.352 64.789 m 6.352 64.594 l S
8.895 65.426 m 8.895 63.961 l S
11.434 67.559 m 11.434 61.977 l S
13.977 69.762 m 13.977 59.395 l S
16.52 71.883 m 16.52 57.289 l S
19.059 73.508 m 19.059 56.012 l S
21.602 74.09 m 21.602 55.25 l S
24.141 74.504 m 24.141 54.93 l S
26.684 74.82 m 26.684 54.605 l S
29.223 74.938 m 29.223 54.316 l S
31.766 75.16 m 31.766 54.156 l S
34.305 75.281 m 34.305 54 l S
36.848 75.48 m 36.848 53.84 l S
39.387 75.496 m 39.387 53.793 l S
41.93 75.527 m 41.93 53.758 l S
44.469 75.566 m 44.469 53.77 l S
47.012 75.594 m 47.012 53.758 l S
49.555 75.566 m 49.555 53.785 l S
52.094 75.543 m 52.094 53.762 l S
54.637 75.672 m 54.637 53.762 l S
57.176 75.566 m 57.176 53.738 l S
59.719 75.566 m 59.719 53.719 l S
62.258 75.547 m 62.258 53.758 l S
64.801 75.684 m 64.801 53.73 l S
67.34 75.609 m 67.34 53.66 l S
69.883 75.703 m 69.883 53.691 l S
72.422 75.633 m 72.422 53.637 l S
74.965 75.664 m 74.965 53.625 l S
77.508 75.684 m 77.508 53.641 l S
80.047 75.766 m 80.047 53.598 l S
82.59 75.703 m 82.59 53.598 l S
85.129 75.688 m 85.129 53.574 l S
87.672 75.777 m 87.672 53.543 l S
90.211 75.801 m 90.211 53.582 l S
92.754 75.777 m 92.754 53.52 l S
95.293 75.812 m 95.293 53.531 l S
97.836 75.809 m 97.836 53.48 l S
100.375 75.879 m 100.375 53.422 l S
102.918 75.895 m 102.918 53.406 l S
105.457 75.922 m 105.457 53.367 l S
108 75.891 m 108 53.391 l S
110.543 75.953 m 110.543 53.352 l S
113.082 75.914 m 113.082 53.414 l S
115.625 75.879 m 115.625 53.332 l S
118.164 75.871 m 118.164 53.348 l S
120.707 75.859 m 120.707 53.398 l S
123.246 75.883 m 123.246 53.441 l S
125.789 75.922 m 125.789 53.418 l S
128.328 75.836 m 128.328 53.465 l S
130.871 75.887 m 130.871 53.426 l S
133.41 75.961 m 133.41 53.402 l S
135.953 76.016 m 135.953 53.34 l S
138.492 76.027 m 138.492 53.41 l S
141.035 75.891 m 141.035 53.52 l S
143.578 75.949 m 143.578 53.383 l S
146.117 75.988 m 146.117 53.418 l S
148.66 75.879 m 148.66 53.395 l S
151.199 75.805 m 151.199 53.379 l S
153.742 76.012 m 153.742 53.34 l S
156.281 76.336 m 156.281 53.281 l S
158.824 75.996 m 158.824 53.371 l S
161.363 75.949 m 161.363 53.395 l S
163.906 75.922 m 163.906 53.332 l S
166.445 75.949 m 166.445 53.375 l S
168.988 76.031 m 168.988 53.293 l S
171.531 75.996 m 171.531 53.285 l S
174.07 75.996 m 174.07 53.336 l S
176.613 76.059 m 176.613 53.266 l S
179.152 76.047 m 179.152 53.352 l S
181.695 76.074 m 181.695 53.156 l S
184.234 75.914 m 184.234 53.336 l S
186.777 75.961 m 186.777 53.359 l S
189.316 75.832 m 189.316 53.441 l S
191.859 75.113 m 191.859 53.98 l S
194.398 74 m 194.398 55.484 l S
196.941 72.34 m 196.941 56.969 l S
199.48 70.918 m 199.48 58.531 l S
202.023 69.645 m 202.023 59.641 l S
204.566 68.715 m 204.566 60.688 l S
207.105 67.996 m 207.105 61.461 l S
209.648 67.312 m 209.648 62.18 l S
212.188 66.82 m 212.188 62.746 l S
214.73 66.324 m 214.73 63.148 l S
217.27 65.941 m 217.27 63.441 l S
219.812 65.648 m 219.812 63.781 l S
222.352 65.34 m 222.352 64.02 l S
224.895 65.184 m 224.895 64.18 l S
227.434 65.086 m 227.434 64.324 l S
229.977 64.949 m 229.977 64.406 l S
232.52 64.871 m 232.52 64.504 l S
235.059 64.824 m 235.059 64.574 l S
237.602 64.789 m 237.602 64.594 l S
240.141 64.789 m 240.141 64.594 l S
242.684 64.789 m 242.684 64.594 l S
245.223 64.789 m 245.223 64.594 l S
247.766 64.789 m 247.766 64.594 l S
250.305 64.789 m 250.305 64.594 l S
252.848 64.789 m 252.848 64.594 l S
255.387 64.789 m 255.387 64.594 l S
255.387 64.789 m 255.387 64.594 l S
3.812 107.988 m 3.812 107.793 l S
6.352 107.988 m 6.352 107.793 l S
8.895 108.754 m 8.895 107.094 l S
11.434 110.801 m 11.434 105.16 l S
13.977 113.109 m 13.977 102.449 l S
16.52 115.531 m 16.52 100.07 l S
19.059 117.562 m 19.059 98.496 l S
21.602 118.379 m 21.602 97.523 l S
24.141 119.07 m 24.141 96.953 l S
26.684 119.426 m 26.684 96.605 l S
29.223 119.648 m 29.223 96.266 l S
31.766 119.91 m 31.766 96.027 l S
34.305 120.109 m 34.305 95.754 l S
36.848 120.352 m 36.848 95.539 l S
39.387 120.395 m 39.387 95.578 l S
41.93 120.422 m 41.93 95.52 l S
44.469 120.445 m 44.469 95.473 l S
47.012 120.461 m 47.012 95.543 l S
49.555 120.441 m 49.555 95.52 l S
52.094 120.43 m 52.094 95.504 l S
54.637 120.473 m 54.637 95.523 l S
57.176 120.465 m 57.176 95.527 l S
59.719 120.465 m 59.719 95.539 l S
62.258 120.438 m 62.258 95.547 l S
64.801 120.613 m 64.801 95.438 l S
67.34 120.602 m 67.34 95.359 l S
69.883 120.57 m 69.883 95.418 l S
72.422 120.586 m 72.422 95.359 l S
74.965 120.598 m 74.965 95.395 l S
77.508 120.605 m 77.508 95.379 l S
80.047 120.66 m 80.047 95.324 l S
82.59 120.633 m 82.59 95.316 l S
85.129 120.676 m 85.129 95.305 l S
87.672 120.73 m 87.672 95.27 l S
90.211 120.75 m 90.211 95.285 l S
92.754 120.75 m 92.754 95.18 l S
95.293 120.832 m 95.293 95.219 l S
97.836 120.832 m 97.836 95.172 l S
100.375 120.93 m 100.375 95.09 l S
102.918 120.988 m 102.918 95.074 l S
105.457 120.969 m 105.457 94.988 l S
108 121.008 m 108 94.957 l S
110.543 121.051 m 110.543 94.926 l S
113.082 120.969 m 113.082 95.051 l S
115.625 120.977 m 115.625 95.012 l S
118.164 120.977 m 118.164 95.059 l S
120.707 120.988 m 120.707 95.137 l S
123.246 120.938 m 123.246 95.09 l S
125.789 120.957 m 125.789 95.086 l S
128.328 121.031 m 128.328 94.98 l S
130.871 121.055 m 130.871 95.07 l S
133.41 120.973 m 133.41 94.988 l S
135.953 121.016 m 135.953 95.074 l S
138.492 121.023 m 138.492 95.07 l S
141.035 120.902 m 141.035 95.066 l S
143.578 120.984 m 143.578 95.027 l S
146.117 121.07 m 146.117 95 l S
148.66 121.098 m 148.66 95.02 l S
151.199 120.992 m 151.199 95.043 l S
153.742 121.137 m 153.742 94.918 l S
156.281 121.281 m 156.281 94.934 l S
158.824 121.176 m 158.824 94.895 l S
161.363 121.215 m 161.363 94.961 l S
163.906 121.117 m 163.906 94.918 l S
166.445 121.133 m 166.445 94.914 l S
168.988 121.176 m 168.988 94.895 l S
171.531 121.168 m 171.531 94.859 l S
174.07 121.188 m 174.07 94.855 l S
176.613 121.227 m 176.613 94.895 l S
179.152 121.23 m 179.152 94.863 l S
181.695 121.281 m 181.695 94.75 l S
184.234 121.129 m 184.234 94.945 l S
186.777 121.203 m 186.777 94.91 l S
189.316 121.078 m 189.316 95.004 l S
191.859 119.996 m 191.859 95.738 l S
194.398 118.348 m 194.398 97.664 l S
196.941 116.246 m 196.941 99.777 l S
199.48 114.348 m 199.48 101.395 l S
202.023 112.785 m 202.023 102.906 l S
204.566 111.602 m 204.566 103.973 l S
207.105 110.918 m 207.105 104.785 l S
209.648 110.258 m 209.648 105.523 l S
212.188 109.91 m 212.188 106.066 l S
214.73 109.336 m 214.73 106.438 l S
217.27 109.027 m 217.27 106.809 l S
219.812 108.742 m 219.812 107.062 l S
222.352 108.547 m 222.352 107.281 l S
224.895 108.352 m 224.895 107.418 l S
227.434 108.262 m 227.434 107.543 l S
229.977 108.137 m 229.977 107.613 l S
232.52 108.078 m 232.52 107.711 l S
235.059 108.016 m 235.059 107.777 l S
237.602 107.988 m 237.602 107.793 l S
240.141 107.988 m 240.141 107.793 l S
242.684 107.988 m 242.684 107.793 l S
245.223 107.988 m 245.223 107.793 l S
247.766 107.988 m 247.766 107.793 l S
250.305 107.988 m 250.305 107.793 l S
252.848 107.988 m 252.848 107.793 l S
255.387 107.988 m 255.387 107.793 l S
255.387 107.988 m 255.387 107.793 l S
3.812 151.191 m 3.812 150.992 l S
6.352 151.191 m 6.352 150.992 l S
8.895 152.574 m 8.895 149.668 l S
11.434 156.516 m 11.434 145.848 l S
13.977 160.371 m 13.977 141.398 l S
16.52 163.816 m 16.52 138.133 l S
19.059 166.375 m 19.059 135.961 l S
21.602 167.43 m 21.602 134.805 l S
24.141 168.281 m 24.141 133.988 l S
26.684 168.77 m 26.684 133.422 l S
29.223 169.125 m 29.223 132.957 l S
31.766 169.445 m 31.766 132.691 l S
34.305 169.555 m 34.305 132.48 l S
36.848 169.695 m 36.848 132.461 l S
39.387 169.645 m 39.387 132.477 l S
41.93 169.672 m 41.93 132.43 l S
44.469 169.668 m 44.469 132.426 l S
47.012 169.688 m 47.012 132.535 l S
49.555 169.617 m 49.555 132.512 l S
52.094 169.578 m 52.094 132.516 l S
54.637 169.801 m 54.637 132.504 l S
57.176 169.715 m 57.176 132.477 l S
59.719 169.676 m 59.719 132.504 l S
62.258 169.68 m 62.258 132.504 l S
64.801 169.832 m 64.801 132.383 l S
67.34 169.766 m 67.34 132.391 l S
69.883 169.867 m 69.883 132.457 l S
72.422 169.809 m 72.422 132.391 l S
74.965 169.832 m 74.965 132.316 l S
77.508 169.891 m 77.508 132.332 l S
80.047 169.973 m 80.047 132.305 l S
82.59 169.867 m 82.59 132.262 l S
85.129 169.914 m 85.129 132.211 l S
87.672 169.961 m 87.672 132.168 l S
90.211 170.008 m 90.211 132.266 l S
92.754 170.09 m 92.754 132.223 l S
95.293 170.086 m 95.293 132.203 l S
97.836 170.07 m 97.836 132.133 l S
100.375 170.176 m 100.375 132.051 l S
102.918 170.23 m 102.918 131.934 l S
105.457 170.316 m 105.457 131.91 l S
108 170.246 m 108 131.977 l S
110.543 170.215 m 110.543 131.918 l S
113.082 170.156 m 113.082 132.039 l S
115.625 170.168 m 115.625 131.902 l S
118.164 170.133 m 118.164 131.793 l S
120.707 170.188 m 120.707 131.988 l S
123.246 170.172 m 123.246 131.992 l S
125.789 170.102 m 125.789 131.949 l S
128.328 170.387 m 128.328 131.977 l S
130.871 170.297 m 130.871 131.945 l S
133.41 170.227 m 133.41 131.902 l S
135.953 170.309 m 135.953 131.871 l S
138.492 170.332 m 138.492 131.973 l S
141.035 170.137 m 141.035 132.137 l S
143.578 170.27 m 143.578 132.004 l S
146.117 170.449 m 146.117 131.801 l S
148.66 170.281 m 148.66 132.027 l S
151.199 170.266 m 151.199 131.945 l S
153.742 170.406 m 153.742 131.707 l S
156.281 170.836 m 156.281 131.887 l S
158.824 170.391 m 158.824 131.816 l S
161.363 170.348 m 161.363 131.867 l S
163.906 170.406 m 163.906 131.832 l S
166.445 170.398 m 166.445 131.82 l S
168.988 170.465 m 168.988 131.789 l S
171.531 170.438 m 171.531 131.707 l S
174.07 170.383 m 174.07 131.738 l S
176.613 170.426 m 176.613 131.668 l S
179.152 170.508 m 179.152 131.785 l S
181.695 170.57 m 181.695 131.562 l S
184.234 170.301 m 184.234 131.848 l S
186.777 170.426 m 186.777 131.852 l S
189.316 170.156 m 189.316 131.973 l S
191.859 169.141 m 191.859 132.785 l S
194.398 166.344 m 194.398 135.98 l S
196.941 164.391 m 196.941 137.863 l S
199.48 162.023 m 199.48 140.105 l S
202.023 160.594 m 202.023 141.953 l S
204.566 158.828 m 204.566 143.457 l S
207.105 157.434 m 207.105 144.852 l S
209.648 156.324 m 209.648 146.09 l S
212.188 155.461 m 212.188 146.98 l S
214.73 154.406 m 214.73 147.766 l S
217.27 153.75 m 217.27 148.438 l S
219.812 153.176 m 219.812 149.191 l S
222.352 152.527 m 222.352 149.602 l S
224.895 152.172 m 224.895 150.012 l S
227.434 151.918 m 227.434 150.336 l S
229.977 151.672 m 229.977 150.52 l S
232.52 151.477 m 232.52 150.672 l S
235.059 151.367 m 235.059 150.84 l S
237.602 151.27 m 237.602 150.895 l S
240.141 151.207 m 240.141 150.949 l S
242.684 151.191 m 242.684 150.992 l S
245.223 151.191 m 245.223 150.992 l S
247.766 151.191 m 247.766 150.992 l S
250.305 151.191 m 250.305 150.992 l S
252.848 151.191 m 252.848 150.992 l S
255.387 151.191 m 255.387 150.992 l S
255.387 151.191 m 255.387 150.992 l S
Q Q
showpage
%%Trailer
end
%%EOF
