%!PS-Adobe-3.0 EPSF-3.0
%%Creator: cairo 1.16.0 (https://cairographics.org)
%%CreationDate: Wed May 15 11:57:20 2024
%%Pages: 1
%%DocumentData: Clean7Bit
%%LanguageLevel: 2
%%Creator: Wolfram Mathematica
%%BoundingBox: 2 9 257 164
%%EndComments
%%BeginProlog
50 dict begin
/q { gsave } bind def
/Q { grestore } bind def
/cm { 6 array astore concat } bind def
/w { setlinewidth } bind def
/J { setlinecap } bind def
/j { setlinejoin } bind def
/M { setmiterlimit } bind def
/d { setdash } bind def
/m { moveto } bind def
/l { lineto } bind def
/c { curveto } bind def
/h { closepath } bind def
/re { exch dup neg 3 1 roll 5 3 roll moveto 0 rlineto
      0 exch rlineto 0 rlineto closepath } bind def
/S { stroke } bind def
/f { fill } bind def
/f* { eofill } bind def
/n { newpath } bind def
/W { clip } bind def
/W* { eoclip } bind def
/BT { } bind def
/ET { } bind def
/BDC { mark 3 1 roll /BDC pdfmark } bind def
/EMC { mark /EMC pdfmark } bind def
/cairo_store_point { /cairo_point_y exch def /cairo_point_x exch def } def
/Tj { show currentpoint cairo_store_point } bind def
/TJ {
  {
    dup
    type /stringtype eq
    { show } { -0.001 mul 0 cairo_font_matrix dtransform rmoveto } ifelse
  } forall
  currentpoint cairo_store_point
} bind def
/cairo_selectfont { cairo_font_matrix aload pop pop pop 0 0 6 array astore
    cairo_font exch selectfont cairo_point_x cairo_point_y moveto } bind def
/Tf { pop /cairo_font exch def /cairo_font_matrix where
      { pop cairo_selectfont } if } bind def
/Td { matrix translate cairo_font_matrix matrix concatmatrix dup
      /cairo_font_matrix exch def dup 4 get exch 5 get cairo_store_point
      /cairo_font where { pop cairo_selectfont } if } bind def
/Tm { 2 copy 8 2 roll 6 array astore /cairo_font_matrix exch def
      cairo_store_point /cairo_font where { pop cairo_selectfont } if } bind def
/g { setgray } bind def
/rg { setrgbcolor } bind def
/d1 { setcachedevice } bind def
/cairo_data_source {
  CairoDataIndex CairoData length lt
    { CairoData CairoDataIndex get /CairoDataIndex CairoDataIndex 1 add def }
    { () } ifelse
} def
/cairo_flush_ascii85_file { cairo_ascii85_file status { cairo_ascii85_file flushfile } if } def
/cairo_image { image cairo_flush_ascii85_file } def
/cairo_imagemask { imagemask cairo_flush_ascii85_file } def
%%EndProlog
%%BeginSetup
%%EndSetup
%%Page: 1 1
%%BeginPageSetup
%%PageBoundingBox: 2 9 257 164
%%EndPageSetup
q 2 9 255 155 rectclip
1 0 0 -1 0 173 cm q
0 g
1.796436 w
0 J
0 j
[] 0.0 d
3.25 M 3.812 21.527 m 3.812 21.332 l S
6.352 24.621 m 6.352 18.051 l S
8.895 30.402 m 8.895 12.332 l S
11.434 31.984 m 11.434 11.008 l S
13.977 33.062 m 13.977 10.195 l S
16.52 33.652 m 16.52 9.609 l S
19.059 33.902 m 19.059 9.406 l S
21.602 34.047 m 21.602 9.289 l S
24.141 34.031 m 24.141 9.262 l S
26.684 34.004 m 26.684 9.254 l S
29.223 34.027 m 29.223 9.242 l S
31.766 34.012 m 31.766 9.227 l S
34.305 34.027 m 34.305 9.219 l S
36.848 34.039 m 36.848 9.207 l S
39.387 34.047 m 39.387 9.199 l S
41.93 34.043 m 41.93 9.195 l S
44.469 34.043 m 44.469 9.188 l S
47.012 34.035 m 47.012 9.207 l S
49.555 34.047 m 49.555 9.195 l S
52.094 34.039 m 52.094 9.203 l S
54.637 34.047 m 54.637 9.195 l S
57.176 34.043 m 57.176 9.211 l S
59.719 34.031 m 59.719 9.223 l S
62.258 34.059 m 62.258 9.227 l S
64.801 34.062 m 64.801 9.215 l S
67.34 34.078 m 67.34 9.203 l S
69.883 34.09 m 69.883 9.191 l S
72.422 34.102 m 72.422 9.16 l S
74.965 34.102 m 74.965 9.145 l S
77.508 34.121 m 77.508 9.113 l S
80.047 34.109 m 80.047 9.102 l S
82.59 34.113 m 82.59 9.109 l S
85.129 34.105 m 85.129 9.121 l S
87.672 34.105 m 87.672 9.133 l S
90.211 34.109 m 90.211 9.137 l S
92.754 34.113 m 92.754 9.137 l S
95.293 34.137 m 95.293 9.137 l S
97.836 34.129 m 97.836 9.121 l S
100.375 34.137 m 100.375 9.117 l S
102.918 34.137 m 102.918 9.125 l S
105.457 34.133 m 105.457 9.125 l S
108 34.145 m 108 9.109 l S
110.543 34.148 m 110.543 9.086 l S
113.082 34.152 m 113.082 9.09 l S
115.625 34.172 m 115.625 9.086 l S
118.164 34.16 m 118.164 9.074 l S
120.707 34.141 m 120.707 9.086 l S
123.246 34.156 m 123.246 9.109 l S
125.789 34.16 m 125.789 9.105 l S
128.328 34.164 m 128.328 9.105 l S
130.871 34.18 m 130.871 9.102 l S
133.41 34.172 m 133.41 9.098 l S
135.953 34.176 m 135.953 9.109 l S
138.492 34.176 m 138.492 9.109 l S
141.035 34.188 m 141.035 9.098 l S
143.578 34.191 m 143.578 9.113 l S
146.117 34.195 m 146.117 9.109 l S
148.66 34.195 m 148.66 9.109 l S
151.199 34.191 m 151.199 9.105 l S
153.742 34.195 m 153.742 9.086 l S
156.281 34.207 m 156.281 9.098 l S
158.824 34.199 m 158.824 9.094 l S
161.363 34.211 m 161.363 9.094 l S
163.906 34.219 m 163.906 9.078 l S
166.445 34.227 m 166.445 9.074 l S
168.988 34.219 m 168.988 9.07 l S
171.531 34.219 m 171.531 9.062 l S
174.07 34.215 m 174.07 9.07 l S
176.613 33.863 m 176.613 9.52 l S
179.152 30.887 m 179.152 11.824 l S
181.695 29.363 m 181.695 13.629 l S
184.234 28.051 m 184.234 14.988 l S
186.777 26.645 m 186.777 16.277 l S
189.316 25.633 m 189.316 17.305 l S
191.859 24.664 m 191.859 18.289 l S
194.398 23.832 m 194.398 19.062 l S
196.941 23.258 m 196.941 19.625 l S
199.48 22.773 m 199.48 20.117 l S
202.023 22.402 m 202.023 20.438 l S
204.566 22.133 m 204.566 20.73 l S
207.105 21.941 m 207.105 20.914 l S
209.648 21.785 m 209.648 21.07 l S
212.188 21.699 m 212.188 21.172 l S
214.73 21.625 m 214.73 21.242 l S
217.27 21.566 m 217.27 21.285 l S
219.812 21.535 m 219.812 21.324 l S
222.352 21.527 m 222.352 21.332 l S
224.895 21.527 m 224.895 21.332 l S
227.434 21.527 m 227.434 21.332 l S
229.977 21.527 m 229.977 21.332 l S
232.52 21.527 m 232.52 21.332 l S
235.059 21.527 m 235.059 21.332 l S
237.602 21.527 m 237.602 21.332 l S
240.141 21.527 m 240.141 21.332 l S
242.684 21.527 m 242.684 21.332 l S
245.223 21.527 m 245.223 21.332 l S
247.766 21.527 m 247.766 21.332 l S
250.305 21.527 m 250.305 21.332 l S
252.848 21.527 m 252.848 21.332 l S
255.387 21.527 m 255.387 21.332 l S
255.387 21.527 m 255.387 21.332 l S
3.812 64.73 m 3.812 64.531 l S
6.352 66.852 m 6.352 62.203 l S
8.895 71.281 m 8.895 58.492 l S
11.434 72.176 m 11.434 57.539 l S
13.977 72.402 m 13.977 56.98 l S
16.52 72.559 m 16.52 56.938 l S
19.059 72.574 m 19.059 56.875 l S
21.602 72.641 m 21.602 56.824 l S
24.141 72.652 m 24.141 56.824 l S
26.684 72.664 m 26.684 56.781 l S
29.223 72.723 m 29.223 56.746 l S
31.766 72.723 m 31.766 56.746 l S
34.305 72.711 m 34.305 56.746 l S
36.848 72.738 m 36.848 56.727 l S
39.387 72.746 m 39.387 56.723 l S
41.93 72.758 m 41.93 56.723 l S
44.469 72.781 m 44.469 56.723 l S
47.012 72.785 m 47.012 56.734 l S
49.555 72.785 m 49.555 56.73 l S
52.094 72.77 m 52.094 56.738 l S
54.637 72.812 m 54.637 56.73 l S
57.176 72.785 m 57.176 56.723 l S
59.719 72.773 m 59.719 56.723 l S
62.258 72.781 m 62.258 56.754 l S
64.801 72.777 m 64.801 56.734 l S
67.34 72.812 m 67.34 56.727 l S
69.883 72.789 m 69.883 56.711 l S
72.422 72.82 m 72.422 56.734 l S
74.965 72.824 m 74.965 56.723 l S
77.508 72.863 m 77.508 56.707 l S
80.047 72.828 m 80.047 56.711 l S
82.59 72.832 m 82.59 56.723 l S
85.129 72.832 m 85.129 56.699 l S
87.672 72.832 m 87.672 56.727 l S
90.211 72.855 m 90.211 56.738 l S
92.754 72.82 m 92.754 56.723 l S
95.293 72.824 m 95.293 56.734 l S
97.836 72.844 m 97.836 56.707 l S
100.375 72.836 m 100.375 56.688 l S
102.918 72.844 m 102.918 56.715 l S
105.457 72.844 m 105.457 56.73 l S
108 72.848 m 108 56.715 l S
110.543 72.855 m 110.543 56.699 l S
113.082 72.863 m 113.082 56.703 l S
115.625 72.891 m 115.625 56.68 l S
118.164 72.852 m 118.164 56.684 l S
120.707 72.871 m 120.707 56.715 l S
123.246 72.848 m 123.246 56.715 l S
125.789 72.875 m 125.789 56.699 l S
128.328 72.871 m 128.328 56.711 l S
130.871 72.875 m 130.871 56.719 l S
133.41 72.875 m 133.41 56.703 l S
135.953 72.887 m 135.953 56.703 l S
138.492 72.871 m 138.492 56.699 l S
141.035 72.875 m 141.035 56.711 l S
143.578 72.875 m 143.578 56.688 l S
146.117 72.867 m 146.117 56.691 l S
148.66 72.863 m 148.66 56.707 l S
151.199 72.879 m 151.199 56.711 l S
153.742 72.883 m 153.742 56.695 l S
156.281 72.871 m 156.281 56.699 l S
158.824 72.898 m 158.824 56.684 l S
161.363 72.91 m 161.363 56.691 l S
163.906 72.883 m 163.906 56.68 l S
166.445 72.902 m 166.445 56.664 l S
168.988 72.922 m 168.988 56.629 l S
171.531 72.922 m 171.531 56.676 l S
174.07 72.891 m 174.07 56.699 l S
176.613 72.648 m 176.613 56.934 l S
179.152 71.715 m 179.152 57.801 l S
181.695 70.582 m 181.695 58.703 l S
184.234 69.586 m 184.234 59.855 l S
186.777 68.695 m 186.777 60.773 l S
189.316 67.852 m 189.316 61.414 l S
191.859 67.152 m 191.859 62.082 l S
194.398 66.531 m 194.398 62.762 l S
196.941 66.074 m 196.941 63.223 l S
199.48 65.699 m 199.48 63.535 l S
202.023 65.391 m 202.023 63.824 l S
204.566 65.211 m 204.566 64.016 l S
207.105 65.051 m 207.105 64.227 l S
209.648 64.914 m 209.648 64.328 l S
212.188 64.828 m 212.188 64.406 l S
214.73 64.793 m 214.73 64.477 l S
217.27 64.75 m 217.27 64.512 l S
219.812 64.73 m 219.812 64.531 l S
222.352 64.73 m 222.352 64.531 l S
224.895 64.73 m 224.895 64.531 l S
227.434 64.73 m 227.434 64.531 l S
229.977 64.73 m 229.977 64.531 l S
232.52 64.73 m 232.52 64.531 l S
235.059 64.73 m 235.059 64.531 l S
237.602 64.73 m 237.602 64.531 l S
240.141 64.73 m 240.141 64.531 l S
242.684 64.73 m 242.684 64.531 l S
245.223 64.73 m 245.223 64.531 l S
247.766 64.73 m 247.766 64.531 l S
250.305 64.73 m 250.305 64.531 l S
252.848 64.73 m 252.848 64.531 l S
255.387 64.73 m 255.387 64.531 l S
255.387 64.73 m 255.387 64.531 l S
3.812 107.93 m 3.812 107.73 l S
6.352 113.031 m 6.352 102.254 l S
8.895 120.801 m 8.895 94.926 l S
11.434 123.828 m 11.434 91.629 l S
13.977 125.59 m 13.977 90.273 l S
16.52 126.098 m 16.52 89.695 l S
19.059 126.691 m 19.059 89.188 l S
21.602 126.941 m 21.602 89 l S
24.141 127.027 m 24.141 88.93 l S
26.684 127.094 m 26.684 88.879 l S
29.223 127.121 m 29.223 88.805 l S
31.766 127.156 m 31.766 88.789 l S
34.305 127.164 m 34.305 88.75 l S
36.848 127.203 m 36.848 88.723 l S
39.387 127.23 m 39.387 88.676 l S
41.93 127.266 m 41.93 88.668 l S
44.469 127.293 m 44.469 88.664 l S
47.012 127.312 m 47.012 88.645 l S
49.555 127.332 m 49.555 88.637 l S
52.094 127.309 m 52.094 88.637 l S
54.637 127.402 m 54.637 88.633 l S
57.176 127.336 m 57.176 88.582 l S
59.719 127.297 m 59.719 88.648 l S
62.258 127.336 m 62.258 88.652 l S
64.801 127.355 m 64.801 88.629 l S
67.34 127.441 m 67.34 88.539 l S
69.883 127.398 m 69.883 88.574 l S
72.422 127.426 m 72.422 88.551 l S
74.965 127.43 m 74.965 88.551 l S
77.508 127.488 m 77.508 88.512 l S
80.047 127.5 m 80.047 88.477 l S
82.59 127.492 m 82.59 88.48 l S
85.129 127.465 m 85.129 88.508 l S
87.672 127.469 m 87.672 88.492 l S
90.211 127.461 m 90.211 88.527 l S
92.754 127.492 m 92.754 88.516 l S
95.293 127.461 m 95.293 88.512 l S
97.836 127.508 m 97.836 88.5 l S
100.375 127.52 m 100.375 88.496 l S
102.918 127.496 m 102.918 88.52 l S
105.457 127.5 m 105.457 88.484 l S
108 127.57 m 108 88.453 l S
110.543 127.551 m 110.543 88.473 l S
113.082 127.559 m 113.082 88.438 l S
115.625 127.578 m 115.625 88.422 l S
118.164 127.555 m 118.164 88.449 l S
120.707 127.543 m 120.707 88.477 l S
123.246 127.551 m 123.246 88.484 l S
125.789 127.539 m 125.789 88.461 l S
128.328 127.539 m 128.328 88.484 l S
130.871 127.543 m 130.871 88.438 l S
133.41 127.551 m 133.41 88.461 l S
135.953 127.566 m 135.953 88.453 l S
138.492 127.543 m 138.492 88.469 l S
141.035 127.555 m 141.035 88.457 l S
143.578 127.559 m 143.578 88.438 l S
146.117 127.539 m 146.117 88.453 l S
148.66 127.551 m 148.66 88.457 l S
151.199 127.543 m 151.199 88.465 l S
153.742 127.547 m 153.742 88.453 l S
156.281 127.582 m 156.281 88.441 l S
158.824 127.57 m 158.824 88.43 l S
161.363 127.605 m 161.363 88.422 l S
163.906 127.566 m 163.906 88.426 l S
166.445 127.609 m 166.445 88.414 l S
168.988 127.637 m 168.988 88.375 l S
171.531 127.637 m 171.531 88.363 l S
174.07 127.605 m 174.07 88.41 l S
176.613 127 m 176.613 89.102 l S
179.152 122.402 m 179.152 93.422 l S
181.695 119.426 m 181.695 96.387 l S
184.234 117.105 m 184.234 98.371 l S
186.777 115.484 m 186.777 100.055 l S
189.316 114.156 m 189.316 101.418 l S
191.859 112.926 m 191.859 102.668 l S
194.398 111.848 m 194.398 103.719 l S
196.941 110.988 m 196.941 104.656 l S
199.48 110.184 m 199.48 105.426 l S
202.023 109.539 m 202.023 106.055 l S
204.566 109.234 m 204.566 106.602 l S
207.105 108.801 m 207.105 106.855 l S
209.648 108.531 m 209.648 107.125 l S
212.188 108.328 m 212.188 107.312 l S
214.73 108.195 m 214.73 107.445 l S
217.27 108.102 m 217.27 107.574 l S
219.812 108.02 m 219.812 107.645 l S
222.352 107.992 m 222.352 107.684 l S
224.895 107.941 m 224.895 107.727 l S
227.434 107.93 m 227.434 107.73 l S
229.977 107.93 m 229.977 107.73 l S
232.52 107.93 m 232.52 107.73 l S
235.059 107.93 m 235.059 107.73 l S
237.602 107.93 m 237.602 107.73 l S
240.141 107.93 m 240.141 107.73 l S
242.684 107.93 m 242.684 107.73 l S
245.223 107.93 m 245.223 107.73 l S
247.766 107.93 m 247.766 107.73 l S
250.305 107.93 m 250.305 107.73 l S
252.848 107.93 m 252.848 107.73 l S
255.387 107.93 m 255.387 107.73 l S
255.387 107.93 m 255.387 107.73 l S
3.812 151.129 m 3.812 150.934 l S
6.352 153.754 m 6.352 147.348 l S
8.895 159.918 m 8.895 142.48 l S
11.434 161.531 m 11.434 141.195 l S
13.977 162.355 m 13.977 140.703 l S
16.52 162.453 m 16.52 140.234 l S
19.059 162.922 m 19.059 140.012 l S
21.602 162.973 m 21.602 140.004 l S
24.141 163.039 m 24.141 139.859 l S
26.684 163.043 m 26.684 139.875 l S
29.223 163.098 m 29.223 139.809 l S
31.766 163.102 m 31.766 139.855 l S
34.305 163.102 m 34.305 139.801 l S
36.848 163.129 m 36.848 139.809 l S
39.387 163.184 m 39.387 139.777 l S
41.93 163.152 m 41.93 139.762 l S
44.469 163.145 m 44.469 139.801 l S
47.012 163.133 m 47.012 139.82 l S
49.555 163.148 m 49.555 139.793 l S
52.094 163.113 m 52.094 139.777 l S
54.637 163.152 m 54.637 139.82 l S
57.176 163.137 m 57.176 139.816 l S
59.719 163.109 m 59.719 139.844 l S
62.258 163.098 m 62.258 139.855 l S
64.801 163.098 m 64.801 139.805 l S
67.34 163.102 m 67.34 139.824 l S
69.883 163.113 m 69.883 139.828 l S
72.422 163.164 m 72.422 139.793 l S
74.965 163.207 m 74.965 139.809 l S
77.508 163.25 m 77.508 139.727 l S
80.047 163.223 m 80.047 139.758 l S
82.59 163.207 m 82.59 139.742 l S
85.129 163.223 m 85.129 139.766 l S
87.672 163.211 m 87.672 139.781 l S
90.211 163.199 m 90.211 139.777 l S
92.754 163.215 m 92.754 139.773 l S
95.293 163.168 m 95.293 139.77 l S
97.836 163.199 m 97.836 139.801 l S
100.375 163.223 m 100.375 139.766 l S
102.918 163.211 m 102.918 139.75 l S
105.457 163.152 m 105.457 139.797 l S
108 163.184 m 108 139.766 l S
110.543 163.25 m 110.543 139.711 l S
113.082 163.246 m 113.082 139.738 l S
115.625 163.293 m 115.625 139.727 l S
118.164 163.266 m 118.164 139.742 l S
120.707 163.219 m 120.707 139.738 l S
123.246 163.223 m 123.246 139.762 l S
125.789 163.238 m 125.789 139.758 l S
128.328 163.23 m 128.328 139.785 l S
130.871 163.191 m 130.871 139.762 l S
133.41 163.238 m 133.41 139.758 l S
135.953 163.25 m 135.953 139.777 l S
138.492 163.199 m 138.492 139.77 l S
141.035 163.203 m 141.035 139.742 l S
143.578 163.203 m 143.578 139.777 l S
146.117 163.203 m 146.117 139.801 l S
148.66 163.215 m 148.66 139.758 l S
151.199 163.195 m 151.199 139.762 l S
153.742 163.207 m 153.742 139.754 l S
156.281 163.211 m 156.281 139.777 l S
158.824 163.234 m 158.824 139.73 l S
161.363 163.285 m 161.363 139.742 l S
163.906 163.242 m 163.906 139.734 l S
166.445 163.258 m 166.445 139.762 l S
168.988 163.293 m 168.988 139.699 l S
171.531 163.281 m 171.531 139.746 l S
174.07 163.227 m 174.07 139.746 l S
176.613 162.836 m 176.613 140.082 l S
179.152 160.738 m 179.152 141.852 l S
181.695 158.855 m 181.695 143.672 l S
184.234 157.328 m 184.234 144.719 l S
186.777 156.234 m 186.777 145.688 l S
189.316 155.285 m 189.316 146.812 l S
191.859 154.355 m 191.859 147.719 l S
194.398 153.582 m 194.398 148.59 l S
196.941 153.004 m 196.941 149.105 l S
199.48 152.449 m 199.48 149.492 l S
202.023 152.07 m 202.023 149.938 l S
204.566 151.832 m 204.566 150.293 l S
207.105 151.645 m 207.105 150.457 l S
209.648 151.418 m 209.648 150.598 l S
212.188 151.328 m 212.188 150.73 l S
214.73 151.234 m 214.73 150.789 l S
217.27 151.211 m 217.27 150.844 l S
219.812 151.156 m 219.812 150.91 l S
222.352 151.16 m 222.352 150.918 l S
224.895 151.129 m 224.895 150.934 l S
227.434 151.129 m 227.434 150.934 l S
229.977 151.129 m 229.977 150.934 l S
232.52 151.129 m 232.52 150.934 l S
235.059 151.129 m 235.059 150.934 l S
237.602 151.129 m 237.602 150.934 l S
240.141 151.129 m 240.141 150.934 l S
242.684 151.129 m 242.684 150.934 l S
245.223 151.129 m 245.223 150.934 l S
247.766 151.129 m 247.766 150.934 l S
250.305 151.129 m 250.305 150.934 l S
252.848 151.129 m 252.848 150.934 l S
255.387 151.129 m 255.387 150.934 l S
255.387 151.129 m 255.387 150.934 l S
Q Q
showpage
%%Trailer
end
%%EOF
