%!PS-Adobe-3.0 EPSF-3.0
%%Creator: cairo 1.16.0 (https://cairographics.org)
%%CreationDate: Wed May 15 11:57:20 2024
%%Pages: 1
%%DocumentData: Clean7Bit
%%LanguageLevel: 2
%%Creator: Wolfram Mathematica
%%BoundingBox: 2 2 257 165
%%EndComments
%%BeginProlog
50 dict begin
/q { gsave } bind def
/Q { grestore } bind def
/cm { 6 array astore concat } bind def
/w { setlinewidth } bind def
/J { setlinecap } bind def
/j { setlinejoin } bind def
/M { setmiterlimit } bind def
/d { setdash } bind def
/m { moveto } bind def
/l { lineto } bind def
/c { curveto } bind def
/h { closepath } bind def
/re { exch dup neg 3 1 roll 5 3 roll moveto 0 rlineto
      0 exch rlineto 0 rlineto closepath } bind def
/S { stroke } bind def
/f { fill } bind def
/f* { eofill } bind def
/n { newpath } bind def
/W { clip } bind def
/W* { eoclip } bind def
/BT { } bind def
/ET { } bind def
/BDC { mark 3 1 roll /BDC pdfmark } bind def
/EMC { mark /EMC pdfmark } bind def
/cairo_store_point { /cairo_point_y exch def /cairo_point_x exch def } def
/Tj { show currentpoint cairo_store_point } bind def
/TJ {
  {
    dup
    type /stringtype eq
    { show } { -0.001 mul 0 cairo_font_matrix dtransform rmoveto } ifelse
  } forall
  currentpoint cairo_store_point
} bind def
/cairo_selectfont { cairo_font_matrix aload pop pop pop 0 0 6 array astore
    cairo_font exch selectfont cairo_point_x cairo_point_y moveto } bind def
/Tf { pop /cairo_font exch def /cairo_font_matrix where
      { pop cairo_selectfont } if } bind def
/Td { matrix translate cairo_font_matrix matrix concatmatrix dup
      /cairo_font_matrix exch def dup 4 get exch 5 get cairo_store_point
      /cairo_font where { pop cairo_selectfont } if } bind def
/Tm { 2 copy 8 2 roll 6 array astore /cairo_font_matrix exch def
      cairo_store_point /cairo_font where { pop cairo_selectfont } if } bind def
/g { setgray } bind def
/rg { setrgbcolor } bind def
/d1 { setcachedevice } bind def
/cairo_data_source {
  CairoDataIndex CairoData length lt
    { CairoData CairoDataIndex get /CairoDataIndex CairoDataIndex 1 add def }
    { () } ifelse
} def
/cairo_flush_ascii85_file { cairo_ascii85_file status { cairo_ascii85_file flushfile } if } def
/cairo_image { image cairo_flush_ascii85_file } def
/cairo_imagemask { imagemask cairo_flush_ascii85_file } def
%%EndProlog
%%BeginSetup
%%EndSetup
%%Page: 1 1
%%BeginPageSetup
%%PageBoundingBox: 2 2 257 165
%%EndPageSetup
q 2 2 255 163 rectclip
1 0 0 -1 0 173 cm q
0 g
1.796436 w
0 J
0 j
[] 0.0 d
3.25 M 3.812 21.555 m 3.812 21.359 l S
6.352 21.617 m 6.352 21.297 l S
8.895 25.527 m 8.895 17.5 l S
11.434 29.535 m 11.434 13.234 l S
13.977 31.395 m 13.977 11.352 l S
16.52 32.469 m 16.52 10.508 l S
19.059 33.078 m 19.059 9.848 l S
21.602 33.504 m 21.602 9.32 l S
24.141 33.805 m 24.141 9.086 l S
26.684 33.992 m 26.684 8.906 l S
29.223 34.07 m 29.223 8.84 l S
31.766 34.078 m 31.766 8.824 l S
34.305 34.094 m 34.305 8.797 l S
36.848 34.121 m 36.848 8.781 l S
39.387 34.145 m 39.387 8.797 l S
41.93 34.141 m 41.93 8.809 l S
44.469 34.148 m 44.469 8.812 l S
47.012 34.145 m 47.012 8.805 l S
49.555 34.176 m 49.555 8.793 l S
52.094 34.188 m 52.094 8.766 l S
54.637 34.172 m 54.637 8.762 l S
57.176 34.195 m 57.176 8.727 l S
59.719 34.176 m 59.719 8.754 l S
62.258 34.211 m 62.258 8.727 l S
64.801 34.289 m 64.801 8.68 l S
67.34 34.258 m 67.34 8.703 l S
69.883 34.281 m 69.883 8.656 l S
72.422 34.273 m 72.422 8.66 l S
74.965 34.281 m 74.965 8.66 l S
77.508 34.32 m 77.508 8.609 l S
80.047 34.312 m 80.047 8.629 l S
82.59 34.285 m 82.59 8.66 l S
85.129 34.258 m 85.129 8.676 l S
87.672 34.207 m 87.672 8.715 l S
90.211 34.203 m 90.211 8.73 l S
92.754 34.199 m 92.754 8.738 l S
95.293 34.23 m 95.293 8.723 l S
97.836 34.188 m 97.836 8.703 l S
100.375 34.223 m 100.375 8.676 l S
102.918 34.254 m 102.918 8.676 l S
105.457 34.254 m 105.457 8.68 l S
108 34.32 m 108 8.641 l S
110.543 34.328 m 110.543 8.594 l S
113.082 34.363 m 113.082 8.602 l S
115.625 34.391 m 115.625 8.578 l S
118.164 34.41 m 118.164 8.551 l S
120.707 34.367 m 120.707 8.562 l S
123.246 34.371 m 123.246 8.578 l S
125.789 34.336 m 125.789 8.578 l S
128.328 34.402 m 128.328 8.57 l S
130.871 34.383 m 130.871 8.551 l S
133.41 34.41 m 133.41 8.547 l S
135.953 34.418 m 135.953 8.543 l S
138.492 34.395 m 138.492 8.543 l S
141.035 34.375 m 141.035 8.551 l S
143.578 34.402 m 143.578 8.559 l S
146.117 34.359 m 146.117 8.586 l S
148.66 34.367 m 148.66 8.582 l S
151.199 34.402 m 151.199 8.566 l S
153.742 34.426 m 153.742 8.523 l S
156.281 34.445 m 156.281 8.504 l S
158.824 34.469 m 158.824 8.453 l S
161.363 34.469 m 161.363 8.461 l S
163.906 34.48 m 163.906 8.457 l S
166.445 34.461 m 166.445 8.492 l S
168.988 34.461 m 168.988 8.504 l S
171.531 34.457 m 171.531 8.508 l S
174.07 34.457 m 174.07 8.461 l S
176.613 34.48 m 176.613 8.441 l S
179.152 34.543 m 179.152 8.461 l S
181.695 34.555 m 181.695 8.418 l S
184.234 34.586 m 184.234 8.379 l S
186.777 34.453 m 186.777 8.5 l S
189.316 32.395 m 189.316 10.625 l S
191.859 30.027 m 191.859 12.711 l S
194.398 28.16 m 194.398 14.641 l S
196.941 26.625 m 196.941 16.383 l S
199.48 25.633 m 199.48 17.312 l S
202.023 24.742 m 202.023 18.211 l S
204.566 24.211 m 204.566 18.707 l S
207.105 23.625 m 207.105 19.27 l S
209.648 23.16 m 209.648 19.75 l S
212.188 22.73 m 212.188 20.098 l S
214.73 22.434 m 214.73 20.371 l S
217.27 22.215 m 217.27 20.641 l S
219.812 22.043 m 219.812 20.84 l S
222.352 21.879 m 222.352 21.016 l S
224.895 21.754 m 224.895 21.176 l S
227.434 21.676 m 227.434 21.246 l S
229.977 21.629 m 229.977 21.289 l S
232.52 21.574 m 232.52 21.34 l S
235.059 21.574 m 235.059 21.336 l S
237.602 21.555 m 237.602 21.359 l S
240.141 21.555 m 240.141 21.359 l S
242.684 21.555 m 242.684 21.359 l S
245.223 21.555 m 245.223 21.359 l S
247.766 21.555 m 247.766 21.359 l S
250.305 21.555 m 250.305 21.359 l S
252.848 21.555 m 252.848 21.359 l S
255.387 21.555 m 255.387 21.359 l S
255.387 21.555 m 255.387 21.359 l S
3.812 64.754 m 3.812 64.559 l S
6.352 64.832 m 6.352 64.418 l S
8.895 69.422 m 8.895 59.961 l S
11.434 72.664 m 11.434 56.301 l S
13.977 74.328 m 13.977 54.883 l S
16.52 75 m 16.52 54.004 l S
19.059 75.516 m 19.059 53.57 l S
21.602 75.836 m 21.602 53.27 l S
24.141 76.043 m 24.141 53.062 l S
26.684 76.035 m 26.684 52.949 l S
29.223 76.125 m 29.223 52.879 l S
31.766 76.184 m 31.766 52.883 l S
34.305 76.238 m 34.305 52.785 l S
36.848 76.219 m 36.848 52.719 l S
39.387 76.242 m 39.387 52.777 l S
41.93 76.285 m 41.93 52.691 l S
44.469 76.281 m 44.469 52.715 l S
47.012 76.246 m 47.012 52.707 l S
49.555 76.301 m 49.555 52.73 l S
52.094 76.223 m 52.094 52.68 l S
54.637 76.406 m 54.637 52.68 l S
57.176 76.289 m 57.176 52.676 l S
59.719 76.281 m 59.719 52.664 l S
62.258 76.277 m 62.258 52.672 l S
64.801 76.375 m 64.801 52.562 l S
67.34 76.43 m 67.34 52.629 l S
69.883 76.371 m 69.883 52.648 l S
72.422 76.406 m 72.422 52.547 l S
74.965 76.465 m 74.965 52.586 l S
77.508 76.43 m 77.508 52.496 l S
80.047 76.434 m 80.047 52.598 l S
82.59 76.387 m 82.59 52.477 l S
85.129 76.352 m 85.129 52.652 l S
87.672 76.281 m 87.672 52.699 l S
90.211 76.297 m 90.211 52.734 l S
92.754 76.242 m 92.754 52.68 l S
95.293 76.312 m 95.293 52.734 l S
97.836 76.309 m 97.836 52.75 l S
100.375 76.387 m 100.375 52.703 l S
102.918 76.309 m 102.918 52.664 l S
105.457 76.398 m 105.457 52.656 l S
108 76.348 m 108 52.629 l S
110.543 76.359 m 110.543 52.621 l S
113.082 76.41 m 113.082 52.582 l S
115.625 76.434 m 115.625 52.586 l S
118.164 76.43 m 118.164 52.496 l S
120.707 76.555 m 120.707 52.57 l S
123.246 76.395 m 123.246 52.598 l S
125.789 76.406 m 125.789 52.582 l S
128.328 76.438 m 128.328 52.488 l S
130.871 76.465 m 130.871 52.535 l S
133.41 76.371 m 133.41 52.566 l S
135.953 76.504 m 135.953 52.559 l S
138.492 76.422 m 138.492 52.566 l S
141.035 76.473 m 141.035 52.512 l S
143.578 76.477 m 143.578 52.562 l S
146.117 76.352 m 146.117 52.59 l S
148.66 76.398 m 148.66 52.637 l S
151.199 76.414 m 151.199 52.484 l S
153.742 76.406 m 153.742 52.516 l S
156.281 76.457 m 156.281 52.512 l S
158.824 76.496 m 158.824 52.496 l S
161.363 76.473 m 161.363 52.441 l S
163.906 76.559 m 163.906 52.496 l S
166.445 76.48 m 166.445 52.465 l S
168.988 76.57 m 168.988 52.461 l S
171.531 76.52 m 171.531 52.477 l S
174.07 76.52 m 174.07 52.531 l S
176.613 76.547 m 176.613 52.473 l S
179.152 76.512 m 179.152 52.41 l S
181.695 76.551 m 181.695 52.461 l S
184.234 76.555 m 184.234 52.426 l S
186.777 76.406 m 186.777 52.445 l S
189.316 75.258 m 189.316 54.141 l S
191.859 73.527 m 191.859 55.977 l S
194.398 71.914 m 194.398 57.277 l S
196.941 70.844 m 196.941 58.586 l S
199.48 69.742 m 199.48 59.652 l S
202.023 68.711 m 202.023 60.609 l S
204.566 68.059 m 204.566 61.324 l S
207.105 67.41 m 207.105 61.836 l S
209.648 66.891 m 209.648 62.43 l S
212.188 66.414 m 212.188 62.918 l S
214.73 66.047 m 214.73 63.324 l S
217.27 65.707 m 217.27 63.633 l S
219.812 65.445 m 219.812 63.895 l S
222.352 65.227 m 222.352 64.094 l S
224.895 65.074 m 224.895 64.262 l S
227.434 64.938 m 227.434 64.367 l S
229.977 64.848 m 229.977 64.461 l S
232.52 64.824 m 232.52 64.492 l S
235.059 64.758 m 235.059 64.539 l S
237.602 64.754 m 237.602 64.559 l S
240.141 64.754 m 240.141 64.559 l S
242.684 64.754 m 242.684 64.559 l S
245.223 64.754 m 245.223 64.559 l S
247.766 64.754 m 247.766 64.559 l S
250.305 64.754 m 250.305 64.559 l S
252.848 64.754 m 252.848 64.559 l S
255.387 64.754 m 255.387 64.559 l S
255.387 64.754 m 255.387 64.559 l S
3.812 107.957 m 3.812 107.758 l S
6.352 108.113 m 6.352 107.629 l S
8.895 112.895 m 8.895 103.109 l S
11.434 116.879 m 11.434 98.531 l S
13.977 119.281 m 13.977 96.445 l S
16.52 120.379 m 16.52 95.203 l S
19.059 121.078 m 19.059 94.582 l S
21.602 121.371 m 21.602 94.238 l S
24.141 121.504 m 24.141 94.023 l S
26.684 121.805 m 26.684 93.723 l S
29.223 121.809 m 29.223 93.711 l S
31.766 121.883 m 31.766 93.664 l S
34.305 121.941 m 34.305 93.641 l S
36.848 121.973 m 36.848 93.566 l S
39.387 121.992 m 39.387 93.559 l S
41.93 121.996 m 41.93 93.523 l S
44.469 121.992 m 44.469 93.547 l S
47.012 121.945 m 47.012 93.586 l S
49.555 122.027 m 49.555 93.574 l S
52.094 121.992 m 52.094 93.531 l S
54.637 122.066 m 54.637 93.574 l S
57.176 122.008 m 57.176 93.566 l S
59.719 122.059 m 59.719 93.52 l S
62.258 122.051 m 62.258 93.492 l S
64.801 122.164 m 64.801 93.355 l S
67.34 122.148 m 67.34 93.418 l S
69.883 122.172 m 69.883 93.406 l S
72.422 122.223 m 72.422 93.398 l S
74.965 122.211 m 74.965 93.41 l S
77.508 122.234 m 77.508 93.312 l S
80.047 122.273 m 80.047 93.355 l S
82.59 122.145 m 82.59 93.375 l S
85.129 122.098 m 85.129 93.395 l S
87.672 122.113 m 87.672 93.438 l S
90.211 122.07 m 90.211 93.492 l S
92.754 122.055 m 92.754 93.441 l S
95.293 122.07 m 95.293 93.512 l S
97.836 122.102 m 97.836 93.371 l S
100.375 122.109 m 100.375 93.461 l S
102.918 122.125 m 102.918 93.406 l S
105.457 122.086 m 105.457 93.418 l S
108 122.145 m 108 93.379 l S
110.543 122.219 m 110.543 93.359 l S
113.082 122.211 m 113.082 93.336 l S
115.625 122.207 m 115.625 93.297 l S
118.164 122.277 m 118.164 93.246 l S
120.707 122.254 m 120.707 93.281 l S
123.246 122.219 m 123.246 93.336 l S
125.789 122.195 m 125.789 93.297 l S
128.328 122.258 m 128.328 93.262 l S
130.871 122.293 m 130.871 93.301 l S
133.41 122.277 m 133.41 93.242 l S
135.953 122.301 m 135.953 93.285 l S
138.492 122.309 m 138.492 93.285 l S
141.035 122.293 m 141.035 93.254 l S
143.578 122.238 m 143.578 93.285 l S
146.117 122.266 m 146.117 93.281 l S
148.66 122.23 m 148.66 93.316 l S
151.199 122.211 m 151.199 93.281 l S
153.742 122.277 m 153.742 93.23 l S
156.281 122.309 m 156.281 93.18 l S
158.824 122.379 m 158.824 93.188 l S
161.363 122.34 m 161.363 93.141 l S
163.906 122.422 m 163.906 93.137 l S
166.445 122.332 m 166.445 93.172 l S
168.988 122.387 m 168.988 93.195 l S
171.531 122.363 m 171.531 93.195 l S
174.07 122.34 m 174.07 93.18 l S
176.613 122.473 m 176.613 93.188 l S
179.152 122.336 m 179.152 93.105 l S
181.695 122.414 m 181.695 93.129 l S
184.234 122.551 m 184.234 93.094 l S
186.777 122.305 m 186.777 93.391 l S
189.316 120.16 m 189.316 95.785 l S
191.859 118.098 m 191.859 97.973 l S
194.398 116.027 m 194.398 99.59 l S
196.941 114.309 m 196.941 101.254 l S
199.48 113.125 m 199.48 102.727 l S
202.023 111.949 m 202.023 103.66 l S
204.566 111.215 m 204.566 104.598 l S
207.105 110.512 m 207.105 105.164 l S
209.648 110 m 209.648 105.754 l S
212.188 109.559 m 212.188 106.27 l S
214.73 109.184 m 214.73 106.582 l S
217.27 108.859 m 217.27 106.871 l S
219.812 108.598 m 219.812 107.094 l S
222.352 108.375 m 222.352 107.301 l S
224.895 108.254 m 224.895 107.457 l S
227.434 108.145 m 227.434 107.562 l S
229.977 108.09 m 229.977 107.645 l S
232.52 108.027 m 232.52 107.676 l S
235.059 108.012 m 235.059 107.707 l S
237.602 107.957 m 237.602 107.758 l S
240.141 107.957 m 240.141 107.758 l S
242.684 107.957 m 242.684 107.758 l S
245.223 107.957 m 245.223 107.758 l S
247.766 107.957 m 247.766 107.758 l S
250.305 107.957 m 250.305 107.758 l S
252.848 107.957 m 252.848 107.758 l S
255.387 107.957 m 255.387 107.758 l S
255.387 107.957 m 255.387 107.758 l S
3.812 151.156 m 3.812 150.961 l S
6.352 151.449 m 6.352 150.594 l S
8.895 159.738 m 8.895 142.625 l S
11.434 164.988 m 11.434 136.664 l S
13.977 167.348 m 13.977 134.961 l S
16.52 168.406 m 16.52 133.633 l S
19.059 169.477 m 19.059 132.883 l S
21.602 169.844 m 21.602 132.344 l S
24.141 170.066 m 24.141 132.133 l S
26.684 170.305 m 26.684 132.051 l S
29.223 170.246 m 29.223 131.977 l S
31.766 170.402 m 31.766 132.031 l S
34.305 170.348 m 34.305 132.035 l S
36.848 170.355 m 36.848 132.035 l S
39.387 170.395 m 39.387 131.984 l S
41.93 170.422 m 41.93 132.02 l S
44.469 170.363 m 44.469 132.047 l S
47.012 170.371 m 47.012 132.02 l S
49.555 170.477 m 49.555 131.949 l S
52.094 170.387 m 52.094 131.957 l S
54.637 170.438 m 54.637 131.996 l S
57.176 170.379 m 57.176 131.98 l S
59.719 170.469 m 59.719 131.941 l S
62.258 170.445 m 62.258 131.891 l S
64.801 170.66 m 64.801 131.828 l S
67.34 170.613 m 67.34 131.801 l S
69.883 170.582 m 69.883 131.82 l S
72.422 170.613 m 72.422 131.855 l S
74.965 170.574 m 74.965 131.859 l S
77.508 170.633 m 77.508 131.758 l S
80.047 170.594 m 80.047 131.812 l S
82.59 170.535 m 82.59 131.789 l S
85.129 170.559 m 85.129 131.93 l S
87.672 170.492 m 87.672 131.902 l S
90.211 170.461 m 90.211 131.902 l S
92.754 170.449 m 92.754 131.891 l S
95.293 170.52 m 95.293 131.863 l S
97.836 170.527 m 97.836 131.879 l S
100.375 170.543 m 100.375 131.859 l S
102.918 170.555 m 102.918 131.742 l S
105.457 170.586 m 105.457 131.801 l S
108 170.574 m 108 131.816 l S
110.543 170.566 m 110.543 131.805 l S
113.082 170.586 m 113.082 131.77 l S
115.625 170.645 m 115.625 131.676 l S
118.164 170.652 m 118.164 131.676 l S
120.707 170.594 m 120.707 131.766 l S
123.246 170.574 m 123.246 131.793 l S
125.789 170.574 m 125.789 131.812 l S
128.328 170.637 m 128.328 131.715 l S
130.871 170.633 m 130.871 131.73 l S
133.41 170.664 m 133.41 131.754 l S
135.953 170.633 m 135.953 131.73 l S
138.492 170.625 m 138.492 131.738 l S
141.035 170.676 m 141.035 131.742 l S
143.578 170.578 m 143.578 131.762 l S
146.117 170.637 m 146.117 131.734 l S
148.66 170.598 m 148.66 131.773 l S
151.199 170.668 m 151.199 131.684 l S
153.742 170.648 m 153.742 131.742 l S
156.281 170.582 m 156.281 131.609 l S
158.824 170.754 m 158.824 131.645 l S
161.363 170.676 m 161.363 131.637 l S
163.906 170.73 m 163.906 131.625 l S
166.445 170.699 m 166.445 131.633 l S
168.988 170.664 m 168.988 131.652 l S
171.531 170.738 m 171.531 131.617 l S
174.07 170.734 m 174.07 131.645 l S
176.613 170.82 m 176.613 131.602 l S
179.152 170.676 m 179.152 131.59 l S
181.695 170.836 m 181.695 131.566 l S
184.234 170.805 m 184.234 131.562 l S
186.777 170.637 m 186.777 131.684 l S
189.316 168.625 m 189.316 133.473 l S
191.859 165.965 m 191.859 136.223 l S
194.398 163.422 m 194.398 138.496 l S
196.941 161.098 m 196.941 141.195 l S
199.48 159.863 m 199.48 142.629 l S
202.023 158.375 m 202.023 143.562 l S
204.566 157.254 m 204.566 145.008 l S
207.105 156.176 m 207.105 145.992 l S
209.648 155.301 m 209.648 146.914 l S
212.188 154.488 m 212.188 147.875 l S
214.73 153.734 m 214.73 148.543 l S
217.27 153.117 m 217.27 149.133 l S
219.812 152.625 m 219.812 149.551 l S
222.352 152.27 m 222.352 149.934 l S
224.895 151.91 m 224.895 150.223 l S
227.434 151.672 m 227.434 150.461 l S
229.977 151.453 m 229.977 150.66 l S
232.52 151.352 m 232.52 150.75 l S
235.059 151.266 m 235.059 150.848 l S
237.602 151.219 m 237.602 150.922 l S
240.141 151.156 m 240.141 150.961 l S
242.684 151.156 m 242.684 150.961 l S
245.223 151.156 m 245.223 150.961 l S
247.766 151.156 m 247.766 150.961 l S
250.305 151.156 m 250.305 150.961 l S
252.848 151.156 m 252.848 150.961 l S
255.387 151.156 m 255.387 150.961 l S
255.387 151.156 m 255.387 150.961 l S
Q Q
showpage
%%Trailer
end
%%EOF
