%!PS-Adobe-3.0 EPSF-3.0
%%Creator: cairo 1.16.0 (https://cairographics.org)
%%CreationDate: Wed May 15 11:57:21 2024
%%Pages: 1
%%DocumentData: Clean7Bit
%%LanguageLevel: 2
%%Creator: Wolfram Mathematica
%%BoundingBox: 2 2 257 167
%%EndComments
%%BeginProlog
50 dict begin
/q { gsave } bind def
/Q { grestore } bind def
/cm { 6 array astore concat } bind def
/w { setlinewidth } bind def
/J { setlinecap } bind def
/j { setlinejoin } bind def
/M { setmiterlimit } bind def
/d { setdash } bind def
/m { moveto } bind def
/l { lineto } bind def
/c { curveto } bind def
/h { closepath } bind def
/re { exch dup neg 3 1 roll 5 3 roll moveto 0 rlineto
      0 exch rlineto 0 rlineto closepath } bind def
/S { stroke } bind def
/f { fill } bind def
/f* { eofill } bind def
/n { newpath } bind def
/W { clip } bind def
/W* { eoclip } bind def
/BT { } bind def
/ET { } bind def
/BDC { mark 3 1 roll /BDC pdfmark } bind def
/EMC { mark /EMC pdfmark } bind def
/cairo_store_point { /cairo_point_y exch def /cairo_point_x exch def } def
/Tj { show currentpoint cairo_store_point } bind def
/TJ {
  {
    dup
    type /stringtype eq
    { show } { -0.001 mul 0 cairo_font_matrix dtransform rmoveto } ifelse
  } forall
  currentpoint cairo_store_point
} bind def
/cairo_selectfont { cairo_font_matrix aload pop pop pop 0 0 6 array astore
    cairo_font exch selectfont cairo_point_x cairo_point_y moveto } bind def
/Tf { pop /cairo_font exch def /cairo_font_matrix where
      { pop cairo_selectfont } if } bind def
/Td { matrix translate cairo_font_matrix matrix concatmatrix dup
      /cairo_font_matrix exch def dup 4 get exch 5 get cairo_store_point
      /cairo_font where { pop cairo_selectfont } if } bind def
/Tm { 2 copy 8 2 roll 6 array astore /cairo_font_matrix exch def
      cairo_store_point /cairo_font where { pop cairo_selectfont } if } bind def
/g { setgray } bind def
/rg { setrgbcolor } bind def
/d1 { setcachedevice } bind def
/cairo_data_source {
  CairoDataIndex CairoData length lt
    { CairoData CairoDataIndex get /CairoDataIndex CairoDataIndex 1 add def }
    { () } ifelse
} def
/cairo_flush_ascii85_file { cairo_ascii85_file status { cairo_ascii85_file flushfile } if } def
/cairo_image { image cairo_flush_ascii85_file } def
/cairo_imagemask { imagemask cairo_flush_ascii85_file } def
%%EndProlog
%%BeginSetup
%%EndSetup
%%Page: 1 1
%%BeginPageSetup
%%PageBoundingBox: 2 2 257 167
%%EndPageSetup
q 2 2 255 165 rectclip
1 0 0 -1 0 173 cm q
0 g
1.796436 w
0 J
0 j
[] 0.0 d
3.25 M 3.812 21.57 m 3.812 21.371 l S
6.352 25.695 m 6.352 17.238 l S
8.895 31.996 m 8.895 10.965 l S
11.434 34.328 m 11.434 8.355 l S
13.977 34.309 m 13.977 8.27 l S
16.52 34.055 m 16.52 8.539 l S
19.059 33.629 m 19.059 8.992 l S
21.602 32.934 m 21.602 9.711 l S
24.141 32.492 m 24.141 10.41 l S
26.684 32.059 m 26.684 11 l S
29.223 31.848 m 29.223 11.129 l S
31.766 31.582 m 31.766 11.445 l S
34.305 31.531 m 34.305 11.66 l S
36.848 31.457 m 36.848 11.762 l S
39.387 31.188 m 39.387 12.203 l S
41.93 30.922 m 41.93 12.52 l S
44.469 30.637 m 44.469 12.707 l S
47.012 30.652 m 47.012 12.656 l S
49.555 30.703 m 49.555 12.559 l S
52.094 30.773 m 52.094 12.434 l S
54.637 30.922 m 54.637 12.371 l S
57.176 30.965 m 57.176 12.293 l S
59.719 31.172 m 59.719 12.098 l S
62.258 31.465 m 62.258 11.84 l S
64.801 31.469 m 64.801 11.832 l S
67.34 31.496 m 67.34 11.664 l S
69.883 31.672 m 69.883 11.609 l S
72.422 32.109 m 72.422 11.102 l S
74.965 32.223 m 74.965 10.543 l S
77.508 32.832 m 77.508 10.129 l S
80.047 33.156 m 80.047 9.816 l S
82.59 33.227 m 82.59 9.762 l S
85.129 33.27 m 85.129 9.551 l S
87.672 33.836 m 87.672 9.07 l S
90.211 33.914 m 90.211 8.902 l S
92.754 33.941 m 92.754 9.023 l S
95.293 33.816 m 95.293 9.02 l S
97.836 33.895 m 97.836 9.051 l S
100.375 33.957 m 100.375 9.07 l S
102.918 34.074 m 102.918 9.027 l S
105.457 34.297 m 105.457 8.887 l S
108 34.332 m 108 8.805 l S
110.543 34.203 m 110.543 8.812 l S
113.082 34.375 m 113.082 8.703 l S
115.625 34.523 m 115.625 8.648 l S
118.164 34.234 m 118.164 8.645 l S
120.707 34.582 m 120.707 8.566 l S
123.246 34.367 m 123.246 8.883 l S
125.789 34.379 m 125.789 8.645 l S
128.328 34.449 m 128.328 8.598 l S
130.871 34.367 m 130.871 8.422 l S
133.41 34.742 m 133.41 7.895 l S
135.953 35.473 m 135.953 7.449 l S
138.492 35.52 m 138.492 7.344 l S
141.035 35.422 m 141.035 7.562 l S
143.578 35.422 m 143.578 7.359 l S
146.117 35.668 m 146.117 7.219 l S
148.66 35.59 m 148.66 7.273 l S
151.199 35.625 m 151.199 7.293 l S
153.742 35.719 m 153.742 7.051 l S
156.281 35.828 m 156.281 7.078 l S
158.824 35.816 m 158.824 7.094 l S
161.363 36.062 m 161.363 7.137 l S
163.906 35.906 m 163.906 6.957 l S
166.445 35.895 m 166.445 7.031 l S
168.988 35.773 m 168.988 7.086 l S
171.531 35.664 m 171.531 7.172 l S
174.07 35.566 m 174.07 7.156 l S
176.613 35.715 m 176.613 6.973 l S
179.152 35.754 m 179.152 7.223 l S
181.695 35.449 m 181.695 6.961 l S
184.234 35.746 m 184.234 7.188 l S
186.777 35.344 m 186.777 7.223 l S
189.316 34.707 m 189.316 7.613 l S
191.859 34.52 m 191.859 8.668 l S
194.398 33.918 m 194.398 9.328 l S
196.941 31.562 m 196.941 11.211 l S
199.48 29.234 m 199.48 13.883 l S
202.023 27.328 m 202.023 15.926 l S
204.566 25.625 m 204.566 17.242 l S
207.105 24.305 m 207.105 18.652 l S
209.648 23.543 m 209.648 19.316 l S
212.188 22.684 m 212.188 20.18 l S
214.73 22.336 m 214.73 20.652 l S
217.27 22.004 m 217.27 20.941 l S
219.812 21.836 m 219.812 21.113 l S
222.352 21.746 m 222.352 21.188 l S
224.895 21.625 m 224.895 21.293 l S
227.434 21.605 m 227.434 21.332 l S
229.977 21.57 m 229.977 21.371 l S
232.52 21.57 m 232.52 21.371 l S
235.059 21.57 m 235.059 21.371 l S
237.602 21.57 m 237.602 21.371 l S
240.141 21.57 m 240.141 21.371 l S
242.684 21.57 m 242.684 21.371 l S
245.223 21.57 m 245.223 21.371 l S
247.766 21.57 m 247.766 21.371 l S
250.305 21.57 m 250.305 21.371 l S
252.848 21.57 m 252.848 21.371 l S
255.387 21.57 m 255.387 21.371 l S
255.387 21.57 m 255.387 21.371 l S
3.812 64.77 m 3.812 64.574 l S
6.352 67.793 m 6.352 61.484 l S
8.895 72.418 m 8.895 56.836 l S
11.434 74.172 m 11.434 55.547 l S
13.977 74.18 m 13.977 55.59 l S
16.52 74.086 m 16.52 55.801 l S
19.059 73.914 m 19.059 55.941 l S
21.602 73.406 m 21.602 56.27 l S
24.141 72.848 m 24.141 56.691 l S
26.684 72.582 m 26.684 56.867 l S
29.223 72.336 m 29.223 57.094 l S
31.766 72.172 m 31.766 57.285 l S
34.305 72.062 m 34.305 57.32 l S
36.848 72.023 m 36.848 57.383 l S
39.387 71.883 m 39.387 57.691 l S
41.93 71.723 m 41.93 57.844 l S
44.469 71.52 m 44.469 58 l S
47.012 71.574 m 47.012 57.949 l S
49.555 71.75 m 49.555 57.848 l S
52.094 71.77 m 52.094 57.613 l S
54.637 72 m 54.637 57.582 l S
57.176 72.098 m 57.176 57.473 l S
59.719 72.266 m 59.719 57.156 l S
62.258 72.746 m 62.258 57.07 l S
64.801 72.73 m 64.801 56.781 l S
67.34 72.906 m 67.34 56.695 l S
69.883 73.043 m 69.883 56.125 l S
72.422 73.621 m 72.422 56.004 l S
74.965 74.316 m 74.965 55.48 l S
77.508 74.582 m 77.508 54.809 l S
80.047 75.207 m 80.047 54.387 l S
82.59 75.637 m 82.59 54.07 l S
85.129 75.691 m 85.129 53.695 l S
87.672 75.984 m 87.672 53.57 l S
90.211 76.152 m 90.211 53.578 l S
92.754 76.238 m 92.754 53.266 l S
95.293 76.242 m 95.293 53.191 l S
97.836 76.355 m 97.836 53.008 l S
100.375 76.441 m 100.375 52.848 l S
102.918 76.477 m 102.918 52.887 l S
105.457 76.438 m 105.457 52.832 l S
108 76.32 m 108 52.82 l S
110.543 76.363 m 110.543 52.781 l S
113.082 76.59 m 113.082 52.762 l S
115.625 76.543 m 115.625 52.629 l S
118.164 76.559 m 118.164 52.656 l S
120.707 76.641 m 120.707 52.555 l S
123.246 76.562 m 123.246 52.637 l S
125.789 76.617 m 125.789 52.703 l S
128.328 76.73 m 128.328 52.641 l S
130.871 76.883 m 130.871 52.477 l S
133.41 77.078 m 133.41 52.5 l S
135.953 77.258 m 135.953 52.207 l S
138.492 77.191 m 138.492 52.395 l S
141.035 77.195 m 141.035 52.441 l S
143.578 77.094 m 143.578 52.445 l S
146.117 77.184 m 146.117 52.496 l S
148.66 77.105 m 148.66 52.43 l S
151.199 77.09 m 151.199 52.48 l S
153.742 77.027 m 153.742 52.473 l S
156.281 76.992 m 156.281 52.434 l S
158.824 77.008 m 158.824 52.609 l S
161.363 76.867 m 161.363 52.555 l S
163.906 76.91 m 163.906 52.648 l S
166.445 76.902 m 166.445 52.473 l S
168.988 77.055 m 168.988 52.523 l S
171.531 76.953 m 171.531 52.613 l S
174.07 76.902 m 174.07 52.523 l S
176.613 77.008 m 176.613 52.48 l S
179.152 76.887 m 179.152 52.66 l S
181.695 76.836 m 181.695 53.113 l S
184.234 76.344 m 184.234 52.828 l S
186.777 76.566 m 186.777 53.129 l S
189.316 76.203 m 189.316 53.223 l S
191.859 75.758 m 191.859 53.551 l S
194.398 75.484 m 194.398 54.16 l S
196.941 73.906 m 196.941 55.984 l S
199.48 72.207 m 199.48 57.672 l S
202.023 70.012 m 202.023 58.98 l S
204.566 68.668 m 204.566 60.391 l S
207.105 67.668 m 207.105 61.855 l S
209.648 66.602 m 209.648 62.559 l S
212.188 66.035 m 212.188 63.285 l S
214.73 65.602 m 214.73 63.773 l S
217.27 65.258 m 217.27 64.105 l S
219.812 65.062 m 219.812 64.293 l S
222.352 65.016 m 222.352 64.402 l S
224.895 64.867 m 224.895 64.492 l S
227.434 64.805 m 227.434 64.539 l S
229.977 64.77 m 229.977 64.574 l S
232.52 64.77 m 232.52 64.574 l S
235.059 64.77 m 235.059 64.574 l S
237.602 64.77 m 237.602 64.574 l S
240.141 64.77 m 240.141 64.574 l S
242.684 64.77 m 242.684 64.574 l S
245.223 64.77 m 245.223 64.574 l S
247.766 64.77 m 247.766 64.574 l S
250.305 64.77 m 250.305 64.574 l S
252.848 64.77 m 252.848 64.574 l S
255.387 64.77 m 255.387 64.574 l S
255.387 64.77 m 255.387 64.574 l S
3.812 107.969 m 3.812 107.773 l S
6.352 114.613 m 6.352 101.281 l S
8.895 122.68 m 8.895 92.512 l S
11.434 126.543 m 11.434 89.09 l S
13.977 126.805 m 13.977 88.742 l S
16.52 126.699 m 16.52 88.863 l S
19.059 126 m 19.059 89.539 l S
21.602 124.98 m 21.602 90.605 l S
24.141 123.797 m 24.141 91.641 l S
26.684 123.168 m 26.684 92.289 l S
29.223 122.688 m 29.223 92.758 l S
31.766 122.246 m 31.766 93.113 l S
34.305 122.039 m 34.305 93.227 l S
36.848 121.852 m 36.848 93.438 l S
39.387 121.273 m 39.387 93.867 l S
41.93 120.93 m 41.93 94.352 l S
44.469 120.645 m 44.469 94.68 l S
47.012 120.691 m 47.012 94.734 l S
49.555 120.762 m 49.555 94.574 l S
52.094 120.906 m 52.094 94.355 l S
54.637 120.902 m 54.637 94.375 l S
57.176 121.203 m 57.176 94.113 l S
59.719 121.277 m 59.719 93.82 l S
62.258 121.535 m 62.258 93.75 l S
64.801 121.785 m 64.801 93.613 l S
67.34 121.676 m 67.34 93.641 l S
69.883 121.777 m 69.883 93.555 l S
72.422 122.227 m 72.422 93.578 l S
74.965 122.887 m 74.965 93.137 l S
77.508 123.336 m 77.508 92.625 l S
80.047 123.484 m 80.047 92.414 l S
82.59 123.805 m 82.59 92.281 l S
85.129 123.848 m 85.129 92.039 l S
87.672 124.156 m 87.672 91.984 l S
90.211 124.191 m 90.211 91.965 l S
92.754 124.535 m 92.754 91.844 l S
95.293 124.277 m 95.293 91.59 l S
97.836 124.422 m 97.836 91.711 l S
100.375 124.312 m 100.375 91.809 l S
102.918 124.082 m 102.918 91.992 l S
105.457 123.883 m 105.457 92.09 l S
108 123.836 m 108 92.199 l S
110.543 123.883 m 110.543 92.176 l S
113.082 123.855 m 113.082 92.125 l S
115.625 123.82 m 115.625 92.262 l S
118.164 123.801 m 118.164 92.18 l S
120.707 123.895 m 120.707 92.16 l S
123.246 123.977 m 123.246 92.051 l S
125.789 124.332 m 125.789 91.578 l S
128.328 125.105 m 128.328 91.211 l S
130.871 125.43 m 130.871 90.508 l S
133.41 126.039 m 133.41 89.914 l S
135.953 126.414 m 135.953 89.352 l S
138.492 126.52 m 138.492 89.273 l S
141.035 126.602 m 141.035 89.832 l S
143.578 126.512 m 143.578 89.445 l S
146.117 126.52 m 146.117 89.348 l S
148.66 126.484 m 148.66 89.59 l S
151.199 126.258 m 151.199 89.379 l S
153.742 126.316 m 153.742 89.219 l S
156.281 126.48 m 156.281 89.137 l S
158.824 126.566 m 158.824 89.152 l S
161.363 126.84 m 161.363 89.125 l S
163.906 126.75 m 163.906 89.168 l S
166.445 126.758 m 166.445 88.969 l S
168.988 127.148 m 168.988 88.848 l S
171.531 127.012 m 171.531 88.758 l S
174.07 127.215 m 174.07 88.578 l S
176.613 126.836 m 176.613 88.59 l S
179.152 127.508 m 179.152 88.414 l S
181.695 127.613 m 181.695 88.832 l S
184.234 126.719 m 184.234 88.633 l S
186.777 127.23 m 186.777 89.09 l S
189.316 126.324 m 189.316 89.418 l S
191.859 125.484 m 191.859 90.156 l S
194.398 124.828 m 194.398 91.344 l S
196.941 121.711 m 196.941 94.562 l S
199.48 118.277 m 199.48 97.293 l S
202.023 115.863 m 202.023 99.379 l S
204.566 113.891 m 204.566 101.859 l S
207.105 112.379 m 207.105 103.156 l S
209.648 110.879 m 209.648 104.734 l S
212.188 110.016 m 212.188 105.832 l S
214.73 109.164 m 214.73 106.527 l S
217.27 108.602 m 217.27 107.055 l S
219.812 108.43 m 219.812 107.344 l S
222.352 108.254 m 222.352 107.426 l S
224.895 108.121 m 224.895 107.621 l S
227.434 108.039 m 227.434 107.711 l S
229.977 107.992 m 229.977 107.766 l S
232.52 107.969 m 232.52 107.773 l S
235.059 107.969 m 235.059 107.773 l S
237.602 107.969 m 237.602 107.773 l S
240.141 107.969 m 240.141 107.773 l S
242.684 107.969 m 242.684 107.773 l S
245.223 107.969 m 245.223 107.773 l S
247.766 107.969 m 247.766 107.773 l S
250.305 107.969 m 250.305 107.773 l S
252.848 107.969 m 252.848 107.773 l S
255.387 107.969 m 255.387 107.773 l S
255.387 107.969 m 255.387 107.773 l S
3.812 151.168 m 3.812 150.973 l S
6.352 155.566 m 6.352 146.594 l S
8.895 161.574 m 8.895 140.492 l S
11.434 164.094 m 11.434 138.695 l S
13.977 164.277 m 13.977 138.625 l S
16.52 164.145 m 16.52 138.766 l S
19.059 163.715 m 19.059 139.191 l S
21.602 162.879 m 21.602 139.805 l S
24.141 161.918 m 24.141 140.371 l S
26.684 161.844 m 26.684 140.559 l S
29.223 161.379 m 29.223 140.895 l S
31.766 161.168 m 31.766 140.98 l S
34.305 160.988 m 34.305 141.184 l S
36.848 160.867 m 36.848 141.395 l S
39.387 160.652 m 39.387 141.613 l S
41.93 160.344 m 41.93 141.922 l S
44.469 160.227 m 44.469 142.105 l S
47.012 160.32 m 47.012 141.941 l S
49.555 160.363 m 49.555 141.762 l S
52.094 160.652 m 52.094 141.676 l S
54.637 160.992 m 54.637 141.406 l S
57.176 160.961 m 57.176 141.031 l S
59.719 161.805 m 59.719 140.945 l S
62.258 162.102 m 62.258 140.199 l S
64.801 162.406 m 64.801 139.926 l S
67.34 162.938 m 67.34 139.715 l S
69.883 163.035 m 69.883 138.918 l S
72.422 164.078 m 72.422 137.836 l S
74.965 165.117 m 74.965 137.105 l S
77.508 166.074 m 77.508 136.977 l S
80.047 166.988 m 80.047 135.789 l S
82.59 167.602 m 82.59 134.754 l S
85.129 168.359 m 85.129 134.41 l S
87.672 168.836 m 87.672 133.758 l S
90.211 169.18 m 90.211 133.273 l S
92.754 169.531 m 92.754 132.867 l S
95.293 169.539 m 95.293 132.902 l S
97.836 169.312 m 97.836 132.996 l S
100.375 169.258 m 100.375 133.059 l S
102.918 169.207 m 102.918 133.23 l S
105.457 169.203 m 105.457 133.34 l S
108 169.273 m 108 133.359 l S
110.543 169.035 m 110.543 133.395 l S
113.082 169.27 m 113.082 133.234 l S
115.625 169.316 m 115.625 133.141 l S
118.164 169.242 m 118.164 133.375 l S
120.707 169.449 m 120.707 133.191 l S
123.246 169.418 m 123.246 133.195 l S
125.789 169.492 m 125.789 133.137 l S
128.328 169.566 m 128.328 132.875 l S
130.871 169.988 m 130.871 132.434 l S
133.41 170.332 m 133.41 131.664 l S
135.953 170.48 m 135.953 131.664 l S
138.492 170.836 m 138.492 131.562 l S
141.035 170.527 m 141.035 131.863 l S
143.578 170.574 m 143.578 131.977 l S
146.117 170.461 m 146.117 131.91 l S
148.66 170.43 m 148.66 132.105 l S
151.199 170.57 m 151.199 132.117 l S
153.742 170.523 m 153.742 132.297 l S
156.281 170.504 m 156.281 132.25 l S
158.824 170.52 m 158.824 132.207 l S
161.363 170.23 m 161.363 132.453 l S
163.906 169.961 m 163.906 132.422 l S
166.445 169.914 m 166.445 132.574 l S
168.988 169.77 m 168.988 132.867 l S
171.531 169.559 m 171.531 133.039 l S
174.07 169.621 m 174.07 133.094 l S
176.613 169.586 m 176.613 133.07 l S
179.152 169.285 m 179.152 133.156 l S
181.695 169.414 m 181.695 133.348 l S
184.234 169.281 m 184.234 133.867 l S
186.777 168.16 m 186.777 133.855 l S
189.316 168.812 m 189.316 134.344 l S
191.859 168.02 m 191.859 134.668 l S
194.398 166.52 m 194.398 135.02 l S
196.941 164.465 m 196.941 137.707 l S
199.48 161.219 m 199.48 139.816 l S
202.023 159.605 m 202.023 142.273 l S
204.566 157.625 m 204.566 144.664 l S
207.105 155.949 m 207.105 145.902 l S
209.648 154.555 m 209.648 147.68 l S
212.188 153.656 m 212.188 148.605 l S
214.73 152.66 m 214.73 149.359 l S
217.27 152.172 m 217.27 149.957 l S
219.812 151.844 m 219.812 150.316 l S
222.352 151.656 m 222.352 150.461 l S
224.895 151.441 m 224.895 150.719 l S
227.434 151.344 m 227.434 150.777 l S
229.977 151.273 m 229.977 150.91 l S
232.52 151.203 m 232.52 150.945 l S
235.059 151.168 m 235.059 150.973 l S
237.602 151.168 m 237.602 150.973 l S
240.141 151.168 m 240.141 150.973 l S
242.684 151.168 m 242.684 150.973 l S
245.223 151.168 m 245.223 150.973 l S
247.766 151.168 m 247.766 150.973 l S
250.305 151.168 m 250.305 150.973 l S
252.848 151.168 m 252.848 150.973 l S
255.387 151.168 m 255.387 150.973 l S
255.387 151.168 m 255.387 150.973 l S
Q Q
showpage
%%Trailer
end
%%EOF
