%!PS-Adobe-3.0 EPSF-3.0
%%Creator: cairo 1.16.0 (https://cairographics.org)
%%CreationDate: Wed May 15 11:57:21 2024
%%Pages: 1
%%DocumentData: Clean7Bit
%%LanguageLevel: 2
%%Creator: Wolfram Mathematica
%%BoundingBox: 2 3 257 166
%%EndComments
%%BeginProlog
50 dict begin
/q { gsave } bind def
/Q { grestore } bind def
/cm { 6 array astore concat } bind def
/w { setlinewidth } bind def
/J { setlinecap } bind def
/j { setlinejoin } bind def
/M { setmiterlimit } bind def
/d { setdash } bind def
/m { moveto } bind def
/l { lineto } bind def
/c { curveto } bind def
/h { closepath } bind def
/re { exch dup neg 3 1 roll 5 3 roll moveto 0 rlineto
      0 exch rlineto 0 rlineto closepath } bind def
/S { stroke } bind def
/f { fill } bind def
/f* { eofill } bind def
/n { newpath } bind def
/W { clip } bind def
/W* { eoclip } bind def
/BT { } bind def
/ET { } bind def
/BDC { mark 3 1 roll /BDC pdfmark } bind def
/EMC { mark /EMC pdfmark } bind def
/cairo_store_point { /cairo_point_y exch def /cairo_point_x exch def } def
/Tj { show currentpoint cairo_store_point } bind def
/TJ {
  {
    dup
    type /stringtype eq
    { show } { -0.001 mul 0 cairo_font_matrix dtransform rmoveto } ifelse
  } forall
  currentpoint cairo_store_point
} bind def
/cairo_selectfont { cairo_font_matrix aload pop pop pop 0 0 6 array astore
    cairo_font exch selectfont cairo_point_x cairo_point_y moveto } bind def
/Tf { pop /cairo_font exch def /cairo_font_matrix where
      { pop cairo_selectfont } if } bind def
/Td { matrix translate cairo_font_matrix matrix concatmatrix dup
      /cairo_font_matrix exch def dup 4 get exch 5 get cairo_store_point
      /cairo_font where { pop cairo_selectfont } if } bind def
/Tm { 2 copy 8 2 roll 6 array astore /cairo_font_matrix exch def
      cairo_store_point /cairo_font where { pop cairo_selectfont } if } bind def
/g { setgray } bind def
/rg { setrgbcolor } bind def
/d1 { setcachedevice } bind def
/cairo_data_source {
  CairoDataIndex CairoData length lt
    { CairoData CairoDataIndex get /CairoDataIndex CairoDataIndex 1 add def }
    { () } ifelse
} def
/cairo_flush_ascii85_file { cairo_ascii85_file status { cairo_ascii85_file flushfile } if } def
/cairo_image { image cairo_flush_ascii85_file } def
/cairo_imagemask { imagemask cairo_flush_ascii85_file } def
%%EndProlog
%%BeginSetup
%%EndSetup
%%Page: 1 1
%%BeginPageSetup
%%PageBoundingBox: 2 3 257 166
%%EndPageSetup
q 2 3 255 163 rectclip
1 0 0 -1 0 173 cm q
0 g
1.796436 w
0 J
0 j
[] 0.0 d
3.25 M 3.812 21.754 m 3.812 21.559 l S
6.352 21.832 m 6.352 21.5 l S
8.895 23.402 m 8.895 19.965 l S
11.434 26.332 m 11.434 17.246 l S
13.977 28.637 m 13.977 14.938 l S
16.52 30.641 m 16.52 12.879 l S
19.059 31.855 m 19.059 11.688 l S
21.602 33.082 m 21.602 10.605 l S
24.141 33.273 m 24.141 9.906 l S
26.684 33.805 m 26.684 9.234 l S
29.223 34.355 m 29.223 8.793 l S
31.766 34.805 m 31.766 8.691 l S
34.305 35.055 m 34.305 8.391 l S
36.848 35.219 m 36.848 8.191 l S
39.387 35.242 m 39.387 7.941 l S
41.93 35.469 m 41.93 7.809 l S
44.469 35.652 m 44.469 8.078 l S
47.012 35.746 m 47.012 7.648 l S
49.555 35.746 m 49.555 7.699 l S
52.094 35.887 m 52.094 7.555 l S
54.637 35.895 m 54.637 8.016 l S
57.176 35.98 m 57.176 7.574 l S
59.719 35.332 m 59.719 7.445 l S
62.258 35.938 m 62.258 7.977 l S
64.801 36.004 m 64.801 7.586 l S
67.34 35.66 m 67.34 7.527 l S
69.883 36.074 m 69.883 7.77 l S
72.422 36.066 m 72.422 7.457 l S
74.965 35.773 m 74.965 7.449 l S
77.508 36.074 m 77.508 7.734 l S
80.047 36.055 m 80.047 7.41 l S
82.59 35.785 m 82.59 7.426 l S
85.129 36.059 m 85.129 7.895 l S
87.672 35.965 m 87.672 7.484 l S
90.211 36.055 m 90.211 7.52 l S
92.754 36 m 92.754 7.852 l S
95.293 35.859 m 95.293 7.629 l S
97.836 36.004 m 97.836 7.723 l S
100.375 35.969 m 100.375 7.586 l S
102.918 35.734 m 102.918 7.531 l S
105.457 35.973 m 105.457 7.965 l S
108 35.969 m 108 7.602 l S
110.543 35.668 m 110.543 7.609 l S
113.082 35.895 m 113.082 8.215 l S
115.625 35.598 m 115.625 7.637 l S
118.164 35.934 m 118.164 8.105 l S
120.707 35.875 m 120.707 7.68 l S
123.246 35.855 m 123.246 7.695 l S
125.789 35.828 m 125.789 8.094 l S
128.328 35.625 m 128.328 7.816 l S
130.871 35.766 m 130.871 8.027 l S
133.41 35.809 m 133.41 7.75 l S
135.953 35.379 m 135.953 7.805 l S
138.492 35.762 m 138.492 8.227 l S
141.035 35.406 m 141.035 7.816 l S
143.578 35.703 m 143.578 8.238 l S
146.117 35.656 m 146.117 7.867 l S
148.66 35.66 m 148.66 7.809 l S
151.199 35.707 m 151.199 8.227 l S
153.742 35.488 m 153.742 7.805 l S
156.281 35.656 m 156.281 8.227 l S
158.824 35.652 m 158.824 7.914 l S
161.363 35.41 m 161.363 7.875 l S
163.906 35.574 m 163.906 8.383 l S
166.445 35.43 m 166.445 8.027 l S
168.988 35.59 m 168.988 8.219 l S
171.531 35.441 m 171.531 7.922 l S
174.07 35.566 m 174.07 8.227 l S
176.613 35.508 m 176.613 7.973 l S
179.152 35.258 m 179.152 7.996 l S
181.695 35.484 m 181.695 8.383 l S
184.234 35.344 m 184.234 8.047 l S
186.777 35.551 m 186.777 8.406 l S
189.316 35.148 m 189.316 8.109 l S
191.859 34.5 m 191.859 9.648 l S
194.398 32.211 m 194.398 11.32 l S
196.941 30.496 m 196.941 13.078 l S
199.48 28.449 m 199.48 14.238 l S
202.023 27.641 m 202.023 15.824 l S
204.566 26.191 m 204.566 17.188 l S
207.105 25.051 m 207.105 18.215 l S
209.648 24.195 m 209.648 19.078 l S
212.188 23.578 m 212.188 19.789 l S
214.73 23.055 m 214.73 20.309 l S
217.27 22.664 m 217.27 20.766 l S
219.812 22.328 m 219.812 21.02 l S
222.352 22.121 m 222.352 21.195 l S
224.895 21.965 m 224.895 21.348 l S
227.434 21.895 m 227.434 21.414 l S
229.977 21.805 m 229.977 21.496 l S
232.52 21.773 m 232.52 21.539 l S
235.059 21.754 m 235.059 21.559 l S
237.602 21.754 m 237.602 21.559 l S
240.141 21.754 m 240.141 21.559 l S
242.684 21.754 m 242.684 21.559 l S
245.223 21.754 m 245.223 21.559 l S
247.766 21.754 m 247.766 21.559 l S
250.305 21.754 m 250.305 21.559 l S
252.848 21.754 m 252.848 21.559 l S
255.387 21.754 m 255.387 21.559 l S
255.387 21.754 m 255.387 21.559 l S
3.812 64.953 m 3.812 64.758 l S
6.352 65.059 m 6.352 64.691 l S
8.895 66.34 m 8.895 63.379 l S
11.434 69.324 m 11.434 60.836 l S
13.977 72.035 m 13.977 58.836 l S
16.52 73.496 m 16.52 56.672 l S
19.059 74.688 m 19.059 55.457 l S
21.602 75.461 m 21.602 54.676 l S
24.141 76.066 m 24.141 54.207 l S
26.684 76.422 m 26.684 53.727 l S
29.223 76.508 m 29.223 53.48 l S
31.766 76.73 m 31.766 53.105 l S
34.305 76.922 m 34.305 52.879 l S
36.848 77.184 m 36.848 52.699 l S
39.387 77.191 m 39.387 52.816 l S
41.93 77.355 m 41.93 52.695 l S
44.469 76.859 m 44.469 52.559 l S
47.012 77.301 m 47.012 52.488 l S
49.555 77.324 m 49.555 52.906 l S
52.094 77.383 m 52.094 52.535 l S
54.637 77.105 m 54.637 52.496 l S
57.176 77.355 m 57.176 52.582 l S
59.719 77.328 m 59.719 52.57 l S
62.258 77.184 m 62.258 52.469 l S
64.801 77.348 m 64.801 52.719 l S
67.34 77.312 m 67.34 52.469 l S
69.883 77.094 m 69.883 52.539 l S
72.422 77.289 m 72.422 52.645 l S
74.965 77.262 m 74.965 52.504 l S
77.508 77.086 m 77.508 52.613 l S
80.047 77.184 m 80.047 52.555 l S
82.59 77.316 m 82.59 52.754 l S
85.129 76.918 m 85.129 52.637 l S
87.672 77.238 m 87.672 52.707 l S
90.211 77.117 m 90.211 52.52 l S
92.754 77.223 m 92.754 52.621 l S
95.293 77.25 m 95.293 53.051 l S
97.836 76.863 m 97.836 52.574 l S
100.375 77.094 m 100.375 52.621 l S
102.918 77.102 m 102.918 52.953 l S
105.457 76.816 m 105.457 52.715 l S
108 77.082 m 108 52.898 l S
110.543 77.039 m 110.543 52.637 l S
113.082 76.926 m 113.082 52.809 l S
115.625 77.074 m 115.625 53.121 l S
118.164 76.613 m 118.164 52.781 l S
120.707 76.918 m 120.707 53.148 l S
123.246 77.004 m 123.246 52.738 l S
125.789 76.898 m 125.789 52.879 l S
128.328 76.902 m 128.328 53.094 l S
130.871 76.75 m 130.871 52.902 l S
133.41 76.918 m 133.41 53.09 l S
135.953 76.875 m 135.953 52.922 l S
138.492 76.676 m 138.492 52.902 l S
141.035 76.863 m 141.035 53.348 l S
143.578 76.75 m 143.578 52.875 l S
146.117 76.723 m 146.117 53.488 l S
148.66 76.789 m 148.66 52.984 l S
151.199 76.836 m 151.199 52.898 l S
153.742 76.738 m 153.742 53.438 l S
156.281 76.477 m 156.281 53.023 l S
158.824 76.762 m 158.824 53.277 l S
161.363 76.648 m 161.363 52.965 l S
163.906 76.562 m 163.906 53.145 l S
166.445 76.668 m 166.445 53.492 l S
168.988 76.379 m 168.988 53.051 l S
171.531 76.742 m 171.531 53.352 l S
174.07 76.625 m 174.07 53.082 l S
176.613 76.574 m 176.613 53.363 l S
179.152 76.543 m 179.152 53.207 l S
181.695 76.449 m 181.695 53.176 l S
184.234 76.562 m 184.234 53.547 l S
186.777 76.215 m 186.777 53.262 l S
189.316 76.441 m 189.316 53.684 l S
191.859 75.219 m 191.859 53.918 l S
194.398 74.363 m 194.398 55.836 l S
196.941 72.758 m 196.941 57.391 l S
199.48 71.094 m 199.48 58.48 l S
202.023 69.645 m 202.023 59.469 l S
204.566 69.062 m 204.566 60.75 l S
207.105 67.883 m 207.105 61.742 l S
209.648 67.102 m 209.648 62.609 l S
212.188 66.418 m 212.188 63.176 l S
214.73 66.078 m 214.73 63.621 l S
217.27 65.688 m 217.27 63.914 l S
219.812 65.48 m 219.812 64.297 l S
222.352 65.234 m 222.352 64.488 l S
224.895 65.145 m 224.895 64.586 l S
227.434 65.07 m 227.434 64.586 l S
229.977 64.988 m 229.977 64.711 l S
232.52 64.965 m 232.52 64.75 l S
235.059 64.965 m 235.059 64.758 l S
237.602 64.953 m 237.602 64.758 l S
240.141 64.953 m 240.141 64.758 l S
242.684 64.953 m 242.684 64.758 l S
245.223 64.953 m 245.223 64.758 l S
247.766 64.953 m 247.766 64.758 l S
250.305 64.953 m 250.305 64.758 l S
252.848 64.953 m 252.848 64.758 l S
255.387 64.953 m 255.387 64.758 l S
255.387 64.953 m 255.387 64.758 l S
3.812 108.152 m 3.812 107.957 l S
6.352 108.375 m 6.352 107.711 l S
8.895 110.098 m 8.895 105.906 l S
11.434 114.488 m 11.434 101.684 l S
13.977 118.582 m 13.977 97.305 l S
16.52 121.082 m 16.52 94.621 l S
19.059 122.699 m 19.059 93.91 l S
21.602 123.59 m 21.602 92.699 l S
24.141 124.375 m 24.141 91.832 l S
26.684 125.223 m 26.684 91.324 l S
29.223 126.035 m 29.223 90.793 l S
31.766 125.32 m 31.766 90.223 l S
34.305 126.375 m 34.305 89.906 l S
36.848 126.797 m 36.848 89.566 l S
39.387 126.836 m 39.387 89.309 l S
41.93 127.066 m 41.93 89.594 l S
44.469 126.887 m 44.469 89.102 l S
47.012 127.25 m 47.012 88.973 l S
49.555 127.289 m 49.555 88.988 l S
52.094 127.367 m 52.094 88.781 l S
54.637 127.34 m 54.637 88.75 l S
57.176 127.461 m 57.176 88.691 l S
59.719 127.473 m 59.719 88.918 l S
62.258 126.895 m 62.258 88.676 l S
64.801 127.41 m 64.801 88.539 l S
67.34 127.5 m 67.34 88.887 l S
69.883 126.969 m 69.883 88.547 l S
72.422 127.57 m 72.422 88.457 l S
74.965 127.594 m 74.965 88.789 l S
77.508 127.016 m 77.508 88.395 l S
80.047 127.598 m 80.047 88.398 l S
82.59 127.559 m 82.59 88.918 l S
85.129 126.926 m 85.129 88.543 l S
87.672 127.59 m 87.672 88.535 l S
90.211 127.457 m 90.211 88.871 l S
92.754 127.168 m 92.754 88.461 l S
95.293 127.445 m 95.293 88.758 l S
97.836 126.707 m 97.836 88.648 l S
100.375 127.512 m 100.375 88.414 l S
102.918 127.637 m 102.918 88.836 l S
105.457 126.754 m 105.457 88.398 l S
108 127.301 m 108 88.621 l S
110.543 127.309 m 110.543 88.707 l S
113.082 127.434 m 113.082 88.363 l S
115.625 127.367 m 115.625 88.887 l S
118.164 126.738 m 118.164 88.57 l S
120.707 127.266 m 120.707 88.508 l S
123.246 127.367 m 123.246 88.918 l S
125.789 127.098 m 125.789 88.676 l S
128.328 127.34 m 128.328 89.305 l S
130.871 126.559 m 130.871 88.598 l S
133.41 127.254 m 133.41 88.762 l S
135.953 127.238 m 135.953 88.723 l S
138.492 127.188 m 138.492 88.66 l S
141.035 127.328 m 141.035 89.191 l S
143.578 126.656 m 143.578 88.648 l S
146.117 127.082 m 146.117 88.734 l S
148.66 127.066 m 148.66 89.234 l S
151.199 126.902 m 151.199 88.844 l S
153.742 127.113 m 153.742 89.309 l S
156.281 126.543 m 156.281 88.758 l S
158.824 126.965 m 158.824 88.938 l S
161.363 126.824 m 161.363 89.008 l S
163.906 127.047 m 163.906 88.785 l S
166.445 126.961 m 166.445 89.121 l S
168.988 126.496 m 168.988 88.809 l S
171.531 126.957 m 171.531 89.027 l S
174.07 127.133 m 174.07 88.859 l S
176.613 126.816 m 176.613 88.891 l S
179.152 127.266 m 179.152 89.164 l S
181.695 126.613 m 181.695 88.918 l S
184.234 126.973 m 184.234 89.422 l S
186.777 126.141 m 186.777 88.934 l S
189.316 126.867 m 189.316 89.496 l S
191.859 124.883 m 191.859 90.082 l S
194.398 123.426 m 194.398 93.215 l S
196.941 120.879 m 196.941 95.555 l S
199.48 118.508 m 199.48 97.391 l S
202.023 116.512 m 202.023 99.176 l S
204.566 115.184 m 204.566 100.598 l S
207.105 113.641 m 207.105 102.148 l S
209.648 112.324 m 209.648 103.613 l S
212.188 111.156 m 212.188 104.902 l S
214.73 110.262 m 214.73 105.605 l S
217.27 109.727 m 217.27 106.273 l S
219.812 109.207 m 219.812 106.879 l S
222.352 108.898 m 222.352 107.312 l S
224.895 108.594 m 224.895 107.551 l S
227.434 108.488 m 227.434 107.641 l S
229.977 108.312 m 229.977 107.777 l S
232.52 108.25 m 232.52 107.887 l S
235.059 108.215 m 235.059 107.941 l S
237.602 108.152 m 237.602 107.957 l S
240.141 108.152 m 240.141 107.957 l S
242.684 108.152 m 242.684 107.957 l S
245.223 108.152 m 245.223 107.957 l S
247.766 108.152 m 247.766 107.957 l S
250.305 108.152 m 250.305 107.957 l S
252.848 108.152 m 252.848 107.957 l S
255.387 108.152 m 255.387 107.957 l S
255.387 108.152 m 255.387 107.957 l S
3.812 151.355 m 3.812 151.156 l S
6.352 151.57 m 6.352 150.961 l S
8.895 153.777 m 8.895 148.691 l S
11.434 157.773 m 11.434 144.168 l S
13.977 161.422 m 13.977 139.91 l S
16.52 163.926 m 16.52 137.832 l S
19.059 165.41 m 19.059 136.66 l S
21.602 166.695 m 21.602 135.637 l S
24.141 167.398 m 24.141 134.957 l S
26.684 168.164 m 26.684 134.27 l S
29.223 168.559 m 29.223 134.832 l S
31.766 169.246 m 31.766 133.828 l S
34.305 169.344 m 34.305 133.695 l S
36.848 169.125 m 36.848 133.473 l S
39.387 169.586 m 39.387 133.426 l S
41.93 169.691 m 41.93 133.293 l S
44.469 169.699 m 44.469 133.293 l S
47.012 169.109 m 47.012 133.219 l S
49.555 169.824 m 49.555 133.48 l S
52.094 169.477 m 52.094 133.586 l S
54.637 169.816 m 54.637 133.438 l S
57.176 169.004 m 57.176 133.508 l S
59.719 169.516 m 59.719 133.418 l S
62.258 169.684 m 62.258 133.809 l S
64.801 169.078 m 64.801 133.367 l S
67.34 169.707 m 67.34 133.566 l S
69.883 169.641 m 69.883 134.172 l S
72.422 169.102 m 72.422 133.547 l S
74.965 169.398 m 74.965 133.598 l S
77.508 169.449 m 77.508 133.77 l S
80.047 168.941 m 80.047 133.676 l S
82.59 169.457 m 82.59 133.598 l S
85.129 169.402 m 85.129 133.785 l S
87.672 168.973 m 87.672 133.703 l S
90.211 169.293 m 90.211 133.73 l S
92.754 169.344 m 92.754 133.75 l S
95.293 168.598 m 95.293 133.594 l S
97.836 169.387 m 97.836 134.344 l S
100.375 168.586 m 100.375 133.777 l S
102.918 169.105 m 102.918 133.863 l S
105.457 169.141 m 105.457 134.023 l S
108 168.445 m 108 133.914 l S
110.543 169.25 m 110.543 134.273 l S
113.082 169.047 m 113.082 133.863 l S
115.625 168.844 m 115.625 134.109 l S
118.164 169.137 m 118.164 134.34 l S
120.707 168.191 m 120.707 134.012 l S
123.246 168.957 m 123.246 134.52 l S
125.789 168.586 m 125.789 134.078 l S
128.328 169.035 m 128.328 134.109 l S
130.871 168.777 m 130.871 134.488 l S
133.41 168.246 m 133.41 134.293 l S
135.953 168.805 m 135.953 134.586 l S
138.492 168.684 m 138.492 134.129 l S
141.035 168.605 m 141.035 134.293 l S
143.578 168.859 m 143.578 134.668 l S
146.117 167.926 m 146.117 134.203 l S
148.66 168.551 m 148.66 134.566 l S
151.199 168.809 m 151.199 134.395 l S
153.742 168.191 m 153.742 134.273 l S
156.281 168.68 m 156.281 134.754 l S
158.824 168.094 m 158.824 134.484 l S
161.363 168.648 m 161.363 134.859 l S
163.906 168.207 m 163.906 134.543 l S
166.445 168.469 m 166.445 134.535 l S
168.988 168.359 m 168.988 134.91 l S
171.531 167.801 m 171.531 134.715 l S
174.07 168.484 m 174.07 135.152 l S
176.613 168.152 m 176.613 134.66 l S
179.152 168.359 m 179.152 134.664 l S
181.695 168.156 m 181.695 134.867 l S
184.234 167.762 m 184.234 134.836 l S
186.777 168.074 m 186.777 134.957 l S
189.316 167.738 m 189.316 135.059 l S
191.859 166.871 m 191.859 135.941 l S
194.398 164.012 m 194.398 137.148 l S
196.941 162.957 m 196.941 140.078 l S
199.48 161.109 m 199.48 142.18 l S
202.023 159.164 m 202.023 143.703 l S
204.566 157.512 m 204.566 144.695 l S
207.105 156.023 m 207.105 146.121 l S
209.648 154.816 m 209.648 147.562 l S
212.188 153.992 m 212.188 148.609 l S
214.73 153.25 m 214.73 149.07 l S
217.27 152.668 m 217.27 149.684 l S
219.812 152.289 m 219.812 150.156 l S
222.352 151.895 m 222.352 150.602 l S
224.895 151.738 m 224.895 150.809 l S
227.434 151.648 m 227.434 150.824 l S
229.977 151.488 m 229.977 151.004 l S
232.52 151.434 m 232.52 151.066 l S
235.059 151.438 m 235.059 151.105 l S
237.602 151.367 m 237.602 151.137 l S
240.141 151.355 m 240.141 151.156 l S
242.684 151.355 m 242.684 151.156 l S
245.223 151.355 m 245.223 151.156 l S
247.766 151.355 m 247.766 151.156 l S
250.305 151.355 m 250.305 151.156 l S
252.848 151.355 m 252.848 151.156 l S
255.387 151.355 m 255.387 151.156 l S
255.387 151.355 m 255.387 151.156 l S
Q Q
showpage
%%Trailer
end
%%EOF
