%!PS-Adobe-3.0 EPSF-3.0
%%Creator: cairo 1.16.0 (https://cairographics.org)
%%CreationDate: Wed May 15 11:57:21 2024
%%Pages: 1
%%DocumentData: Clean7Bit
%%LanguageLevel: 2
%%Creator: Wolfram Mathematica
%%BoundingBox: 2 10 257 163
%%EndComments
%%BeginProlog
50 dict begin
/q { gsave } bind def
/Q { grestore } bind def
/cm { 6 array astore concat } bind def
/w { setlinewidth } bind def
/J { setlinecap } bind def
/j { setlinejoin } bind def
/M { setmiterlimit } bind def
/d { setdash } bind def
/m { moveto } bind def
/l { lineto } bind def
/c { curveto } bind def
/h { closepath } bind def
/re { exch dup neg 3 1 roll 5 3 roll moveto 0 rlineto
      0 exch rlineto 0 rlineto closepath } bind def
/S { stroke } bind def
/f { fill } bind def
/f* { eofill } bind def
/n { newpath } bind def
/W { clip } bind def
/W* { eoclip } bind def
/BT { } bind def
/ET { } bind def
/BDC { mark 3 1 roll /BDC pdfmark } bind def
/EMC { mark /EMC pdfmark } bind def
/cairo_store_point { /cairo_point_y exch def /cairo_point_x exch def } def
/Tj { show currentpoint cairo_store_point } bind def
/TJ {
  {
    dup
    type /stringtype eq
    { show } { -0.001 mul 0 cairo_font_matrix dtransform rmoveto } ifelse
  } forall
  currentpoint cairo_store_point
} bind def
/cairo_selectfont { cairo_font_matrix aload pop pop pop 0 0 6 array astore
    cairo_font exch selectfont cairo_point_x cairo_point_y moveto } bind def
/Tf { pop /cairo_font exch def /cairo_font_matrix where
      { pop cairo_selectfont } if } bind def
/Td { matrix translate cairo_font_matrix matrix concatmatrix dup
      /cairo_font_matrix exch def dup 4 get exch 5 get cairo_store_point
      /cairo_font where { pop cairo_selectfont } if } bind def
/Tm { 2 copy 8 2 roll 6 array astore /cairo_font_matrix exch def
      cairo_store_point /cairo_font where { pop cairo_selectfont } if } bind def
/g { setgray } bind def
/rg { setrgbcolor } bind def
/d1 { setcachedevice } bind def
/cairo_data_source {
  CairoDataIndex CairoData length lt
    { CairoData CairoDataIndex get /CairoDataIndex CairoDataIndex 1 add def }
    { () } ifelse
} def
/cairo_flush_ascii85_file { cairo_ascii85_file status { cairo_ascii85_file flushfile } if } def
/cairo_image { image cairo_flush_ascii85_file } def
/cairo_imagemask { imagemask cairo_flush_ascii85_file } def
%%EndProlog
%%BeginSetup
%%EndSetup
%%Page: 1 1
%%BeginPageSetup
%%PageBoundingBox: 2 10 257 163
%%EndPageSetup
q 2 10 255 153 rectclip
1 0 0 -1 0 173 cm q
0 g
1.796436 w
0 J
0 j
[] 0.0 d
3.25 M 3.812 21.656 m 3.812 21.461 l S
6.352 24.102 m 6.352 18.961 l S
8.895 28.852 m 8.895 14.145 l S
11.434 31.031 m 11.434 12.715 l S
13.977 32.125 m 13.977 11.531 l S
16.52 32.676 m 16.52 10.93 l S
19.059 32.777 m 19.059 10.957 l S
21.602 32.703 m 21.602 10.887 l S
24.141 32.703 m 24.141 10.906 l S
26.684 32.656 m 26.684 10.898 l S
29.223 32.664 m 29.223 10.922 l S
31.766 32.742 m 31.766 10.809 l S
34.305 32.785 m 34.305 10.73 l S
36.848 32.781 m 36.848 10.723 l S
39.387 32.75 m 39.387 10.824 l S
41.93 32.734 m 41.93 10.859 l S
44.469 32.73 m 44.469 10.848 l S
47.012 32.754 m 47.012 10.797 l S
49.555 32.762 m 49.555 10.801 l S
52.094 32.781 m 52.094 10.793 l S
54.637 32.773 m 54.637 10.801 l S
57.176 32.777 m 57.176 10.793 l S
59.719 32.77 m 59.719 10.785 l S
62.258 32.789 m 62.258 10.766 l S
64.801 32.805 m 64.801 10.75 l S
67.34 32.812 m 67.34 10.746 l S
69.883 32.777 m 69.883 10.781 l S
72.422 32.773 m 72.422 10.805 l S
74.965 32.785 m 74.965 10.797 l S
77.508 32.754 m 77.508 10.816 l S
80.047 32.758 m 80.047 10.855 l S
82.59 32.766 m 82.59 10.832 l S
85.129 32.805 m 85.129 10.801 l S
87.672 32.828 m 87.672 10.719 l S
90.211 32.855 m 90.211 10.691 l S
92.754 32.883 m 92.754 10.668 l S
95.293 32.895 m 95.293 10.645 l S
97.836 32.91 m 97.836 10.629 l S
100.375 32.922 m 100.375 10.625 l S
102.918 32.961 m 102.918 10.586 l S
105.457 32.961 m 105.457 10.586 l S
108 32.977 m 108 10.566 l S
110.543 32.973 m 110.543 10.562 l S
113.082 32.965 m 113.082 10.578 l S
115.625 32.969 m 115.625 10.586 l S
118.164 32.969 m 118.164 10.574 l S
120.707 32.949 m 120.707 10.605 l S
123.246 32.945 m 123.246 10.609 l S
125.789 32.945 m 125.789 10.605 l S
128.328 32.941 m 128.328 10.605 l S
130.871 32.953 m 130.871 10.594 l S
133.41 32.969 m 133.41 10.574 l S
135.953 32.996 m 135.953 10.52 l S
138.492 32.977 m 138.492 10.531 l S
141.035 32.977 m 141.035 10.574 l S
143.578 32.984 m 143.578 10.562 l S
146.117 33.012 m 146.117 10.512 l S
148.66 33.016 m 148.66 10.496 l S
151.199 33.027 m 151.199 10.488 l S
153.742 33.035 m 153.742 10.488 l S
156.281 33.035 m 156.281 10.492 l S
158.824 33.012 m 158.824 10.535 l S
161.363 33 m 161.363 10.539 l S
163.906 33.016 m 163.906 10.527 l S
166.445 33.027 m 166.445 10.52 l S
168.988 32.992 m 168.988 10.527 l S
171.531 32.977 m 171.531 10.531 l S
174.07 32.934 m 174.07 10.621 l S
176.613 32.25 m 176.613 11.551 l S
179.152 29.641 m 179.152 14.16 l S
181.695 27.328 m 181.695 15.512 l S
184.234 26.164 m 184.234 16.723 l S
186.777 25.125 m 186.777 18.031 l S
189.316 24.176 m 189.316 18.883 l S
191.859 23.492 m 191.859 19.629 l S
194.398 23.035 m 194.398 20.121 l S
196.941 22.582 m 196.941 20.547 l S
199.48 22.285 m 199.48 20.773 l S
202.023 22.066 m 202.023 21.047 l S
204.566 21.895 m 204.566 21.195 l S
207.105 21.812 m 207.105 21.305 l S
209.648 21.727 m 209.648 21.391 l S
212.188 21.699 m 212.188 21.418 l S
214.73 21.656 m 214.73 21.461 l S
217.27 21.656 m 217.27 21.461 l S
219.812 21.656 m 219.812 21.461 l S
222.352 21.656 m 222.352 21.461 l S
224.895 21.656 m 224.895 21.461 l S
227.434 21.656 m 227.434 21.461 l S
229.977 21.656 m 229.977 21.461 l S
232.52 21.656 m 232.52 21.461 l S
235.059 21.656 m 235.059 21.461 l S
237.602 21.656 m 237.602 21.461 l S
240.141 21.656 m 240.141 21.461 l S
242.684 21.656 m 242.684 21.461 l S
245.223 21.656 m 245.223 21.461 l S
247.766 21.656 m 247.766 21.461 l S
250.305 21.656 m 250.305 21.461 l S
252.848 21.656 m 252.848 21.461 l S
255.387 21.656 m 255.387 21.461 l S
255.387 21.656 m 255.387 21.461 l S
3.812 64.855 m 3.812 64.66 l S
6.352 66.426 m 6.352 62.73 l S
8.895 69.828 m 8.895 59.629 l S
11.434 71.129 m 11.434 58.152 l S
13.977 72.109 m 13.977 57.441 l S
16.52 72.594 m 16.52 57.105 l S
19.059 72.727 m 19.059 56.977 l S
21.602 72.754 m 21.602 56.973 l S
24.141 72.789 m 24.141 56.949 l S
26.684 72.832 m 26.684 56.938 l S
29.223 72.816 m 29.223 56.914 l S
31.766 72.891 m 31.766 56.828 l S
34.305 72.953 m 34.305 56.758 l S
36.848 73.016 m 36.848 56.77 l S
39.387 72.973 m 39.387 56.773 l S
41.93 72.918 m 41.93 56.824 l S
44.469 72.887 m 44.469 56.844 l S
47.012 72.922 m 47.012 56.816 l S
49.555 72.941 m 49.555 56.812 l S
52.094 72.941 m 52.094 56.793 l S
54.637 72.93 m 54.637 56.77 l S
57.176 72.93 m 57.176 56.793 l S
59.719 72.934 m 59.719 56.809 l S
62.258 72.934 m 62.258 56.797 l S
64.801 72.945 m 64.801 56.781 l S
67.34 72.949 m 67.34 56.777 l S
69.883 72.941 m 69.883 56.816 l S
72.422 72.895 m 72.422 56.832 l S
74.965 72.902 m 74.965 56.844 l S
77.508 72.887 m 77.508 56.871 l S
80.047 72.867 m 80.047 56.867 l S
82.59 72.891 m 82.59 56.883 l S
85.129 72.898 m 85.129 56.863 l S
87.672 72.941 m 87.672 56.82 l S
90.211 72.949 m 90.211 56.793 l S
92.754 73.004 m 92.754 56.75 l S
95.293 73.004 m 95.293 56.75 l S
97.836 73.012 m 97.836 56.734 l S
100.375 73.039 m 100.375 56.719 l S
102.918 73.066 m 102.918 56.699 l S
105.457 73.082 m 105.457 56.688 l S
108 73.082 m 108 56.684 l S
110.543 73.109 m 110.543 56.656 l S
113.082 73.098 m 113.082 56.672 l S
115.625 73.066 m 115.625 56.695 l S
118.164 73.059 m 118.164 56.699 l S
120.707 73.059 m 120.707 56.703 l S
123.246 73.02 m 123.246 56.738 l S
125.789 72.992 m 125.789 56.742 l S
128.328 73.016 m 128.328 56.781 l S
130.871 73 m 130.871 56.758 l S
133.41 73.016 m 133.41 56.734 l S
135.953 73.062 m 135.953 56.699 l S
138.492 73.078 m 138.492 56.66 l S
141.035 73.043 m 141.035 56.73 l S
143.578 73.047 m 143.578 56.73 l S
146.117 73.102 m 146.117 56.668 l S
148.66 73.121 m 148.66 56.637 l S
151.199 73.141 m 151.199 56.633 l S
153.742 73.129 m 153.742 56.645 l S
156.281 73.125 m 156.281 56.652 l S
158.824 73.094 m 158.824 56.684 l S
161.363 73.055 m 161.363 56.719 l S
163.906 73.062 m 163.906 56.672 l S
166.445 73.082 m 166.445 56.656 l S
168.988 73.047 m 168.988 56.676 l S
171.531 73.02 m 171.531 56.715 l S
174.07 73.008 m 174.07 56.742 l S
176.613 72.32 m 176.613 57.328 l S
179.152 70.008 m 179.152 59.152 l S
181.695 68.75 m 181.695 60.699 l S
184.234 68.02 m 184.234 61.426 l S
186.777 67.586 m 186.777 62.012 l S
189.316 66.906 m 189.316 62.617 l S
191.859 66.453 m 191.859 63.09 l S
194.398 65.949 m 194.398 63.555 l S
196.941 65.621 m 196.941 63.922 l S
199.48 65.398 m 199.48 64.18 l S
202.023 65.219 m 202.023 64.375 l S
204.566 65.082 m 204.566 64.449 l S
207.105 64.953 m 207.105 64.523 l S
209.648 64.914 m 209.648 64.59 l S
212.188 64.863 m 212.188 64.598 l S
214.73 64.859 m 214.73 64.66 l S
217.27 64.855 m 217.27 64.656 l S
219.812 64.855 m 219.812 64.66 l S
222.352 64.855 m 222.352 64.66 l S
224.895 64.855 m 224.895 64.66 l S
227.434 64.855 m 227.434 64.66 l S
229.977 64.855 m 229.977 64.66 l S
232.52 64.855 m 232.52 64.66 l S
235.059 64.855 m 235.059 64.66 l S
237.602 64.855 m 237.602 64.66 l S
240.141 64.855 m 240.141 64.66 l S
242.684 64.855 m 242.684 64.66 l S
245.223 64.855 m 245.223 64.66 l S
247.766 64.855 m 247.766 64.66 l S
250.305 64.855 m 250.305 64.66 l S
252.848 64.855 m 252.848 64.66 l S
255.387 64.855 m 255.387 64.66 l S
255.387 64.855 m 255.387 64.66 l S
3.812 108.059 m 3.812 107.859 l S
6.352 112.832 m 6.352 103.105 l S
8.895 120.098 m 8.895 95.766 l S
11.434 123.414 m 11.434 92.188 l S
13.977 125.203 m 13.977 90.773 l S
16.52 126.199 m 16.52 89.734 l S
19.059 126.543 m 19.059 89.367 l S
21.602 126.719 m 21.602 89.195 l S
24.141 126.832 m 24.141 89.09 l S
26.684 126.91 m 26.684 89.031 l S
29.223 126.965 m 29.223 88.957 l S
31.766 127.129 m 31.766 88.793 l S
34.305 127.23 m 34.305 88.668 l S
36.848 127.258 m 36.848 88.664 l S
39.387 127.164 m 39.387 88.734 l S
41.93 127.105 m 41.93 88.785 l S
44.469 127.125 m 44.469 88.762 l S
47.012 127.207 m 47.012 88.723 l S
49.555 127.219 m 49.555 88.688 l S
52.094 127.25 m 52.094 88.664 l S
54.637 127.234 m 54.637 88.652 l S
57.176 127.254 m 57.176 88.652 l S
59.719 127.254 m 59.719 88.684 l S
62.258 127.293 m 62.258 88.637 l S
64.801 127.312 m 64.801 88.633 l S
67.34 127.316 m 67.34 88.625 l S
69.883 127.262 m 69.883 88.66 l S
72.422 127.234 m 72.422 88.703 l S
74.965 127.246 m 74.965 88.703 l S
77.508 127.207 m 77.508 88.742 l S
80.047 127.172 m 80.047 88.781 l S
82.59 127.188 m 82.59 88.809 l S
85.129 127.227 m 85.129 88.723 l S
87.672 127.328 m 87.672 88.633 l S
90.211 127.371 m 90.211 88.555 l S
92.754 127.41 m 92.754 88.547 l S
95.293 127.418 m 95.293 88.527 l S
97.836 127.461 m 97.836 88.508 l S
100.375 127.465 m 100.375 88.488 l S
102.918 127.516 m 102.918 88.441 l S
105.457 127.523 m 105.457 88.441 l S
108 127.535 m 108 88.426 l S
110.543 127.559 m 110.543 88.402 l S
113.082 127.551 m 113.082 88.41 l S
115.625 127.543 m 115.625 88.457 l S
118.164 127.531 m 118.164 88.445 l S
120.707 127.488 m 120.707 88.48 l S
123.246 127.465 m 123.246 88.496 l S
125.789 127.461 m 125.789 88.504 l S
128.328 127.457 m 128.328 88.52 l S
130.871 127.469 m 130.871 88.508 l S
133.41 127.504 m 133.41 88.473 l S
135.953 127.582 m 135.953 88.406 l S
138.492 127.547 m 138.492 88.418 l S
141.035 127.5 m 141.035 88.484 l S
143.578 127.539 m 143.578 88.457 l S
146.117 127.598 m 146.117 88.375 l S
148.66 127.613 m 148.66 88.371 l S
151.199 127.629 m 151.199 88.371 l S
153.742 127.637 m 153.742 88.363 l S
156.281 127.613 m 156.281 88.371 l S
158.824 127.562 m 158.824 88.43 l S
161.363 127.512 m 161.363 88.453 l S
163.906 127.562 m 163.906 88.426 l S
166.445 127.57 m 166.445 88.41 l S
168.988 127.531 m 168.988 88.395 l S
171.531 127.539 m 171.531 88.434 l S
174.07 127.516 m 174.07 88.523 l S
176.613 126.297 m 176.613 89.715 l S
179.152 122.25 m 179.152 93.363 l S
181.695 118.895 m 181.695 96.941 l S
184.234 116.68 m 184.234 99.246 l S
186.777 114.953 m 186.777 100.906 l S
189.316 113.527 m 189.316 102.238 l S
191.859 112.395 m 191.859 103.43 l S
194.398 111.332 m 194.398 104.609 l S
196.941 110.406 m 196.941 105.375 l S
199.48 109.781 m 199.48 106.16 l S
202.023 109.254 m 202.023 106.664 l S
204.566 108.883 m 204.566 107.031 l S
207.105 108.57 m 207.105 107.273 l S
209.648 108.434 m 209.648 107.508 l S
212.188 108.281 m 212.188 107.629 l S
214.73 108.184 m 214.73 107.73 l S
217.27 108.133 m 217.27 107.766 l S
219.812 108.09 m 219.812 107.828 l S
222.352 108.066 m 222.352 107.859 l S
224.895 108.059 m 224.895 107.859 l S
227.434 108.059 m 227.434 107.859 l S
229.977 108.059 m 229.977 107.859 l S
232.52 108.059 m 232.52 107.859 l S
235.059 108.059 m 235.059 107.859 l S
237.602 108.059 m 237.602 107.859 l S
240.141 108.059 m 240.141 107.859 l S
242.684 108.059 m 242.684 107.859 l S
245.223 108.059 m 245.223 107.859 l S
247.766 108.059 m 247.766 107.859 l S
250.305 108.059 m 250.305 107.859 l S
252.848 108.059 m 252.848 107.859 l S
255.387 108.059 m 255.387 107.859 l S
255.387 108.059 m 255.387 107.859 l S
3.812 151.258 m 3.812 151.059 l S
6.352 154.215 m 6.352 148.16 l S
8.895 158.844 m 8.895 143.383 l S
11.434 161.133 m 11.434 141.457 l S
13.977 161.68 m 13.977 140.945 l S
16.52 162.152 m 16.52 140.715 l S
19.059 162.207 m 19.059 140.625 l S
21.602 162.301 m 21.602 140.586 l S
24.141 162.324 m 24.141 140.645 l S
26.684 162.398 m 26.684 140.629 l S
29.223 162.355 m 29.223 140.66 l S
31.766 162.453 m 31.766 140.617 l S
34.305 162.492 m 34.305 140.555 l S
36.848 162.508 m 36.848 140.539 l S
39.387 162.488 m 39.387 140.617 l S
41.93 162.398 m 41.93 140.664 l S
44.469 162.418 m 44.469 140.66 l S
47.012 162.43 m 47.012 140.676 l S
49.555 162.422 m 49.555 140.633 l S
52.094 162.43 m 52.094 140.645 l S
54.637 162.406 m 54.637 140.656 l S
57.176 162.414 m 57.176 140.645 l S
59.719 162.387 m 59.719 140.672 l S
62.258 162.473 m 62.258 140.633 l S
64.801 162.438 m 64.801 140.598 l S
67.34 162.445 m 67.34 140.645 l S
69.883 162.41 m 69.883 140.656 l S
72.422 162.383 m 72.422 140.676 l S
74.965 162.355 m 74.965 140.684 l S
77.508 162.32 m 77.508 140.711 l S
80.047 162.316 m 80.047 140.719 l S
82.59 162.332 m 82.59 140.746 l S
85.129 162.324 m 85.129 140.688 l S
87.672 162.379 m 87.672 140.656 l S
90.211 162.441 m 90.211 140.57 l S
92.754 162.531 m 92.754 140.566 l S
95.293 162.512 m 95.293 140.602 l S
97.836 162.516 m 97.836 140.621 l S
100.375 162.535 m 100.375 140.559 l S
102.918 162.574 m 102.918 140.535 l S
105.457 162.613 m 105.457 140.555 l S
108 162.574 m 108 140.512 l S
110.543 162.602 m 110.543 140.543 l S
113.082 162.609 m 113.082 140.57 l S
115.625 162.531 m 115.625 140.543 l S
118.164 162.559 m 118.164 140.586 l S
120.707 162.547 m 120.707 140.586 l S
123.246 162.496 m 123.246 140.562 l S
125.789 162.496 m 125.789 140.59 l S
128.328 162.492 m 128.328 140.645 l S
130.871 162.523 m 130.871 140.621 l S
133.41 162.527 m 133.41 140.555 l S
135.953 162.547 m 135.953 140.594 l S
138.492 162.598 m 138.492 140.539 l S
141.035 162.492 m 141.035 140.586 l S
143.578 162.555 m 143.578 140.562 l S
146.117 162.664 m 146.117 140.527 l S
148.66 162.699 m 148.66 140.441 l S
151.199 162.648 m 151.199 140.469 l S
153.742 162.613 m 153.742 140.465 l S
156.281 162.68 m 156.281 140.535 l S
158.824 162.617 m 158.824 140.57 l S
161.363 162.52 m 161.363 140.516 l S
163.906 162.656 m 163.906 140.609 l S
166.445 162.707 m 166.445 140.539 l S
168.988 162.602 m 168.988 140.449 l S
171.531 162.641 m 171.531 140.457 l S
174.07 162.617 m 174.07 140.57 l S
176.613 161.578 m 176.613 141.277 l S
179.152 160 m 179.152 142.336 l S
181.695 158.086 m 181.695 144.441 l S
184.234 156.363 m 184.234 145.961 l S
186.777 155.336 m 186.777 146.875 l S
189.316 154.48 m 189.316 147.898 l S
191.859 153.789 m 191.859 148.664 l S
194.398 153.098 m 194.398 149.363 l S
196.941 152.641 m 196.941 149.695 l S
199.48 152.336 m 199.48 150.121 l S
202.023 152.008 m 202.023 150.391 l S
204.566 151.707 m 204.566 150.617 l S
207.105 151.539 m 207.105 150.793 l S
209.648 151.453 m 209.648 150.836 l S
212.188 151.391 m 212.188 150.883 l S
214.73 151.332 m 214.73 151.016 l S
217.27 151.305 m 217.27 151.008 l S
219.812 151.258 m 219.812 151.055 l S
222.352 151.277 m 222.352 151.059 l S
224.895 151.258 m 224.895 151.047 l S
227.434 151.258 m 227.434 151.059 l S
229.977 151.258 m 229.977 151.059 l S
232.52 151.258 m 232.52 151.059 l S
235.059 151.258 m 235.059 151.059 l S
237.602 151.258 m 237.602 151.059 l S
240.141 151.258 m 240.141 151.059 l S
242.684 151.258 m 242.684 151.059 l S
245.223 151.258 m 245.223 151.059 l S
247.766 151.258 m 247.766 151.059 l S
250.305 151.258 m 250.305 151.059 l S
252.848 151.258 m 252.848 151.059 l S
255.387 151.258 m 255.387 151.059 l S
255.387 151.258 m 255.387 151.059 l S
Q Q
showpage
%%Trailer
end
%%EOF
