%!PS-Adobe-3.0 EPSF-3.0
%%Creator: cairo 1.16.0 (https://cairographics.org)
%%CreationDate: Wed May 15 11:57:21 2024
%%Pages: 1
%%DocumentData: Clean7Bit
%%LanguageLevel: 2
%%Creator: Wolfram Mathematica
%%BoundingBox: 2 2 257 165
%%EndComments
%%BeginProlog
50 dict begin
/q { gsave } bind def
/Q { grestore } bind def
/cm { 6 array astore concat } bind def
/w { setlinewidth } bind def
/J { setlinecap } bind def
/j { setlinejoin } bind def
/M { setmiterlimit } bind def
/d { setdash } bind def
/m { moveto } bind def
/l { lineto } bind def
/c { curveto } bind def
/h { closepath } bind def
/re { exch dup neg 3 1 roll 5 3 roll moveto 0 rlineto
      0 exch rlineto 0 rlineto closepath } bind def
/S { stroke } bind def
/f { fill } bind def
/f* { eofill } bind def
/n { newpath } bind def
/W { clip } bind def
/W* { eoclip } bind def
/BT { } bind def
/ET { } bind def
/BDC { mark 3 1 roll /BDC pdfmark } bind def
/EMC { mark /EMC pdfmark } bind def
/cairo_store_point { /cairo_point_y exch def /cairo_point_x exch def } def
/Tj { show currentpoint cairo_store_point } bind def
/TJ {
  {
    dup
    type /stringtype eq
    { show } { -0.001 mul 0 cairo_font_matrix dtransform rmoveto } ifelse
  } forall
  currentpoint cairo_store_point
} bind def
/cairo_selectfont { cairo_font_matrix aload pop pop pop 0 0 6 array astore
    cairo_font exch selectfont cairo_point_x cairo_point_y moveto } bind def
/Tf { pop /cairo_font exch def /cairo_font_matrix where
      { pop cairo_selectfont } if } bind def
/Td { matrix translate cairo_font_matrix matrix concatmatrix dup
      /cairo_font_matrix exch def dup 4 get exch 5 get cairo_store_point
      /cairo_font where { pop cairo_selectfont } if } bind def
/Tm { 2 copy 8 2 roll 6 array astore /cairo_font_matrix exch def
      cairo_store_point /cairo_font where { pop cairo_selectfont } if } bind def
/g { setgray } bind def
/rg { setrgbcolor } bind def
/d1 { setcachedevice } bind def
/cairo_data_source {
  CairoDataIndex CairoData length lt
    { CairoData CairoDataIndex get /CairoDataIndex CairoDataIndex 1 add def }
    { () } ifelse
} def
/cairo_flush_ascii85_file { cairo_ascii85_file status { cairo_ascii85_file flushfile } if } def
/cairo_image { image cairo_flush_ascii85_file } def
/cairo_imagemask { imagemask cairo_flush_ascii85_file } def
%%EndProlog
%%BeginSetup
%%EndSetup
%%Page: 1 1
%%BeginPageSetup
%%PageBoundingBox: 2 2 257 165
%%EndPageSetup
q 2 2 255 163 rectclip
1 0 0 -1 0 173 cm q
0 g
1.796436 w
0 J
0 j
[] 0.0 d
3.25 M 3.812 21.566 m 3.812 21.371 l S
6.352 22.145 m 6.352 20.855 l S
8.895 26.07 m 8.895 17.035 l S
11.434 29.176 m 11.434 13.742 l S
13.977 30.703 m 13.977 12.207 l S
16.52 31.691 m 16.52 11.32 l S
19.059 32.457 m 19.059 10.547 l S
21.602 33 m 21.602 10.008 l S
24.141 33.336 m 24.141 9.695 l S
26.684 33.594 m 26.684 9.562 l S
29.223 33.672 m 29.223 9.41 l S
31.766 33.734 m 31.766 9.41 l S
34.305 33.73 m 34.305 9.344 l S
36.848 33.738 m 36.848 9.352 l S
39.387 33.805 m 39.387 9.289 l S
41.93 33.867 m 41.93 9.262 l S
44.469 33.828 m 44.469 9.254 l S
47.012 33.844 m 47.012 9.262 l S
49.555 33.867 m 49.555 9.234 l S
52.094 33.855 m 52.094 9.266 l S
54.637 33.828 m 54.637 9.289 l S
57.176 33.719 m 57.176 9.367 l S
59.719 33.637 m 59.719 9.422 l S
62.258 33.652 m 62.258 9.402 l S
64.801 33.801 m 64.801 9.324 l S
67.34 33.996 m 67.34 9.078 l S
69.883 34.129 m 69.883 8.988 l S
72.422 34.137 m 72.422 8.961 l S
74.965 34.156 m 74.965 8.961 l S
77.508 34.129 m 77.508 8.988 l S
80.047 34.086 m 80.047 9.059 l S
82.59 34.098 m 82.59 9.004 l S
85.129 34.191 m 85.129 8.941 l S
87.672 34.227 m 87.672 8.891 l S
90.211 34.281 m 90.211 8.879 l S
92.754 34.316 m 92.754 8.824 l S
95.293 34.336 m 95.293 8.828 l S
97.836 34.254 m 97.836 8.84 l S
100.375 34.242 m 100.375 8.875 l S
102.918 34.242 m 102.918 8.891 l S
105.457 34.219 m 105.457 8.883 l S
108 34.258 m 108 8.879 l S
110.543 34.242 m 110.543 8.84 l S
113.082 34.227 m 113.082 8.891 l S
115.625 34.363 m 115.625 8.77 l S
118.164 34.41 m 118.164 8.703 l S
120.707 34.477 m 120.707 8.645 l S
123.246 34.508 m 123.246 8.609 l S
125.789 34.613 m 125.789 8.52 l S
128.328 34.656 m 128.328 8.5 l S
130.871 34.66 m 130.871 8.469 l S
133.41 34.664 m 133.41 8.48 l S
135.953 34.613 m 135.953 8.523 l S
138.492 34.617 m 138.492 8.477 l S
141.035 34.574 m 141.035 8.559 l S
143.578 34.551 m 143.578 8.566 l S
146.117 34.512 m 146.117 8.605 l S
148.66 34.496 m 148.66 8.633 l S
151.199 34.488 m 151.199 8.625 l S
153.742 34.449 m 153.742 8.637 l S
156.281 34.445 m 156.281 8.691 l S
158.824 34.422 m 158.824 8.715 l S
161.363 34.414 m 161.363 8.715 l S
163.906 34.426 m 163.906 8.695 l S
166.445 34.438 m 166.445 8.691 l S
168.988 34.449 m 168.988 8.691 l S
171.531 34.426 m 171.531 8.691 l S
174.07 34.383 m 174.07 8.738 l S
176.613 34.289 m 176.613 8.828 l S
179.152 32.809 m 179.152 10.039 l S
181.695 30.223 m 181.695 12.5 l S
184.234 28.504 m 184.234 14.492 l S
186.777 27.012 m 186.777 15.945 l S
189.316 25.922 m 189.316 17.012 l S
191.859 25.074 m 191.859 17.746 l S
194.398 24.547 m 194.398 18.297 l S
196.941 24.012 m 196.941 18.84 l S
199.48 23.445 m 199.48 19.344 l S
202.023 23.035 m 202.023 19.77 l S
204.566 22.762 m 204.566 20.047 l S
207.105 22.5 m 207.105 20.367 l S
209.648 22.242 m 209.648 20.629 l S
212.188 22.102 m 212.188 20.836 l S
214.73 21.91 m 214.73 21.016 l S
217.27 21.801 m 217.27 21.113 l S
219.812 21.754 m 219.812 21.168 l S
222.352 21.668 m 222.352 21.27 l S
224.895 21.625 m 224.895 21.309 l S
227.434 21.59 m 227.434 21.34 l S
229.977 21.586 m 229.977 21.359 l S
232.52 21.566 m 232.52 21.371 l S
235.059 21.566 m 235.059 21.371 l S
237.602 21.566 m 237.602 21.371 l S
240.141 21.566 m 240.141 21.371 l S
242.684 21.566 m 242.684 21.371 l S
245.223 21.566 m 245.223 21.371 l S
247.766 21.566 m 247.766 21.371 l S
250.305 21.566 m 250.305 21.371 l S
252.848 21.566 m 252.848 21.371 l S
255.387 21.566 m 255.387 21.371 l S
255.387 21.566 m 255.387 21.371 l S
3.812 64.766 m 3.812 64.57 l S
6.352 65.363 m 6.352 64.102 l S
8.895 69.828 m 8.895 59.605 l S
11.434 72.93 m 11.434 56.328 l S
13.977 74.391 m 13.977 54.773 l S
16.52 75.105 m 16.52 54.012 l S
19.059 75.668 m 19.059 53.48 l S
21.602 76.07 m 21.602 53.055 l S
24.141 76.355 m 24.141 52.754 l S
26.684 76.566 m 26.684 52.617 l S
29.223 76.598 m 29.223 52.516 l S
31.766 76.707 m 31.766 52.43 l S
34.305 76.754 m 34.305 52.383 l S
36.848 76.793 m 36.848 52.352 l S
39.387 76.859 m 39.387 52.203 l S
41.93 76.848 m 41.93 52.258 l S
44.469 76.934 m 44.469 52.23 l S
47.012 76.938 m 47.012 52.199 l S
49.555 76.891 m 49.555 52.215 l S
52.094 76.914 m 52.094 52.223 l S
54.637 76.836 m 54.637 52.273 l S
57.176 76.785 m 57.176 52.305 l S
59.719 76.758 m 59.719 52.355 l S
62.258 76.734 m 62.258 52.352 l S
64.801 76.816 m 64.801 52.273 l S
67.34 76.961 m 67.34 52.184 l S
69.883 77.094 m 69.883 51.984 l S
72.422 77.117 m 72.422 51.973 l S
74.965 77.117 m 74.965 51.973 l S
77.508 77.137 m 77.508 51.996 l S
80.047 77.07 m 80.047 51.965 l S
82.59 77.098 m 82.59 51.992 l S
85.129 77.16 m 85.129 51.977 l S
87.672 77.164 m 87.672 51.949 l S
90.211 77.199 m 90.211 51.793 l S
92.754 77.242 m 92.754 51.848 l S
95.293 77.277 m 95.293 51.895 l S
97.836 77.215 m 97.836 51.852 l S
100.375 77.258 m 100.375 51.906 l S
102.918 77.223 m 102.918 51.879 l S
105.457 77.23 m 105.457 51.859 l S
108 77.281 m 108 51.852 l S
110.543 77.242 m 110.543 51.855 l S
113.082 77.227 m 113.082 51.91 l S
115.625 77.277 m 115.625 51.828 l S
118.164 77.352 m 118.164 51.746 l S
120.707 77.367 m 120.707 51.754 l S
123.246 77.445 m 123.246 51.699 l S
125.789 77.441 m 125.789 51.613 l S
128.328 77.516 m 128.328 51.641 l S
130.871 77.492 m 130.871 51.605 l S
133.41 77.473 m 133.41 51.672 l S
135.953 77.492 m 135.953 51.664 l S
138.492 77.531 m 138.492 51.633 l S
141.035 77.461 m 141.035 51.684 l S
143.578 77.418 m 143.578 51.691 l S
146.117 77.438 m 146.117 51.68 l S
148.66 77.434 m 148.66 51.664 l S
151.199 77.461 m 151.199 51.703 l S
153.742 77.414 m 153.742 51.754 l S
156.281 77.383 m 156.281 51.758 l S
158.824 77.383 m 158.824 51.711 l S
161.363 77.418 m 161.363 51.77 l S
163.906 77.387 m 163.906 51.816 l S
166.445 77.352 m 166.445 51.77 l S
168.988 77.367 m 168.988 51.746 l S
171.531 77.359 m 171.531 51.801 l S
174.07 77.316 m 174.07 51.73 l S
176.613 77.223 m 176.613 51.887 l S
179.152 76.441 m 179.152 52.723 l S
181.695 74.531 m 181.695 54.695 l S
184.234 72.645 m 184.234 56.652 l S
186.777 71.617 m 186.777 57.617 l S
189.316 70.465 m 189.316 58.84 l S
191.859 69.574 m 191.859 59.852 l S
194.398 68.785 m 194.398 60.602 l S
196.941 68.023 m 196.941 61.348 l S
199.48 67.363 m 199.48 61.91 l S
202.023 66.805 m 202.023 62.375 l S
204.566 66.43 m 204.566 62.82 l S
207.105 66.086 m 207.105 63.316 l S
209.648 65.828 m 209.648 63.602 l S
212.188 65.57 m 212.188 63.812 l S
214.73 65.34 m 214.73 63.965 l S
217.27 65.191 m 217.27 64.145 l S
219.812 65.113 m 219.812 64.297 l S
222.352 64.945 m 222.352 64.379 l S
224.895 64.875 m 224.895 64.453 l S
227.434 64.855 m 227.434 64.48 l S
229.977 64.855 m 229.977 64.426 l S
232.52 64.816 m 232.52 64.453 l S
235.059 64.781 m 235.059 64.512 l S
237.602 64.766 m 237.602 64.57 l S
240.141 64.766 m 240.141 64.57 l S
242.684 64.766 m 242.684 64.57 l S
245.223 64.766 m 245.223 64.57 l S
247.766 64.766 m 247.766 64.57 l S
250.305 64.766 m 250.305 64.57 l S
252.848 64.766 m 252.848 64.57 l S
255.387 64.766 m 255.387 64.57 l S
255.387 64.766 m 255.387 64.57 l S
3.812 107.965 m 3.812 107.77 l S
6.352 108.973 m 6.352 106.949 l S
8.895 113.293 m 8.895 102.863 l S
11.434 116.383 m 11.434 99.559 l S
13.977 117.988 m 13.977 97.914 l S
16.52 118.938 m 16.52 96.883 l S
19.059 119.789 m 19.059 96.062 l S
21.602 120.383 m 21.602 95.523 l S
24.141 120.785 m 24.141 95.18 l S
26.684 120.957 m 26.684 94.969 l S
29.223 121.039 m 29.223 94.844 l S
31.766 121.082 m 31.766 94.762 l S
34.305 121.156 m 34.305 94.707 l S
36.848 121.211 m 36.848 94.73 l S
39.387 121.242 m 39.387 94.594 l S
41.93 121.277 m 41.93 94.547 l S
44.469 121.258 m 44.469 94.496 l S
47.012 121.324 m 47.012 94.477 l S
49.555 121.328 m 49.555 94.5 l S
52.094 121.41 m 52.094 94.484 l S
54.637 121.301 m 54.637 94.578 l S
57.176 121.176 m 57.176 94.668 l S
59.719 121.223 m 59.719 94.746 l S
62.258 121.176 m 62.258 94.754 l S
64.801 121.309 m 64.801 94.586 l S
67.34 121.535 m 67.34 94.391 l S
69.883 121.602 m 69.883 94.258 l S
72.422 121.652 m 72.422 94.156 l S
74.965 121.656 m 74.965 94.191 l S
77.508 121.645 m 77.508 94.164 l S
80.047 121.594 m 80.047 94.18 l S
82.59 121.613 m 82.59 94.145 l S
85.129 121.762 m 85.129 94.145 l S
87.672 121.727 m 87.672 94.086 l S
90.211 121.844 m 90.211 93.918 l S
92.754 121.848 m 92.754 93.977 l S
95.293 121.867 m 95.293 94.008 l S
97.836 121.762 m 97.836 94.066 l S
100.375 121.809 m 100.375 94.035 l S
102.918 121.789 m 102.918 94.023 l S
105.457 121.793 m 105.457 94.066 l S
108 121.816 m 108 94.023 l S
110.543 121.816 m 110.543 94.031 l S
113.082 121.785 m 113.082 94.039 l S
115.625 121.863 m 115.625 93.914 l S
118.164 121.945 m 118.164 93.863 l S
120.707 121.973 m 120.707 93.848 l S
123.246 122.047 m 123.246 93.793 l S
125.789 122.113 m 125.789 93.664 l S
128.328 122.172 m 128.328 93.605 l S
130.871 122.164 m 130.871 93.598 l S
133.41 122.172 m 133.41 93.594 l S
135.953 122.105 m 135.953 93.637 l S
138.492 122.125 m 138.492 93.641 l S
141.035 122.121 m 141.035 93.703 l S
143.578 122.074 m 143.578 93.758 l S
146.117 122.062 m 146.117 93.707 l S
148.66 122.047 m 148.66 93.824 l S
151.199 122.066 m 151.199 93.773 l S
153.742 122.008 m 153.742 93.883 l S
156.281 121.922 m 156.281 93.887 l S
158.824 121.922 m 158.824 93.898 l S
161.363 121.953 m 161.363 93.871 l S
163.906 121.992 m 163.906 93.891 l S
166.445 121.957 m 166.445 93.891 l S
168.988 121.953 m 168.988 93.898 l S
171.531 121.961 m 171.531 93.91 l S
174.07 121.918 m 174.07 93.941 l S
176.613 121.777 m 176.613 94.098 l S
179.152 120.195 m 179.152 95.473 l S
181.695 117.508 m 181.695 97.961 l S
184.234 115.695 m 184.234 99.91 l S
186.777 114.414 m 186.777 101.277 l S
189.316 113.094 m 189.316 102.66 l S
191.859 112.332 m 191.859 103.578 l S
194.398 111.547 m 194.398 104.227 l S
196.941 110.816 m 196.941 104.949 l S
199.48 110.172 m 199.48 105.457 l S
202.023 109.613 m 202.023 106.016 l S
204.566 109.391 m 204.566 106.309 l S
207.105 109.18 m 207.105 106.672 l S
209.648 108.871 m 209.648 106.941 l S
212.188 108.633 m 212.188 107.145 l S
214.73 108.387 m 214.73 107.301 l S
217.27 108.277 m 217.27 107.434 l S
219.812 108.273 m 219.812 107.543 l S
222.352 108.109 m 222.352 107.602 l S
224.895 108.078 m 224.895 107.672 l S
227.434 108.07 m 227.434 107.684 l S
229.977 108.082 m 229.977 107.605 l S
232.52 108.039 m 232.52 107.629 l S
235.059 107.973 m 235.059 107.711 l S
237.602 107.965 m 237.602 107.77 l S
240.141 107.965 m 240.141 107.77 l S
242.684 107.965 m 242.684 107.77 l S
245.223 107.965 m 245.223 107.77 l S
247.766 107.965 m 247.766 107.77 l S
250.305 107.965 m 250.305 107.77 l S
252.848 107.965 m 252.848 107.77 l S
255.387 107.965 m 255.387 107.77 l S
255.387 107.965 m 255.387 107.77 l S
3.812 151.164 m 3.812 150.969 l S
6.352 152.57 m 6.352 149.711 l S
8.895 159.684 m 8.895 142.746 l S
11.434 164.789 m 11.434 137.422 l S
13.977 166.902 m 13.977 135.414 l S
16.52 167.785 m 16.52 134.375 l S
19.059 168.488 m 19.059 133.664 l S
21.602 169.051 m 21.602 133.082 l S
24.141 169.547 m 24.141 132.715 l S
26.684 169.723 m 26.684 132.527 l S
29.223 169.801 m 29.223 132.543 l S
31.766 169.84 m 31.766 132.387 l S
34.305 169.898 m 34.305 132.438 l S
36.848 169.949 m 36.848 132.422 l S
39.387 169.98 m 39.387 132.352 l S
41.93 170.047 m 41.93 132.348 l S
44.469 170.066 m 44.469 132.289 l S
47.012 170.074 m 47.012 132.305 l S
49.555 170.047 m 49.555 132.312 l S
52.094 170.074 m 52.094 132.305 l S
54.637 170 m 54.637 132.391 l S
57.176 169.957 m 57.176 132.449 l S
59.719 169.898 m 59.719 132.469 l S
62.258 169.855 m 62.258 132.453 l S
64.801 170.008 m 64.801 132.227 l S
67.34 170.148 m 67.34 132.148 l S
69.883 170.305 m 69.883 132.059 l S
72.422 170.359 m 72.422 132.07 l S
74.965 170.289 m 74.965 132.066 l S
77.508 170.301 m 77.508 132.152 l S
80.047 170.23 m 80.047 132.195 l S
82.59 170.258 m 82.59 132.055 l S
85.129 170.387 m 85.129 132.074 l S
87.672 170.379 m 87.672 132.008 l S
90.211 170.535 m 90.211 131.922 l S
92.754 170.609 m 92.754 131.848 l S
95.293 170.523 m 95.293 131.953 l S
97.836 170.445 m 97.836 131.887 l S
100.375 170.492 m 100.375 131.906 l S
102.918 170.434 m 102.918 131.895 l S
105.457 170.457 m 105.457 131.93 l S
108 170.449 m 108 131.883 l S
110.543 170.473 m 110.543 131.918 l S
113.082 170.457 m 113.082 131.988 l S
115.625 170.5 m 115.625 131.797 l S
118.164 170.586 m 118.164 131.809 l S
120.707 170.609 m 120.707 131.762 l S
123.246 170.812 m 123.246 131.707 l S
125.789 170.75 m 125.789 131.645 l S
128.328 170.82 m 128.328 131.586 l S
130.871 170.836 m 130.871 131.562 l S
133.41 170.836 m 133.41 131.641 l S
135.953 170.812 m 135.953 131.605 l S
138.492 170.789 m 138.492 131.648 l S
141.035 170.793 m 141.035 131.68 l S
143.578 170.672 m 143.578 131.723 l S
146.117 170.82 m 146.117 131.691 l S
148.66 170.746 m 148.66 131.668 l S
151.199 170.781 m 151.199 131.742 l S
153.742 170.73 m 153.742 131.758 l S
156.281 170.684 m 156.281 131.742 l S
158.824 170.566 m 158.824 131.785 l S
161.363 170.648 m 161.363 131.754 l S
163.906 170.652 m 163.906 131.758 l S
166.445 170.695 m 166.445 131.734 l S
168.988 170.633 m 168.988 131.734 l S
171.531 170.664 m 171.531 131.75 l S
174.07 170.562 m 174.07 131.828 l S
176.613 170.477 m 176.613 131.945 l S
179.152 169.242 m 179.152 132.844 l S
181.695 167.32 m 181.695 134.973 l S
184.234 164.461 m 184.234 137.797 l S
186.777 162.402 m 186.777 139.711 l S
189.316 160.684 m 189.316 141.328 l S
191.859 159.18 m 191.859 142.902 l S
194.398 157.957 m 194.398 144.152 l S
196.941 156.801 m 196.941 145.172 l S
199.48 155.895 m 199.48 146.137 l S
202.023 154.953 m 202.023 146.922 l S
204.566 154.469 m 204.566 147.652 l S
207.105 153.703 m 207.105 148.441 l S
209.648 153.176 m 209.648 148.922 l S
212.188 152.801 m 212.188 149.426 l S
214.73 152.352 m 214.73 149.793 l S
217.27 152 m 217.27 150.117 l S
219.812 151.859 m 219.812 150.32 l S
222.352 151.613 m 222.352 150.484 l S
224.895 151.508 m 224.895 150.648 l S
227.434 151.414 m 227.434 150.672 l S
229.977 151.453 m 229.977 150.582 l S
232.52 151.359 m 232.52 150.684 l S
235.059 151.258 m 235.059 150.812 l S
237.602 151.164 m 237.602 150.969 l S
240.141 151.176 m 240.141 150.969 l S
242.684 151.164 m 242.684 150.969 l S
245.223 151.164 m 245.223 150.969 l S
247.766 151.164 m 247.766 150.969 l S
250.305 151.164 m 250.305 150.969 l S
252.848 151.164 m 252.848 150.969 l S
255.387 151.164 m 255.387 150.969 l S
255.387 151.164 m 255.387 150.969 l S
Q Q
showpage
%%Trailer
end
%%EOF
