%!PS-Adobe-3.0 EPSF-3.0
%%Creator: cairo 1.16.0 (https://cairographics.org)
%%CreationDate: Wed May 15 11:57:21 2024
%%Pages: 1
%%DocumentData: Clean7Bit
%%LanguageLevel: 2
%%Creator: Wolfram Mathematica
%%BoundingBox: 2 10 257 163
%%EndComments
%%BeginProlog
50 dict begin
/q { gsave } bind def
/Q { grestore } bind def
/cm { 6 array astore concat } bind def
/w { setlinewidth } bind def
/J { setlinecap } bind def
/j { setlinejoin } bind def
/M { setmiterlimit } bind def
/d { setdash } bind def
/m { moveto } bind def
/l { lineto } bind def
/c { curveto } bind def
/h { closepath } bind def
/re { exch dup neg 3 1 roll 5 3 roll moveto 0 rlineto
      0 exch rlineto 0 rlineto closepath } bind def
/S { stroke } bind def
/f { fill } bind def
/f* { eofill } bind def
/n { newpath } bind def
/W { clip } bind def
/W* { eoclip } bind def
/BT { } bind def
/ET { } bind def
/BDC { mark 3 1 roll /BDC pdfmark } bind def
/EMC { mark /EMC pdfmark } bind def
/cairo_store_point { /cairo_point_y exch def /cairo_point_x exch def } def
/Tj { show currentpoint cairo_store_point } bind def
/TJ {
  {
    dup
    type /stringtype eq
    { show } { -0.001 mul 0 cairo_font_matrix dtransform rmoveto } ifelse
  } forall
  currentpoint cairo_store_point
} bind def
/cairo_selectfont { cairo_font_matrix aload pop pop pop 0 0 6 array astore
    cairo_font exch selectfont cairo_point_x cairo_point_y moveto } bind def
/Tf { pop /cairo_font exch def /cairo_font_matrix where
      { pop cairo_selectfont } if } bind def
/Td { matrix translate cairo_font_matrix matrix concatmatrix dup
      /cairo_font_matrix exch def dup 4 get exch 5 get cairo_store_point
      /cairo_font where { pop cairo_selectfont } if } bind def
/Tm { 2 copy 8 2 roll 6 array astore /cairo_font_matrix exch def
      cairo_store_point /cairo_font where { pop cairo_selectfont } if } bind def
/g { setgray } bind def
/rg { setrgbcolor } bind def
/d1 { setcachedevice } bind def
/cairo_data_source {
  CairoDataIndex CairoData length lt
    { CairoData CairoDataIndex get /CairoDataIndex CairoDataIndex 1 add def }
    { () } ifelse
} def
/cairo_flush_ascii85_file { cairo_ascii85_file status { cairo_ascii85_file flushfile } if } def
/cairo_image { image cairo_flush_ascii85_file } def
/cairo_imagemask { imagemask cairo_flush_ascii85_file } def
%%EndProlog
%%BeginSetup
%%EndSetup
%%Page: 1 1
%%BeginPageSetup
%%PageBoundingBox: 2 10 257 163
%%EndPageSetup
q 2 10 255 153 rectclip
1 0 0 -1 0 173 cm q
0 g
1.796436 w
0 J
0 j
[] 0.0 d
3.25 M 3.812 21.699 m 3.812 21.504 l S
6.352 24.43 m 6.352 18.578 l S
8.895 28.441 m 8.895 14.387 l S
11.434 30.633 m 11.434 12.883 l S
13.977 31.957 m 13.977 11.965 l S
16.52 32.457 m 16.52 11.469 l S
19.059 32.703 m 19.059 10.953 l S
21.602 32.801 m 21.602 10.805 l S
24.141 32.816 m 24.141 10.77 l S
26.684 32.875 m 26.684 10.738 l S
29.223 32.906 m 29.223 10.695 l S
31.766 32.941 m 31.766 10.68 l S
34.305 32.984 m 34.305 10.629 l S
36.848 32.984 m 36.848 10.637 l S
39.387 33.012 m 39.387 10.617 l S
41.93 33.027 m 41.93 10.609 l S
44.469 33.055 m 44.469 10.562 l S
47.012 33.086 m 47.012 10.559 l S
49.555 33.125 m 49.555 10.52 l S
52.094 33.129 m 52.094 10.492 l S
54.637 33.152 m 54.637 10.477 l S
57.176 33.152 m 57.176 10.469 l S
59.719 33.188 m 59.719 10.457 l S
62.258 33.188 m 62.258 10.438 l S
64.801 33.211 m 64.801 10.41 l S
67.34 33.25 m 67.34 10.391 l S
69.883 33.281 m 69.883 10.344 l S
72.422 33.316 m 72.422 10.297 l S
74.965 33.359 m 74.965 10.273 l S
77.508 33.359 m 77.508 10.281 l S
80.047 33.383 m 80.047 10.27 l S
82.59 33.391 m 82.59 10.246 l S
85.129 33.395 m 85.129 10.246 l S
87.672 33.391 m 87.672 10.254 l S
90.211 33.379 m 90.211 10.258 l S
92.754 33.402 m 92.754 10.242 l S
95.293 33.41 m 95.293 10.219 l S
97.836 33.418 m 97.836 10.215 l S
100.375 33.41 m 100.375 10.242 l S
102.918 33.406 m 102.918 10.242 l S
105.457 33.398 m 105.457 10.238 l S
108 33.402 m 108 10.23 l S
110.543 33.426 m 110.543 10.195 l S
113.082 33.43 m 113.082 10.211 l S
115.625 33.383 m 115.625 10.242 l S
118.164 33.344 m 118.164 10.293 l S
120.707 33.301 m 120.707 10.324 l S
123.246 33.293 m 123.246 10.316 l S
125.789 33.316 m 125.789 10.301 l S
128.328 33.297 m 128.328 10.316 l S
130.871 33.227 m 130.871 10.414 l S
133.41 33.18 m 133.41 10.449 l S
135.953 33.188 m 135.953 10.434 l S
138.492 33.246 m 138.492 10.363 l S
141.035 33.305 m 141.035 10.312 l S
143.578 33.348 m 143.578 10.266 l S
146.117 33.367 m 146.117 10.238 l S
148.66 33.395 m 148.66 10.211 l S
151.199 33.398 m 151.199 10.207 l S
153.742 33.324 m 153.742 10.312 l S
156.281 33.215 m 156.281 10.395 l S
158.824 33.199 m 158.824 10.414 l S
161.363 33.172 m 161.363 10.445 l S
163.906 33.105 m 163.906 10.488 l S
166.445 32.945 m 166.445 10.691 l S
168.988 32.605 m 168.988 10.934 l S
171.531 32.512 m 171.531 11.094 l S
174.07 32.5 m 174.07 11.125 l S
176.613 32.504 m 176.613 11.102 l S
179.152 32.531 m 179.152 11.074 l S
181.695 32.539 m 181.695 11.07 l S
184.234 32.551 m 184.234 11.031 l S
186.777 32.57 m 186.777 11.016 l S
189.316 32.57 m 189.316 11.016 l S
191.859 32.512 m 191.859 11.086 l S
194.398 31.602 m 194.398 12.445 l S
196.941 28.258 m 196.941 14.57 l S
199.48 26.953 m 199.48 16.012 l S
202.023 26.074 m 202.023 17.109 l S
204.566 24.82 m 204.566 18.363 l S
207.105 24.141 m 207.105 19.078 l S
209.648 23.449 m 209.648 19.707 l S
212.188 22.957 m 212.188 20.254 l S
214.73 22.578 m 214.73 20.652 l S
217.27 22.258 m 217.27 20.957 l S
219.812 22.074 m 219.812 21.121 l S
222.352 21.91 m 222.352 21.293 l S
224.895 21.801 m 224.895 21.398 l S
227.434 21.73 m 227.434 21.469 l S
229.977 21.699 m 229.977 21.504 l S
232.52 21.699 m 232.52 21.504 l S
235.059 21.699 m 235.059 21.504 l S
237.602 21.699 m 237.602 21.504 l S
240.141 21.699 m 240.141 21.504 l S
242.684 21.699 m 242.684 21.504 l S
245.223 21.699 m 245.223 21.504 l S
247.766 21.699 m 247.766 21.504 l S
250.305 21.699 m 250.305 21.504 l S
252.848 21.699 m 252.848 21.504 l S
255.387 21.699 m 255.387 21.504 l S
255.387 21.699 m 255.387 21.504 l S
3.812 64.898 m 3.812 64.703 l S
6.352 67.086 m 6.352 62.316 l S
8.895 70.012 m 8.895 59.707 l S
11.434 71.238 m 11.434 58.711 l S
13.977 71.809 m 13.977 57.625 l S
16.52 72.262 m 16.52 57.117 l S
19.059 72.48 m 19.059 56.957 l S
21.602 72.59 m 21.602 56.941 l S
24.141 72.723 m 24.141 56.922 l S
26.684 72.727 m 26.684 56.891 l S
29.223 72.715 m 29.223 56.902 l S
31.766 72.719 m 31.766 56.855 l S
34.305 72.75 m 34.305 56.875 l S
36.848 72.805 m 36.848 56.801 l S
39.387 72.77 m 39.387 56.832 l S
41.93 72.793 m 41.93 56.789 l S
44.469 72.809 m 44.469 56.805 l S
47.012 72.848 m 47.012 56.785 l S
49.555 72.859 m 49.555 56.781 l S
52.094 72.891 m 52.094 56.723 l S
54.637 72.91 m 54.637 56.723 l S
57.176 72.863 m 57.176 56.727 l S
59.719 72.82 m 59.719 56.699 l S
62.258 72.859 m 62.258 56.703 l S
64.801 72.91 m 64.801 56.648 l S
67.34 72.883 m 67.34 56.68 l S
69.883 72.871 m 69.883 56.676 l S
72.422 72.922 m 72.422 56.672 l S
74.965 72.93 m 74.965 56.633 l S
77.508 72.977 m 77.508 56.629 l S
80.047 72.961 m 80.047 56.629 l S
82.59 72.961 m 82.59 56.621 l S
85.129 72.984 m 85.129 56.629 l S
87.672 72.941 m 87.672 56.605 l S
90.211 72.918 m 90.211 56.648 l S
92.754 72.934 m 92.754 56.633 l S
95.293 72.934 m 95.293 56.664 l S
97.836 72.973 m 97.836 56.648 l S
100.375 72.922 m 100.375 56.641 l S
102.918 72.938 m 102.918 56.637 l S
105.457 72.941 m 105.457 56.637 l S
108 72.941 m 108 56.633 l S
110.543 72.965 m 110.543 56.637 l S
113.082 72.953 m 113.082 56.625 l S
115.625 72.918 m 115.625 56.672 l S
118.164 72.871 m 118.164 56.645 l S
120.707 72.891 m 120.707 56.695 l S
123.246 72.922 m 123.246 56.68 l S
125.789 72.934 m 125.789 56.656 l S
128.328 72.895 m 128.328 56.707 l S
130.871 72.855 m 130.871 56.711 l S
133.41 72.852 m 133.41 56.742 l S
135.953 72.855 m 135.953 56.734 l S
138.492 72.906 m 138.492 56.715 l S
141.035 72.922 m 141.035 56.668 l S
143.578 72.926 m 143.578 56.629 l S
146.117 72.941 m 146.117 56.641 l S
148.66 72.922 m 148.66 56.629 l S
151.199 72.906 m 151.199 56.648 l S
153.742 72.867 m 153.742 56.727 l S
156.281 72.871 m 156.281 56.73 l S
158.824 72.84 m 158.824 56.734 l S
161.363 72.867 m 161.363 56.738 l S
163.906 72.805 m 163.906 56.773 l S
166.445 72.734 m 166.445 56.863 l S
168.988 72.605 m 168.988 56.969 l S
171.531 72.441 m 171.531 56.969 l S
174.07 72.418 m 174.07 56.977 l S
176.613 72.426 m 176.613 56.953 l S
179.152 72.441 m 179.152 56.957 l S
181.695 72.465 m 181.695 56.953 l S
184.234 72.465 m 184.234 56.934 l S
186.777 72.5 m 186.777 56.918 l S
189.316 72.512 m 189.316 56.938 l S
191.859 72.48 m 191.859 56.98 l S
194.398 71.605 m 194.398 57.805 l S
196.941 69.793 m 196.941 60.125 l S
199.48 68.66 m 199.48 61.152 l S
202.023 68.18 m 202.023 61.52 l S
204.566 67.398 m 204.566 62.297 l S
207.105 66.855 m 207.105 62.816 l S
209.648 66.281 m 209.648 63.363 l S
212.188 65.953 m 212.188 63.703 l S
214.73 65.531 m 214.73 64.047 l S
217.27 65.371 m 217.27 64.277 l S
219.812 65.152 m 219.812 64.457 l S
222.352 65.031 m 222.352 64.562 l S
224.895 64.949 m 224.895 64.633 l S
227.434 64.902 m 227.434 64.695 l S
229.977 64.898 m 229.977 64.703 l S
232.52 64.898 m 232.52 64.703 l S
235.059 64.898 m 235.059 64.703 l S
237.602 64.898 m 237.602 64.703 l S
240.141 64.898 m 240.141 64.703 l S
242.684 64.898 m 242.684 64.703 l S
245.223 64.898 m 245.223 64.703 l S
247.766 64.898 m 247.766 64.703 l S
250.305 64.898 m 250.305 64.703 l S
252.848 64.898 m 252.848 64.703 l S
255.387 64.898 m 255.387 64.703 l S
255.387 64.898 m 255.387 64.703 l S
3.812 108.102 m 3.812 107.902 l S
6.352 113.324 m 6.352 102.258 l S
8.895 120.465 m 8.895 95.328 l S
11.434 123.66 m 11.434 92.332 l S
13.977 125.355 m 13.977 90.387 l S
16.52 125.988 m 16.52 89.824 l S
19.059 126.48 m 19.059 89.441 l S
21.602 126.75 m 21.602 89.234 l S
24.141 126.844 m 24.141 89.137 l S
26.684 126.871 m 26.684 89.078 l S
29.223 126.898 m 29.223 89.027 l S
31.766 126.957 m 31.766 88.973 l S
34.305 127.008 m 34.305 88.934 l S
36.848 127.078 m 36.848 88.902 l S
39.387 127.086 m 39.387 88.836 l S
41.93 127.098 m 41.93 88.832 l S
44.469 127.184 m 44.469 88.82 l S
47.012 127.16 m 47.012 88.797 l S
49.555 127.199 m 49.555 88.746 l S
52.094 127.262 m 52.094 88.703 l S
54.637 127.285 m 54.637 88.695 l S
57.176 127.285 m 57.176 88.688 l S
59.719 127.316 m 59.719 88.664 l S
62.258 127.32 m 62.258 88.633 l S
64.801 127.352 m 64.801 88.602 l S
67.34 127.363 m 67.34 88.582 l S
69.883 127.426 m 69.883 88.543 l S
72.422 127.477 m 72.422 88.535 l S
74.965 127.504 m 74.965 88.469 l S
77.508 127.531 m 77.508 88.484 l S
80.047 127.535 m 80.047 88.488 l S
82.59 127.555 m 82.59 88.469 l S
85.129 127.555 m 85.129 88.48 l S
87.672 127.527 m 87.672 88.477 l S
90.211 127.52 m 90.211 88.465 l S
92.754 127.559 m 92.754 88.445 l S
95.293 127.586 m 95.293 88.426 l S
97.836 127.613 m 97.836 88.434 l S
100.375 127.559 m 100.375 88.453 l S
102.918 127.574 m 102.918 88.438 l S
105.457 127.543 m 105.457 88.441 l S
108 127.574 m 108 88.426 l S
110.543 127.637 m 110.543 88.391 l S
113.082 127.617 m 113.082 88.398 l S
115.625 127.543 m 115.625 88.461 l S
118.164 127.488 m 118.164 88.469 l S
120.707 127.492 m 120.707 88.484 l S
123.246 127.523 m 123.246 88.457 l S
125.789 127.57 m 125.789 88.457 l S
128.328 127.512 m 128.328 88.48 l S
130.871 127.414 m 130.871 88.555 l S
133.41 127.402 m 133.41 88.559 l S
135.953 127.422 m 135.953 88.551 l S
138.492 127.504 m 138.492 88.504 l S
141.035 127.559 m 141.035 88.438 l S
143.578 127.625 m 143.578 88.387 l S
146.117 127.613 m 146.117 88.379 l S
148.66 127.629 m 148.66 88.363 l S
151.199 127.617 m 151.199 88.383 l S
153.742 127.465 m 153.742 88.496 l S
156.281 127.426 m 156.281 88.539 l S
158.824 127.449 m 158.824 88.523 l S
161.363 127.414 m 161.363 88.543 l S
163.906 127.336 m 163.906 88.617 l S
166.445 127.156 m 166.445 88.805 l S
168.988 126.93 m 168.988 89.031 l S
171.531 126.711 m 171.531 89.172 l S
174.07 126.719 m 174.07 89.223 l S
176.613 126.762 m 176.613 89.168 l S
179.152 126.777 m 179.152 89.145 l S
181.695 126.797 m 181.695 89.125 l S
184.234 126.855 m 184.234 89.113 l S
186.777 126.875 m 186.777 89.078 l S
189.316 126.871 m 189.316 89.094 l S
191.859 126.75 m 191.859 89.09 l S
194.398 125.336 m 194.398 90.742 l S
196.941 121.449 m 196.941 94.938 l S
199.48 118.414 m 199.48 97.742 l S
202.023 116.418 m 202.023 99.453 l S
204.566 114.586 m 204.566 101.27 l S
207.105 113.371 m 207.105 102.59 l S
209.648 112.031 m 209.648 103.859 l S
212.188 111.305 m 212.188 104.754 l S
214.73 110.262 m 214.73 105.656 l S
217.27 109.641 m 217.27 106.305 l S
219.812 109.148 m 219.812 106.828 l S
222.352 108.785 m 222.352 107.199 l S
224.895 108.539 m 224.895 107.449 l S
227.434 108.328 m 227.434 107.648 l S
229.977 108.238 m 229.977 107.77 l S
232.52 108.145 m 232.52 107.844 l S
235.059 108.105 m 235.059 107.902 l S
237.602 108.102 m 237.602 107.902 l S
240.141 108.102 m 240.141 107.902 l S
242.684 108.102 m 242.684 107.902 l S
245.223 108.102 m 245.223 107.902 l S
247.766 108.102 m 247.766 107.902 l S
250.305 108.102 m 250.305 107.902 l S
252.848 108.102 m 252.848 107.902 l S
255.387 108.102 m 255.387 107.902 l S
255.387 108.102 m 255.387 107.902 l S
3.812 151.301 m 3.812 151.102 l S
6.352 154.512 m 6.352 147.719 l S
8.895 159.078 m 8.895 143.52 l S
11.434 161.113 m 11.434 141.871 l S
13.977 162.047 m 13.977 140.57 l S
16.52 162.176 m 16.52 140.328 l S
19.059 162.383 m 19.059 139.863 l S
21.602 162.164 m 21.602 139.848 l S
24.141 162.211 m 24.141 140.062 l S
26.684 162.211 m 26.684 140.059 l S
29.223 162.234 m 29.223 140.027 l S
31.766 162.25 m 31.766 140.02 l S
34.305 162.242 m 34.305 140.066 l S
36.848 162.324 m 36.848 140.016 l S
39.387 162.277 m 39.387 140.016 l S
41.93 162.266 m 41.93 139.98 l S
44.469 162.344 m 44.469 140.059 l S
47.012 162.375 m 47.012 140.047 l S
49.555 162.359 m 49.555 140.004 l S
52.094 162.438 m 52.094 139.93 l S
54.637 162.469 m 54.637 139.973 l S
57.176 162.391 m 57.176 139.969 l S
59.719 162.344 m 59.719 139.984 l S
62.258 162.438 m 62.258 139.953 l S
64.801 162.492 m 64.801 139.859 l S
67.34 162.43 m 67.34 139.949 l S
69.883 162.449 m 69.883 139.945 l S
72.422 162.527 m 72.422 139.98 l S
74.965 162.559 m 74.965 139.895 l S
77.508 162.617 m 77.508 139.93 l S
80.047 162.531 m 80.047 139.926 l S
82.59 162.547 m 82.59 139.91 l S
85.129 162.617 m 85.129 139.938 l S
87.672 162.527 m 87.672 139.914 l S
90.211 162.516 m 90.211 139.883 l S
92.754 162.527 m 92.754 139.902 l S
95.293 162.531 m 95.293 139.93 l S
97.836 162.582 m 97.836 139.938 l S
100.375 162.512 m 100.375 139.977 l S
102.918 162.562 m 102.918 139.91 l S
105.457 162.57 m 105.457 139.918 l S
108 162.602 m 108 139.859 l S
110.543 162.598 m 110.543 139.891 l S
113.082 162.543 m 113.082 139.887 l S
115.625 162.535 m 115.625 139.957 l S
118.164 162.492 m 118.164 139.91 l S
120.707 162.504 m 120.707 139.914 l S
123.246 162.512 m 123.246 139.938 l S
125.789 162.551 m 125.789 139.906 l S
128.328 162.457 m 128.328 139.965 l S
130.871 162.434 m 130.871 139.941 l S
133.41 162.41 m 133.41 139.949 l S
135.953 162.395 m 135.953 139.934 l S
138.492 162.465 m 138.492 139.945 l S
141.035 162.465 m 141.035 139.887 l S
143.578 162.5 m 143.578 139.871 l S
146.117 162.523 m 146.117 139.91 l S
148.66 162.527 m 148.66 139.848 l S
151.199 162.535 m 151.199 139.906 l S
153.742 162.445 m 153.742 139.953 l S
156.281 162.477 m 156.281 139.953 l S
158.824 162.434 m 158.824 139.934 l S
161.363 162.41 m 161.363 139.992 l S
163.906 162.375 m 163.906 139.969 l S
166.445 162.324 m 166.445 140.023 l S
168.988 162.305 m 168.988 139.969 l S
171.531 162.266 m 171.531 139.973 l S
174.07 162.301 m 174.07 139.949 l S
176.613 162.332 m 176.613 139.867 l S
179.152 162.324 m 179.152 139.898 l S
181.695 162.305 m 181.695 139.914 l S
184.234 162.301 m 184.234 139.863 l S
186.777 162.301 m 186.777 139.855 l S
189.316 162.277 m 189.316 139.922 l S
191.859 162.309 m 191.859 139.969 l S
194.398 161.766 m 194.398 140.742 l S
196.941 160.016 m 196.941 143.215 l S
199.48 157.777 m 199.48 145.008 l S
202.023 156.16 m 202.023 146.258 l S
204.566 155.051 m 204.566 147.285 l S
207.105 154.367 m 207.105 148.246 l S
209.648 153.516 m 209.648 148.973 l S
212.188 152.973 m 212.188 149.473 l S
214.73 152.441 m 214.73 149.945 l S
217.27 152.152 m 217.27 150.293 l S
219.812 151.812 m 219.812 150.57 l S
222.352 151.625 m 222.352 150.754 l S
224.895 151.496 m 224.895 150.926 l S
227.434 151.391 m 227.434 151.008 l S
229.977 151.352 m 229.977 151.082 l S
232.52 151.301 m 232.52 151.102 l S
235.059 151.301 m 235.059 151.102 l S
237.602 151.301 m 237.602 151.102 l S
240.141 151.301 m 240.141 151.102 l S
242.684 151.301 m 242.684 151.102 l S
245.223 151.301 m 245.223 151.102 l S
247.766 151.301 m 247.766 151.102 l S
250.305 151.301 m 250.305 151.102 l S
252.848 151.301 m 252.848 151.102 l S
255.387 151.301 m 255.387 151.102 l S
255.387 151.301 m 255.387 151.102 l S
Q Q
showpage
%%Trailer
end
%%EOF
