%!PS-Adobe-3.0 EPSF-3.0
%%Creator: cairo 1.16.0 (https://cairographics.org)
%%CreationDate: Wed May 15 11:57:22 2024
%%Pages: 1
%%DocumentData: Clean7Bit
%%LanguageLevel: 2
%%Creator: Wolfram Mathematica
%%BoundingBox: 2 2 257 166
%%EndComments
%%BeginProlog
50 dict begin
/q { gsave } bind def
/Q { grestore } bind def
/cm { 6 array astore concat } bind def
/w { setlinewidth } bind def
/J { setlinecap } bind def
/j { setlinejoin } bind def
/M { setmiterlimit } bind def
/d { setdash } bind def
/m { moveto } bind def
/l { lineto } bind def
/c { curveto } bind def
/h { closepath } bind def
/re { exch dup neg 3 1 roll 5 3 roll moveto 0 rlineto
      0 exch rlineto 0 rlineto closepath } bind def
/S { stroke } bind def
/f { fill } bind def
/f* { eofill } bind def
/n { newpath } bind def
/W { clip } bind def
/W* { eoclip } bind def
/BT { } bind def
/ET { } bind def
/BDC { mark 3 1 roll /BDC pdfmark } bind def
/EMC { mark /EMC pdfmark } bind def
/cairo_store_point { /cairo_point_y exch def /cairo_point_x exch def } def
/Tj { show currentpoint cairo_store_point } bind def
/TJ {
  {
    dup
    type /stringtype eq
    { show } { -0.001 mul 0 cairo_font_matrix dtransform rmoveto } ifelse
  } forall
  currentpoint cairo_store_point
} bind def
/cairo_selectfont { cairo_font_matrix aload pop pop pop 0 0 6 array astore
    cairo_font exch selectfont cairo_point_x cairo_point_y moveto } bind def
/Tf { pop /cairo_font exch def /cairo_font_matrix where
      { pop cairo_selectfont } if } bind def
/Td { matrix translate cairo_font_matrix matrix concatmatrix dup
      /cairo_font_matrix exch def dup 4 get exch 5 get cairo_store_point
      /cairo_font where { pop cairo_selectfont } if } bind def
/Tm { 2 copy 8 2 roll 6 array astore /cairo_font_matrix exch def
      cairo_store_point /cairo_font where { pop cairo_selectfont } if } bind def
/g { setgray } bind def
/rg { setrgbcolor } bind def
/d1 { setcachedevice } bind def
/cairo_data_source {
  CairoDataIndex CairoData length lt
    { CairoData CairoDataIndex get /CairoDataIndex CairoDataIndex 1 add def }
    { () } ifelse
} def
/cairo_flush_ascii85_file { cairo_ascii85_file status { cairo_ascii85_file flushfile } if } def
/cairo_image { image cairo_flush_ascii85_file } def
/cairo_imagemask { imagemask cairo_flush_ascii85_file } def
%%EndProlog
%%BeginSetup
%%EndSetup
%%Page: 1 1
%%BeginPageSetup
%%PageBoundingBox: 2 2 257 166
%%EndPageSetup
q 2 2 255 164 rectclip
1 0 0 -1 0 173 cm q
0 g
1.796436 w
0 J
0 j
[] 0.0 d
3.25 M 3.812 21.531 m 3.812 21.336 l S
6.352 23.117 m 6.352 19.602 l S
8.895 26.926 m 8.895 16.078 l S
11.434 30.617 m 11.434 12.254 l S
13.977 32.211 m 13.977 10.496 l S
16.52 33.141 m 16.52 9.629 l S
19.059 33.594 m 19.059 9.242 l S
21.602 34.059 m 21.602 8.902 l S
24.141 34.309 m 24.141 8.691 l S
26.684 34.441 m 26.684 8.512 l S
29.223 34.473 m 29.223 8.5 l S
31.766 34.523 m 31.766 8.434 l S
34.305 34.566 m 34.305 8.449 l S
36.848 34.574 m 36.848 8.445 l S
39.387 34.605 m 39.387 8.438 l S
41.93 34.609 m 41.93 8.395 l S
44.469 34.617 m 44.469 8.332 l S
47.012 34.672 m 47.012 8.367 l S
49.555 34.652 m 49.555 8.344 l S
52.094 34.695 m 52.094 8.32 l S
54.637 34.68 m 54.637 8.32 l S
57.176 34.684 m 57.176 8.281 l S
59.719 34.75 m 59.719 8.215 l S
62.258 34.793 m 62.258 8.18 l S
64.801 34.824 m 64.801 8.137 l S
67.34 34.84 m 67.34 8.125 l S
69.883 34.848 m 69.883 8.113 l S
72.422 34.91 m 72.422 8.074 l S
74.965 34.867 m 74.965 8.086 l S
77.508 34.887 m 77.508 8.086 l S
80.047 34.863 m 80.047 8.074 l S
82.59 34.875 m 82.59 8.094 l S
85.129 34.852 m 85.129 8.066 l S
87.672 34.855 m 87.672 8.113 l S
90.211 34.879 m 90.211 8.035 l S
92.754 34.91 m 92.754 8.027 l S
95.293 35.012 m 95.293 7.91 l S
97.836 35.113 m 97.836 7.824 l S
100.375 35.133 m 100.375 7.828 l S
102.918 35.105 m 102.918 7.875 l S
105.457 35.082 m 105.457 7.832 l S
108 35.008 m 108 7.945 l S
110.543 34.926 m 110.543 8.008 l S
113.082 34.84 m 113.082 8.098 l S
115.625 34.824 m 115.625 8.121 l S
118.164 34.805 m 118.164 8.129 l S
120.707 34.824 m 120.707 8.098 l S
123.246 34.797 m 123.246 8.133 l S
125.789 34.758 m 125.789 8.094 l S
128.328 34.762 m 128.328 8.141 l S
130.871 34.797 m 130.871 8.121 l S
133.41 34.785 m 133.41 8.086 l S
135.953 34.766 m 135.953 8.113 l S
138.492 34.762 m 138.492 8.121 l S
141.035 34.758 m 141.035 8.148 l S
143.578 34.719 m 143.578 8.164 l S
146.117 34.766 m 146.117 8.098 l S
148.66 34.82 m 148.66 8.109 l S
151.199 34.785 m 151.199 8.059 l S
153.742 34.789 m 153.742 8.109 l S
156.281 34.797 m 156.281 8.094 l S
158.824 34.777 m 158.824 8.105 l S
161.363 34.754 m 161.363 8.105 l S
163.906 34.75 m 163.906 8.133 l S
166.445 34.758 m 166.445 8.113 l S
168.988 34.75 m 168.988 8.141 l S
171.531 34.77 m 171.531 8.102 l S
174.07 34.805 m 174.07 8.066 l S
176.613 34.887 m 176.613 8.004 l S
179.152 34.957 m 179.152 7.941 l S
181.695 34.859 m 181.695 8.039 l S
184.234 33.336 m 184.234 9.414 l S
186.777 30.406 m 186.777 12.441 l S
189.316 28.465 m 189.316 14.41 l S
191.859 27.082 m 191.859 15.855 l S
194.398 25.871 m 194.398 17.016 l S
196.941 25.008 m 196.941 17.676 l S
199.48 24.336 m 199.48 18.43 l S
202.023 23.805 m 202.023 18.992 l S
204.566 23.32 m 204.566 19.43 l S
207.105 23.008 m 207.105 19.805 l S
209.648 22.656 m 209.648 20.129 l S
212.188 22.402 m 212.188 20.395 l S
214.73 22.191 m 214.73 20.676 l S
217.27 21.98 m 217.27 20.871 l S
219.812 21.871 m 219.812 21.008 l S
222.352 21.77 m 222.352 21.102 l S
224.895 21.695 m 224.895 21.172 l S
227.434 21.648 m 227.434 21.219 l S
229.977 21.578 m 229.977 21.285 l S
232.52 21.574 m 232.52 21.301 l S
235.059 21.539 m 235.059 21.332 l S
237.602 21.531 m 237.602 21.336 l S
240.141 21.531 m 240.141 21.336 l S
242.684 21.531 m 242.684 21.336 l S
245.223 21.531 m 245.223 21.336 l S
247.766 21.531 m 247.766 21.336 l S
250.305 21.531 m 250.305 21.336 l S
252.848 21.531 m 252.848 21.336 l S
255.387 21.531 m 255.387 21.336 l S
255.387 21.531 m 255.387 21.336 l S
3.812 64.734 m 3.812 64.535 l S
6.352 66.57 m 6.352 62.766 l S
8.895 70.633 m 8.895 58.746 l S
11.434 73.586 m 11.434 55.484 l S
13.977 75.32 m 13.977 53.684 l S
16.52 76.215 m 16.52 52.844 l S
19.059 76.543 m 19.059 52.484 l S
21.602 76.715 m 21.602 52.223 l S
24.141 76.938 m 24.141 52.047 l S
26.684 77.109 m 26.684 51.934 l S
29.223 77.211 m 29.223 51.918 l S
31.766 77.184 m 31.766 51.836 l S
34.305 77.27 m 34.305 51.773 l S
36.848 77.336 m 36.848 51.719 l S
39.387 77.289 m 39.387 51.77 l S
41.93 77.352 m 41.93 51.758 l S
44.469 77.305 m 44.469 51.777 l S
47.012 77.301 m 47.012 51.699 l S
49.555 77.363 m 49.555 51.707 l S
52.094 77.359 m 52.094 51.688 l S
54.637 77.332 m 54.637 51.672 l S
57.176 77.402 m 57.176 51.641 l S
59.719 77.352 m 59.719 51.695 l S
62.258 77.371 m 62.258 51.617 l S
64.801 77.398 m 64.801 51.527 l S
67.34 77.445 m 67.34 51.582 l S
69.883 77.516 m 69.883 51.562 l S
72.422 77.438 m 72.422 51.508 l S
74.965 77.508 m 74.965 51.473 l S
77.508 77.492 m 77.508 51.496 l S
80.047 77.449 m 80.047 51.566 l S
82.59 77.457 m 82.59 51.52 l S
85.129 77.469 m 85.129 51.504 l S
87.672 77.5 m 87.672 51.48 l S
90.211 77.473 m 90.211 51.496 l S
92.754 77.539 m 92.754 51.445 l S
95.293 77.621 m 95.293 51.352 l S
97.836 77.723 m 97.836 51.297 l S
100.375 77.828 m 100.375 51.238 l S
102.918 77.738 m 102.918 51.285 l S
105.457 77.754 m 105.457 51.223 l S
108 77.727 m 108 51.16 l S
110.543 77.668 m 110.543 51.344 l S
113.082 77.621 m 113.082 51.355 l S
115.625 77.465 m 115.625 51.426 l S
118.164 77.52 m 118.164 51.473 l S
120.707 77.52 m 120.707 51.422 l S
123.246 77.531 m 123.246 51.398 l S
125.789 77.758 m 125.789 51.406 l S
128.328 77.613 m 128.328 51.406 l S
130.871 77.562 m 130.871 51.441 l S
133.41 77.703 m 133.41 51.207 l S
135.953 77.723 m 135.953 51.43 l S
138.492 77.652 m 138.492 51.402 l S
141.035 77.645 m 141.035 51.445 l S
143.578 77.574 m 143.578 51.496 l S
146.117 77.492 m 146.117 51.5 l S
148.66 77.57 m 148.66 51.492 l S
151.199 77.512 m 151.199 51.449 l S
153.742 77.504 m 153.742 51.445 l S
156.281 77.496 m 156.281 51.508 l S
158.824 77.52 m 158.824 51.391 l S
161.363 77.633 m 161.363 51.363 l S
163.906 77.586 m 163.906 51.492 l S
166.445 77.68 m 166.445 51.332 l S
168.988 77.555 m 168.988 51.457 l S
171.531 77.574 m 171.531 51.52 l S
174.07 77.613 m 174.07 51.457 l S
176.613 77.512 m 176.613 51.426 l S
179.152 77.645 m 179.152 51.348 l S
181.695 77.492 m 181.695 51.477 l S
184.234 76.625 m 184.234 52.375 l S
186.777 73.969 m 186.777 55.055 l S
189.316 72.816 m 189.316 56.551 l S
191.859 71.48 m 191.859 57.93 l S
194.398 70.297 m 194.398 59.051 l S
196.941 69.359 m 196.941 59.957 l S
199.48 68.574 m 199.48 60.621 l S
202.023 67.762 m 202.023 61.387 l S
204.566 67.266 m 204.566 62.078 l S
207.105 66.844 m 207.105 62.617 l S
209.648 66.309 m 209.648 62.887 l S
212.188 65.984 m 212.188 63.18 l S
214.73 65.762 m 214.73 63.586 l S
217.27 65.488 m 217.27 63.793 l S
219.812 65.25 m 219.812 64.016 l S
222.352 65.109 m 222.352 64.168 l S
224.895 64.977 m 224.895 64.262 l S
227.434 64.914 m 227.434 64.355 l S
229.977 64.844 m 229.977 64.426 l S
232.52 64.797 m 232.52 64.457 l S
235.059 64.762 m 235.059 64.52 l S
237.602 64.734 m 237.602 64.535 l S
240.141 64.734 m 240.141 64.535 l S
242.684 64.734 m 242.684 64.535 l S
245.223 64.734 m 245.223 64.535 l S
247.766 64.734 m 247.766 64.535 l S
250.305 64.734 m 250.305 64.535 l S
252.848 64.734 m 252.848 64.535 l S
255.387 64.734 m 255.387 64.535 l S
255.387 64.734 m 255.387 64.535 l S
3.812 107.934 m 3.812 107.734 l S
6.352 110.008 m 6.352 105.809 l S
8.895 114.305 m 8.895 101.488 l S
11.434 117.84 m 11.434 97.578 l S
13.977 119.457 m 13.977 95.84 l S
16.52 120.383 m 16.52 95.191 l S
19.059 121.062 m 19.059 94.711 l S
21.602 121.625 m 21.602 94.133 l S
24.141 121.875 m 24.141 93.863 l S
26.684 122.09 m 26.684 93.703 l S
29.223 122.129 m 29.223 93.676 l S
31.766 122.152 m 31.766 93.656 l S
34.305 122.195 m 34.305 93.598 l S
36.848 122.258 m 36.848 93.57 l S
39.387 122.277 m 39.387 93.562 l S
41.93 122.309 m 41.93 93.566 l S
44.469 122.234 m 44.469 93.543 l S
47.012 122.242 m 47.012 93.484 l S
49.555 122.242 m 49.555 93.496 l S
52.094 122.258 m 52.094 93.473 l S
54.637 122.281 m 54.637 93.465 l S
57.176 122.328 m 57.176 93.391 l S
59.719 122.363 m 59.719 93.352 l S
62.258 122.422 m 62.258 93.219 l S
64.801 122.516 m 64.801 93.195 l S
67.34 122.52 m 67.34 93.242 l S
69.883 122.461 m 69.883 93.207 l S
72.422 122.523 m 72.422 93.176 l S
74.965 122.527 m 74.965 93.18 l S
77.508 122.477 m 77.508 93.191 l S
80.047 122.508 m 80.047 93.215 l S
82.59 122.477 m 82.59 93.164 l S
85.129 122.535 m 85.129 93.164 l S
87.672 122.504 m 87.672 93.125 l S
90.211 122.504 m 90.211 93.145 l S
92.754 122.637 m 92.754 93.051 l S
95.293 122.68 m 95.293 92.961 l S
97.836 122.82 m 97.836 92.91 l S
100.375 122.906 m 100.375 92.891 l S
102.918 122.785 m 102.918 92.863 l S
105.457 122.871 m 105.457 92.957 l S
108 122.75 m 108 92.914 l S
110.543 122.785 m 110.543 93.027 l S
113.082 122.699 m 113.082 93.113 l S
115.625 122.539 m 115.625 93.098 l S
118.164 122.477 m 118.164 93.156 l S
120.707 122.523 m 120.707 93.203 l S
123.246 122.492 m 123.246 93.18 l S
125.789 122.742 m 125.789 93.188 l S
128.328 122.648 m 128.328 93.164 l S
130.871 122.555 m 130.871 93.145 l S
133.41 122.746 m 133.41 92.984 l S
135.953 122.547 m 135.953 93.109 l S
138.492 122.602 m 138.492 93.141 l S
141.035 122.555 m 141.035 93.188 l S
143.578 122.465 m 143.578 93.27 l S
146.117 122.426 m 146.117 93.223 l S
148.66 122.473 m 148.66 93.215 l S
151.199 122.492 m 151.199 93.219 l S
153.742 122.461 m 153.742 93.195 l S
156.281 122.48 m 156.281 93.219 l S
158.824 122.609 m 158.824 93.188 l S
161.363 122.52 m 161.363 93.219 l S
163.906 122.484 m 163.906 93.195 l S
166.445 122.477 m 166.445 93.164 l S
168.988 122.512 m 168.988 93.246 l S
171.531 122.484 m 171.531 93.227 l S
174.07 122.492 m 174.07 93.176 l S
176.613 122.566 m 176.613 93.109 l S
179.152 122.625 m 179.152 93.082 l S
181.695 122.516 m 181.695 93.18 l S
184.234 120.527 m 184.234 94.84 l S
186.777 117.66 m 186.777 97.961 l S
189.316 116.078 m 189.316 99.855 l S
191.859 114.309 m 191.859 101.426 l S
194.398 113.215 m 194.398 102.418 l S
196.941 112.344 m 196.941 103.41 l S
199.48 111.473 m 199.48 104.312 l S
202.023 110.738 m 202.023 105 l S
204.566 110.102 m 204.566 105.535 l S
207.105 109.785 m 207.105 105.918 l S
209.648 109.262 m 209.648 106.312 l S
212.188 109.047 m 212.188 106.719 l S
214.73 108.711 m 214.73 106.973 l S
217.27 108.57 m 217.27 107.203 l S
219.812 108.363 m 219.812 107.312 l S
222.352 108.266 m 222.352 107.43 l S
224.895 108.137 m 224.895 107.496 l S
227.434 108.098 m 227.434 107.539 l S
229.977 108.039 m 229.977 107.648 l S
232.52 107.988 m 232.52 107.668 l S
235.059 107.965 m 235.059 107.703 l S
237.602 107.934 m 237.602 107.734 l S
240.141 107.934 m 240.141 107.734 l S
242.684 107.934 m 242.684 107.734 l S
245.223 107.934 m 245.223 107.734 l S
247.766 107.934 m 247.766 107.734 l S
250.305 107.934 m 250.305 107.734 l S
252.848 107.934 m 252.848 107.734 l S
255.387 107.934 m 255.387 107.734 l S
255.387 107.934 m 255.387 107.734 l S
3.812 151.133 m 3.812 150.898 l S
6.352 154.246 m 6.352 147.93 l S
8.895 160.602 m 8.895 141.566 l S
11.434 165.469 m 11.434 136.598 l S
13.977 167.805 m 13.977 134.324 l S
16.52 168.785 m 16.52 133.332 l S
19.059 169.188 m 19.059 132.914 l S
21.602 169.461 m 21.602 132.688 l S
24.141 169.641 m 24.141 132.453 l S
26.684 169.863 m 26.684 132.359 l S
29.223 169.91 m 29.223 132.32 l S
31.766 169.961 m 31.766 132.262 l S
34.305 170.102 m 34.305 132.203 l S
36.848 170.066 m 36.848 132.195 l S
39.387 170 m 39.387 132.234 l S
41.93 170.203 m 41.93 132.273 l S
44.469 170.023 m 44.469 132.277 l S
47.012 169.973 m 47.012 132.117 l S
49.555 170.008 m 49.555 132.211 l S
52.094 170.047 m 52.094 132.203 l S
54.637 170.055 m 54.637 132.191 l S
57.176 170.109 m 57.176 132.145 l S
59.719 170.098 m 59.719 132.062 l S
62.258 170.254 m 62.258 131.977 l S
64.801 170.309 m 64.801 131.961 l S
67.34 170.332 m 67.34 132.008 l S
69.883 170.293 m 69.883 132.027 l S
72.422 170.344 m 72.422 131.984 l S
74.965 170.363 m 74.965 131.973 l S
77.508 170.355 m 77.508 131.902 l S
80.047 170.383 m 80.047 131.918 l S
82.59 170.355 m 82.59 131.887 l S
85.129 170.406 m 85.129 131.957 l S
87.672 170.316 m 87.672 131.91 l S
90.211 170.418 m 90.211 131.867 l S
92.754 170.516 m 92.754 131.867 l S
95.293 170.551 m 95.293 131.715 l S
97.836 170.742 m 97.836 131.594 l S
100.375 170.836 m 100.375 131.656 l S
102.918 170.684 m 102.918 131.719 l S
105.457 170.777 m 105.457 131.562 l S
108 170.695 m 108 131.656 l S
110.543 170.609 m 110.543 131.848 l S
113.082 170.578 m 113.082 131.824 l S
115.625 170.371 m 115.625 131.793 l S
118.164 170.441 m 118.164 131.953 l S
120.707 170.418 m 120.707 131.871 l S
123.246 170.402 m 123.246 131.902 l S
125.789 170.711 m 125.789 131.785 l S
128.328 170.516 m 128.328 131.902 l S
130.871 170.43 m 130.871 131.898 l S
133.41 170.734 m 133.41 131.637 l S
135.953 170.438 m 135.953 131.805 l S
138.492 170.457 m 138.492 131.766 l S
141.035 170.562 m 141.035 131.816 l S
143.578 170.457 m 143.578 131.926 l S
146.117 170.414 m 146.117 131.797 l S
148.66 170.492 m 148.66 131.84 l S
151.199 170.395 m 151.199 131.887 l S
153.742 170.367 m 153.742 131.816 l S
156.281 170.402 m 156.281 131.891 l S
158.824 170.543 m 158.824 131.773 l S
161.363 170.434 m 161.363 131.852 l S
163.906 170.387 m 163.906 131.867 l S
166.445 170.566 m 166.445 131.844 l S
168.988 170.52 m 168.988 131.816 l S
171.531 170.512 m 171.531 131.91 l S
174.07 170.406 m 174.07 131.82 l S
176.613 170.422 m 176.613 131.77 l S
179.152 170.578 m 179.152 131.754 l S
181.695 170.387 m 181.695 131.867 l S
184.234 169.234 m 184.234 132.754 l S
186.777 166.113 m 186.777 135.793 l S
189.316 163.891 m 189.316 138.5 l S
191.859 161.734 m 191.859 140.391 l S
194.398 159.824 m 194.398 142.098 l S
196.941 158.633 m 196.941 143.543 l S
199.48 157.43 m 199.48 144.508 l S
202.023 156.621 m 202.023 145.535 l S
204.566 155.773 m 204.566 146.273 l S
207.105 154.938 m 207.105 147.066 l S
209.648 154.16 m 209.648 147.887 l S
212.188 153.652 m 212.188 148.609 l S
214.73 153.059 m 214.73 149.145 l S
217.27 152.598 m 217.27 149.488 l S
219.812 152.254 m 219.812 149.887 l S
222.352 151.949 m 222.352 150.078 l S
224.895 151.656 m 224.895 150.328 l S
227.434 151.523 m 227.434 150.562 l S
229.977 151.414 m 229.977 150.695 l S
232.52 151.309 m 232.52 150.73 l S
235.059 151.246 m 235.059 150.777 l S
237.602 151.199 m 237.602 150.871 l S
240.141 151.141 m 240.141 150.922 l S
242.684 151.133 m 242.684 150.938 l S
245.223 151.133 m 245.223 150.938 l S
247.766 151.133 m 247.766 150.938 l S
250.305 151.133 m 250.305 150.938 l S
252.848 151.133 m 252.848 150.938 l S
255.387 151.133 m 255.387 150.938 l S
255.387 151.133 m 255.387 150.938 l S
Q Q
showpage
%%Trailer
end
%%EOF
