%!PS-Adobe-3.0 EPSF-3.0
%%Creator: cairo 1.16.0 (https://cairographics.org)
%%CreationDate: Wed May 15 11:57:22 2024
%%Pages: 1
%%DocumentData: Clean7Bit
%%LanguageLevel: 2
%%Creator: Wolfram Mathematica
%%BoundingBox: 2 4 257 165
%%EndComments
%%BeginProlog
50 dict begin
/q { gsave } bind def
/Q { grestore } bind def
/cm { 6 array astore concat } bind def
/w { setlinewidth } bind def
/J { setlinecap } bind def
/j { setlinejoin } bind def
/M { setmiterlimit } bind def
/d { setdash } bind def
/m { moveto } bind def
/l { lineto } bind def
/c { curveto } bind def
/h { closepath } bind def
/re { exch dup neg 3 1 roll 5 3 roll moveto 0 rlineto
      0 exch rlineto 0 rlineto closepath } bind def
/S { stroke } bind def
/f { fill } bind def
/f* { eofill } bind def
/n { newpath } bind def
/W { clip } bind def
/W* { eoclip } bind def
/BT { } bind def
/ET { } bind def
/BDC { mark 3 1 roll /BDC pdfmark } bind def
/EMC { mark /EMC pdfmark } bind def
/cairo_store_point { /cairo_point_y exch def /cairo_point_x exch def } def
/Tj { show currentpoint cairo_store_point } bind def
/TJ {
  {
    dup
    type /stringtype eq
    { show } { -0.001 mul 0 cairo_font_matrix dtransform rmoveto } ifelse
  } forall
  currentpoint cairo_store_point
} bind def
/cairo_selectfont { cairo_font_matrix aload pop pop pop 0 0 6 array astore
    cairo_font exch selectfont cairo_point_x cairo_point_y moveto } bind def
/Tf { pop /cairo_font exch def /cairo_font_matrix where
      { pop cairo_selectfont } if } bind def
/Td { matrix translate cairo_font_matrix matrix concatmatrix dup
      /cairo_font_matrix exch def dup 4 get exch 5 get cairo_store_point
      /cairo_font where { pop cairo_selectfont } if } bind def
/Tm { 2 copy 8 2 roll 6 array astore /cairo_font_matrix exch def
      cairo_store_point /cairo_font where { pop cairo_selectfont } if } bind def
/g { setgray } bind def
/rg { setrgbcolor } bind def
/d1 { setcachedevice } bind def
/cairo_data_source {
  CairoDataIndex CairoData length lt
    { CairoData CairoDataIndex get /CairoDataIndex CairoDataIndex 1 add def }
    { () } ifelse
} def
/cairo_flush_ascii85_file { cairo_ascii85_file status { cairo_ascii85_file flushfile } if } def
/cairo_image { image cairo_flush_ascii85_file } def
/cairo_imagemask { imagemask cairo_flush_ascii85_file } def
%%EndProlog
%%BeginSetup
%%EndSetup
%%Page: 1 1
%%BeginPageSetup
%%PageBoundingBox: 2 4 257 165
%%EndPageSetup
q 2 4 255 161 rectclip
1 0 0 -1 0 173 cm q
0 g
1.796436 w
0 J
0 j
[] 0.0 d
3.25 M 3.812 21.727 m 3.812 21.527 l S
6.352 23.465 m 6.352 19.559 l S
8.895 26.746 m 8.895 16.398 l S
11.434 30.02 m 11.434 13.086 l S
13.977 31.398 m 13.977 11.793 l S
16.52 32.207 m 16.52 11.078 l S
19.059 32.34 m 19.059 10.844 l S
21.602 32.43 m 21.602 10.805 l S
24.141 32.352 m 24.141 10.754 l S
26.684 32.43 m 26.684 10.656 l S
29.223 32.477 m 29.223 10.719 l S
31.766 32.453 m 31.766 10.703 l S
34.305 32.363 m 34.305 10.781 l S
36.848 32.273 m 36.848 10.801 l S
39.387 32.246 m 39.387 10.867 l S
41.93 32.18 m 41.93 10.922 l S
44.469 32.168 m 44.469 10.949 l S
47.012 32.117 m 47.012 10.941 l S
49.555 32.059 m 49.555 11.039 l S
52.094 31.973 m 52.094 11.074 l S
54.637 31.902 m 54.637 11.145 l S
57.176 31.805 m 57.176 11.207 l S
59.719 31.816 m 59.719 11.223 l S
62.258 31.777 m 62.258 11.141 l S
64.801 31.762 m 64.801 11.199 l S
67.34 31.934 m 67.34 11.023 l S
69.883 31.945 m 69.883 10.984 l S
72.422 32.352 m 72.422 10.68 l S
74.965 32.484 m 74.965 10.676 l S
77.508 32.703 m 77.508 10.449 l S
80.047 32.891 m 80.047 10.363 l S
82.59 32.922 m 82.59 10.047 l S
85.129 33.094 m 85.129 10.211 l S
87.672 33.246 m 87.672 9.832 l S
90.211 33.359 m 90.211 9.723 l S
92.754 33.453 m 92.754 9.527 l S
95.293 33.414 m 95.293 9.539 l S
97.836 33.484 m 97.836 9.469 l S
100.375 33.461 m 100.375 9.496 l S
102.918 33.32 m 102.918 9.617 l S
105.457 33.188 m 105.457 9.719 l S
108 33.129 m 108 9.738 l S
110.543 33.086 m 110.543 9.949 l S
113.082 33.129 m 113.082 9.953 l S
115.625 33.016 m 115.625 10.062 l S
118.164 33.125 m 118.164 10.164 l S
120.707 33.117 m 120.707 10.043 l S
123.246 33.055 m 123.246 10.09 l S
125.789 32.98 m 125.789 10.012 l S
128.328 32.965 m 128.328 10.043 l S
130.871 33.07 m 130.871 10.016 l S
133.41 33.172 m 133.41 9.98 l S
135.953 33.297 m 135.953 9.762 l S
138.492 33.281 m 138.492 9.73 l S
141.035 33.465 m 141.035 9.379 l S
143.578 33.676 m 143.578 9.113 l S
146.117 34.035 m 146.117 9.059 l S
148.66 34.547 m 148.66 8.516 l S
151.199 34.438 m 151.199 8.191 l S
153.742 34.574 m 153.742 8.711 l S
156.281 34.254 m 156.281 8.266 l S
158.824 34.328 m 158.824 8.723 l S
161.363 34.41 m 161.363 9.164 l S
163.906 34.129 m 163.906 8.707 l S
166.445 33.16 m 166.445 8.77 l S
168.988 33.324 m 168.988 9.219 l S
171.531 33.758 m 171.531 9.598 l S
174.07 33.801 m 174.07 9.762 l S
176.613 33.594 m 176.613 9.727 l S
179.152 33.551 m 179.152 9.43 l S
181.695 33.359 m 181.695 9.305 l S
184.234 33.531 m 184.234 9.285 l S
186.777 33.746 m 186.777 9.473 l S
189.316 33.691 m 189.316 9.965 l S
191.859 33.484 m 191.859 10.254 l S
194.398 33.301 m 194.398 10.621 l S
196.941 32.707 m 196.941 10.457 l S
199.48 32.488 m 199.48 10.324 l S
202.023 32.324 m 202.023 10.273 l S
204.566 32.125 m 204.566 10.266 l S
207.105 31.977 m 207.105 10.312 l S
209.648 32.02 m 209.648 10.387 l S
212.188 31.441 m 212.188 11.254 l S
214.73 29.723 m 214.73 12.684 l S
217.27 28.484 m 217.27 15.043 l S
219.812 26.777 m 219.812 16.359 l S
222.352 25.496 m 222.352 17.637 l S
224.895 24.551 m 224.895 18.832 l S
227.434 23.621 m 227.434 19.648 l S
229.977 23.043 m 229.977 20.25 l S
232.52 22.578 m 232.52 20.719 l S
235.059 22.246 m 235.059 21.051 l S
237.602 22.012 m 237.602 21.273 l S
240.141 21.859 m 240.141 21.406 l S
242.684 21.781 m 242.684 21.508 l S
245.223 21.727 m 245.223 21.527 l S
247.766 21.727 m 247.766 21.527 l S
250.305 21.727 m 250.305 21.527 l S
252.848 21.727 m 252.848 21.527 l S
255.387 21.727 m 255.387 21.527 l S
255.387 21.727 m 255.387 21.527 l S
3.812 64.926 m 3.812 64.719 l S
6.352 67.184 m 6.352 62.832 l S
8.895 70.43 m 8.895 59.523 l S
11.434 73.031 m 11.434 56.457 l S
13.977 74.039 m 13.977 55.48 l S
16.52 74.848 m 16.52 54.527 l S
19.059 75.242 m 19.059 54.215 l S
21.602 75.348 m 21.602 54.043 l S
24.141 75.438 m 24.141 54.078 l S
26.684 75.25 m 26.684 54.141 l S
29.223 75.258 m 29.223 54.082 l S
31.766 75.266 m 31.766 54.078 l S
34.305 75.238 m 34.305 54.074 l S
36.848 75.16 m 36.848 54.23 l S
39.387 75.164 m 39.387 54.277 l S
41.93 75.168 m 41.93 54.281 l S
44.469 75.09 m 44.469 54.301 l S
47.012 75.098 m 47.012 54.293 l S
49.555 75.105 m 49.555 54.398 l S
52.094 74.961 m 52.094 54.438 l S
54.637 74.91 m 54.637 54.473 l S
57.176 74.824 m 57.176 54.52 l S
59.719 74.805 m 59.719 54.492 l S
62.258 74.875 m 62.258 54.465 l S
64.801 74.852 m 64.801 54.605 l S
67.34 74.887 m 67.34 54.559 l S
69.883 74.945 m 69.883 54.418 l S
72.422 75.23 m 72.422 54.328 l S
74.965 75.23 m 74.965 54.207 l S
77.508 75.449 m 77.508 54.086 l S
80.047 75.582 m 80.047 53.945 l S
82.59 75.742 m 82.59 53.914 l S
85.129 75.75 m 85.129 53.793 l S
87.672 75.93 m 87.672 53.73 l S
90.211 75.887 m 90.211 53.766 l S
92.754 75.727 m 92.754 53.922 l S
95.293 75.738 m 95.293 53.879 l S
97.836 75.652 m 97.836 53.961 l S
100.375 75.621 m 100.375 54.113 l S
102.918 75.555 m 102.918 54.137 l S
105.457 75.484 m 105.457 54.148 l S
108 75.457 m 108 54.172 l S
110.543 75.406 m 110.543 54.223 l S
113.082 75.555 m 113.082 54.047 l S
115.625 75.539 m 115.625 53.941 l S
118.164 75.727 m 118.164 53.977 l S
120.707 75.711 m 120.707 53.922 l S
123.246 75.715 m 123.246 53.828 l S
125.789 75.875 m 125.789 53.734 l S
128.328 75.855 m 128.328 53.723 l S
130.871 75.848 m 130.871 53.691 l S
133.41 75.91 m 133.41 53.738 l S
135.953 75.809 m 135.953 53.898 l S
138.492 75.789 m 138.492 53.844 l S
141.035 75.723 m 141.035 53.996 l S
143.578 75.555 m 143.578 54.074 l S
146.117 76.008 m 146.117 53.641 l S
148.66 76.242 m 148.66 53.699 l S
151.199 76.285 m 151.199 53.512 l S
153.742 76.059 m 153.742 53.621 l S
156.281 75.875 m 156.281 53.945 l S
158.824 76.027 m 158.824 54.484 l S
161.363 75.309 m 161.363 53.898 l S
163.906 75.062 m 163.906 54.121 l S
166.445 75.469 m 166.445 54.719 l S
168.988 75.508 m 168.988 55.258 l S
171.531 74.977 m 171.531 54.656 l S
174.07 74.461 m 174.07 54.48 l S
176.613 74.086 m 176.613 54.746 l S
179.152 74.391 m 179.152 55.059 l S
181.695 74.461 m 181.695 55.133 l S
184.234 74.348 m 184.234 55.227 l S
186.777 74.227 m 186.777 55.137 l S
189.316 73.816 m 189.316 55.309 l S
191.859 73.828 m 191.859 55.414 l S
194.398 73.816 m 194.398 55.691 l S
196.941 73.832 m 196.941 55.887 l S
199.48 73.961 m 199.48 56.129 l S
202.023 73.965 m 202.023 56.371 l S
204.566 73.883 m 204.566 56.586 l S
207.105 73.648 m 207.105 56.469 l S
209.648 73.422 m 209.648 56.344 l S
212.188 72.855 m 212.188 56.684 l S
214.73 71.902 m 214.73 57.922 l S
217.27 70.746 m 217.27 59.344 l S
219.812 69.488 m 219.812 60.188 l S
222.352 68.461 m 222.352 61.211 l S
224.895 67.664 m 224.895 62.066 l S
227.434 66.941 m 227.434 62.879 l S
229.977 66.184 m 229.977 63.434 l S
232.52 65.762 m 232.52 63.93 l S
235.059 65.445 m 235.059 64.219 l S
237.602 65.176 m 237.602 64.449 l S
240.141 65.059 m 240.141 64.582 l S
242.684 64.965 m 242.684 64.707 l S
245.223 64.926 m 245.223 64.73 l S
247.766 64.926 m 247.766 64.73 l S
250.305 64.926 m 250.305 64.73 l S
252.848 64.926 m 252.848 64.73 l S
255.387 64.926 m 255.387 64.73 l S
255.387 64.926 m 255.387 64.73 l S
3.812 108.125 m 3.812 107.91 l S
6.352 110.812 m 6.352 105.438 l S
8.895 114.906 m 8.895 101.691 l S
11.434 117.363 m 11.434 98.637 l S
13.977 118.664 m 13.977 96.758 l S
16.52 119.395 m 16.52 96.383 l S
19.059 119.605 m 19.059 96.203 l S
21.602 119.785 m 21.602 96.168 l S
24.141 119.785 m 24.141 96.102 l S
26.684 119.871 m 26.684 96.047 l S
29.223 119.836 m 29.223 96.004 l S
31.766 119.852 m 31.766 96.023 l S
34.305 119.711 m 34.305 96.152 l S
36.848 119.727 m 36.848 96.188 l S
39.387 119.707 m 39.387 96.254 l S
41.93 119.672 m 41.93 96.25 l S
44.469 119.578 m 44.469 96.297 l S
47.012 119.637 m 47.012 96.285 l S
49.555 119.535 m 49.555 96.352 l S
52.094 119.516 m 52.094 96.352 l S
54.637 119.512 m 54.637 96.371 l S
57.176 119.5 m 57.176 96.352 l S
59.719 119.543 m 59.719 96.27 l S
62.258 119.656 m 62.258 96.219 l S
64.801 119.676 m 64.801 96.211 l S
67.34 119.93 m 67.34 95.902 l S
69.883 120.078 m 69.883 95.594 l S
72.422 120.527 m 72.422 95.258 l S
74.965 120.812 m 74.965 94.754 l S
77.508 121.465 m 77.508 94.562 l S
80.047 121.723 m 80.047 94.012 l S
82.59 122.57 m 82.59 93.453 l S
85.129 123.004 m 85.129 92.898 l S
87.672 123.57 m 87.672 92.418 l S
90.211 124.156 m 90.211 92.227 l S
92.754 124.684 m 92.754 91.32 l S
95.293 124.699 m 95.293 91.355 l S
97.836 124.992 m 97.836 90.883 l S
100.375 124.848 m 100.375 91.223 l S
102.918 124.559 m 102.918 91.074 l S
105.457 124.672 m 105.457 91.668 l S
108 124.289 m 108 91.59 l S
110.543 124.293 m 110.543 91.957 l S
113.082 123.875 m 113.082 91.812 l S
115.625 124.109 m 115.625 92.207 l S
118.164 123.5 m 118.164 92.398 l S
120.707 123.48 m 120.707 92.188 l S
123.246 123.418 m 123.246 92.52 l S
125.789 123.453 m 125.789 92.742 l S
128.328 123.445 m 128.328 92.684 l S
130.871 123.512 m 130.871 92.574 l S
133.41 123.719 m 133.41 92.551 l S
135.953 123.879 m 135.953 91.66 l S
138.492 124.832 m 138.492 91.43 l S
141.035 125.426 m 141.035 90.711 l S
143.578 125.859 m 143.578 90.324 l S
146.117 125.656 m 146.117 89.75 l S
148.66 126.504 m 148.66 89.344 l S
151.199 126.867 m 151.199 90.055 l S
153.742 126.434 m 153.742 89.051 l S
156.281 127.156 m 156.281 89.25 l S
158.824 127.637 m 158.824 89.18 l S
161.363 127.25 m 161.363 88.652 l S
163.906 126.348 m 163.906 88.918 l S
166.445 126.875 m 166.445 89.406 l S
168.988 127.141 m 168.988 90.012 l S
171.531 127.105 m 171.531 89.441 l S
174.07 126.691 m 174.07 89.09 l S
176.613 125.836 m 176.613 88.98 l S
179.152 126.164 m 179.152 88.875 l S
181.695 126.332 m 181.695 88.703 l S
184.234 126.551 m 184.234 88.438 l S
186.777 126.676 m 186.777 88.363 l S
189.316 126.945 m 189.316 88.395 l S
191.859 127.328 m 191.859 88.859 l S
194.398 127.352 m 194.398 89.559 l S
196.941 127.176 m 196.941 89.836 l S
199.48 126.863 m 199.48 89.887 l S
202.023 126.566 m 202.023 89.922 l S
204.566 126.297 m 204.566 89.965 l S
207.105 126.016 m 207.105 89.773 l S
209.648 125.73 m 209.648 89.664 l S
212.188 124.625 m 212.188 91.051 l S
214.73 122.078 m 214.73 93.605 l S
217.27 119.945 m 217.27 96.141 l S
219.812 117.539 m 219.812 98.293 l S
222.352 115.562 m 222.352 100.254 l S
224.895 113.84 m 224.895 102.027 l S
227.434 112.406 m 227.434 103.66 l S
229.977 111.062 m 229.977 104.934 l S
232.52 110.133 m 232.52 105.926 l S
235.059 109.418 m 235.059 106.691 l S
237.602 108.867 m 237.602 107.258 l S
240.141 108.504 m 240.141 107.523 l S
242.684 108.301 m 242.684 107.75 l S
245.223 108.168 m 245.223 107.875 l S
247.766 108.125 m 247.766 107.93 l S
250.305 108.125 m 250.305 107.93 l S
252.848 108.125 m 252.848 107.93 l S
255.387 108.125 m 255.387 107.93 l S
255.387 108.125 m 255.387 107.93 l S
3.812 151.41 m 3.812 151.008 l S
6.352 155.023 m 6.352 147.711 l S
8.895 160.32 m 8.895 142.285 l S
11.434 164.105 m 11.434 138.27 l S
13.977 165.637 m 13.977 136.66 l S
16.52 166.699 m 16.52 135.934 l S
19.059 167.051 m 19.059 135.426 l S
21.602 167.316 m 21.602 135.168 l S
24.141 167.359 m 24.141 135.051 l S
26.684 167.285 m 26.684 135.145 l S
29.223 167.348 m 29.223 135.191 l S
31.766 167.316 m 31.766 135.242 l S
34.305 167.23 m 34.305 135.273 l S
36.848 167.234 m 36.848 135.312 l S
39.387 167.145 m 39.387 135.352 l S
41.93 167.133 m 41.93 135.391 l S
44.469 167.051 m 44.469 135.438 l S
47.012 167.07 m 47.012 135.449 l S
49.555 166.969 m 49.555 135.551 l S
52.094 166.887 m 52.094 135.609 l S
54.637 166.816 m 54.637 135.656 l S
57.176 166.777 m 57.176 135.711 l S
59.719 166.738 m 59.719 135.762 l S
62.258 166.801 m 62.258 135.812 l S
64.801 166.699 m 64.801 135.867 l S
67.34 166.594 m 67.34 135.871 l S
69.883 166.75 m 69.883 135.664 l S
72.422 166.863 m 72.422 135.562 l S
74.965 167.023 m 74.965 135.344 l S
77.508 167.312 m 77.508 135.355 l S
80.047 167.582 m 80.047 135.047 l S
82.59 167.785 m 82.59 135.078 l S
85.129 167.844 m 85.129 134.746 l S
87.672 168.023 m 87.672 134.777 l S
90.211 168.133 m 90.211 134.797 l S
92.754 168 m 92.754 134.645 l S
95.293 167.934 m 95.293 134.711 l S
97.836 167.82 m 97.836 134.871 l S
100.375 167.66 m 100.375 134.926 l S
102.918 167.668 m 102.918 135.105 l S
105.457 167.391 m 105.457 135.207 l S
108 167.395 m 108 135.273 l S
110.543 167.523 m 110.543 135.234 l S
113.082 167.496 m 113.082 135.238 l S
115.625 167.512 m 115.625 135.238 l S
118.164 167.617 m 118.164 134.902 l S
120.707 167.57 m 120.707 134.977 l S
123.246 167.719 m 123.246 134.922 l S
125.789 167.746 m 125.789 135.043 l S
128.328 167.672 m 128.328 134.961 l S
130.871 167.781 m 130.871 134.977 l S
133.41 167.852 m 133.41 134.965 l S
135.953 167.777 m 135.953 134.801 l S
138.492 167.801 m 138.492 134.961 l S
141.035 167.742 m 141.035 134.938 l S
143.578 167.695 m 143.578 135.117 l S
146.117 168.371 m 146.117 134.727 l S
148.66 167.977 m 148.66 134.199 l S
151.199 168.711 m 151.199 134.406 l S
153.742 168.484 m 153.742 134.039 l S
156.281 168.746 m 156.281 135.191 l S
158.824 167.969 m 158.824 134.363 l S
161.363 167.785 m 161.363 134.559 l S
163.906 168.168 m 163.906 135.906 l S
166.445 167.746 m 166.445 135.809 l S
168.988 166.809 m 168.988 135.32 l S
171.531 166.223 m 171.531 135.34 l S
174.07 166.93 m 174.07 135.82 l S
176.613 167.27 m 176.613 136.484 l S
179.152 167.156 m 179.152 137.246 l S
181.695 166.98 m 181.695 137.336 l S
184.234 166.938 m 184.234 137.512 l S
186.777 166.906 m 186.777 137.348 l S
189.316 166.695 m 189.316 136.473 l S
191.859 165.82 m 191.859 136.453 l S
194.398 165.109 m 194.398 136.734 l S
196.941 164.684 m 196.941 136.867 l S
199.48 164.164 m 199.48 137.219 l S
202.023 164.48 m 202.023 137.469 l S
204.566 164.949 m 204.566 137.652 l S
207.105 165.035 m 207.105 138.086 l S
209.648 165.004 m 209.648 138.27 l S
212.188 164.414 m 212.188 139.203 l S
214.73 162.699 m 214.73 141.129 l S
217.27 160.23 m 217.27 142.266 l S
219.812 158.52 m 219.812 144.148 l S
222.352 157.055 m 222.352 145.703 l S
224.895 155.652 m 224.895 146.973 l S
227.434 154.34 m 227.434 148.086 l S
229.977 153.453 m 229.977 149.168 l S
232.52 152.664 m 232.52 149.68 l S
235.059 152.148 m 235.059 150.16 l S
237.602 151.82 m 237.602 150.613 l S
240.141 151.551 m 240.141 150.812 l S
242.684 151.457 m 242.684 150.984 l S
245.223 151.355 m 245.223 151.086 l S
247.766 151.324 m 247.766 151.129 l S
250.305 151.324 m 250.305 151.129 l S
252.848 151.324 m 252.848 151.129 l S
255.387 151.324 m 255.387 151.129 l S
255.387 151.324 m 255.387 151.129 l S
Q Q
showpage
%%Trailer
end
%%EOF
