%!PS-Adobe-3.0 EPSF-3.0
%%Creator: cairo 1.16.0 (https://cairographics.org)
%%CreationDate: Wed May 15 11:57:22 2024
%%Pages: 1
%%DocumentData: Clean7Bit
%%LanguageLevel: 2
%%Creator: Wolfram Mathematica
%%BoundingBox: 2 5 257 165
%%EndComments
%%BeginProlog
50 dict begin
/q { gsave } bind def
/Q { grestore } bind def
/cm { 6 array astore concat } bind def
/w { setlinewidth } bind def
/J { setlinecap } bind def
/j { setlinejoin } bind def
/M { setmiterlimit } bind def
/d { setdash } bind def
/m { moveto } bind def
/l { lineto } bind def
/c { curveto } bind def
/h { closepath } bind def
/re { exch dup neg 3 1 roll 5 3 roll moveto 0 rlineto
      0 exch rlineto 0 rlineto closepath } bind def
/S { stroke } bind def
/f { fill } bind def
/f* { eofill } bind def
/n { newpath } bind def
/W { clip } bind def
/W* { eoclip } bind def
/BT { } bind def
/ET { } bind def
/BDC { mark 3 1 roll /BDC pdfmark } bind def
/EMC { mark /EMC pdfmark } bind def
/cairo_store_point { /cairo_point_y exch def /cairo_point_x exch def } def
/Tj { show currentpoint cairo_store_point } bind def
/TJ {
  {
    dup
    type /stringtype eq
    { show } { -0.001 mul 0 cairo_font_matrix dtransform rmoveto } ifelse
  } forall
  currentpoint cairo_store_point
} bind def
/cairo_selectfont { cairo_font_matrix aload pop pop pop 0 0 6 array astore
    cairo_font exch selectfont cairo_point_x cairo_point_y moveto } bind def
/Tf { pop /cairo_font exch def /cairo_font_matrix where
      { pop cairo_selectfont } if } bind def
/Td { matrix translate cairo_font_matrix matrix concatmatrix dup
      /cairo_font_matrix exch def dup 4 get exch 5 get cairo_store_point
      /cairo_font where { pop cairo_selectfont } if } bind def
/Tm { 2 copy 8 2 roll 6 array astore /cairo_font_matrix exch def
      cairo_store_point /cairo_font where { pop cairo_selectfont } if } bind def
/g { setgray } bind def
/rg { setrgbcolor } bind def
/d1 { setcachedevice } bind def
/cairo_data_source {
  CairoDataIndex CairoData length lt
    { CairoData CairoDataIndex get /CairoDataIndex CairoDataIndex 1 add def }
    { () } ifelse
} def
/cairo_flush_ascii85_file { cairo_ascii85_file status { cairo_ascii85_file flushfile } if } def
/cairo_image { image cairo_flush_ascii85_file } def
/cairo_imagemask { imagemask cairo_flush_ascii85_file } def
%%EndProlog
%%BeginSetup
%%EndSetup
%%Page: 1 1
%%BeginPageSetup
%%PageBoundingBox: 2 5 257 165
%%EndPageSetup
q 2 5 255 160 rectclip
1 0 0 -1 0 173 cm q
0 g
1.796436 w
0 J
0 j
[] 0.0 d
3.25 M 3.812 21.578 m 3.812 21.383 l S
6.352 21.578 m 6.352 21.383 l S
8.895 22.562 m 8.895 20.539 l S
11.434 24.855 m 11.434 17.941 l S
13.977 28.223 m 13.977 14.176 l S
16.52 30.855 m 16.52 10.832 l S
19.059 33.328 m 19.059 9.621 l S
21.602 33.586 m 21.602 8.77 l S
24.141 33.98 m 24.141 9.121 l S
26.684 34.375 m 26.684 9.438 l S
29.223 34.219 m 29.223 9.359 l S
31.766 33.305 m 31.766 9.57 l S
34.305 33.043 m 34.305 9.164 l S
36.848 33.367 m 36.848 9.414 l S
39.387 33.055 m 39.387 9.176 l S
41.93 33.383 m 41.93 9.402 l S
44.469 33.191 m 44.469 9.535 l S
47.012 33.113 m 47.012 9.688 l S
49.555 33.164 m 49.555 9.363 l S
52.094 33.062 m 52.094 9.516 l S
54.637 32.922 m 54.637 9.59 l S
57.176 32.754 m 57.176 9.684 l S
59.719 32.695 m 59.719 9.836 l S
62.258 32.457 m 62.258 10.109 l S
64.801 32.414 m 64.801 10.09 l S
67.34 32.328 m 67.34 10.273 l S
69.883 32.465 m 69.883 10.402 l S
72.422 32.504 m 72.422 10.414 l S
74.965 32.496 m 74.965 10.484 l S
77.508 32.43 m 77.508 10.434 l S
80.047 32.609 m 80.047 10.422 l S
82.59 32.477 m 82.59 10.461 l S
85.129 32.324 m 85.129 10.598 l S
87.672 32.34 m 87.672 10.715 l S
90.211 32.254 m 90.211 10.711 l S
92.754 32.305 m 92.754 10.77 l S
95.293 32.34 m 95.293 10.555 l S
97.836 32.449 m 97.836 10.406 l S
100.375 32.48 m 100.375 10.184 l S
102.918 32.77 m 102.918 10.031 l S
105.457 32.707 m 105.457 10.047 l S
108 33 m 108 9.672 l S
110.543 33.176 m 110.543 9.539 l S
113.082 33.34 m 113.082 9.41 l S
115.625 33.375 m 115.625 9.367 l S
118.164 33.406 m 118.164 9.398 l S
120.707 33.363 m 120.707 9.191 l S
123.246 33.578 m 123.246 8.953 l S
125.789 33.551 m 125.789 8.973 l S
128.328 33.527 m 128.328 9.246 l S
130.871 33.637 m 130.871 8.977 l S
133.41 33.336 m 133.41 8.84 l S
135.953 33.867 m 135.953 8.895 l S
138.492 33.762 m 138.492 9.191 l S
141.035 33.879 m 141.035 8.82 l S
143.578 33.473 m 143.578 8.898 l S
146.117 34.02 m 146.117 8.992 l S
148.66 34.023 m 148.66 8.605 l S
151.199 33.957 m 151.199 8.598 l S
153.742 33.746 m 153.742 8.914 l S
156.281 33.848 m 156.281 8.883 l S
158.824 33.516 m 158.824 9.07 l S
161.363 33.703 m 161.363 9.094 l S
163.906 33.414 m 163.906 9.387 l S
166.445 33.168 m 166.445 9.242 l S
168.988 33.457 m 168.988 9.594 l S
171.531 33.434 m 171.531 9.086 l S
174.07 33.145 m 174.07 9.176 l S
176.613 33.469 m 176.613 9.523 l S
179.152 33.438 m 179.152 9.402 l S
181.695 32.953 m 181.695 9.254 l S
184.234 33.254 m 184.234 10.109 l S
186.777 31.352 m 186.777 11.332 l S
189.316 29.527 m 189.316 13.008 l S
191.859 28.387 m 191.859 14.914 l S
194.398 27.008 m 194.398 16.148 l S
196.941 25.766 m 196.941 17.387 l S
199.48 24.832 m 199.48 18.184 l S
202.023 24.07 m 202.023 18.926 l S
204.566 23.484 m 204.566 19.602 l S
207.105 22.953 m 207.105 20.152 l S
209.648 22.609 m 209.648 20.289 l S
212.188 22.316 m 212.188 20.621 l S
214.73 22.137 m 214.73 20.859 l S
217.27 21.969 m 217.27 20.988 l S
219.812 21.797 m 219.812 21.215 l S
222.352 21.688 m 222.352 21.277 l S
224.895 21.656 m 224.895 21.316 l S
227.434 21.625 m 227.434 21.352 l S
229.977 21.578 m 229.977 21.383 l S
232.52 21.578 m 232.52 21.383 l S
235.059 21.578 m 235.059 21.383 l S
237.602 21.578 m 237.602 21.383 l S
240.141 21.578 m 240.141 21.383 l S
242.684 21.578 m 242.684 21.383 l S
245.223 21.578 m 245.223 21.383 l S
247.766 21.578 m 247.766 21.383 l S
250.305 21.578 m 250.305 21.383 l S
252.848 21.578 m 252.848 21.383 l S
255.387 21.578 m 255.387 21.383 l S
255.387 21.578 m 255.387 21.383 l S
3.812 64.781 m 3.812 64.582 l S
6.352 64.781 m 6.352 64.582 l S
8.895 65.926 m 8.895 63.582 l S
11.434 67.984 m 11.434 61.258 l S
13.977 71.207 m 13.977 58.477 l S
16.52 73.672 m 16.52 56.309 l S
19.059 74.41 m 19.059 54.762 l S
21.602 74.977 m 21.602 54.77 l S
24.141 74.961 m 24.141 54.32 l S
26.684 74.945 m 26.684 54.098 l S
29.223 74.676 m 29.223 54.484 l S
31.766 74.777 m 31.766 54.461 l S
34.305 74.934 m 34.305 54.867 l S
36.848 74.816 m 36.848 54.277 l S
39.387 74.91 m 39.387 54.695 l S
41.93 74.988 m 41.93 54.227 l S
44.469 75.074 m 44.469 54.324 l S
47.012 75.18 m 47.012 54.125 l S
49.555 75.195 m 49.555 54.102 l S
52.094 75.242 m 52.094 54.211 l S
54.637 75.18 m 54.637 54.242 l S
57.176 75.035 m 57.176 54.242 l S
59.719 75.121 m 59.719 54.371 l S
62.258 75.09 m 62.258 54.289 l S
64.801 74.957 m 64.801 54.387 l S
67.34 74.961 m 67.34 54.496 l S
69.883 74.918 m 69.883 54.32 l S
72.422 74.871 m 72.422 54.344 l S
74.965 74.887 m 74.965 54.387 l S
77.508 74.941 m 77.508 54.477 l S
80.047 75.02 m 80.047 54.387 l S
82.59 74.805 m 82.59 54.379 l S
85.129 74.93 m 85.129 54.391 l S
87.672 74.848 m 87.672 54.484 l S
90.211 74.875 m 90.211 54.414 l S
92.754 74.914 m 92.754 54.363 l S
95.293 74.883 m 95.293 54.281 l S
97.836 74.93 m 97.836 54.367 l S
100.375 75.012 m 100.375 54.387 l S
102.918 75.02 m 102.918 54.18 l S
105.457 75.191 m 105.457 54.254 l S
108 75.141 m 108 54.281 l S
110.543 75.215 m 110.543 54.195 l S
113.082 75.25 m 113.082 54.156 l S
115.625 75.398 m 115.625 54.074 l S
118.164 75.258 m 118.164 53.973 l S
120.707 75.48 m 120.707 54.098 l S
123.246 75.48 m 123.246 53.945 l S
125.789 75.457 m 125.789 53.957 l S
128.328 75.328 m 128.328 53.996 l S
130.871 75.496 m 130.871 53.973 l S
133.41 75.504 m 133.41 54.035 l S
135.953 75.566 m 135.953 53.852 l S
138.492 75.086 m 138.492 53.891 l S
141.035 75.488 m 141.035 53.852 l S
143.578 75.508 m 143.578 54.25 l S
146.117 75.203 m 146.117 53.762 l S
148.66 75.699 m 148.66 53.762 l S
151.199 75.746 m 151.199 53.742 l S
153.742 75.496 m 153.742 53.77 l S
156.281 75.332 m 156.281 54.117 l S
158.824 75.215 m 158.824 54.039 l S
161.363 75.305 m 161.363 54.453 l S
163.906 74.984 m 163.906 54.191 l S
166.445 75.086 m 166.445 54.699 l S
168.988 74.77 m 168.988 54.242 l S
171.531 75.109 m 171.531 54.234 l S
174.07 75.09 m 174.07 54.375 l S
176.613 74.816 m 176.613 54.285 l S
179.152 75.066 m 179.152 54.281 l S
181.695 75.059 m 181.695 54.422 l S
184.234 74.562 m 184.234 54.223 l S
186.777 73.781 m 186.777 55.852 l S
189.316 72.594 m 189.316 56.707 l S
191.859 71.141 m 191.859 57.785 l S
194.398 70.465 m 194.398 59.012 l S
196.941 69.352 m 196.941 60.172 l S
199.48 68.508 m 199.48 61.066 l S
202.023 67.648 m 202.023 61.68 l S
204.566 67.004 m 204.566 62.285 l S
207.105 66.453 m 207.105 62.926 l S
209.648 66.031 m 209.648 63.387 l S
212.188 65.676 m 212.188 63.777 l S
214.73 65.391 m 214.73 63.891 l S
217.27 65.297 m 217.27 64.07 l S
219.812 65.148 m 219.812 64.191 l S
222.352 64.977 m 222.352 64.363 l S
224.895 64.891 m 224.895 64.484 l S
227.434 64.844 m 227.434 64.527 l S
229.977 64.797 m 229.977 64.562 l S
232.52 64.781 m 232.52 64.582 l S
235.059 64.781 m 235.059 64.582 l S
237.602 64.781 m 237.602 64.582 l S
240.141 64.781 m 240.141 64.582 l S
242.684 64.781 m 242.684 64.582 l S
245.223 64.781 m 245.223 64.582 l S
247.766 64.781 m 247.766 64.582 l S
250.305 64.781 m 250.305 64.582 l S
252.848 64.781 m 252.848 64.582 l S
255.387 64.781 m 255.387 64.582 l S
255.387 64.781 m 255.387 64.582 l S
3.812 107.98 m 3.812 107.781 l S
6.352 107.98 m 6.352 107.781 l S
8.895 109.32 m 8.895 106.402 l S
11.434 112.109 m 11.434 102.855 l S
13.977 117.57 m 13.977 98.551 l S
16.52 121.93 m 16.52 94.055 l S
19.059 124.691 m 19.059 90.48 l S
21.602 126.957 m 21.602 89.457 l S
24.141 127.637 m 24.141 88.734 l S
26.684 126.445 m 26.684 88.363 l S
29.223 126.32 m 29.223 89.129 l S
31.766 126.512 m 31.766 89.984 l S
34.305 125.539 m 34.305 89.953 l S
36.848 125.824 m 36.848 90.316 l S
39.387 125.301 m 39.387 91.051 l S
41.93 124.676 m 41.93 90.82 l S
44.469 125.027 m 44.469 91.109 l S
47.012 124.684 m 47.012 91.078 l S
49.555 124.75 m 49.555 91.355 l S
52.094 124.656 m 52.094 91.5 l S
54.637 124.551 m 54.637 91.594 l S
57.176 124.141 m 57.176 91.5 l S
59.719 124.227 m 59.719 91.73 l S
62.258 124.008 m 62.258 91.75 l S
64.801 123.762 m 64.801 92.129 l S
67.34 123.41 m 67.34 92.16 l S
69.883 123.074 m 69.883 92.426 l S
72.422 122.973 m 72.422 92.566 l S
74.965 122.621 m 74.965 92.789 l S
77.508 122.637 m 77.508 93.145 l S
80.047 122.645 m 80.047 93.359 l S
82.59 122.215 m 82.59 93.398 l S
85.129 122.152 m 85.129 93.742 l S
87.672 121.742 m 87.672 93.828 l S
90.211 121.914 m 90.211 93.922 l S
92.754 122.086 m 92.754 93.734 l S
95.293 122.477 m 95.293 93.371 l S
97.836 122.656 m 97.836 92.91 l S
100.375 123.121 m 100.375 92.469 l S
102.918 123.84 m 102.918 91.875 l S
105.457 124.199 m 105.457 91.312 l S
108 124.613 m 108 91.457 l S
110.543 124.914 m 110.543 91.164 l S
113.082 125.047 m 113.082 90.98 l S
115.625 125.09 m 115.625 90.742 l S
118.164 124.918 m 118.164 90.777 l S
120.707 125.379 m 120.707 90.691 l S
123.246 125.398 m 123.246 90.574 l S
125.789 125.023 m 125.789 90.551 l S
128.328 125.457 m 128.328 90.469 l S
130.871 125.578 m 130.871 90.391 l S
133.41 125.773 m 133.41 90.574 l S
135.953 125.723 m 135.953 90.195 l S
138.492 125.285 m 138.492 90.211 l S
141.035 125.926 m 141.035 90.195 l S
143.578 125.918 m 143.578 90.5 l S
146.117 125.277 m 146.117 89.988 l S
148.66 126.324 m 148.66 90.145 l S
151.199 126.359 m 151.199 89.492 l S
153.742 126.73 m 153.742 89.488 l S
156.281 126.211 m 156.281 89.516 l S
158.824 126.48 m 158.824 89.871 l S
161.363 125.668 m 161.363 89.625 l S
163.906 126.023 m 163.906 90.094 l S
166.445 125.719 m 166.445 90.539 l S
168.988 125.004 m 168.988 90.379 l S
171.531 125.402 m 171.531 90.859 l S
174.07 125.391 m 174.07 90.48 l S
176.613 124.762 m 176.613 90.754 l S
179.152 125.352 m 179.152 90.629 l S
181.695 125.18 m 181.695 91.277 l S
184.234 123.875 m 184.234 90.82 l S
186.777 123.473 m 186.777 93.398 l S
189.316 120.43 m 189.316 96.137 l S
191.859 117.691 m 191.859 97.086 l S
194.398 116.66 m 194.398 98.809 l S
196.941 115.191 m 196.941 100.629 l S
199.48 113.676 m 199.48 102.023 l S
202.023 112.43 m 202.023 103.25 l S
204.566 111.289 m 204.566 104.441 l S
207.105 110.273 m 207.105 105.641 l S
209.648 109.613 m 209.648 106.152 l S
212.188 109.227 m 212.188 106.59 l S
214.73 108.867 m 214.73 106.902 l S
217.27 108.688 m 217.27 107.242 l S
219.812 108.387 m 219.812 107.43 l S
222.352 108.207 m 222.352 107.527 l S
224.895 108.164 m 224.895 107.641 l S
227.434 108.09 m 227.434 107.684 l S
229.977 108.043 m 229.977 107.734 l S
232.52 107.98 m 232.52 107.781 l S
235.059 107.98 m 235.059 107.781 l S
237.602 107.98 m 237.602 107.781 l S
240.141 107.98 m 240.141 107.781 l S
242.684 107.98 m 242.684 107.781 l S
245.223 107.98 m 245.223 107.781 l S
247.766 107.98 m 247.766 107.781 l S
250.305 107.98 m 250.305 107.781 l S
252.848 107.98 m 252.848 107.781 l S
255.387 107.98 m 255.387 107.781 l S
255.387 107.98 m 255.387 107.781 l S
3.812 151.18 m 3.812 150.984 l S
6.352 151.234 m 6.352 150.938 l S
8.895 152.953 m 8.895 149.223 l S
11.434 156.223 m 11.434 145.926 l S
13.977 160.66 m 13.977 141.75 l S
16.52 164.395 m 16.52 138.457 l S
19.059 166.414 m 19.059 136.539 l S
21.602 167.125 m 21.602 135.465 l S
24.141 166.496 m 24.141 135.309 l S
26.684 166.996 m 26.684 135.203 l S
29.223 167.293 m 29.223 136.23 l S
31.766 166.691 m 31.766 135.629 l S
34.305 166.836 m 34.305 135.867 l S
36.848 166.652 m 36.848 135.496 l S
39.387 166.992 m 39.387 135.637 l S
41.93 167.125 m 41.93 135.918 l S
44.469 166.945 m 44.469 135.703 l S
47.012 167.133 m 47.012 135.535 l S
49.555 167.07 m 49.555 135.559 l S
52.094 166.879 m 52.094 135.574 l S
54.637 166.863 m 54.637 135.551 l S
57.176 166.914 m 57.176 135.605 l S
59.719 166.633 m 59.719 135.75 l S
62.258 166.801 m 62.258 135.773 l S
64.801 166.625 m 64.801 135.816 l S
67.34 166.531 m 67.34 135.895 l S
69.883 166.344 m 69.883 135.91 l S
72.422 166.328 m 72.422 135.816 l S
74.965 166.449 m 74.965 135.852 l S
77.508 166.422 m 77.508 135.992 l S
80.047 166.422 m 80.047 136.055 l S
82.59 166.383 m 82.59 136.191 l S
85.129 166.305 m 85.129 136.164 l S
87.672 166.109 m 87.672 136.184 l S
90.211 166.184 m 90.211 136.34 l S
92.754 166.168 m 92.754 136.195 l S
95.293 166.387 m 95.293 136.152 l S
97.836 166.332 m 97.836 136.043 l S
100.375 166.383 m 100.375 135.938 l S
102.918 166.691 m 102.918 135.863 l S
105.457 166.754 m 105.457 135.637 l S
108 166.859 m 108 135.691 l S
110.543 166.969 m 110.543 135.688 l S
113.082 166.875 m 113.082 135.516 l S
115.625 167.176 m 115.625 135.477 l S
118.164 167.406 m 118.164 135.43 l S
120.707 167.105 m 120.707 135.133 l S
123.246 167.609 m 123.246 135.477 l S
125.789 167.672 m 125.789 135.195 l S
128.328 167.609 m 128.328 135.168 l S
130.871 167.34 m 130.871 135.152 l S
133.41 167.746 m 133.41 135 l S
135.953 167.613 m 135.953 135.492 l S
138.492 167.684 m 138.492 134.891 l S
141.035 167.086 m 141.035 134.973 l S
143.578 167.516 m 143.578 135.156 l S
146.117 167.707 m 146.117 135.039 l S
148.66 167.066 m 148.66 134.77 l S
151.199 167.848 m 151.199 135.562 l S
153.742 167.047 m 153.742 135.043 l S
156.281 167.473 m 156.281 135.84 l S
158.824 166.762 m 158.824 135.469 l S
161.363 167.199 m 161.363 135.844 l S
163.906 166.684 m 163.906 135.645 l S
166.445 167.043 m 166.445 135.996 l S
168.988 167.172 m 168.988 135.602 l S
171.531 166.473 m 171.531 135.543 l S
174.07 167.086 m 174.07 136.035 l S
176.613 167.035 m 176.613 135.621 l S
179.152 166.699 m 179.152 135.559 l S
181.695 167.168 m 181.695 135.594 l S
184.234 166.547 m 184.234 136.016 l S
186.777 165.285 m 186.777 137.387 l S
189.316 163.52 m 189.316 139.809 l S
191.859 161.363 m 191.859 141.066 l S
194.398 159.617 m 194.398 142.168 l S
196.941 158.145 m 196.941 143.371 l S
199.48 156.859 m 199.48 144.547 l S
202.023 155.793 m 202.023 145.879 l S
204.566 154.641 m 204.566 147.195 l S
207.105 153.801 m 207.105 148.246 l S
209.648 153.125 m 209.648 148.812 l S
212.188 152.77 m 212.188 149.391 l S
214.73 152.227 m 214.73 149.715 l S
217.27 152.074 m 217.27 150.215 l S
219.812 151.68 m 219.812 150.422 l S
222.352 151.535 m 222.352 150.555 l S
224.895 151.48 m 224.895 150.676 l S
227.434 151.391 m 227.434 150.785 l S
229.977 151.277 m 229.977 150.895 l S
232.52 151.203 m 232.52 150.957 l S
235.059 151.18 m 235.059 150.984 l S
237.602 151.18 m 237.602 150.984 l S
240.141 151.18 m 240.141 150.984 l S
242.684 151.18 m 242.684 150.984 l S
245.223 151.18 m 245.223 150.984 l S
247.766 151.18 m 247.766 150.984 l S
250.305 151.18 m 250.305 150.984 l S
252.848 151.18 m 252.848 150.984 l S
255.387 151.18 m 255.387 150.984 l S
255.387 151.18 m 255.387 150.984 l S
Q Q
showpage
%%Trailer
end
%%EOF
