%!PS-Adobe-3.0 EPSF-3.0
%%Creator: cairo 1.16.0 (https://cairographics.org)
%%CreationDate: Wed May 15 11:57:22 2024
%%Pages: 1
%%DocumentData: Clean7Bit
%%LanguageLevel: 2
%%Creator: Wolfram Mathematica
%%BoundingBox: 2 8 257 164
%%EndComments
%%BeginProlog
50 dict begin
/q { gsave } bind def
/Q { grestore } bind def
/cm { 6 array astore concat } bind def
/w { setlinewidth } bind def
/J { setlinecap } bind def
/j { setlinejoin } bind def
/M { setmiterlimit } bind def
/d { setdash } bind def
/m { moveto } bind def
/l { lineto } bind def
/c { curveto } bind def
/h { closepath } bind def
/re { exch dup neg 3 1 roll 5 3 roll moveto 0 rlineto
      0 exch rlineto 0 rlineto closepath } bind def
/S { stroke } bind def
/f { fill } bind def
/f* { eofill } bind def
/n { newpath } bind def
/W { clip } bind def
/W* { eoclip } bind def
/BT { } bind def
/ET { } bind def
/BDC { mark 3 1 roll /BDC pdfmark } bind def
/EMC { mark /EMC pdfmark } bind def
/cairo_store_point { /cairo_point_y exch def /cairo_point_x exch def } def
/Tj { show currentpoint cairo_store_point } bind def
/TJ {
  {
    dup
    type /stringtype eq
    { show } { -0.001 mul 0 cairo_font_matrix dtransform rmoveto } ifelse
  } forall
  currentpoint cairo_store_point
} bind def
/cairo_selectfont { cairo_font_matrix aload pop pop pop 0 0 6 array astore
    cairo_font exch selectfont cairo_point_x cairo_point_y moveto } bind def
/Tf { pop /cairo_font exch def /cairo_font_matrix where
      { pop cairo_selectfont } if } bind def
/Td { matrix translate cairo_font_matrix matrix concatmatrix dup
      /cairo_font_matrix exch def dup 4 get exch 5 get cairo_store_point
      /cairo_font where { pop cairo_selectfont } if } bind def
/Tm { 2 copy 8 2 roll 6 array astore /cairo_font_matrix exch def
      cairo_store_point /cairo_font where { pop cairo_selectfont } if } bind def
/g { setgray } bind def
/rg { setrgbcolor } bind def
/d1 { setcachedevice } bind def
/cairo_data_source {
  CairoDataIndex CairoData length lt
    { CairoData CairoDataIndex get /CairoDataIndex CairoDataIndex 1 add def }
    { () } ifelse
} def
/cairo_flush_ascii85_file { cairo_ascii85_file status { cairo_ascii85_file flushfile } if } def
/cairo_image { image cairo_flush_ascii85_file } def
/cairo_imagemask { imagemask cairo_flush_ascii85_file } def
%%EndProlog
%%BeginSetup
%%EndSetup
%%Page: 1 1
%%BeginPageSetup
%%PageBoundingBox: 2 8 257 164
%%EndPageSetup
q 2 8 255 156 rectclip
1 0 0 -1 0 173 cm q
0 g
1.796436 w
0 J
0 j
[] 0.0 d
3.25 M 3.812 21.664 m 3.812 21.469 l S
6.352 22.879 m 6.352 20.477 l S
8.895 26.801 m 8.895 16.238 l S
11.434 31.113 m 11.434 12.477 l S
13.977 32.559 m 13.977 11.062 l S
16.52 33.363 m 16.52 10.5 l S
19.059 33.617 m 19.059 10.172 l S
21.602 34.039 m 21.602 9.715 l S
24.141 34.266 m 24.141 9.453 l S
26.684 34.273 m 26.684 9.441 l S
29.223 34.219 m 29.223 9.496 l S
31.766 34.152 m 31.766 9.562 l S
34.305 34.141 m 34.305 9.625 l S
36.848 34.043 m 36.848 9.695 l S
39.387 34.035 m 39.387 9.723 l S
41.93 34.059 m 41.93 9.684 l S
44.469 34.07 m 44.469 9.684 l S
47.012 34.062 m 47.012 9.699 l S
49.555 34.035 m 49.555 9.73 l S
52.094 34 m 52.094 9.781 l S
54.637 33.961 m 54.637 9.812 l S
57.176 33.898 m 57.176 9.887 l S
59.719 33.84 m 59.719 9.977 l S
62.258 33.758 m 62.258 10.062 l S
64.801 33.688 m 64.801 10.145 l S
67.34 33.516 m 67.34 10.215 l S
69.883 33.363 m 69.883 10.246 l S
72.422 33.285 m 72.422 10.238 l S
74.965 33.285 m 74.965 10.18 l S
77.508 33.367 m 77.508 10.117 l S
80.047 33.477 m 80.047 10.012 l S
82.59 33.535 m 82.59 9.961 l S
85.129 33.578 m 85.129 9.922 l S
87.672 33.648 m 87.672 9.891 l S
90.211 33.73 m 90.211 9.855 l S
92.754 33.789 m 92.754 9.852 l S
95.293 33.828 m 95.293 9.863 l S
97.836 33.844 m 97.836 9.855 l S
100.375 33.879 m 100.375 9.863 l S
102.918 33.875 m 102.918 9.895 l S
105.457 33.887 m 105.457 9.879 l S
108 33.871 m 108 9.895 l S
110.543 33.828 m 110.543 9.93 l S
113.082 33.809 m 113.082 9.934 l S
115.625 33.844 m 115.625 9.859 l S
118.164 33.922 m 118.164 9.801 l S
120.707 33.977 m 120.707 9.801 l S
123.246 33.996 m 123.246 9.809 l S
125.789 33.992 m 125.789 9.832 l S
128.328 33.938 m 128.328 9.879 l S
130.871 33.891 m 130.871 9.93 l S
133.41 33.809 m 133.41 9.957 l S
135.953 33.703 m 135.953 9.969 l S
138.492 33.641 m 138.492 9.98 l S
141.035 33.566 m 141.035 10.004 l S
143.578 33.5 m 143.578 10.02 l S
146.117 33.441 m 146.117 10.051 l S
148.66 33.383 m 148.66 10.086 l S
151.199 33.352 m 151.199 10.113 l S
153.742 33.352 m 153.742 10.09 l S
156.281 33.359 m 156.281 10.098 l S
158.824 33.324 m 158.824 10.113 l S
161.363 33.305 m 161.363 10.129 l S
163.906 33.285 m 163.906 10.156 l S
166.445 33.254 m 166.445 10.176 l S
168.988 33.277 m 168.988 10.148 l S
171.531 33.391 m 171.531 10.051 l S
174.07 33.457 m 174.07 9.992 l S
176.613 33.285 m 176.613 10.129 l S
179.152 31.18 m 179.152 12.195 l S
181.695 27.836 m 181.695 15.773 l S
184.234 26.008 m 184.234 16.867 l S
186.777 24.965 m 186.777 18.008 l S
189.316 23.93 m 189.316 19.23 l S
191.859 23.293 m 191.859 19.832 l S
194.398 22.875 m 194.398 20.34 l S
196.941 22.434 m 196.941 20.73 l S
199.48 22.125 m 199.48 20.957 l S
202.023 21.988 m 202.023 21.152 l S
204.566 21.855 m 204.566 21.301 l S
207.105 21.758 m 207.105 21.371 l S
209.648 21.695 m 209.648 21.434 l S
212.188 21.664 m 212.188 21.469 l S
214.73 21.664 m 214.73 21.469 l S
217.27 21.664 m 217.27 21.469 l S
219.812 21.664 m 219.812 21.469 l S
222.352 21.664 m 222.352 21.469 l S
224.895 21.664 m 224.895 21.469 l S
227.434 21.664 m 227.434 21.469 l S
229.977 21.664 m 229.977 21.469 l S
232.52 21.664 m 232.52 21.469 l S
235.059 21.664 m 235.059 21.469 l S
237.602 21.664 m 237.602 21.469 l S
240.141 21.664 m 240.141 21.469 l S
242.684 21.664 m 242.684 21.469 l S
245.223 21.664 m 245.223 21.469 l S
247.766 21.664 m 247.766 21.469 l S
250.305 21.664 m 250.305 21.469 l S
252.848 21.664 m 252.848 21.469 l S
255.387 21.664 m 255.387 21.469 l S
255.387 21.664 m 255.387 21.469 l S
3.812 64.863 m 3.812 64.668 l S
6.352 65.684 m 6.352 63.836 l S
8.895 68.98 m 8.895 60.508 l S
11.434 72.074 m 11.434 57.293 l S
13.977 73.457 m 13.977 56.074 l S
16.52 73.992 m 16.52 55.555 l S
19.059 74.332 m 19.059 55.273 l S
21.602 74.496 m 21.602 55.047 l S
24.141 74.535 m 24.141 54.973 l S
26.684 74.516 m 26.684 54.969 l S
29.223 74.504 m 29.223 55.008 l S
31.766 74.516 m 31.766 54.996 l S
34.305 74.516 m 34.305 55.031 l S
36.848 74.477 m 36.848 55.031 l S
39.387 74.406 m 39.387 55.074 l S
41.93 74.43 m 41.93 55.043 l S
44.469 74.422 m 44.469 55.062 l S
47.012 74.383 m 47.012 55.078 l S
49.555 74.406 m 49.555 55.078 l S
52.094 74.398 m 52.094 55.102 l S
54.637 74.371 m 54.637 55.121 l S
57.176 74.34 m 57.176 55.176 l S
59.719 74.316 m 59.719 55.199 l S
62.258 74.305 m 62.258 55.246 l S
64.801 74.254 m 64.801 55.27 l S
67.34 74.227 m 67.34 55.344 l S
69.883 74.223 m 69.883 55.406 l S
72.422 74.27 m 72.422 55.387 l S
74.965 74.309 m 74.965 55.336 l S
77.508 74.344 m 77.508 55.312 l S
80.047 74.426 m 80.047 55.211 l S
82.59 74.449 m 82.59 55.207 l S
85.129 74.441 m 85.129 55.215 l S
87.672 74.484 m 87.672 55.188 l S
90.211 74.465 m 90.211 55.164 l S
92.754 74.457 m 92.754 55.129 l S
95.293 74.438 m 95.293 55.137 l S
97.836 74.469 m 97.836 55.148 l S
100.375 74.449 m 100.375 55.129 l S
102.918 74.453 m 102.918 55.156 l S
105.457 74.441 m 105.457 55.133 l S
108 74.422 m 108 55.164 l S
110.543 74.418 m 110.543 55.195 l S
113.082 74.41 m 113.082 55.191 l S
115.625 74.445 m 115.625 55.191 l S
118.164 74.508 m 118.164 55.121 l S
120.707 74.504 m 120.707 55.07 l S
123.246 74.477 m 123.246 55.125 l S
125.789 74.461 m 125.789 55.148 l S
128.328 74.406 m 128.328 55.176 l S
130.871 74.406 m 130.871 55.207 l S
133.41 74.371 m 133.41 55.23 l S
135.953 74.371 m 135.953 55.27 l S
138.492 74.387 m 138.492 55.258 l S
141.035 74.398 m 141.035 55.293 l S
143.578 74.383 m 143.578 55.289 l S
146.117 74.352 m 146.117 55.316 l S
148.66 74.328 m 148.66 55.348 l S
151.199 74.34 m 151.199 55.352 l S
153.742 74.367 m 153.742 55.328 l S
156.281 74.371 m 156.281 55.332 l S
158.824 74.367 m 158.824 55.344 l S
161.363 74.363 m 161.363 55.355 l S
163.906 74.352 m 163.906 55.348 l S
166.445 74.332 m 166.445 55.387 l S
168.988 74.363 m 168.988 55.344 l S
171.531 74.418 m 171.531 55.273 l S
174.07 74.449 m 174.07 55.262 l S
176.613 74.355 m 176.613 55.328 l S
179.152 73.004 m 179.152 56.852 l S
181.695 70.531 m 181.695 59.266 l S
184.234 68.926 m 184.234 60.625 l S
186.777 67.898 m 186.777 61.684 l S
189.316 66.898 m 189.316 62.656 l S
191.859 66.434 m 191.859 63.215 l S
194.398 65.902 m 194.398 63.656 l S
196.941 65.555 m 196.941 64.031 l S
199.48 65.285 m 199.48 64.277 l S
202.023 65.117 m 202.023 64.457 l S
204.566 65.016 m 204.566 64.535 l S
207.105 64.953 m 207.105 64.598 l S
209.648 64.906 m 209.648 64.629 l S
212.188 64.863 m 212.188 64.656 l S
214.73 64.863 m 214.73 64.668 l S
217.27 64.863 m 217.27 64.668 l S
219.812 64.863 m 219.812 64.668 l S
222.352 64.863 m 222.352 64.668 l S
224.895 64.863 m 224.895 64.668 l S
227.434 64.863 m 227.434 64.668 l S
229.977 64.863 m 229.977 64.668 l S
232.52 64.863 m 232.52 64.668 l S
235.059 64.863 m 235.059 64.668 l S
237.602 64.863 m 237.602 64.668 l S
240.141 64.863 m 240.141 64.668 l S
242.684 64.863 m 242.684 64.668 l S
245.223 64.863 m 245.223 64.668 l S
247.766 64.863 m 247.766 64.668 l S
250.305 64.863 m 250.305 64.668 l S
252.848 64.863 m 252.848 64.668 l S
255.387 64.863 m 255.387 64.668 l S
255.387 64.863 m 255.387 64.668 l S
3.812 108.066 m 3.812 107.867 l S
6.352 110.305 m 6.352 105.09 l S
8.895 117.527 m 8.895 98.25 l S
11.434 123.891 m 11.434 92.031 l S
13.977 126.152 m 13.977 89.695 l S
16.52 126.879 m 16.52 89.074 l S
19.059 127.188 m 19.059 88.918 l S
21.602 127.465 m 21.602 88.613 l S
24.141 127.57 m 24.141 88.402 l S
26.684 127.559 m 26.684 88.371 l S
29.223 127.562 m 29.223 88.383 l S
31.766 127.613 m 31.766 88.367 l S
34.305 127.617 m 34.305 88.379 l S
36.848 127.551 m 36.848 88.422 l S
39.387 127.602 m 39.387 88.375 l S
41.93 127.586 m 41.93 88.371 l S
44.469 127.609 m 44.469 88.363 l S
47.012 127.602 m 47.012 88.383 l S
49.555 127.617 m 49.555 88.367 l S
52.094 127.609 m 52.094 88.383 l S
54.637 127.539 m 54.637 88.422 l S
57.176 127.5 m 57.176 88.473 l S
59.719 127.488 m 59.719 88.516 l S
62.258 127.426 m 62.258 88.566 l S
64.801 127.367 m 64.801 88.621 l S
67.34 127.27 m 67.34 88.719 l S
69.883 127.277 m 69.883 88.777 l S
72.422 127.301 m 72.422 88.777 l S
74.965 127.309 m 74.965 88.75 l S
77.508 127.391 m 77.508 88.707 l S
80.047 127.477 m 80.047 88.641 l S
82.59 127.469 m 82.59 88.633 l S
85.129 127.469 m 85.129 88.621 l S
87.672 127.504 m 87.672 88.562 l S
90.211 127.523 m 90.211 88.527 l S
92.754 127.52 m 92.754 88.496 l S
95.293 127.535 m 95.293 88.484 l S
97.836 127.547 m 97.836 88.484 l S
100.375 127.559 m 100.375 88.438 l S
102.918 127.559 m 102.918 88.469 l S
105.457 127.555 m 105.457 88.441 l S
108 127.535 m 108 88.469 l S
110.543 127.543 m 110.543 88.496 l S
113.082 127.516 m 113.082 88.5 l S
115.625 127.578 m 115.625 88.453 l S
118.164 127.637 m 118.164 88.375 l S
120.707 127.637 m 120.707 88.375 l S
123.246 127.633 m 123.246 88.379 l S
125.789 127.617 m 125.789 88.387 l S
128.328 127.574 m 128.328 88.418 l S
130.871 127.535 m 130.871 88.445 l S
133.41 127.477 m 133.41 88.508 l S
135.953 127.484 m 135.953 88.523 l S
138.492 127.465 m 138.492 88.559 l S
141.035 127.441 m 141.035 88.586 l S
143.578 127.438 m 143.578 88.602 l S
146.117 127.398 m 146.117 88.637 l S
148.66 127.387 m 148.66 88.664 l S
151.199 127.391 m 151.199 88.656 l S
153.742 127.398 m 153.742 88.641 l S
156.281 127.398 m 156.281 88.652 l S
158.824 127.414 m 158.824 88.656 l S
161.363 127.398 m 161.363 88.648 l S
163.906 127.375 m 163.906 88.656 l S
166.445 127.371 m 166.445 88.676 l S
168.988 127.418 m 168.988 88.613 l S
171.531 127.48 m 171.531 88.559 l S
174.07 127.496 m 174.07 88.555 l S
176.613 127.254 m 176.613 88.727 l S
179.152 125.297 m 179.152 90.867 l S
181.695 121.195 m 181.695 94.719 l S
184.234 118.332 m 184.234 97.301 l S
186.777 116.445 m 186.777 99.383 l S
189.316 114.629 m 189.316 101.207 l S
191.859 113.293 m 191.859 102.707 l S
194.398 112.004 m 194.398 104.008 l S
196.941 110.965 m 196.941 105.031 l S
199.48 110.09 m 199.48 105.895 l S
202.023 109.398 m 202.023 106.555 l S
204.566 108.949 m 204.566 107.051 l S
207.105 108.637 m 207.105 107.332 l S
209.648 108.426 m 209.648 107.523 l S
212.188 108.258 m 212.188 107.633 l S
214.73 108.203 m 214.73 107.734 l S
217.27 108.152 m 217.27 107.785 l S
219.812 108.094 m 219.812 107.848 l S
222.352 108.066 m 222.352 107.867 l S
224.895 108.066 m 224.895 107.867 l S
227.434 108.066 m 227.434 107.867 l S
229.977 108.066 m 229.977 107.867 l S
232.52 108.066 m 232.52 107.867 l S
235.059 108.066 m 235.059 107.867 l S
237.602 108.066 m 237.602 107.867 l S
240.141 108.066 m 240.141 107.867 l S
242.684 108.066 m 242.684 107.867 l S
245.223 108.066 m 245.223 107.867 l S
247.766 108.066 m 247.766 107.867 l S
250.305 108.066 m 250.305 107.867 l S
252.848 108.066 m 252.848 107.867 l S
255.387 108.066 m 255.387 107.867 l S
255.387 108.066 m 255.387 107.867 l S
3.812 151.266 m 3.812 151.07 l S
6.352 152.477 m 6.352 149.527 l S
8.895 157.191 m 8.895 145.191 l S
11.434 161 m 11.434 141.484 l S
13.977 162.93 m 13.977 139.746 l S
16.52 163.934 m 16.52 139.023 l S
19.059 164.09 m 19.059 138.75 l S
21.602 164.156 m 21.602 138.773 l S
24.141 164.082 m 24.141 138.848 l S
26.684 163.867 m 26.684 139.082 l S
29.223 163.832 m 29.223 139.105 l S
31.766 163.918 m 31.766 138.977 l S
34.305 163.926 m 34.305 139.016 l S
36.848 163.879 m 36.848 139.094 l S
39.387 163.805 m 39.387 139.098 l S
41.93 163.754 m 41.93 139.105 l S
44.469 163.758 m 44.469 139.152 l S
47.012 163.691 m 47.012 139.203 l S
49.555 163.738 m 49.555 139.129 l S
52.094 163.758 m 52.094 139.18 l S
54.637 163.703 m 54.637 139.188 l S
57.176 163.672 m 57.176 139.238 l S
59.719 163.715 m 59.719 139.152 l S
62.258 163.762 m 62.258 139.18 l S
64.801 163.758 m 64.801 139.172 l S
67.34 163.762 m 67.34 139.07 l S
69.883 163.879 m 69.883 138.992 l S
72.422 163.992 m 72.422 138.914 l S
74.965 164.012 m 74.965 138.863 l S
77.508 164.055 m 77.508 138.871 l S
80.047 164.094 m 80.047 138.754 l S
82.59 164.094 m 82.59 138.816 l S
85.129 164.012 m 85.129 138.879 l S
87.672 164.012 m 87.672 138.863 l S
90.211 163.984 m 90.211 138.863 l S
92.754 163.914 m 92.754 138.895 l S
95.293 163.871 m 95.293 138.988 l S
97.836 163.891 m 97.836 138.988 l S
100.375 163.848 m 100.375 138.984 l S
102.918 163.844 m 102.918 139.02 l S
105.457 163.852 m 105.457 139.012 l S
108 163.797 m 108 139.078 l S
110.543 163.848 m 110.543 139.004 l S
113.082 163.828 m 113.082 139.02 l S
115.625 163.91 m 115.625 138.973 l S
118.164 163.934 m 118.164 138.934 l S
120.707 163.883 m 120.707 139 l S
123.246 163.844 m 123.246 139.039 l S
125.789 163.832 m 125.789 139.09 l S
128.328 163.797 m 128.328 139.074 l S
130.871 163.805 m 130.871 139.059 l S
133.41 163.828 m 133.41 139.047 l S
135.953 163.852 m 135.953 138.977 l S
138.492 163.918 m 138.492 138.934 l S
141.035 163.961 m 141.035 138.918 l S
143.578 164.008 m 143.578 138.902 l S
146.117 163.988 m 146.117 138.855 l S
148.66 163.992 m 148.66 138.848 l S
151.199 164.055 m 151.199 138.816 l S
153.742 164.082 m 153.742 138.754 l S
156.281 164.078 m 156.281 138.789 l S
158.824 164.094 m 158.824 138.773 l S
161.363 164.094 m 161.363 138.746 l S
163.906 164.09 m 163.906 138.75 l S
166.445 164.078 m 166.445 138.75 l S
168.988 164.121 m 168.988 138.715 l S
171.531 164.152 m 171.531 138.715 l S
174.07 164.129 m 174.07 138.715 l S
176.613 163.938 m 176.613 138.855 l S
179.152 162.352 m 179.152 140.57 l S
181.695 159.266 m 181.695 143.207 l S
184.234 157.52 m 184.234 144.727 l S
186.777 156.465 m 186.777 146.07 l S
189.316 155.02 m 189.316 147.395 l S
191.859 154.301 m 191.859 148.246 l S
194.398 153.34 m 194.398 149.039 l S
196.941 152.773 m 196.941 149.672 l S
199.48 152.293 m 199.48 150.129 l S
202.023 152.008 m 202.023 150.441 l S
204.566 151.719 m 204.566 150.629 l S
207.105 151.59 m 207.105 150.82 l S
209.648 151.438 m 209.648 150.891 l S
212.188 151.379 m 212.188 150.961 l S
214.73 151.305 m 214.73 151.023 l S
217.27 151.332 m 217.27 151.008 l S
219.812 151.281 m 219.812 151.07 l S
222.352 151.266 m 222.352 151.07 l S
224.895 151.266 m 224.895 151.07 l S
227.434 151.266 m 227.434 151.07 l S
229.977 151.266 m 229.977 151.07 l S
232.52 151.266 m 232.52 151.07 l S
235.059 151.266 m 235.059 151.07 l S
237.602 151.266 m 237.602 151.07 l S
240.141 151.266 m 240.141 151.07 l S
242.684 151.266 m 242.684 151.07 l S
245.223 151.266 m 245.223 151.07 l S
247.766 151.266 m 247.766 151.07 l S
250.305 151.266 m 250.305 151.07 l S
252.848 151.266 m 252.848 151.07 l S
255.387 151.266 m 255.387 151.07 l S
255.387 151.266 m 255.387 151.07 l S
Q Q
showpage
%%Trailer
end
%%EOF
