%!PS-Adobe-3.0 EPSF-3.0
%%Creator: cairo 1.16.0 (https://cairographics.org)
%%CreationDate: Wed May 15 11:57:22 2024
%%Pages: 1
%%DocumentData: Clean7Bit
%%LanguageLevel: 2
%%Creator: Wolfram Mathematica
%%BoundingBox: 2 3 257 170
%%EndComments
%%BeginProlog
50 dict begin
/q { gsave } bind def
/Q { grestore } bind def
/cm { 6 array astore concat } bind def
/w { setlinewidth } bind def
/J { setlinecap } bind def
/j { setlinejoin } bind def
/M { setmiterlimit } bind def
/d { setdash } bind def
/m { moveto } bind def
/l { lineto } bind def
/c { curveto } bind def
/h { closepath } bind def
/re { exch dup neg 3 1 roll 5 3 roll moveto 0 rlineto
      0 exch rlineto 0 rlineto closepath } bind def
/S { stroke } bind def
/f { fill } bind def
/f* { eofill } bind def
/n { newpath } bind def
/W { clip } bind def
/W* { eoclip } bind def
/BT { } bind def
/ET { } bind def
/BDC { mark 3 1 roll /BDC pdfmark } bind def
/EMC { mark /EMC pdfmark } bind def
/cairo_store_point { /cairo_point_y exch def /cairo_point_x exch def } def
/Tj { show currentpoint cairo_store_point } bind def
/TJ {
  {
    dup
    type /stringtype eq
    { show } { -0.001 mul 0 cairo_font_matrix dtransform rmoveto } ifelse
  } forall
  currentpoint cairo_store_point
} bind def
/cairo_selectfont { cairo_font_matrix aload pop pop pop 0 0 6 array astore
    cairo_font exch selectfont cairo_point_x cairo_point_y moveto } bind def
/Tf { pop /cairo_font exch def /cairo_font_matrix where
      { pop cairo_selectfont } if } bind def
/Td { matrix translate cairo_font_matrix matrix concatmatrix dup
      /cairo_font_matrix exch def dup 4 get exch 5 get cairo_store_point
      /cairo_font where { pop cairo_selectfont } if } bind def
/Tm { 2 copy 8 2 roll 6 array astore /cairo_font_matrix exch def
      cairo_store_point /cairo_font where { pop cairo_selectfont } if } bind def
/g { setgray } bind def
/rg { setrgbcolor } bind def
/d1 { setcachedevice } bind def
/cairo_data_source {
  CairoDataIndex CairoData length lt
    { CairoData CairoDataIndex get /CairoDataIndex CairoDataIndex 1 add def }
    { () } ifelse
} def
/cairo_flush_ascii85_file { cairo_ascii85_file status { cairo_ascii85_file flushfile } if } def
/cairo_image { image cairo_flush_ascii85_file } def
/cairo_imagemask { imagemask cairo_flush_ascii85_file } def
%%EndProlog
%%BeginSetup
%%EndSetup
%%Page: 1 1
%%BeginPageSetup
%%PageBoundingBox: 2 3 257 170
%%EndPageSetup
q 2 3 255 167 rectclip
1 0 0 -1 0 173 cm q
0 g
1.796436 w
0 J
0 j
[] 0.0 d
3.25 M 3.812 21.789 m 3.812 21.594 l S
6.352 21.793 m 6.352 21.508 l S
8.895 27.336 m 8.895 16.145 l S
11.434 32.184 m 11.434 11.141 l S
13.977 34.324 m 13.977 9.105 l S
16.52 35.633 m 16.52 7.898 l S
19.059 36.312 m 19.059 7.145 l S
21.602 36.738 m 21.602 6.738 l S
24.141 36.953 m 24.141 6.441 l S
26.684 37.066 m 26.684 6.328 l S
29.223 37.156 m 29.223 6.234 l S
31.766 37.215 m 31.766 6.148 l S
34.305 37.242 m 34.305 6.129 l S
36.848 37.352 m 36.848 6.059 l S
39.387 37.449 m 39.387 5.922 l S
41.93 37.551 m 41.93 5.848 l S
44.469 37.75 m 44.469 5.625 l S
47.012 38.066 m 47.012 5.441 l S
49.555 38.141 m 49.555 5.277 l S
52.094 38.422 m 52.094 4.977 l S
54.637 38.641 m 54.637 4.844 l S
57.176 38.797 m 57.176 4.602 l S
59.719 38.98 m 59.719 4.453 l S
62.258 39.125 m 62.258 4.277 l S
64.801 39.234 m 64.801 4.219 l S
67.34 39.355 m 67.34 4.051 l S
69.883 39.391 m 69.883 4.043 l S
72.422 39.344 m 72.422 4.066 l S
74.965 39.289 m 74.965 4.148 l S
77.508 39.227 m 77.508 4.211 l S
80.047 39.191 m 80.047 4.27 l S
82.59 39.109 m 82.59 4.324 l S
85.129 39.023 m 85.129 4.383 l S
87.672 38.953 m 87.672 4.477 l S
90.211 38.895 m 90.211 4.484 l S
92.754 38.863 m 92.754 4.555 l S
95.293 38.82 m 95.293 4.582 l S
97.836 38.84 m 97.836 4.594 l S
100.375 38.852 m 100.375 4.57 l S
102.918 38.875 m 102.918 4.566 l S
105.457 38.883 m 105.457 4.535 l S
108 38.867 m 108 4.539 l S
110.543 38.844 m 110.543 4.598 l S
113.082 38.742 m 113.082 4.648 l S
115.625 38.703 m 115.625 4.691 l S
118.164 38.703 m 118.164 4.734 l S
120.707 38.668 m 120.707 4.738 l S
123.246 38.699 m 123.246 4.707 l S
125.789 38.77 m 125.789 4.629 l S
128.328 38.855 m 128.328 4.535 l S
130.871 38.895 m 130.871 4.488 l S
133.41 38.984 m 133.41 4.438 l S
135.953 39.031 m 135.953 4.355 l S
138.492 39.211 m 138.492 4.203 l S
141.035 39.293 m 141.035 4.102 l S
143.578 39.32 m 143.578 4.086 l S
146.117 39.336 m 146.117 4.082 l S
148.66 39.316 m 148.66 4.086 l S
151.199 39.324 m 151.199 4.074 l S
153.742 39.238 m 153.742 4.152 l S
156.281 39.203 m 156.281 4.188 l S
158.824 39.184 m 158.824 4.207 l S
161.363 39.207 m 161.363 4.18 l S
163.906 39.258 m 163.906 4.121 l S
166.445 39.371 m 166.445 4.004 l S
168.988 39.414 m 168.988 3.961 l S
171.531 39.328 m 171.531 4.055 l S
174.07 37.926 m 174.07 5.41 l S
176.613 34.664 m 176.613 8.629 l S
179.152 32.184 m 179.152 11.344 l S
181.695 29.949 m 181.695 13.348 l S
184.234 28.164 m 184.234 15.098 l S
186.777 26.773 m 186.777 16.469 l S
189.316 25.754 m 189.316 17.582 l S
191.859 24.98 m 191.859 18.379 l S
194.398 24.441 m 194.398 18.961 l S
196.941 23.863 m 196.941 19.559 l S
199.48 23.363 m 199.48 20 l S
202.023 23 m 202.023 20.395 l S
204.566 22.723 m 204.566 20.66 l S
207.105 22.461 m 207.105 20.918 l S
209.648 22.281 m 209.648 21.098 l S
212.188 22.16 m 212.188 21.227 l S
214.73 22.074 m 214.73 21.34 l S
217.27 22.043 m 217.27 21.367 l S
219.812 21.953 m 219.812 21.41 l S
222.352 21.875 m 222.352 21.523 l S
224.895 21.824 m 224.895 21.57 l S
227.434 21.797 m 227.434 21.59 l S
229.977 21.789 m 229.977 21.594 l S
232.52 21.789 m 232.52 21.594 l S
235.059 21.789 m 235.059 21.594 l S
237.602 21.789 m 237.602 21.594 l S
240.141 21.789 m 240.141 21.594 l S
242.684 21.789 m 242.684 21.594 l S
245.223 21.789 m 245.223 21.594 l S
247.766 21.789 m 247.766 21.594 l S
250.305 21.789 m 250.305 21.594 l S
252.848 21.789 m 252.848 21.594 l S
255.387 21.789 m 255.387 21.594 l S
255.387 21.789 m 255.387 21.594 l S
3.812 64.988 m 3.812 64.793 l S
6.352 65.156 m 6.352 64.695 l S
8.895 70.109 m 8.895 59.891 l S
11.434 73.285 m 11.434 56.52 l S
13.977 74.73 m 13.977 54.922 l S
16.52 75.652 m 16.52 54.125 l S
19.059 76.219 m 19.059 53.641 l S
21.602 76.5 m 21.602 53.273 l S
24.141 76.648 m 24.141 53.109 l S
26.684 76.754 m 26.684 52.895 l S
29.223 76.902 m 29.223 52.805 l S
31.766 77.008 m 31.766 52.777 l S
34.305 76.98 m 34.305 52.766 l S
36.848 77.035 m 36.848 52.66 l S
39.387 77.117 m 39.387 52.641 l S
41.93 77.188 m 41.93 52.52 l S
44.469 77.434 m 44.469 52.379 l S
47.012 77.5 m 47.012 52.207 l S
49.555 77.641 m 49.555 52.098 l S
52.094 77.891 m 52.094 51.895 l S
54.637 77.977 m 54.637 51.797 l S
57.176 78.113 m 57.176 51.59 l S
59.719 78.219 m 59.719 51.492 l S
62.258 78.281 m 62.258 51.344 l S
64.801 78.348 m 64.801 51.336 l S
67.34 78.418 m 67.34 51.262 l S
69.883 78.457 m 69.883 51.25 l S
72.422 78.441 m 72.422 51.305 l S
74.965 78.395 m 74.965 51.305 l S
77.508 78.332 m 77.508 51.41 l S
80.047 78.379 m 80.047 51.398 l S
82.59 78.305 m 82.59 51.426 l S
85.129 78.207 m 85.129 51.496 l S
87.672 78.188 m 87.672 51.504 l S
90.211 78.199 m 90.211 51.574 l S
92.754 78.121 m 92.754 51.605 l S
95.293 78.133 m 95.293 51.609 l S
97.836 78.18 m 97.836 51.637 l S
100.375 78.125 m 100.375 51.637 l S
102.918 78.176 m 102.918 51.566 l S
105.457 78.16 m 105.457 51.594 l S
108 78.203 m 108 51.617 l S
110.543 78.152 m 110.543 51.598 l S
113.082 78.082 m 113.082 51.648 l S
115.625 78.047 m 115.625 51.664 l S
118.164 78.062 m 118.164 51.691 l S
120.707 78.051 m 120.707 51.727 l S
123.246 78.078 m 123.246 51.672 l S
125.789 78.129 m 125.789 51.684 l S
128.328 78.141 m 128.328 51.574 l S
130.871 78.188 m 130.871 51.527 l S
133.41 78.285 m 133.41 51.477 l S
135.953 78.363 m 135.953 51.398 l S
138.492 78.402 m 138.492 51.238 l S
141.035 78.473 m 141.035 51.223 l S
143.578 78.418 m 143.578 51.227 l S
146.117 78.496 m 146.117 51.18 l S
148.66 78.516 m 148.66 51.215 l S
151.199 78.477 m 151.199 51.242 l S
153.742 78.418 m 153.742 51.242 l S
156.281 78.379 m 156.281 51.293 l S
158.824 78.375 m 158.824 51.27 l S
161.363 78.449 m 161.363 51.262 l S
163.906 78.422 m 163.906 51.25 l S
166.445 78.496 m 166.445 51.133 l S
168.988 78.531 m 168.988 51.129 l S
171.531 78.441 m 171.531 51.203 l S
174.07 77.984 m 174.07 51.664 l S
176.613 76.102 m 176.613 53.758 l S
179.152 74.059 m 179.152 55.902 l S
181.695 72.141 m 181.695 57.695 l S
184.234 70.613 m 184.234 59.066 l S
186.777 69.539 m 186.777 60.195 l S
189.316 68.652 m 189.316 61.121 l S
191.859 67.941 m 191.859 61.902 l S
194.398 67.348 m 194.398 62.488 l S
196.941 66.855 m 196.941 62.859 l S
199.48 66.426 m 199.48 63.316 l S
202.023 66.074 m 202.023 63.656 l S
204.566 65.82 m 204.566 63.941 l S
207.105 65.672 m 207.105 64.148 l S
209.648 65.492 m 209.648 64.324 l S
212.188 65.371 m 212.188 64.449 l S
214.73 65.246 m 214.73 64.488 l S
217.27 65.211 m 217.27 64.539 l S
219.812 65.125 m 219.812 64.672 l S
222.352 65.055 m 222.352 64.727 l S
224.895 65.027 m 224.895 64.773 l S
227.434 64.988 m 227.434 64.789 l S
229.977 64.988 m 229.977 64.793 l S
232.52 64.988 m 232.52 64.793 l S
235.059 64.988 m 235.059 64.793 l S
237.602 64.988 m 237.602 64.793 l S
240.141 64.988 m 240.141 64.793 l S
242.684 64.988 m 242.684 64.793 l S
245.223 64.988 m 245.223 64.793 l S
247.766 64.988 m 247.766 64.793 l S
250.305 64.988 m 250.305 64.793 l S
252.848 64.988 m 252.848 64.793 l S
255.387 64.988 m 255.387 64.793 l S
255.387 64.988 m 255.387 64.793 l S
3.812 108.188 m 3.812 107.992 l S
6.352 108.238 m 6.352 107.938 l S
8.895 114.801 m 8.895 101.582 l S
11.434 119.684 m 11.434 96.586 l S
13.977 121.754 m 13.977 94.273 l S
16.52 122.926 m 16.52 93.117 l S
19.059 123.723 m 19.059 92.273 l S
21.602 124.301 m 21.602 91.797 l S
24.141 124.594 m 24.141 91.469 l S
26.684 124.82 m 26.684 91.266 l S
29.223 125.047 m 29.223 91.078 l S
31.766 125.172 m 31.766 90.953 l S
34.305 125.164 m 34.305 90.926 l S
36.848 125.223 m 36.848 90.801 l S
39.387 125.465 m 39.387 90.637 l S
41.93 125.527 m 41.93 90.566 l S
44.469 125.758 m 44.469 90.32 l S
47.012 126.004 m 47.012 89.965 l S
49.555 126.172 m 49.555 89.797 l S
52.094 126.566 m 52.094 89.484 l S
54.637 126.723 m 54.637 89.281 l S
57.176 127.035 m 57.176 89.043 l S
59.719 127.227 m 59.719 88.832 l S
62.258 127.336 m 62.258 88.656 l S
64.801 127.457 m 64.801 88.523 l S
67.34 127.551 m 67.34 88.457 l S
69.883 127.637 m 69.883 88.363 l S
72.422 127.59 m 72.422 88.379 l S
74.965 127.543 m 74.965 88.418 l S
77.508 127.492 m 77.508 88.488 l S
80.047 127.426 m 80.047 88.586 l S
82.59 127.383 m 82.59 88.656 l S
85.129 127.258 m 85.129 88.723 l S
87.672 127.16 m 87.672 88.828 l S
90.211 127.152 m 90.211 88.898 l S
92.754 127.113 m 92.754 88.941 l S
95.293 127.027 m 95.293 88.988 l S
97.836 127.047 m 97.836 88.992 l S
100.375 127.047 m 100.375 88.992 l S
102.918 127.047 m 102.918 88.98 l S
105.457 127.121 m 105.457 88.949 l S
108 127.066 m 108 88.992 l S
110.543 127.02 m 110.543 89.004 l S
113.082 126.953 m 113.082 89.09 l S
115.625 126.938 m 115.625 89.152 l S
118.164 126.871 m 118.164 89.172 l S
120.707 126.863 m 120.707 89.188 l S
123.246 126.945 m 123.246 89.109 l S
125.789 126.945 m 125.789 89.121 l S
128.328 127.027 m 128.328 89.012 l S
130.871 127.105 m 130.871 88.938 l S
133.41 127.191 m 133.41 88.867 l S
135.953 127.281 m 135.953 88.781 l S
138.492 127.395 m 138.492 88.621 l S
141.035 127.508 m 141.035 88.496 l S
143.578 127.523 m 143.578 88.523 l S
146.117 127.617 m 146.117 88.453 l S
148.66 127.617 m 148.66 88.48 l S
151.199 127.512 m 151.199 88.469 l S
153.742 127.461 m 153.742 88.566 l S
156.281 127.469 m 156.281 88.613 l S
158.824 127.457 m 158.824 88.59 l S
161.363 127.438 m 161.363 88.594 l S
163.906 127.508 m 163.906 88.543 l S
166.445 127.594 m 166.445 88.414 l S
168.988 127.617 m 168.988 88.418 l S
171.531 127.586 m 171.531 88.512 l S
174.07 125.723 m 174.07 90.25 l S
176.613 122.297 m 176.613 93.766 l S
179.152 119.406 m 179.152 96.891 l S
181.695 117.129 m 181.695 99.09 l S
184.234 115.242 m 184.234 100.844 l S
186.777 113.844 m 186.777 102.234 l S
189.316 112.738 m 189.316 103.387 l S
191.859 111.809 m 191.859 104.293 l S
194.398 111.102 m 194.398 105.016 l S
196.941 110.539 m 196.941 105.68 l S
199.48 109.961 m 199.48 106.18 l S
202.023 109.645 m 202.023 106.496 l S
204.566 109.336 m 204.566 106.859 l S
207.105 109.07 m 207.105 107.129 l S
209.648 108.828 m 209.648 107.352 l S
212.188 108.695 m 212.188 107.488 l S
214.73 108.547 m 214.73 107.559 l S
217.27 108.504 m 217.27 107.609 l S
219.812 108.438 m 219.812 107.742 l S
222.352 108.32 m 222.352 107.871 l S
224.895 108.262 m 224.895 107.934 l S
227.434 108.23 m 227.434 107.969 l S
229.977 108.188 m 229.977 107.992 l S
232.52 108.188 m 232.52 107.992 l S
235.059 108.188 m 235.059 107.992 l S
237.602 108.188 m 237.602 107.992 l S
240.141 108.188 m 240.141 107.992 l S
242.684 108.188 m 242.684 107.992 l S
245.223 108.188 m 245.223 107.992 l S
247.766 108.188 m 247.766 107.992 l S
250.305 108.188 m 250.305 107.992 l S
252.848 108.188 m 252.848 107.992 l S
255.387 108.188 m 255.387 107.992 l S
255.387 108.188 m 255.387 107.992 l S
3.812 151.387 m 3.812 151.191 l S
6.352 151.594 m 6.352 151.145 l S
8.895 158.617 m 8.895 144.223 l S
11.434 163.16 m 11.434 139.383 l S
13.977 164.891 m 13.977 137.707 l S
16.52 165.816 m 16.52 136.848 l S
19.059 166.477 m 19.059 136.195 l S
21.602 166.719 m 21.602 135.789 l S
24.141 167.043 m 24.141 135.562 l S
26.684 167.16 m 26.684 135.348 l S
29.223 167.426 m 29.223 135.273 l S
31.766 167.543 m 31.766 135.301 l S
34.305 167.496 m 34.305 135.203 l S
36.848 167.562 m 36.848 135.066 l S
39.387 167.691 m 39.387 135.059 l S
41.93 167.844 m 41.93 134.918 l S
44.469 167.957 m 44.469 134.734 l S
47.012 168.238 m 47.012 134.355 l S
49.555 168.43 m 49.555 134.324 l S
52.094 168.699 m 52.094 134.023 l S
54.637 168.793 m 54.637 133.879 l S
57.176 169.086 m 57.176 133.742 l S
59.719 169.23 m 59.719 133.668 l S
62.258 169.27 m 62.258 133.523 l S
64.801 169.387 m 64.801 133.398 l S
67.34 169.457 m 67.34 133.336 l S
69.883 169.508 m 69.883 133.316 l S
72.422 169.516 m 72.422 133.301 l S
74.965 169.449 m 74.965 133.344 l S
77.508 169.336 m 77.508 133.48 l S
80.047 169.355 m 80.047 133.516 l S
82.59 169.25 m 82.59 133.566 l S
85.129 169.156 m 85.129 133.562 l S
87.672 169.047 m 87.672 133.684 l S
90.211 169.098 m 90.211 133.734 l S
92.754 169.008 m 92.754 133.746 l S
95.293 169.008 m 95.293 133.789 l S
97.836 169.062 m 97.836 133.703 l S
100.375 168.98 m 100.375 133.77 l S
102.918 168.953 m 102.918 133.711 l S
105.457 169.027 m 105.457 133.758 l S
108 169.035 m 108 133.766 l S
110.543 169.031 m 110.543 133.762 l S
113.082 168.887 m 113.082 133.867 l S
115.625 168.871 m 115.625 133.891 l S
118.164 168.816 m 118.164 133.852 l S
120.707 168.828 m 120.707 133.871 l S
123.246 168.871 m 123.246 133.859 l S
125.789 168.969 m 125.789 133.859 l S
128.328 168.973 m 128.328 133.699 l S
130.871 169.113 m 130.871 133.699 l S
133.41 169.062 m 133.41 133.68 l S
135.953 169.152 m 135.953 133.57 l S
138.492 169.273 m 138.492 133.375 l S
141.035 169.484 m 141.035 133.359 l S
143.578 169.398 m 143.578 133.414 l S
146.117 169.418 m 146.117 133.352 l S
148.66 169.492 m 148.66 133.434 l S
151.199 169.441 m 151.199 133.414 l S
153.742 169.262 m 153.742 133.438 l S
156.281 169.309 m 156.281 133.441 l S
158.824 169.352 m 158.824 133.543 l S
161.363 169.277 m 161.363 133.465 l S
163.906 169.363 m 163.906 133.43 l S
166.445 169.523 m 166.445 133.332 l S
168.988 169.465 m 168.988 133.332 l S
171.531 169.352 m 171.531 133.547 l S
174.07 167.527 m 174.07 135.125 l S
176.613 164.727 m 176.613 137.633 l S
179.152 162.691 m 179.152 140.191 l S
181.695 160.691 m 181.695 142.121 l S
184.234 158.734 m 184.234 143.727 l S
186.777 157.48 m 186.777 144.809 l S
189.316 156.398 m 189.316 146.184 l S
191.859 155.359 m 191.859 147.078 l S
194.398 154.629 m 194.398 148.098 l S
196.941 154.039 m 196.941 148.711 l S
199.48 153.297 m 199.48 149.285 l S
202.023 152.875 m 202.023 149.691 l S
204.566 152.609 m 204.566 150.07 l S
207.105 152.25 m 207.105 150.289 l S
209.648 152.066 m 209.648 150.473 l S
212.188 151.949 m 212.188 150.613 l S
214.73 151.809 m 214.73 150.719 l S
217.27 151.719 m 217.27 150.832 l S
219.812 151.641 m 219.812 150.93 l S
222.352 151.559 m 222.352 151.055 l S
224.895 151.527 m 224.895 151.105 l S
227.434 151.453 m 227.434 151.141 l S
229.977 151.402 m 229.977 151.172 l S
232.52 151.387 m 232.52 151.184 l S
235.059 151.387 m 235.059 151.191 l S
237.602 151.387 m 237.602 151.191 l S
240.141 151.387 m 240.141 151.191 l S
242.684 151.387 m 242.684 151.191 l S
245.223 151.387 m 245.223 151.191 l S
247.766 151.387 m 247.766 151.191 l S
250.305 151.387 m 250.305 151.191 l S
252.848 151.387 m 252.848 151.191 l S
255.387 151.387 m 255.387 151.191 l S
255.387 151.387 m 255.387 151.191 l S
Q Q
showpage
%%Trailer
end
%%EOF
