%!PS-Adobe-3.0 EPSF-3.0
%%Creator: cairo 1.16.0 (https://cairographics.org)
%%CreationDate: Wed May 15 11:57:23 2024
%%Pages: 1
%%DocumentData: Clean7Bit
%%LanguageLevel: 2
%%Creator: Wolfram Mathematica
%%BoundingBox: 2 9 257 164
%%EndComments
%%BeginProlog
50 dict begin
/q { gsave } bind def
/Q { grestore } bind def
/cm { 6 array astore concat } bind def
/w { setlinewidth } bind def
/J { setlinecap } bind def
/j { setlinejoin } bind def
/M { setmiterlimit } bind def
/d { setdash } bind def
/m { moveto } bind def
/l { lineto } bind def
/c { curveto } bind def
/h { closepath } bind def
/re { exch dup neg 3 1 roll 5 3 roll moveto 0 rlineto
      0 exch rlineto 0 rlineto closepath } bind def
/S { stroke } bind def
/f { fill } bind def
/f* { eofill } bind def
/n { newpath } bind def
/W { clip } bind def
/W* { eoclip } bind def
/BT { } bind def
/ET { } bind def
/BDC { mark 3 1 roll /BDC pdfmark } bind def
/EMC { mark /EMC pdfmark } bind def
/cairo_store_point { /cairo_point_y exch def /cairo_point_x exch def } def
/Tj { show currentpoint cairo_store_point } bind def
/TJ {
  {
    dup
    type /stringtype eq
    { show } { -0.001 mul 0 cairo_font_matrix dtransform rmoveto } ifelse
  } forall
  currentpoint cairo_store_point
} bind def
/cairo_selectfont { cairo_font_matrix aload pop pop pop 0 0 6 array astore
    cairo_font exch selectfont cairo_point_x cairo_point_y moveto } bind def
/Tf { pop /cairo_font exch def /cairo_font_matrix where
      { pop cairo_selectfont } if } bind def
/Td { matrix translate cairo_font_matrix matrix concatmatrix dup
      /cairo_font_matrix exch def dup 4 get exch 5 get cairo_store_point
      /cairo_font where { pop cairo_selectfont } if } bind def
/Tm { 2 copy 8 2 roll 6 array astore /cairo_font_matrix exch def
      cairo_store_point /cairo_font where { pop cairo_selectfont } if } bind def
/g { setgray } bind def
/rg { setrgbcolor } bind def
/d1 { setcachedevice } bind def
/cairo_data_source {
  CairoDataIndex CairoData length lt
    { CairoData CairoDataIndex get /CairoDataIndex CairoDataIndex 1 add def }
    { () } ifelse
} def
/cairo_flush_ascii85_file { cairo_ascii85_file status { cairo_ascii85_file flushfile } if } def
/cairo_image { image cairo_flush_ascii85_file } def
/cairo_imagemask { imagemask cairo_flush_ascii85_file } def
%%EndProlog
%%BeginSetup
%%EndSetup
%%Page: 1 1
%%BeginPageSetup
%%PageBoundingBox: 2 9 257 164
%%EndPageSetup
q 2 9 255 155 rectclip
1 0 0 -1 0 173 cm q
0 g
1.796436 w
0 J
0 j
[] 0.0 d
3.25 M 3.812 21.691 m 3.812 21.492 l S
6.352 21.789 m 6.352 21.344 l S
8.895 26.27 m 8.895 16.691 l S
11.434 30.676 m 11.434 13 l S
13.977 32.473 m 13.977 11.273 l S
16.52 33.445 m 16.52 10.426 l S
19.059 34.051 m 19.059 9.711 l S
21.602 34.258 m 21.602 9.492 l S
24.141 34.266 m 24.141 9.512 l S
26.684 34.117 m 26.684 9.656 l S
29.223 34.16 m 29.223 9.629 l S
31.766 34.18 m 31.766 9.613 l S
34.305 34.172 m 34.305 9.633 l S
36.848 34.148 m 36.848 9.656 l S
39.387 34.148 m 39.387 9.641 l S
41.93 34.176 m 41.93 9.625 l S
44.469 34.188 m 44.469 9.59 l S
47.012 34.223 m 47.012 9.559 l S
49.555 34.246 m 49.555 9.543 l S
52.094 34.246 m 52.094 9.555 l S
54.637 34.23 m 54.637 9.566 l S
57.176 34.238 m 57.176 9.562 l S
59.719 34.238 m 59.719 9.559 l S
62.258 34.23 m 62.258 9.562 l S
64.801 34.195 m 64.801 9.602 l S
67.34 34.188 m 67.34 9.602 l S
69.883 34.215 m 69.883 9.566 l S
72.422 34.219 m 72.422 9.559 l S
74.965 34.219 m 74.965 9.574 l S
77.508 34.199 m 77.508 9.586 l S
80.047 34.23 m 80.047 9.57 l S
82.59 34.223 m 82.59 9.559 l S
85.129 34.219 m 85.129 9.586 l S
87.672 34.195 m 87.672 9.586 l S
90.211 34.227 m 90.211 9.578 l S
92.754 34.215 m 92.754 9.566 l S
95.293 34.219 m 95.293 9.559 l S
97.836 34.211 m 97.836 9.562 l S
100.375 34.203 m 100.375 9.586 l S
102.918 34.18 m 102.918 9.605 l S
105.457 34.184 m 105.457 9.598 l S
108 34.18 m 108 9.602 l S
110.543 34.184 m 110.543 9.605 l S
113.082 34.168 m 113.082 9.621 l S
115.625 34.18 m 115.625 9.617 l S
118.164 34.184 m 118.164 9.609 l S
120.707 34.191 m 120.707 9.586 l S
123.246 34.188 m 123.246 9.594 l S
125.789 34.141 m 125.789 9.633 l S
128.328 34.133 m 128.328 9.672 l S
130.871 34.105 m 130.871 9.703 l S
133.41 34.113 m 133.41 9.703 l S
135.953 34.098 m 135.953 9.715 l S
138.492 34.117 m 138.492 9.676 l S
141.035 34.133 m 141.035 9.672 l S
143.578 34.121 m 143.578 9.688 l S
146.117 34.086 m 146.117 9.73 l S
148.66 34.039 m 148.66 9.777 l S
151.199 34.039 m 151.199 9.777 l S
153.742 34.055 m 153.742 9.777 l S
156.281 34.066 m 156.281 9.781 l S
158.824 34.062 m 158.824 9.777 l S
161.363 34.07 m 161.363 9.766 l S
163.906 34.074 m 163.906 9.781 l S
166.445 34.055 m 166.445 9.797 l S
168.988 34.02 m 168.988 9.828 l S
171.531 34 m 171.531 9.859 l S
174.07 33.988 m 174.07 9.867 l S
176.613 33.973 m 176.613 9.891 l S
179.152 33.617 m 179.152 10.184 l S
181.695 29.59 m 181.695 14.387 l S
184.234 26.465 m 184.234 16.391 l S
186.777 25.547 m 186.777 17.695 l S
189.316 24.355 m 189.316 18.703 l S
191.859 23.531 m 191.859 19.633 l S
194.398 23.102 m 194.398 20.109 l S
196.941 22.641 m 196.941 20.598 l S
199.48 22.352 m 199.48 20.828 l S
202.023 22.176 m 202.023 21.062 l S
204.566 21.938 m 204.566 21.266 l S
207.105 21.832 m 207.105 21.367 l S
209.648 21.742 m 209.648 21.43 l S
212.188 21.695 m 212.188 21.488 l S
214.73 21.691 m 214.73 21.492 l S
217.27 21.691 m 217.27 21.492 l S
219.812 21.691 m 219.812 21.492 l S
222.352 21.691 m 222.352 21.492 l S
224.895 21.691 m 224.895 21.492 l S
227.434 21.691 m 227.434 21.492 l S
229.977 21.691 m 229.977 21.492 l S
232.52 21.691 m 232.52 21.492 l S
235.059 21.691 m 235.059 21.492 l S
237.602 21.691 m 237.602 21.492 l S
240.141 21.691 m 240.141 21.492 l S
242.684 21.691 m 242.684 21.492 l S
245.223 21.691 m 245.223 21.492 l S
247.766 21.691 m 247.766 21.492 l S
250.305 21.691 m 250.305 21.492 l S
252.848 21.691 m 252.848 21.492 l S
255.387 21.691 m 255.387 21.492 l S
255.387 21.691 m 255.387 21.492 l S
3.812 64.891 m 3.812 64.695 l S
6.352 64.977 m 6.352 64.566 l S
8.895 68.758 m 8.895 60.805 l S
11.434 72.203 m 11.434 57.598 l S
13.977 73.461 m 13.977 56.211 l S
16.52 73.938 m 16.52 55.742 l S
19.059 74.25 m 19.059 55.305 l S
21.602 74.309 m 21.602 55.223 l S
24.141 74.375 m 24.141 55.199 l S
26.684 74.43 m 26.684 55.137 l S
29.223 74.469 m 29.223 55.117 l S
31.766 74.469 m 31.766 55.09 l S
34.305 74.441 m 34.305 55.094 l S
36.848 74.438 m 36.848 55.086 l S
39.387 74.453 m 39.387 55.098 l S
41.93 74.457 m 41.93 55.086 l S
44.469 74.488 m 44.469 55.082 l S
47.012 74.496 m 47.012 55.062 l S
49.555 74.539 m 49.555 55.031 l S
52.094 74.547 m 52.094 55.031 l S
54.637 74.547 m 54.637 55.031 l S
57.176 74.539 m 57.176 55.031 l S
59.719 74.527 m 59.719 55.031 l S
62.258 74.547 m 62.258 55.047 l S
64.801 74.504 m 64.801 55.078 l S
67.34 74.492 m 67.34 55.094 l S
69.883 74.488 m 69.883 55.07 l S
72.422 74.492 m 72.422 55.074 l S
74.965 74.492 m 74.965 55.062 l S
77.508 74.52 m 77.508 55.082 l S
80.047 74.488 m 80.047 55.078 l S
82.59 74.516 m 82.59 55.062 l S
85.129 74.496 m 85.129 55.066 l S
87.672 74.461 m 87.672 55.078 l S
90.211 74.48 m 90.211 55.086 l S
92.754 74.488 m 92.754 55.074 l S
95.293 74.469 m 95.293 55.086 l S
97.836 74.48 m 97.836 55.074 l S
100.375 74.453 m 100.375 55.105 l S
102.918 74.41 m 102.918 55.113 l S
105.457 74.418 m 105.457 55.133 l S
108 74.41 m 108 55.129 l S
110.543 74.41 m 110.543 55.137 l S
113.082 74.402 m 113.082 55.133 l S
115.625 74.391 m 115.625 55.145 l S
118.164 74.391 m 118.164 55.156 l S
120.707 74.402 m 120.707 55.148 l S
123.246 74.406 m 123.246 55.148 l S
125.789 74.379 m 125.789 55.172 l S
128.328 74.344 m 128.328 55.191 l S
130.871 74.336 m 130.871 55.234 l S
133.41 74.289 m 133.41 55.254 l S
135.953 74.289 m 135.953 55.266 l S
138.492 74.309 m 138.492 55.258 l S
141.035 74.324 m 141.035 55.23 l S
143.578 74.289 m 143.578 55.234 l S
146.117 74.277 m 146.117 55.27 l S
148.66 74.254 m 148.66 55.324 l S
151.199 74.242 m 151.199 55.336 l S
153.742 74.238 m 153.742 55.324 l S
156.281 74.27 m 156.281 55.324 l S
158.824 74.266 m 158.824 55.312 l S
161.363 74.258 m 161.363 55.324 l S
163.906 74.25 m 163.906 55.344 l S
166.445 74.234 m 166.445 55.336 l S
168.988 74.223 m 168.988 55.379 l S
171.531 74.211 m 171.531 55.379 l S
174.07 74.238 m 174.07 55.379 l S
176.613 74.211 m 176.613 55.387 l S
179.152 73.992 m 179.152 55.617 l S
181.695 71.707 m 181.695 57.832 l S
184.234 69.504 m 184.234 60.078 l S
186.777 68.32 m 186.777 61.184 l S
189.316 67.281 m 189.316 62.133 l S
191.859 66.648 m 191.859 63.008 l S
194.398 66.012 m 194.398 63.539 l S
196.941 65.703 m 196.941 63.922 l S
199.48 65.48 m 199.48 64.094 l S
202.023 65.332 m 202.023 64.25 l S
204.566 65.133 m 204.566 64.488 l S
207.105 65.035 m 207.105 64.559 l S
209.648 64.969 m 209.648 64.637 l S
212.188 64.934 m 212.188 64.66 l S
214.73 64.891 m 214.73 64.695 l S
217.27 64.891 m 217.27 64.695 l S
219.812 64.891 m 219.812 64.695 l S
222.352 64.891 m 222.352 64.695 l S
224.895 64.891 m 224.895 64.695 l S
227.434 64.891 m 227.434 64.695 l S
229.977 64.891 m 229.977 64.695 l S
232.52 64.891 m 232.52 64.695 l S
235.059 64.891 m 235.059 64.695 l S
237.602 64.891 m 237.602 64.695 l S
240.141 64.891 m 240.141 64.695 l S
242.684 64.891 m 242.684 64.695 l S
245.223 64.891 m 245.223 64.695 l S
247.766 64.891 m 247.766 64.695 l S
250.305 64.891 m 250.305 64.695 l S
252.848 64.891 m 252.848 64.695 l S
255.387 64.891 m 255.387 64.695 l S
255.387 64.891 m 255.387 64.695 l S
3.812 108.09 m 3.812 107.895 l S
6.352 108.586 m 6.352 107.258 l S
8.895 117.109 m 8.895 98.746 l S
11.434 123.895 m 11.434 92.219 l S
13.977 126.191 m 13.977 89.809 l S
16.52 126.914 m 16.52 89.027 l S
19.059 127.199 m 19.059 88.859 l S
21.602 127.258 m 21.602 88.652 l S
24.141 127.355 m 24.141 88.613 l S
26.684 127.387 m 26.684 88.566 l S
29.223 127.422 m 29.223 88.531 l S
31.766 127.434 m 31.766 88.531 l S
34.305 127.426 m 34.305 88.5 l S
36.848 127.43 m 36.848 88.52 l S
39.387 127.43 m 39.387 88.508 l S
41.93 127.473 m 41.93 88.492 l S
44.469 127.492 m 44.469 88.434 l S
47.012 127.551 m 47.012 88.391 l S
49.555 127.617 m 49.555 88.363 l S
52.094 127.637 m 52.094 88.363 l S
54.637 127.594 m 54.637 88.363 l S
57.176 127.609 m 57.176 88.371 l S
59.719 127.598 m 59.719 88.371 l S
62.258 127.609 m 62.258 88.375 l S
64.801 127.566 m 64.801 88.438 l S
67.34 127.52 m 67.34 88.457 l S
69.883 127.555 m 69.883 88.441 l S
72.422 127.551 m 72.422 88.418 l S
74.965 127.543 m 74.965 88.441 l S
77.508 127.57 m 77.508 88.434 l S
80.047 127.57 m 80.047 88.414 l S
82.59 127.574 m 82.59 88.43 l S
85.129 127.566 m 85.129 88.418 l S
87.672 127.562 m 87.672 88.434 l S
90.211 127.57 m 90.211 88.414 l S
92.754 127.578 m 92.754 88.406 l S
95.293 127.578 m 95.293 88.414 l S
97.836 127.613 m 97.836 88.391 l S
100.375 127.59 m 100.375 88.398 l S
102.918 127.535 m 102.918 88.465 l S
105.457 127.551 m 105.457 88.469 l S
108 127.57 m 108 88.461 l S
110.543 127.555 m 110.543 88.473 l S
113.082 127.551 m 113.082 88.477 l S
115.625 127.578 m 115.625 88.484 l S
118.164 127.57 m 118.164 88.457 l S
120.707 127.578 m 120.707 88.414 l S
123.246 127.59 m 123.246 88.465 l S
125.789 127.539 m 125.789 88.496 l S
128.328 127.551 m 128.328 88.492 l S
130.871 127.516 m 130.871 88.516 l S
133.41 127.508 m 133.41 88.508 l S
135.953 127.535 m 135.953 88.5 l S
138.492 127.543 m 138.492 88.484 l S
141.035 127.59 m 141.035 88.488 l S
143.578 127.508 m 143.578 88.488 l S
146.117 127.477 m 146.117 88.535 l S
148.66 127.484 m 148.66 88.555 l S
151.199 127.488 m 151.199 88.527 l S
153.742 127.484 m 153.742 88.551 l S
156.281 127.508 m 156.281 88.5 l S
158.824 127.516 m 158.824 88.527 l S
161.363 127.52 m 161.363 88.523 l S
163.906 127.523 m 163.906 88.504 l S
166.445 127.527 m 166.445 88.539 l S
168.988 127.5 m 168.988 88.559 l S
171.531 127.477 m 171.531 88.574 l S
174.07 127.457 m 174.07 88.586 l S
176.613 127.426 m 176.613 88.633 l S
179.152 127.004 m 179.152 88.996 l S
181.695 123.547 m 181.695 92.734 l S
184.234 119.465 m 184.234 96.391 l S
186.777 117.09 m 186.777 98.699 l S
189.316 115.285 m 189.316 100.48 l S
191.859 113.723 m 191.859 102.047 l S
194.398 112.457 m 194.398 103.547 l S
196.941 111.316 m 196.941 104.68 l S
199.48 110.449 m 199.48 105.543 l S
202.023 109.742 m 202.023 106.238 l S
204.566 109.18 m 204.566 106.859 l S
207.105 108.844 m 207.105 107.164 l S
209.648 108.508 m 209.648 107.457 l S
212.188 108.375 m 212.188 107.629 l S
214.73 108.266 m 214.73 107.703 l S
217.27 108.188 m 217.27 107.777 l S
219.812 108.121 m 219.812 107.871 l S
222.352 108.102 m 222.352 107.883 l S
224.895 108.09 m 224.895 107.895 l S
227.434 108.09 m 227.434 107.895 l S
229.977 108.09 m 229.977 107.895 l S
232.52 108.09 m 232.52 107.895 l S
235.059 108.09 m 235.059 107.895 l S
237.602 108.09 m 237.602 107.895 l S
240.141 108.09 m 240.141 107.895 l S
242.684 108.09 m 242.684 107.895 l S
245.223 108.09 m 245.223 107.895 l S
247.766 108.09 m 247.766 107.895 l S
250.305 108.09 m 250.305 107.895 l S
252.848 108.09 m 252.848 107.895 l S
255.387 108.09 m 255.387 107.895 l S
255.387 108.09 m 255.387 107.895 l S
3.812 151.289 m 3.812 151.094 l S
6.352 151.461 m 6.352 150.883 l S
8.895 156.727 m 8.895 145.637 l S
11.434 160.945 m 11.434 142.035 l S
13.977 162.488 m 13.977 140.453 l S
16.52 163.566 m 16.52 139.523 l S
19.059 163.656 m 19.059 139.328 l S
21.602 163.633 m 21.602 139.359 l S
24.141 163.68 m 24.141 139.332 l S
26.684 163.84 m 26.684 139.113 l S
29.223 163.867 m 29.223 139.129 l S
31.766 163.797 m 31.766 139.227 l S
34.305 163.781 m 34.305 139.203 l S
36.848 163.789 m 36.848 139.211 l S
39.387 163.758 m 39.387 139.25 l S
41.93 163.773 m 41.93 139.246 l S
44.469 163.75 m 44.469 139.258 l S
47.012 163.805 m 47.012 139.219 l S
49.555 163.867 m 49.555 139.172 l S
52.094 163.816 m 52.094 139.191 l S
54.637 163.852 m 54.637 139.176 l S
57.176 163.828 m 57.176 139.23 l S
59.719 163.801 m 59.719 139.176 l S
62.258 163.84 m 62.258 139.219 l S
64.801 163.77 m 64.801 139.289 l S
67.34 163.703 m 67.34 139.305 l S
69.883 163.734 m 69.883 139.27 l S
72.422 163.715 m 72.422 139.25 l S
74.965 163.762 m 74.965 139.289 l S
77.508 163.738 m 77.508 139.277 l S
80.047 163.758 m 80.047 139.273 l S
82.59 163.719 m 82.59 139.273 l S
85.129 163.801 m 85.129 139.215 l S
87.672 163.715 m 87.672 139.309 l S
90.211 163.723 m 90.211 139.316 l S
92.754 163.691 m 92.754 139.305 l S
95.293 163.703 m 95.293 139.34 l S
97.836 163.688 m 97.836 139.324 l S
100.375 163.684 m 100.375 139.328 l S
102.918 163.656 m 102.918 139.352 l S
105.457 163.641 m 105.457 139.359 l S
108 163.633 m 108 139.348 l S
110.543 163.629 m 110.543 139.328 l S
113.082 163.617 m 113.082 139.387 l S
115.625 163.578 m 115.625 139.426 l S
118.164 163.605 m 118.164 139.379 l S
120.707 163.629 m 120.707 139.355 l S
123.246 163.629 m 123.246 139.371 l S
125.789 163.547 m 125.789 139.395 l S
128.328 163.535 m 128.328 139.406 l S
130.871 163.547 m 130.871 139.461 l S
133.41 163.527 m 133.41 139.469 l S
135.953 163.508 m 135.953 139.516 l S
138.492 163.512 m 138.492 139.477 l S
141.035 163.539 m 141.035 139.488 l S
143.578 163.488 m 143.578 139.484 l S
146.117 163.523 m 146.117 139.469 l S
148.66 163.445 m 148.66 139.613 l S
151.199 163.457 m 151.199 139.559 l S
153.742 163.453 m 153.742 139.574 l S
156.281 163.508 m 156.281 139.598 l S
158.824 163.492 m 158.824 139.547 l S
161.363 163.504 m 161.363 139.59 l S
163.906 163.492 m 163.906 139.602 l S
166.445 163.477 m 166.445 139.551 l S
168.988 163.434 m 168.988 139.602 l S
171.531 163.449 m 171.531 139.586 l S
174.07 163.504 m 174.07 139.609 l S
176.613 163.434 m 176.613 139.656 l S
179.152 163.066 m 179.152 139.887 l S
181.695 160.117 m 181.695 142.594 l S
184.234 158.113 m 184.234 144.406 l S
186.777 156.902 m 186.777 145.68 l S
189.316 155.676 m 189.316 146.637 l S
191.859 154.41 m 191.859 147.965 l S
194.398 153.668 m 194.398 148.699 l S
196.941 153.055 m 196.941 149.398 l S
199.48 152.789 m 199.48 149.648 l S
202.023 152.469 m 202.023 149.898 l S
204.566 151.887 m 204.566 150.551 l S
207.105 151.676 m 207.105 150.672 l S
209.648 151.512 m 209.648 150.879 l S
212.188 151.441 m 212.188 150.918 l S
214.73 151.391 m 214.73 151.004 l S
217.27 151.352 m 217.27 151.023 l S
219.812 151.289 m 219.812 151.086 l S
222.352 151.289 m 222.352 151.094 l S
224.895 151.289 m 224.895 151.094 l S
227.434 151.289 m 227.434 151.094 l S
229.977 151.289 m 229.977 151.094 l S
232.52 151.289 m 232.52 151.094 l S
235.059 151.289 m 235.059 151.094 l S
237.602 151.289 m 237.602 151.094 l S
240.141 151.289 m 240.141 151.094 l S
242.684 151.289 m 242.684 151.094 l S
245.223 151.289 m 245.223 151.094 l S
247.766 151.289 m 247.766 151.094 l S
250.305 151.289 m 250.305 151.094 l S
252.848 151.289 m 252.848 151.094 l S
255.387 151.289 m 255.387 151.094 l S
255.387 151.289 m 255.387 151.094 l S
Q Q
showpage
%%Trailer
end
%%EOF
