%!PS-Adobe-3.0 EPSF-3.0
%%Creator: cairo 1.16.0 (https://cairographics.org)
%%CreationDate: Wed May 15 11:57:23 2024
%%Pages: 1
%%DocumentData: Clean7Bit
%%LanguageLevel: 2
%%Creator: Wolfram Mathematica
%%BoundingBox: 2 3 257 170
%%EndComments
%%BeginProlog
50 dict begin
/q { gsave } bind def
/Q { grestore } bind def
/cm { 6 array astore concat } bind def
/w { setlinewidth } bind def
/J { setlinecap } bind def
/j { setlinejoin } bind def
/M { setmiterlimit } bind def
/d { setdash } bind def
/m { moveto } bind def
/l { lineto } bind def
/c { curveto } bind def
/h { closepath } bind def
/re { exch dup neg 3 1 roll 5 3 roll moveto 0 rlineto
      0 exch rlineto 0 rlineto closepath } bind def
/S { stroke } bind def
/f { fill } bind def
/f* { eofill } bind def
/n { newpath } bind def
/W { clip } bind def
/W* { eoclip } bind def
/BT { } bind def
/ET { } bind def
/BDC { mark 3 1 roll /BDC pdfmark } bind def
/EMC { mark /EMC pdfmark } bind def
/cairo_store_point { /cairo_point_y exch def /cairo_point_x exch def } def
/Tj { show currentpoint cairo_store_point } bind def
/TJ {
  {
    dup
    type /stringtype eq
    { show } { -0.001 mul 0 cairo_font_matrix dtransform rmoveto } ifelse
  } forall
  currentpoint cairo_store_point
} bind def
/cairo_selectfont { cairo_font_matrix aload pop pop pop 0 0 6 array astore
    cairo_font exch selectfont cairo_point_x cairo_point_y moveto } bind def
/Tf { pop /cairo_font exch def /cairo_font_matrix where
      { pop cairo_selectfont } if } bind def
/Td { matrix translate cairo_font_matrix matrix concatmatrix dup
      /cairo_font_matrix exch def dup 4 get exch 5 get cairo_store_point
      /cairo_font where { pop cairo_selectfont } if } bind def
/Tm { 2 copy 8 2 roll 6 array astore /cairo_font_matrix exch def
      cairo_store_point /cairo_font where { pop cairo_selectfont } if } bind def
/g { setgray } bind def
/rg { setrgbcolor } bind def
/d1 { setcachedevice } bind def
/cairo_data_source {
  CairoDataIndex CairoData length lt
    { CairoData CairoDataIndex get /CairoDataIndex CairoDataIndex 1 add def }
    { () } ifelse
} def
/cairo_flush_ascii85_file { cairo_ascii85_file status { cairo_ascii85_file flushfile } if } def
/cairo_image { image cairo_flush_ascii85_file } def
/cairo_imagemask { imagemask cairo_flush_ascii85_file } def
%%EndProlog
%%BeginSetup
%%EndSetup
%%Page: 1 1
%%BeginPageSetup
%%PageBoundingBox: 2 3 257 170
%%EndPageSetup
q 2 3 255 167 rectclip
1 0 0 -1 0 173 cm q
0 g
1.796436 w
0 J
0 j
[] 0.0 d
3.25 M 3.812 21.844 m 3.812 21.648 l S
6.352 21.844 m 6.352 21.648 l S
8.895 24.371 m 8.895 19.27 l S
11.434 30.113 m 11.434 13.176 l S
13.977 34.688 m 13.977 9.02 l S
16.52 36.555 m 16.52 6.941 l S
19.059 37.387 m 19.059 6.051 l S
21.602 37.883 m 21.602 5.559 l S
24.141 38.16 m 24.141 5.238 l S
26.684 38.297 m 26.684 5.156 l S
29.223 38.438 m 29.223 5.02 l S
31.766 38.512 m 31.766 4.992 l S
34.305 38.641 m 34.305 4.871 l S
36.848 38.672 m 36.848 4.836 l S
39.387 38.738 m 39.387 4.812 l S
41.93 38.75 m 41.93 4.785 l S
44.469 38.742 m 44.469 4.801 l S
47.012 38.719 m 47.012 4.828 l S
49.555 38.691 m 49.555 4.859 l S
52.094 38.68 m 52.094 4.84 l S
54.637 38.652 m 54.637 4.879 l S
57.176 38.641 m 57.176 4.895 l S
59.719 38.637 m 59.719 4.895 l S
62.258 38.703 m 62.258 4.82 l S
64.801 38.836 m 64.801 4.727 l S
67.34 38.934 m 67.34 4.625 l S
69.883 39.027 m 69.883 4.512 l S
72.422 39.133 m 72.422 4.461 l S
74.965 39.156 m 74.965 4.422 l S
77.508 39.246 m 77.508 4.363 l S
80.047 39.223 m 80.047 4.367 l S
82.59 39.289 m 82.59 4.332 l S
85.129 39.293 m 85.129 4.289 l S
87.672 39.336 m 87.672 4.305 l S
90.211 39.273 m 90.211 4.332 l S
92.754 39.242 m 92.754 4.355 l S
95.293 39.316 m 95.293 4.266 l S
97.836 39.316 m 97.836 4.254 l S
100.375 39.371 m 100.375 4.23 l S
102.918 39.414 m 102.918 4.184 l S
105.457 39.422 m 105.457 4.188 l S
108 39.426 m 108 4.16 l S
110.543 39.434 m 110.543 4.199 l S
113.082 39.43 m 113.082 4.176 l S
115.625 39.43 m 115.625 4.191 l S
118.164 39.453 m 118.164 4.176 l S
120.707 39.434 m 120.707 4.191 l S
123.246 39.445 m 123.246 4.164 l S
125.789 39.457 m 125.789 4.156 l S
128.328 39.445 m 128.328 4.18 l S
130.871 39.441 m 130.871 4.176 l S
133.41 39.445 m 133.41 4.164 l S
135.953 39.449 m 135.953 4.141 l S
138.492 39.512 m 138.492 4.07 l S
141.035 39.574 m 141.035 4.043 l S
143.578 39.648 m 143.578 4.02 l S
146.117 39.68 m 146.117 3.934 l S
148.66 39.68 m 148.66 3.93 l S
151.199 39.723 m 151.199 3.922 l S
153.742 39.684 m 153.742 3.949 l S
156.281 39.68 m 156.281 3.965 l S
158.824 39.637 m 158.824 4.008 l S
161.363 39.621 m 161.363 3.996 l S
163.906 39.641 m 163.906 3.965 l S
166.445 39.684 m 166.445 3.93 l S
168.988 39.715 m 168.988 3.926 l S
171.531 39.738 m 171.531 3.926 l S
174.07 39.645 m 174.07 3.945 l S
176.613 37.805 m 176.613 5.992 l S
179.152 34.098 m 179.152 9.273 l S
181.695 31.215 m 181.695 12.078 l S
184.234 29.414 m 184.234 13.988 l S
186.777 27.848 m 186.777 15.723 l S
189.316 26.68 m 189.316 16.836 l S
191.859 25.812 m 191.859 17.609 l S
194.398 25.141 m 194.398 18.293 l S
196.941 24.535 m 196.941 18.977 l S
199.48 24.023 m 199.48 19.484 l S
202.023 23.617 m 202.023 19.941 l S
204.566 23.219 m 204.566 20.316 l S
207.105 22.852 m 207.105 20.637 l S
209.648 22.562 m 209.648 20.906 l S
212.188 22.352 m 212.188 21.121 l S
214.73 22.211 m 214.73 21.266 l S
217.27 22.121 m 217.27 21.367 l S
219.812 22.031 m 219.812 21.457 l S
222.352 21.953 m 222.352 21.52 l S
224.895 21.902 m 224.895 21.582 l S
227.434 21.859 m 227.434 21.629 l S
229.977 21.844 m 229.977 21.648 l S
232.52 21.844 m 232.52 21.648 l S
235.059 21.844 m 235.059 21.648 l S
237.602 21.844 m 237.602 21.648 l S
240.141 21.844 m 240.141 21.648 l S
242.684 21.844 m 242.684 21.648 l S
245.223 21.844 m 245.223 21.648 l S
247.766 21.844 m 247.766 21.648 l S
250.305 21.844 m 250.305 21.648 l S
252.848 21.844 m 252.848 21.648 l S
255.387 21.844 m 255.387 21.648 l S
255.387 21.844 m 255.387 21.648 l S
3.812 65.043 m 3.812 64.848 l S
6.352 65.043 m 6.352 64.848 l S
8.895 67.41 m 8.895 62.52 l S
11.434 72.102 m 11.434 57.512 l S
13.977 75.18 m 13.977 54.523 l S
16.52 76.344 m 16.52 53.578 l S
19.059 76.785 m 19.059 53.07 l S
21.602 77.062 m 21.602 52.758 l S
24.141 77.25 m 24.141 52.699 l S
26.684 77.207 m 26.684 52.672 l S
29.223 77.266 m 29.223 52.641 l S
31.766 77.305 m 31.766 52.668 l S
34.305 77.242 m 34.305 52.629 l S
36.848 77.32 m 36.848 52.629 l S
39.387 77.328 m 39.387 52.609 l S
41.93 77.344 m 41.93 52.625 l S
44.469 77.332 m 44.469 52.602 l S
47.012 77.348 m 47.012 52.59 l S
49.555 77.359 m 49.555 52.57 l S
52.094 77.352 m 52.094 52.617 l S
54.637 77.34 m 54.637 52.578 l S
57.176 77.328 m 57.176 52.582 l S
59.719 77.32 m 59.719 52.637 l S
62.258 77.414 m 62.258 52.594 l S
64.801 77.43 m 64.801 52.457 l S
67.34 77.484 m 67.34 52.508 l S
69.883 77.52 m 69.883 52.496 l S
72.422 77.57 m 72.422 52.441 l S
74.965 77.633 m 74.965 52.371 l S
77.508 77.625 m 77.508 52.387 l S
80.047 77.645 m 80.047 52.363 l S
82.59 77.672 m 82.59 52.348 l S
85.129 77.648 m 85.129 52.336 l S
87.672 77.668 m 87.672 52.297 l S
90.211 77.648 m 90.211 52.375 l S
92.754 77.652 m 92.754 52.383 l S
95.293 77.664 m 95.293 52.344 l S
97.836 77.672 m 97.836 52.34 l S
100.375 77.703 m 100.375 52.289 l S
102.918 77.727 m 102.918 52.23 l S
105.457 77.781 m 105.457 52.246 l S
108 77.766 m 108 52.258 l S
110.543 77.738 m 110.543 52.227 l S
113.082 77.777 m 113.082 52.25 l S
115.625 77.777 m 115.625 52.266 l S
118.164 77.746 m 118.164 52.246 l S
120.707 77.777 m 120.707 52.293 l S
123.246 77.777 m 123.246 52.25 l S
125.789 77.797 m 125.789 52.277 l S
128.328 77.801 m 128.328 52.277 l S
130.871 77.84 m 130.871 52.254 l S
133.41 77.781 m 133.41 52.293 l S
135.953 77.789 m 135.953 52.242 l S
138.492 77.777 m 138.492 52.234 l S
141.035 77.797 m 141.035 52.242 l S
143.578 77.883 m 143.578 52.168 l S
146.117 77.93 m 146.117 52.062 l S
148.66 77.918 m 148.66 52.125 l S
151.199 77.91 m 151.199 52.137 l S
153.742 77.977 m 153.742 52.113 l S
156.281 77.918 m 156.281 52.125 l S
158.824 77.902 m 158.824 52.137 l S
161.363 77.914 m 161.363 52.16 l S
163.906 77.918 m 163.906 52.145 l S
166.445 77.891 m 166.445 52.117 l S
168.988 77.922 m 168.988 52.121 l S
171.531 77.957 m 171.531 52.07 l S
174.07 77.91 m 174.07 52.164 l S
176.613 76.984 m 176.613 53.008 l S
179.152 75.203 m 179.152 54.664 l S
181.695 73.57 m 181.695 56.535 l S
184.234 71.582 m 184.234 58.164 l S
186.777 70.328 m 186.777 59.473 l S
189.316 69.359 m 189.316 60.539 l S
191.859 68.605 m 191.859 61.305 l S
194.398 68.008 m 194.398 61.863 l S
196.941 67.422 m 196.941 62.441 l S
199.48 67.004 m 199.48 62.938 l S
202.023 66.641 m 202.023 63.328 l S
204.566 66.32 m 204.566 63.617 l S
207.105 66.062 m 207.105 63.918 l S
209.648 65.758 m 209.648 64.113 l S
212.188 65.582 m 212.188 64.344 l S
214.73 65.402 m 214.73 64.438 l S
217.27 65.324 m 217.27 64.578 l S
219.812 65.246 m 219.812 64.676 l S
222.352 65.184 m 222.352 64.727 l S
224.895 65.125 m 224.895 64.793 l S
227.434 65.062 m 227.434 64.801 l S
229.977 65.043 m 229.977 64.836 l S
232.52 65.043 m 232.52 64.848 l S
235.059 65.043 m 235.059 64.848 l S
237.602 65.043 m 237.602 64.848 l S
240.141 65.043 m 240.141 64.848 l S
242.684 65.043 m 242.684 64.848 l S
245.223 65.043 m 245.223 64.848 l S
247.766 65.043 m 247.766 64.848 l S
250.305 65.043 m 250.305 64.848 l S
252.848 65.043 m 252.848 64.848 l S
255.387 65.043 m 255.387 64.848 l S
255.387 65.043 m 255.387 64.848 l S
3.812 108.242 m 3.812 108.047 l S
6.352 108.242 m 6.352 108.047 l S
8.895 111.211 m 8.895 104.953 l S
11.434 117.414 m 11.434 98.723 l S
13.977 122.137 m 13.977 94.047 l S
16.52 124.242 m 16.52 92.051 l S
19.059 125.344 m 19.059 90.805 l S
21.602 125.844 m 21.602 90.285 l S
24.141 126.184 m 24.141 90 l S
26.684 126.285 m 26.684 89.805 l S
29.223 126.434 m 29.223 89.641 l S
31.766 126.43 m 31.766 89.57 l S
34.305 126.562 m 34.305 89.414 l S
36.848 126.594 m 36.848 89.438 l S
39.387 126.613 m 39.387 89.398 l S
41.93 126.652 m 41.93 89.359 l S
44.469 126.602 m 44.469 89.379 l S
47.012 126.617 m 47.012 89.406 l S
49.555 126.574 m 49.555 89.414 l S
52.094 126.602 m 52.094 89.449 l S
54.637 126.578 m 54.637 89.441 l S
57.176 126.57 m 57.176 89.465 l S
59.719 126.566 m 59.719 89.469 l S
62.258 126.637 m 62.258 89.383 l S
64.801 126.73 m 64.801 89.23 l S
67.34 126.828 m 67.34 89.145 l S
69.883 126.906 m 69.883 89.086 l S
72.422 127.043 m 72.422 88.977 l S
74.965 127.031 m 74.965 88.941 l S
77.508 127.098 m 77.508 88.891 l S
80.047 127.09 m 80.047 88.875 l S
82.59 127.129 m 82.59 88.824 l S
85.129 127.148 m 85.129 88.797 l S
87.672 127.148 m 87.672 88.801 l S
90.211 127.125 m 90.211 88.832 l S
92.754 127.129 m 92.754 88.852 l S
95.293 127.188 m 95.293 88.781 l S
97.836 127.215 m 97.836 88.758 l S
100.375 127.285 m 100.375 88.699 l S
102.918 127.305 m 102.918 88.656 l S
105.457 127.273 m 105.457 88.68 l S
108 127.301 m 108 88.652 l S
110.543 127.285 m 110.543 88.66 l S
113.082 127.324 m 113.082 88.652 l S
115.625 127.281 m 115.625 88.68 l S
118.164 127.281 m 118.164 88.648 l S
120.707 127.262 m 120.707 88.676 l S
123.246 127.285 m 123.246 88.637 l S
125.789 127.34 m 125.789 88.633 l S
128.328 127.336 m 128.328 88.629 l S
130.871 127.332 m 130.871 88.625 l S
133.41 127.375 m 133.41 88.613 l S
135.953 127.34 m 135.953 88.629 l S
138.492 127.488 m 138.492 88.531 l S
141.035 127.441 m 141.035 88.516 l S
143.578 127.48 m 143.578 88.48 l S
146.117 127.617 m 146.117 88.375 l S
148.66 127.566 m 148.66 88.371 l S
151.199 127.574 m 151.199 88.363 l S
153.742 127.551 m 153.742 88.371 l S
156.281 127.527 m 156.281 88.406 l S
158.824 127.492 m 158.824 88.422 l S
161.363 127.477 m 161.363 88.449 l S
163.906 127.496 m 163.906 88.422 l S
166.445 127.637 m 166.445 88.387 l S
168.988 127.559 m 168.988 88.395 l S
171.531 127.578 m 171.531 88.367 l S
174.07 127.539 m 174.07 88.445 l S
176.613 125.336 m 176.613 90.5 l S
179.152 121.527 m 179.152 94.738 l S
181.695 118.91 m 181.695 97.555 l S
184.234 116.305 m 184.234 99.754 l S
186.777 114.832 m 186.777 101.305 l S
189.316 113.594 m 189.316 102.449 l S
191.859 112.727 m 191.859 103.41 l S
194.398 111.953 m 194.398 104.172 l S
196.941 111.242 m 196.941 104.93 l S
199.48 110.676 m 199.48 105.59 l S
202.023 110.195 m 202.023 106 l S
204.566 109.895 m 204.566 106.5 l S
207.105 109.418 m 207.105 106.785 l S
209.648 109.176 m 209.648 107.156 l S
212.188 108.918 m 212.188 107.348 l S
214.73 108.762 m 214.73 107.535 l S
217.27 108.598 m 217.27 107.66 l S
219.812 108.52 m 219.812 107.773 l S
222.352 108.438 m 222.352 107.863 l S
224.895 108.355 m 224.895 107.941 l S
227.434 108.305 m 227.434 107.98 l S
229.977 108.258 m 229.977 108.008 l S
232.52 108.25 m 232.52 108.047 l S
235.059 108.242 m 235.059 108.047 l S
237.602 108.242 m 237.602 108.047 l S
240.141 108.242 m 240.141 108.047 l S
242.684 108.242 m 242.684 108.047 l S
245.223 108.242 m 245.223 108.047 l S
247.766 108.242 m 247.766 108.047 l S
250.305 108.242 m 250.305 108.047 l S
252.848 108.242 m 252.848 108.047 l S
255.387 108.242 m 255.387 108.047 l S
255.387 108.242 m 255.387 108.047 l S
3.812 151.441 m 3.812 151.246 l S
6.352 151.441 m 6.352 151.246 l S
8.895 155.148 m 8.895 147.59 l S
11.434 161.039 m 11.434 141.336 l S
13.977 165.105 m 13.977 137.73 l S
16.52 166.617 m 16.52 136.32 l S
19.059 167.305 m 19.059 135.594 l S
21.602 167.637 m 21.602 135.262 l S
24.141 168.008 m 24.141 135.008 l S
26.684 168.125 m 26.684 134.98 l S
29.223 168.219 m 29.223 134.84 l S
31.766 168.137 m 31.766 134.863 l S
34.305 168.227 m 34.305 134.719 l S
36.848 168.277 m 36.848 134.738 l S
39.387 168.281 m 39.387 134.773 l S
41.93 168.332 m 41.93 134.738 l S
44.469 168.301 m 44.469 134.758 l S
47.012 168.301 m 47.012 134.734 l S
49.555 168.223 m 49.555 134.785 l S
52.094 168.25 m 52.094 134.832 l S
54.637 168.188 m 54.637 134.754 l S
57.176 168.227 m 57.176 134.73 l S
59.719 168.238 m 59.719 134.828 l S
62.258 168.328 m 62.258 134.738 l S
64.801 168.363 m 64.801 134.648 l S
67.34 168.523 m 67.34 134.52 l S
69.883 168.555 m 69.883 134.52 l S
72.422 168.629 m 72.422 134.367 l S
74.965 168.688 m 74.965 134.5 l S
77.508 168.707 m 77.508 134.383 l S
80.047 168.758 m 80.047 134.457 l S
82.59 168.75 m 82.59 134.359 l S
85.129 168.746 m 85.129 134.355 l S
87.672 168.777 m 87.672 134.359 l S
90.211 168.684 m 90.211 134.422 l S
92.754 168.691 m 92.754 134.41 l S
95.293 168.742 m 95.293 134.371 l S
97.836 168.809 m 97.836 134.336 l S
100.375 168.887 m 100.375 134.285 l S
102.918 168.797 m 102.918 134.242 l S
105.457 168.867 m 105.457 134.297 l S
108 168.832 m 108 134.27 l S
110.543 168.805 m 110.543 134.273 l S
113.082 168.883 m 113.082 134.348 l S
115.625 168.828 m 115.625 134.246 l S
118.164 168.828 m 118.164 134.215 l S
120.707 168.906 m 120.707 134.309 l S
123.246 168.852 m 123.246 134.215 l S
125.789 168.859 m 125.789 134.211 l S
128.328 168.844 m 128.328 134.281 l S
130.871 168.844 m 130.871 134.227 l S
133.41 168.832 m 133.41 134.211 l S
135.953 168.895 m 135.953 134.262 l S
138.492 169.066 m 138.492 134.156 l S
141.035 168.992 m 141.035 134.152 l S
143.578 168.988 m 143.578 134.082 l S
146.117 169.117 m 146.117 134.082 l S
148.66 169.051 m 148.66 133.965 l S
151.199 169.148 m 151.199 134.062 l S
153.742 169.141 m 153.742 134.031 l S
156.281 169.094 m 156.281 134.008 l S
158.824 169.012 m 158.824 134.062 l S
161.363 168.988 m 161.363 134.066 l S
163.906 169.02 m 163.906 134.051 l S
166.445 169.047 m 166.445 134.047 l S
168.988 169.09 m 168.988 134.004 l S
171.531 169.137 m 171.531 134.074 l S
174.07 168.949 m 174.07 134.117 l S
176.613 166.625 m 176.613 136.602 l S
179.152 163.875 m 179.152 138.93 l S
181.695 161.984 m 181.695 140.984 l S
184.234 159.723 m 184.234 142.875 l S
186.777 158.266 m 186.777 144.484 l S
189.316 157.066 m 189.316 145.504 l S
191.859 156.203 m 191.859 146.672 l S
194.398 155.328 m 194.398 147.418 l S
196.941 154.617 m 196.941 148.109 l S
199.48 153.973 m 199.48 148.719 l S
202.023 153.488 m 202.023 149.156 l S
204.566 153.137 m 204.566 149.605 l S
207.105 152.652 m 207.105 149.926 l S
209.648 152.387 m 209.648 150.18 l S
212.188 152.234 m 212.188 150.496 l S
214.73 152.078 m 214.73 150.699 l S
217.27 151.836 m 217.27 150.809 l S
219.812 151.723 m 219.812 150.945 l S
222.352 151.688 m 222.352 151.043 l S
224.895 151.59 m 224.895 151.109 l S
227.434 151.527 m 227.434 151.156 l S
229.977 151.473 m 229.977 151.199 l S
232.52 151.449 m 232.52 151.238 l S
235.059 151.441 m 235.059 151.246 l S
237.602 151.441 m 237.602 151.246 l S
240.141 151.441 m 240.141 151.246 l S
242.684 151.441 m 242.684 151.246 l S
245.223 151.441 m 245.223 151.246 l S
247.766 151.441 m 247.766 151.246 l S
250.305 151.441 m 250.305 151.246 l S
252.848 151.441 m 252.848 151.246 l S
255.387 151.441 m 255.387 151.246 l S
255.387 151.441 m 255.387 151.246 l S
Q Q
showpage
%%Trailer
end
%%EOF
