%!PS-Adobe-3.0 EPSF-3.0
%%Creator: cairo 1.16.0 (https://cairographics.org)
%%CreationDate: Wed May 15 11:57:23 2024
%%Pages: 1
%%DocumentData: Clean7Bit
%%LanguageLevel: 2
%%Creator: Wolfram Mathematica
%%BoundingBox: 2 8 257 164
%%EndComments
%%BeginProlog
50 dict begin
/q { gsave } bind def
/Q { grestore } bind def
/cm { 6 array astore concat } bind def
/w { setlinewidth } bind def
/J { setlinecap } bind def
/j { setlinejoin } bind def
/M { setmiterlimit } bind def
/d { setdash } bind def
/m { moveto } bind def
/l { lineto } bind def
/c { curveto } bind def
/h { closepath } bind def
/re { exch dup neg 3 1 roll 5 3 roll moveto 0 rlineto
      0 exch rlineto 0 rlineto closepath } bind def
/S { stroke } bind def
/f { fill } bind def
/f* { eofill } bind def
/n { newpath } bind def
/W { clip } bind def
/W* { eoclip } bind def
/BT { } bind def
/ET { } bind def
/BDC { mark 3 1 roll /BDC pdfmark } bind def
/EMC { mark /EMC pdfmark } bind def
/cairo_store_point { /cairo_point_y exch def /cairo_point_x exch def } def
/Tj { show currentpoint cairo_store_point } bind def
/TJ {
  {
    dup
    type /stringtype eq
    { show } { -0.001 mul 0 cairo_font_matrix dtransform rmoveto } ifelse
  } forall
  currentpoint cairo_store_point
} bind def
/cairo_selectfont { cairo_font_matrix aload pop pop pop 0 0 6 array astore
    cairo_font exch selectfont cairo_point_x cairo_point_y moveto } bind def
/Tf { pop /cairo_font exch def /cairo_font_matrix where
      { pop cairo_selectfont } if } bind def
/Td { matrix translate cairo_font_matrix matrix concatmatrix dup
      /cairo_font_matrix exch def dup 4 get exch 5 get cairo_store_point
      /cairo_font where { pop cairo_selectfont } if } bind def
/Tm { 2 copy 8 2 roll 6 array astore /cairo_font_matrix exch def
      cairo_store_point /cairo_font where { pop cairo_selectfont } if } bind def
/g { setgray } bind def
/rg { setrgbcolor } bind def
/d1 { setcachedevice } bind def
/cairo_data_source {
  CairoDataIndex CairoData length lt
    { CairoData CairoDataIndex get /CairoDataIndex CairoDataIndex 1 add def }
    { () } ifelse
} def
/cairo_flush_ascii85_file { cairo_ascii85_file status { cairo_ascii85_file flushfile } if } def
/cairo_image { image cairo_flush_ascii85_file } def
/cairo_imagemask { imagemask cairo_flush_ascii85_file } def
%%EndProlog
%%BeginSetup
%%EndSetup
%%Page: 1 1
%%BeginPageSetup
%%PageBoundingBox: 2 8 257 164
%%EndPageSetup
q 2 8 255 156 rectclip
1 0 0 -1 0 173 cm q
0 g
1.796436 w
0 J
0 j
[] 0.0 d
3.25 M 3.812 21.328 m 3.812 21.129 l S
6.352 21.871 m 6.352 20.477 l S
8.895 27.727 m 8.895 14.832 l S
11.434 30.719 m 11.434 11.586 l S
13.977 32.328 m 13.977 10.109 l S
16.52 33.031 m 16.52 9.289 l S
19.059 33.082 m 19.059 9.203 l S
21.602 33.023 m 21.602 9.215 l S
24.141 33.086 m 24.141 9.191 l S
26.684 33.023 m 26.684 9.242 l S
29.223 32.914 m 29.223 9.316 l S
31.766 32.895 m 31.766 9.383 l S
34.305 32.848 m 34.305 9.457 l S
36.848 32.625 m 36.848 9.695 l S
39.387 32.105 m 39.387 10.176 l S
41.93 31.871 m 41.93 10.414 l S
44.469 31.738 m 44.469 10.48 l S
47.012 31.559 m 47.012 10.68 l S
49.555 31.305 m 49.555 10.965 l S
52.094 30.777 m 52.094 11.414 l S
54.637 30.52 m 54.637 11.77 l S
57.176 30.559 m 57.176 11.844 l S
59.719 30.738 m 59.719 11.625 l S
62.258 30.824 m 62.258 11.473 l S
64.801 30.945 m 64.801 11.457 l S
67.34 30.953 m 67.34 11.469 l S
69.883 30.918 m 69.883 11.574 l S
72.422 31.117 m 72.422 11.367 l S
74.965 31.57 m 74.965 11.09 l S
77.508 31.68 m 77.508 10.688 l S
80.047 32.07 m 80.047 10.598 l S
82.59 32.207 m 82.59 10.414 l S
85.129 32.109 m 85.129 10.207 l S
87.672 32.406 m 87.672 10.133 l S
90.211 32.496 m 90.211 10.066 l S
92.754 32.668 m 92.754 10.055 l S
95.293 32.996 m 95.293 9.242 l S
97.836 33.195 m 97.836 9.359 l S
100.375 32.438 m 100.375 11.008 l S
102.918 31.367 m 102.918 10.965 l S
105.457 31.344 m 105.457 11.594 l S
108 30.699 m 108 11.809 l S
110.543 30.324 m 110.543 12.223 l S
113.082 30.047 m 113.082 12.504 l S
115.625 29.887 m 115.625 12.703 l S
118.164 29.75 m 118.164 12.766 l S
120.707 29.758 m 120.707 12.773 l S
123.246 29.785 m 123.246 12.703 l S
125.789 29.98 m 125.789 12.41 l S
128.328 30.32 m 128.328 12.215 l S
130.871 30.445 m 130.871 12.172 l S
133.41 30.18 m 133.41 12.344 l S
135.953 29.848 m 135.953 12.531 l S
138.492 29.578 m 138.492 12.832 l S
141.035 29.496 m 141.035 12.965 l S
143.578 29.469 m 143.578 13.023 l S
146.117 29.555 m 146.117 12.98 l S
148.66 29.645 m 148.66 12.812 l S
151.199 29.738 m 151.199 12.617 l S
153.742 29.895 m 153.742 12.547 l S
156.281 30.086 m 156.281 12.328 l S
158.824 30.312 m 158.824 12.203 l S
161.363 30.457 m 161.363 12.113 l S
163.906 30.645 m 163.906 11.922 l S
166.445 30.863 m 166.445 11.73 l S
168.988 30.918 m 168.988 11.609 l S
171.531 30.992 m 171.531 11.559 l S
174.07 30.891 m 174.07 11.629 l S
176.613 30.785 m 176.613 11.602 l S
179.152 30.316 m 179.152 11.879 l S
181.695 28.082 m 181.695 13.855 l S
184.234 26.836 m 184.234 15.609 l S
186.777 25.578 m 186.777 16.859 l S
189.316 24.59 m 189.316 17.871 l S
191.859 23.898 m 191.859 18.586 l S
194.398 23.25 m 194.398 19.191 l S
196.941 22.746 m 196.941 19.719 l S
199.48 22.289 m 199.48 20.121 l S
202.023 21.961 m 202.023 20.484 l S
204.566 21.789 m 204.566 20.676 l S
207.105 21.617 m 207.105 20.84 l S
209.648 21.508 m 209.648 20.941 l S
212.188 21.457 m 212.188 21 l S
214.73 21.383 m 214.73 21.059 l S
217.27 21.359 m 217.27 21.094 l S
219.812 21.328 m 219.812 21.129 l S
222.352 21.328 m 222.352 21.129 l S
224.895 21.328 m 224.895 21.129 l S
227.434 21.328 m 227.434 21.129 l S
229.977 21.328 m 229.977 21.129 l S
232.52 21.328 m 232.52 21.129 l S
235.059 21.328 m 235.059 21.129 l S
237.602 21.328 m 237.602 21.129 l S
240.141 21.328 m 240.141 21.129 l S
242.684 21.328 m 242.684 21.129 l S
245.223 21.328 m 245.223 21.129 l S
247.766 21.328 m 247.766 21.129 l S
250.305 21.328 m 250.305 21.129 l S
252.848 21.328 m 252.848 21.129 l S
255.387 21.328 m 255.387 21.129 l S
255.387 21.328 m 255.387 21.129 l S
3.812 64.527 m 3.812 64.328 l S
6.352 65.59 m 6.352 63.203 l S
8.895 69.977 m 8.895 58.965 l S
11.434 72.281 m 11.434 56.32 l S
13.977 73.371 m 13.977 55.371 l S
16.52 73.699 m 16.52 55.074 l S
19.059 73.805 m 19.059 54.992 l S
21.602 73.762 m 21.602 55.016 l S
24.141 73.828 m 24.141 55.012 l S
26.684 73.656 m 26.684 55.062 l S
29.223 73.637 m 29.223 55.109 l S
31.766 73.66 m 31.766 55.258 l S
34.305 73.578 m 34.305 55.215 l S
36.848 73.383 m 36.848 55.406 l S
39.387 73.168 m 39.387 55.621 l S
41.93 72.965 m 41.93 55.719 l S
44.469 72.957 m 44.469 55.734 l S
47.012 72.809 m 47.012 55.844 l S
49.555 72.699 m 49.555 56.016 l S
52.094 72.355 m 52.094 56.379 l S
54.637 72.133 m 54.637 56.574 l S
57.176 72.125 m 57.176 56.57 l S
59.719 72.469 m 59.719 56.422 l S
62.258 72.543 m 62.258 56.328 l S
64.801 72.48 m 64.801 56.371 l S
67.34 72.434 m 67.34 56.352 l S
69.883 72.484 m 69.883 56.367 l S
72.422 72.965 m 72.422 55.938 l S
74.965 73.238 m 74.965 55.785 l S
77.508 73.375 m 77.508 55.426 l S
80.047 73.555 m 80.047 55.32 l S
82.59 73.762 m 82.59 55.094 l S
85.129 73.965 m 85.129 55.047 l S
87.672 73.992 m 87.672 54.801 l S
90.211 74.066 m 90.211 54.691 l S
92.754 74.117 m 92.754 54.75 l S
95.293 74.332 m 95.293 54.324 l S
97.836 74.586 m 97.836 54.316 l S
100.375 74.102 m 100.375 55.316 l S
102.918 73.172 m 102.918 55.453 l S
105.457 73.043 m 105.457 55.879 l S
108 72.738 m 108 56.195 l S
110.543 72.145 m 110.543 56.359 l S
113.082 72.16 m 113.082 56.793 l S
115.625 72.023 m 115.625 56.902 l S
118.164 71.898 m 118.164 57.004 l S
120.707 71.832 m 120.707 57.055 l S
123.246 71.918 m 123.246 57 l S
125.789 72.023 m 125.789 56.711 l S
128.328 72.312 m 128.328 56.539 l S
130.871 72.457 m 130.871 56.398 l S
133.41 72.312 m 133.41 56.648 l S
135.953 72.07 m 135.953 56.859 l S
138.492 71.781 m 138.492 56.988 l S
141.035 71.703 m 141.035 57.25 l S
143.578 71.594 m 143.578 57.25 l S
146.117 71.672 m 146.117 57.176 l S
148.66 71.852 m 148.66 57.098 l S
151.199 71.871 m 151.199 57.051 l S
153.742 71.98 m 153.742 56.891 l S
156.281 71.984 m 156.281 56.828 l S
158.824 72.168 m 158.824 56.789 l S
161.363 72.418 m 161.363 56.613 l S
163.906 72.582 m 163.906 56.535 l S
166.445 72.652 m 166.445 56.352 l S
168.988 72.734 m 168.988 56.25 l S
171.531 72.742 m 171.531 56.176 l S
174.07 72.691 m 174.07 56.113 l S
176.613 72.629 m 176.613 56.145 l S
179.152 72.152 m 179.152 56.438 l S
181.695 70.785 m 181.695 58.035 l S
184.234 69.438 m 184.234 59.566 l S
186.777 68.449 m 186.777 60.488 l S
189.316 67.602 m 189.316 61.402 l S
191.859 66.875 m 191.859 62.086 l S
194.398 66.32 m 194.398 62.609 l S
196.941 65.789 m 196.941 63.031 l S
199.48 65.43 m 199.48 63.371 l S
202.023 65.188 m 202.023 63.656 l S
204.566 64.977 m 204.566 63.848 l S
207.105 64.844 m 207.105 64.055 l S
209.648 64.715 m 209.648 64.141 l S
212.188 64.641 m 212.188 64.211 l S
214.73 64.586 m 214.73 64.266 l S
217.27 64.562 m 217.27 64.293 l S
219.812 64.531 m 219.812 64.328 l S
222.352 64.527 m 222.352 64.328 l S
224.895 64.527 m 224.895 64.328 l S
227.434 64.527 m 227.434 64.328 l S
229.977 64.527 m 229.977 64.328 l S
232.52 64.527 m 232.52 64.328 l S
235.059 64.527 m 235.059 64.328 l S
237.602 64.527 m 237.602 64.328 l S
240.141 64.527 m 240.141 64.328 l S
242.684 64.527 m 242.684 64.328 l S
245.223 64.527 m 245.223 64.328 l S
247.766 64.527 m 247.766 64.328 l S
250.305 64.527 m 250.305 64.328 l S
252.848 64.527 m 252.848 64.328 l S
255.387 64.527 m 255.387 64.328 l S
255.387 64.527 m 255.387 64.328 l S
3.812 107.727 m 3.812 107.531 l S
6.352 108.613 m 6.352 106.406 l S
8.895 115.445 m 8.895 98.938 l S
11.434 119.266 m 11.434 96.727 l S
13.977 120.438 m 13.977 94.453 l S
16.52 121.078 m 16.52 93.875 l S
19.059 121.293 m 19.059 93.727 l S
21.602 121.172 m 21.602 93.98 l S
24.141 121.227 m 24.141 93.797 l S
26.684 120.965 m 26.684 94.016 l S
29.223 120.91 m 29.223 94.094 l S
31.766 120.812 m 31.766 94.184 l S
34.305 120.719 m 34.305 94.305 l S
36.848 120.488 m 36.848 94.41 l S
39.387 119.965 m 39.387 94.969 l S
41.93 119.66 m 41.93 95.367 l S
44.469 119.656 m 44.469 95.48 l S
47.012 119.281 m 47.012 95.613 l S
49.555 119.016 m 49.555 95.891 l S
52.094 118.723 m 52.094 96.211 l S
54.637 118.387 m 54.637 96.539 l S
57.176 118.645 m 57.176 96.457 l S
59.719 119.191 m 59.719 95.812 l S
62.258 119.277 m 62.258 95.727 l S
64.801 119.43 m 64.801 95.723 l S
67.34 119.613 m 67.34 95.512 l S
69.883 120.355 m 69.883 95.086 l S
72.422 121.391 m 72.422 94.148 l S
74.965 122.168 m 74.965 93.387 l S
77.508 122.922 m 77.508 92.773 l S
80.047 123.73 m 80.047 92.035 l S
82.59 123.992 m 82.59 91.566 l S
85.129 124.316 m 85.129 91.359 l S
87.672 124.785 m 87.672 90.543 l S
90.211 125.344 m 90.211 90.301 l S
92.754 125.664 m 92.754 89.883 l S
95.293 126.82 m 95.293 88.836 l S
97.836 127.637 m 97.836 88.363 l S
100.375 125.926 m 100.375 88.551 l S
102.918 125.25 m 102.918 90.367 l S
105.457 124.387 m 105.457 90.602 l S
108 124.258 m 108 91.332 l S
110.543 123.387 m 110.543 91.957 l S
113.082 122.98 m 113.082 92 l S
115.625 122.727 m 115.625 92.238 l S
118.164 122.668 m 118.164 92.469 l S
120.707 122.477 m 120.707 92.652 l S
123.246 122.559 m 123.246 92.684 l S
125.789 123.18 m 125.789 92.414 l S
128.328 123.551 m 128.328 91.801 l S
130.871 123.539 m 130.871 91.539 l S
133.41 123.398 m 133.41 91.844 l S
135.953 123.059 m 135.953 92.211 l S
138.492 122.496 m 138.492 92.734 l S
141.035 122.23 m 141.035 92.949 l S
143.578 122.07 m 143.578 93.148 l S
146.117 121.945 m 146.117 93.305 l S
148.66 121.926 m 148.66 93.379 l S
151.199 121.91 m 151.199 93.547 l S
153.742 121.859 m 153.742 93.383 l S
156.281 121.832 m 156.281 93.637 l S
158.824 121.582 m 158.824 93.633 l S
161.363 121.418 m 161.363 93.66 l S
163.906 121.262 m 163.906 93.832 l S
166.445 121.16 m 166.445 94.109 l S
168.988 120.918 m 168.988 94.273 l S
171.531 120.703 m 171.531 94.457 l S
174.07 120.418 m 174.07 94.844 l S
176.613 120.145 m 176.613 94.762 l S
179.152 119.395 m 179.152 95.855 l S
181.695 117.051 m 181.695 98.16 l S
184.234 115.125 m 184.234 99.965 l S
186.777 113.223 m 186.777 101.559 l S
189.316 111.988 m 189.316 102.996 l S
191.859 111.031 m 191.859 104.27 l S
194.398 110.266 m 194.398 105.176 l S
196.941 109.508 m 196.941 105.781 l S
199.48 109.004 m 199.48 106.223 l S
202.023 108.625 m 202.023 106.641 l S
204.566 108.32 m 204.566 106.859 l S
207.105 108.137 m 207.105 107.137 l S
209.648 108.008 m 209.648 107.266 l S
212.188 107.938 m 212.188 107.348 l S
214.73 107.844 m 214.73 107.438 l S
217.27 107.805 m 217.27 107.473 l S
219.812 107.762 m 219.812 107.516 l S
222.352 107.727 m 222.352 107.531 l S
224.895 107.727 m 224.895 107.531 l S
227.434 107.727 m 227.434 107.531 l S
229.977 107.727 m 229.977 107.531 l S
232.52 107.727 m 232.52 107.531 l S
235.059 107.727 m 235.059 107.531 l S
237.602 107.727 m 237.602 107.531 l S
240.141 107.727 m 240.141 107.531 l S
242.684 107.727 m 242.684 107.531 l S
245.223 107.727 m 245.223 107.531 l S
247.766 107.727 m 247.766 107.531 l S
250.305 107.727 m 250.305 107.531 l S
252.848 107.727 m 252.848 107.531 l S
255.387 107.727 m 255.387 107.531 l S
255.387 107.727 m 255.387 107.531 l S
3.812 150.926 m 3.812 150.73 l S
6.352 153.523 m 6.352 147.973 l S
8.895 158.629 m 8.895 142.531 l S
11.434 161.594 m 11.434 140.242 l S
13.977 162.445 m 13.977 139.527 l S
16.52 162.859 m 16.52 139.008 l S
19.059 163.008 m 19.059 138.785 l S
21.602 162.973 m 21.602 138.941 l S
24.141 162.918 m 24.141 138.777 l S
26.684 162.855 m 26.684 138.914 l S
29.223 162.816 m 29.223 139.07 l S
31.766 162.77 m 31.766 139.117 l S
34.305 162.664 m 34.305 139.18 l S
36.848 162.316 m 36.848 139.406 l S
39.387 161.926 m 39.387 139.879 l S
41.93 161.594 m 41.93 140.16 l S
44.469 161.676 m 44.469 140.309 l S
47.012 161.344 m 47.012 140.477 l S
49.555 161.172 m 49.555 140.652 l S
52.094 160.727 m 52.094 140.922 l S
54.637 160.625 m 54.637 141.191 l S
57.176 160.879 m 57.176 140.984 l S
59.719 161.172 m 59.719 140.789 l S
62.258 161.164 m 62.258 140.805 l S
64.801 161.141 m 64.801 140.684 l S
67.34 161.211 m 67.34 140.441 l S
69.883 161.535 m 69.883 140.297 l S
72.422 162.07 m 72.422 139.555 l S
74.965 162.676 m 74.965 139.148 l S
77.508 162.883 m 77.508 138.871 l S
80.047 163.656 m 80.047 138.52 l S
82.59 163.883 m 82.59 138.266 l S
85.129 163.867 m 85.129 138.164 l S
87.672 164.016 m 87.672 138.047 l S
90.211 163.617 m 90.211 138.207 l S
92.754 163.039 m 92.754 138.578 l S
95.293 163.18 m 95.293 138.879 l S
97.836 163.418 m 97.836 138.504 l S
100.375 162.336 m 100.375 138.816 l S
102.918 162.156 m 102.918 139.629 l S
105.457 161.984 m 105.457 139.789 l S
108 161.715 m 108 140.207 l S
110.543 161.402 m 110.543 140.707 l S
113.082 161.211 m 113.082 140.914 l S
115.625 161.074 m 115.625 140.941 l S
118.164 161.117 m 118.164 140.965 l S
120.707 161.164 m 120.707 140.945 l S
123.246 161.293 m 123.246 140.828 l S
125.789 161.363 m 125.789 140.66 l S
128.328 161.43 m 128.328 140.695 l S
130.871 161.496 m 130.871 140.473 l S
133.41 161.223 m 133.41 140.625 l S
135.953 161.047 m 135.953 140.836 l S
138.492 160.945 m 138.492 141.121 l S
141.035 160.824 m 141.035 141.129 l S
143.578 161.039 m 143.578 141.062 l S
146.117 160.992 m 146.117 140.891 l S
148.66 161.203 m 148.66 140.859 l S
151.199 161.289 m 151.199 140.734 l S
153.742 161.281 m 153.742 140.445 l S
156.281 161.566 m 156.281 140.273 l S
158.824 161.535 m 158.824 139.992 l S
161.363 161.695 m 161.363 139.797 l S
163.906 161.867 m 163.906 139.82 l S
166.445 162.059 m 166.445 139.781 l S
168.988 162.074 m 168.988 139.793 l S
171.531 161.824 m 171.531 139.996 l S
174.07 161.805 m 174.07 140.07 l S
176.613 161.531 m 176.613 140.297 l S
179.152 160.988 m 179.152 141.191 l S
181.695 158.875 m 181.695 142.789 l S
184.234 157.195 m 184.234 144.262 l S
186.777 155.805 m 186.777 145.469 l S
189.316 154.77 m 189.316 146.48 l S
191.859 153.953 m 191.859 147.617 l S
194.398 153.227 m 194.398 148.449 l S
196.941 152.641 m 196.941 148.98 l S
199.48 152.125 m 199.48 149.383 l S
202.023 151.848 m 202.023 149.793 l S
204.566 151.574 m 204.566 149.969 l S
207.105 151.387 m 207.105 150.219 l S
209.648 151.258 m 209.648 150.41 l S
212.188 151.156 m 212.188 150.52 l S
214.73 151.082 m 214.73 150.582 l S
217.27 151.023 m 217.27 150.629 l S
219.812 150.977 m 219.812 150.695 l S
222.352 150.926 m 222.352 150.73 l S
224.895 150.926 m 224.895 150.73 l S
227.434 150.926 m 227.434 150.73 l S
229.977 150.926 m 229.977 150.73 l S
232.52 150.926 m 232.52 150.73 l S
235.059 150.926 m 235.059 150.73 l S
237.602 150.926 m 237.602 150.73 l S
240.141 150.926 m 240.141 150.73 l S
242.684 150.926 m 242.684 150.73 l S
245.223 150.926 m 245.223 150.73 l S
247.766 150.926 m 247.766 150.73 l S
250.305 150.926 m 250.305 150.73 l S
252.848 150.926 m 252.848 150.73 l S
255.387 150.926 m 255.387 150.73 l S
255.387 150.926 m 255.387 150.73 l S
Q Q
showpage
%%Trailer
end
%%EOF
