%!PS-Adobe-3.0 EPSF-3.0
%%Creator: cairo 1.16.0 (https://cairographics.org)
%%CreationDate: Wed May 15 11:57:23 2024
%%Pages: 1
%%DocumentData: Clean7Bit
%%LanguageLevel: 2
%%Creator: Wolfram Mathematica
%%BoundingBox: 2 8 257 164
%%EndComments
%%BeginProlog
50 dict begin
/q { gsave } bind def
/Q { grestore } bind def
/cm { 6 array astore concat } bind def
/w { setlinewidth } bind def
/J { setlinecap } bind def
/j { setlinejoin } bind def
/M { setmiterlimit } bind def
/d { setdash } bind def
/m { moveto } bind def
/l { lineto } bind def
/c { curveto } bind def
/h { closepath } bind def
/re { exch dup neg 3 1 roll 5 3 roll moveto 0 rlineto
      0 exch rlineto 0 rlineto closepath } bind def
/S { stroke } bind def
/f { fill } bind def
/f* { eofill } bind def
/n { newpath } bind def
/W { clip } bind def
/W* { eoclip } bind def
/BT { } bind def
/ET { } bind def
/BDC { mark 3 1 roll /BDC pdfmark } bind def
/EMC { mark /EMC pdfmark } bind def
/cairo_store_point { /cairo_point_y exch def /cairo_point_x exch def } def
/Tj { show currentpoint cairo_store_point } bind def
/TJ {
  {
    dup
    type /stringtype eq
    { show } { -0.001 mul 0 cairo_font_matrix dtransform rmoveto } ifelse
  } forall
  currentpoint cairo_store_point
} bind def
/cairo_selectfont { cairo_font_matrix aload pop pop pop 0 0 6 array astore
    cairo_font exch selectfont cairo_point_x cairo_point_y moveto } bind def
/Tf { pop /cairo_font exch def /cairo_font_matrix where
      { pop cairo_selectfont } if } bind def
/Td { matrix translate cairo_font_matrix matrix concatmatrix dup
      /cairo_font_matrix exch def dup 4 get exch 5 get cairo_store_point
      /cairo_font where { pop cairo_selectfont } if } bind def
/Tm { 2 copy 8 2 roll 6 array astore /cairo_font_matrix exch def
      cairo_store_point /cairo_font where { pop cairo_selectfont } if } bind def
/g { setgray } bind def
/rg { setrgbcolor } bind def
/d1 { setcachedevice } bind def
/cairo_data_source {
  CairoDataIndex CairoData length lt
    { CairoData CairoDataIndex get /CairoDataIndex CairoDataIndex 1 add def }
    { () } ifelse
} def
/cairo_flush_ascii85_file { cairo_ascii85_file status { cairo_ascii85_file flushfile } if } def
/cairo_image { image cairo_flush_ascii85_file } def
/cairo_imagemask { imagemask cairo_flush_ascii85_file } def
%%EndProlog
%%BeginSetup
%%EndSetup
%%Page: 1 1
%%BeginPageSetup
%%PageBoundingBox: 2 8 257 164
%%EndPageSetup
q 2 8 255 156 rectclip
1 0 0 -1 0 173 cm q
0 g
1.796436 w
0 J
0 j
[] 0.0 d
3.25 M 3.812 21.52 m 3.812 21.324 l S
6.352 25.922 m 6.352 17.055 l S
8.895 29.199 m 8.895 13.68 l S
11.434 30.289 m 11.434 12.418 l S
13.977 31.039 m 13.977 11.457 l S
16.52 31.641 m 16.52 11.168 l S
19.059 31.949 m 19.059 10.895 l S
21.602 32.328 m 21.602 10.477 l S
24.141 32.641 m 24.141 10.266 l S
26.684 32.84 m 26.684 10.004 l S
29.223 32.945 m 29.223 9.707 l S
31.766 33.191 m 31.766 9.738 l S
34.305 33.539 m 34.305 9.656 l S
36.848 33.531 m 36.848 9.301 l S
39.387 33.82 m 39.387 9.266 l S
41.93 33.727 m 41.93 9.227 l S
44.469 33.566 m 44.469 9.457 l S
47.012 33.176 m 47.012 9.73 l S
49.555 32.883 m 49.555 10.086 l S
52.094 32.504 m 52.094 10.352 l S
54.637 32.281 m 54.637 10.699 l S
57.176 32.031 m 57.176 10.836 l S
59.719 32.078 m 59.719 10.938 l S
62.258 31.941 m 62.258 11.113 l S
64.801 31.766 m 64.801 11.09 l S
67.34 31.828 m 67.34 11.188 l S
69.883 31.859 m 69.883 11.164 l S
72.422 31.898 m 72.422 11.027 l S
74.965 31.559 m 74.965 11.223 l S
77.508 31.391 m 77.508 11.602 l S
80.047 31.43 m 80.047 11.66 l S
82.59 31.555 m 82.59 11.602 l S
85.129 31.594 m 85.129 11.406 l S
87.672 31.57 m 87.672 11.559 l S
90.211 31.461 m 90.211 11.695 l S
92.754 31.461 m 92.754 11.668 l S
95.293 31.547 m 95.293 11.395 l S
97.836 31.754 m 97.836 11.145 l S
100.375 31.801 m 100.375 11.301 l S
102.918 31.418 m 102.918 11.805 l S
105.457 30.988 m 105.457 12.133 l S
108 30.617 m 108 12.316 l S
110.543 30.863 m 110.543 12.16 l S
113.082 31.016 m 113.082 12.051 l S
115.625 31.02 m 115.625 12.004 l S
118.164 30.945 m 118.164 12.156 l S
120.707 30.906 m 120.707 12.055 l S
123.246 31.004 m 123.246 12.02 l S
125.789 30.961 m 125.789 11.973 l S
128.328 31.074 m 128.328 11.902 l S
130.871 31.145 m 130.871 11.867 l S
133.41 31.047 m 133.41 11.84 l S
135.953 30.969 m 135.953 11.793 l S
138.492 30.934 m 138.492 11.766 l S
141.035 30.914 m 141.035 11.738 l S
143.578 31.258 m 143.578 11.594 l S
146.117 31.359 m 146.117 11.438 l S
148.66 31.277 m 148.66 11.438 l S
151.199 31.309 m 151.199 11.398 l S
153.742 31.453 m 153.742 11.453 l S
156.281 31.484 m 156.281 11.406 l S
158.824 31.43 m 158.824 11.375 l S
161.363 31.375 m 161.363 11.383 l S
163.906 30.23 m 163.906 12.418 l S
166.445 29.418 m 166.445 13.16 l S
168.988 28.395 m 168.988 14.238 l S
171.531 27.188 m 171.531 15.371 l S
174.07 26.254 m 174.07 16.496 l S
176.613 25.188 m 176.613 17.75 l S
179.152 24.168 m 179.152 18.566 l S
181.695 23.57 m 181.695 19.402 l S
184.234 22.91 m 184.234 19.832 l S
186.777 22.512 m 186.777 20.238 l S
189.316 22.215 m 189.316 20.555 l S
191.859 21.992 m 191.859 20.828 l S
194.398 21.832 m 194.398 20.977 l S
196.941 21.762 m 196.941 21.078 l S
199.48 21.664 m 199.48 21.191 l S
202.023 21.641 m 202.023 21.246 l S
204.566 21.566 m 204.566 21.266 l S
207.105 21.539 m 207.105 21.312 l S
209.648 21.52 m 209.648 21.324 l S
212.188 21.52 m 212.188 21.324 l S
214.73 21.52 m 214.73 21.324 l S
217.27 21.52 m 217.27 21.324 l S
219.812 21.52 m 219.812 21.324 l S
222.352 21.52 m 222.352 21.324 l S
224.895 21.52 m 224.895 21.324 l S
227.434 21.52 m 227.434 21.324 l S
229.977 21.52 m 229.977 21.324 l S
232.52 21.52 m 232.52 21.324 l S
235.059 21.52 m 235.059 21.324 l S
237.602 21.52 m 237.602 21.324 l S
240.141 21.52 m 240.141 21.324 l S
242.684 21.52 m 242.684 21.324 l S
245.223 21.52 m 245.223 21.324 l S
247.766 21.52 m 247.766 21.324 l S
250.305 21.52 m 250.305 21.324 l S
252.848 21.52 m 252.848 21.324 l S
255.387 21.52 m 255.387 21.324 l S
255.387 21.52 m 255.387 21.324 l S
3.812 64.723 m 3.812 64.523 l S
6.352 68.492 m 6.352 60.582 l S
8.895 71.34 m 8.895 58.074 l S
11.434 72.07 m 11.434 57.039 l S
13.977 72.742 m 13.977 56.469 l S
16.52 73.203 m 16.52 55.918 l S
19.059 73.488 m 19.059 55.945 l S
21.602 73.75 m 21.602 55.637 l S
24.141 73.824 m 24.141 55.457 l S
26.684 74.25 m 26.684 55.02 l S
29.223 74.43 m 29.223 54.883 l S
31.766 74.602 m 31.766 54.633 l S
34.305 74.879 m 34.305 54.461 l S
36.848 74.973 m 36.848 54.137 l S
39.387 75.125 m 39.387 54.184 l S
41.93 75.016 m 41.93 54.117 l S
44.469 74.777 m 44.469 54.43 l S
47.012 74.488 m 47.012 54.621 l S
49.555 74.297 m 49.555 54.832 l S
52.094 74.125 m 52.094 55.031 l S
54.637 73.961 m 54.637 55.188 l S
57.176 73.754 m 57.176 55.266 l S
59.719 73.566 m 59.719 55.422 l S
62.258 73.66 m 62.258 55.598 l S
64.801 73.504 m 64.801 55.676 l S
67.34 73.59 m 67.34 55.703 l S
69.883 73.629 m 69.883 55.691 l S
72.422 73.664 m 72.422 55.617 l S
74.965 73.379 m 74.965 55.652 l S
77.508 73.105 m 77.508 56.008 l S
80.047 73.098 m 80.047 56.121 l S
82.59 73.25 m 82.59 56.09 l S
85.129 73.27 m 85.129 55.879 l S
87.672 73.355 m 87.672 56 l S
90.211 73.062 m 90.211 56.156 l S
92.754 73.16 m 92.754 56.156 l S
95.293 73.242 m 95.293 56.031 l S
97.836 73.461 m 97.836 55.762 l S
100.375 73.473 m 100.375 55.789 l S
102.918 73.246 m 102.918 56.07 l S
105.457 72.816 m 105.457 56.449 l S
108 72.43 m 108 56.719 l S
110.543 72.766 m 110.543 56.711 l S
113.082 72.773 m 113.082 56.633 l S
115.625 72.805 m 115.625 56.551 l S
118.164 72.738 m 118.164 56.66 l S
120.707 72.613 m 120.707 56.621 l S
123.246 72.742 m 123.246 56.562 l S
125.789 72.617 m 125.789 56.547 l S
128.328 72.809 m 128.328 56.418 l S
130.871 72.988 m 130.871 56.445 l S
133.41 72.984 m 133.41 56.363 l S
135.953 72.938 m 135.953 56.164 l S
138.492 73.016 m 138.492 56.16 l S
141.035 73.113 m 141.035 56.219 l S
143.578 73.258 m 143.578 56.121 l S
146.117 73.402 m 146.117 55.754 l S
148.66 73.398 m 148.66 55.867 l S
151.199 73.445 m 151.199 55.867 l S
153.742 73.434 m 153.742 55.859 l S
156.281 73.52 m 156.281 55.906 l S
158.824 73.449 m 158.824 55.711 l S
161.363 73.398 m 161.363 55.812 l S
163.906 72.582 m 163.906 56.984 l S
166.445 71.781 m 166.445 57.473 l S
168.988 70.766 m 168.988 58.223 l S
171.531 69.762 m 171.531 59.32 l S
174.07 68.922 m 174.07 60.707 l S
176.613 67.781 m 176.613 61.602 l S
179.152 66.977 m 179.152 62.266 l S
181.695 66.523 m 181.695 62.891 l S
184.234 65.988 m 184.234 63.32 l S
186.777 65.672 m 186.777 63.633 l S
189.316 65.438 m 189.316 63.883 l S
191.859 65.207 m 191.859 64.066 l S
194.398 65.066 m 194.398 64.219 l S
196.941 64.922 m 196.941 64.293 l S
199.48 64.879 m 199.48 64.359 l S
202.023 64.824 m 202.023 64.406 l S
204.566 64.777 m 204.566 64.469 l S
207.105 64.742 m 207.105 64.508 l S
209.648 64.723 m 209.648 64.523 l S
212.188 64.723 m 212.188 64.523 l S
214.73 64.723 m 214.73 64.523 l S
217.27 64.723 m 217.27 64.523 l S
219.812 64.723 m 219.812 64.523 l S
222.352 64.723 m 222.352 64.523 l S
224.895 64.723 m 224.895 64.523 l S
227.434 64.723 m 227.434 64.523 l S
229.977 64.723 m 229.977 64.523 l S
232.52 64.723 m 232.52 64.523 l S
235.059 64.723 m 235.059 64.523 l S
237.602 64.723 m 237.602 64.523 l S
240.141 64.723 m 240.141 64.523 l S
242.684 64.723 m 242.684 64.523 l S
245.223 64.723 m 245.223 64.523 l S
247.766 64.723 m 247.766 64.523 l S
250.305 64.723 m 250.305 64.523 l S
252.848 64.723 m 252.848 64.523 l S
255.387 64.723 m 255.387 64.523 l S
255.387 64.723 m 255.387 64.523 l S
3.812 107.922 m 3.812 107.723 l S
6.352 112.906 m 6.352 102.293 l S
8.895 117.367 m 8.895 98.074 l S
11.434 119.039 m 11.434 96.02 l S
13.977 119.895 m 13.977 95.363 l S
16.52 120.953 m 16.52 94.574 l S
19.059 121.324 m 19.059 93.809 l S
21.602 122.023 m 21.602 93.539 l S
24.141 122.906 m 24.141 92.387 l S
26.684 124.098 m 26.684 91.621 l S
29.223 124.848 m 29.223 91.094 l S
31.766 126.016 m 31.766 90.188 l S
34.305 126.445 m 34.305 89.02 l S
36.848 127.066 m 36.848 88.809 l S
39.387 127.176 m 39.387 88.383 l S
41.93 127.637 m 41.93 88.363 l S
44.469 127.504 m 44.469 88.418 l S
47.012 127.414 m 47.012 88.477 l S
49.555 126.996 m 49.555 88.812 l S
52.094 126.652 m 52.094 89.125 l S
54.637 126.305 m 54.637 89.418 l S
57.176 126.094 m 57.176 89.609 l S
59.719 125.902 m 59.719 89.938 l S
62.258 125.695 m 62.258 89.789 l S
64.801 125.637 m 64.801 90.066 l S
67.34 125.633 m 67.34 89.902 l S
69.883 125.598 m 69.883 89.961 l S
72.422 125.77 m 72.422 89.887 l S
74.965 125.512 m 74.965 90.348 l S
77.508 125.047 m 77.508 90.73 l S
80.047 124.785 m 80.047 90.781 l S
82.59 125.016 m 82.59 90.566 l S
85.129 125.043 m 85.129 90.496 l S
87.672 125.074 m 87.672 90.52 l S
90.211 124.809 m 90.211 90.867 l S
92.754 124.809 m 92.754 90.762 l S
95.293 125.125 m 95.293 90.438 l S
97.836 125.574 m 97.836 90.344 l S
100.375 125.34 m 100.375 90.074 l S
102.918 124.781 m 102.918 90.52 l S
105.457 124.254 m 105.457 91.16 l S
108 123.898 m 108 91.844 l S
110.543 124.039 m 110.543 91.648 l S
113.082 124.156 m 113.082 91.41 l S
115.625 124.188 m 115.625 91.324 l S
118.164 124.004 m 118.164 91.406 l S
120.707 124.031 m 120.707 91.707 l S
123.246 123.875 m 123.246 91.695 l S
125.789 123.918 m 125.789 91.672 l S
128.328 123.969 m 128.328 91.816 l S
130.871 123.793 m 130.871 91.855 l S
133.41 123.84 m 133.41 91.898 l S
135.953 123.707 m 135.953 92.18 l S
138.492 123.625 m 138.492 92.301 l S
141.035 123.637 m 141.035 92.363 l S
143.578 123.551 m 143.578 92.012 l S
146.117 123.793 m 146.117 91.844 l S
148.66 124.004 m 148.66 91.855 l S
151.199 124.078 m 151.199 91.824 l S
153.742 124.094 m 153.742 91.73 l S
156.281 123.844 m 156.281 91.672 l S
158.824 123.938 m 158.824 91.676 l S
161.363 124.043 m 161.363 91.688 l S
163.906 122.797 m 163.906 92.324 l S
166.445 121.504 m 166.445 94.41 l S
168.988 119.203 m 168.988 96.824 l S
171.531 117.371 m 171.531 98.133 l S
174.07 115.086 m 174.07 100.168 l S
176.613 113.785 m 176.613 101.953 l S
179.152 112.352 m 179.152 103.137 l S
181.695 111.129 m 181.695 104.371 l S
184.234 110.234 m 184.234 105.48 l S
186.777 109.613 m 186.777 106.039 l S
189.316 109.152 m 189.316 106.531 l S
191.859 108.797 m 191.859 106.859 l S
194.398 108.398 m 194.398 107.219 l S
196.941 108.293 m 196.941 107.371 l S
199.48 108.18 m 199.48 107.438 l S
202.023 108.09 m 202.023 107.508 l S
204.566 108.035 m 204.566 107.582 l S
207.105 107.992 m 207.105 107.676 l S
209.648 107.949 m 209.648 107.691 l S
212.188 107.93 m 212.188 107.711 l S
214.73 107.922 m 214.73 107.723 l S
217.27 107.922 m 217.27 107.723 l S
219.812 107.922 m 219.812 107.723 l S
222.352 107.922 m 222.352 107.723 l S
224.895 107.922 m 224.895 107.723 l S
227.434 107.922 m 227.434 107.723 l S
229.977 107.922 m 229.977 107.723 l S
232.52 107.922 m 232.52 107.723 l S
235.059 107.922 m 235.059 107.723 l S
237.602 107.922 m 237.602 107.723 l S
240.141 107.922 m 240.141 107.723 l S
242.684 107.922 m 242.684 107.723 l S
245.223 107.922 m 245.223 107.723 l S
247.766 107.922 m 247.766 107.723 l S
250.305 107.922 m 250.305 107.723 l S
252.848 107.922 m 252.848 107.723 l S
255.387 107.922 m 255.387 107.723 l S
255.387 107.922 m 255.387 107.723 l S
3.812 151.121 m 3.812 150.926 l S
6.352 156.195 m 6.352 145.875 l S
8.895 159.387 m 8.895 142.426 l S
11.434 160.898 m 11.434 140.754 l S
13.977 161.668 m 13.977 140.547 l S
16.52 161.945 m 16.52 140.105 l S
19.059 162.293 m 19.059 139.953 l S
21.602 162.621 m 21.602 139.254 l S
24.141 163.289 m 24.141 139.246 l S
26.684 163.543 m 26.684 139.16 l S
29.223 163.926 m 29.223 138.445 l S
31.766 164.316 m 31.766 137.973 l S
34.305 164.84 m 34.305 137.832 l S
36.848 165 m 36.848 137.578 l S
39.387 164.891 m 39.387 137.766 l S
41.93 164.469 m 41.93 138.066 l S
44.469 164.156 m 44.469 138.145 l S
47.012 163.723 m 47.012 138.262 l S
49.555 163.324 m 49.555 138.609 l S
52.094 163.312 m 52.094 139.074 l S
54.637 163.148 m 54.637 139.27 l S
57.176 163.23 m 57.176 139.305 l S
59.719 163.125 m 59.719 139.363 l S
62.258 163.09 m 62.258 139.395 l S
64.801 162.926 m 64.801 139.637 l S
67.34 163.023 m 67.34 139.547 l S
69.883 162.871 m 69.883 139.508 l S
72.422 163.031 m 72.422 139.547 l S
74.965 162.832 m 74.965 139.754 l S
77.508 162.617 m 77.508 139.988 l S
80.047 162.551 m 80.047 139.941 l S
82.59 162.621 m 82.59 139.762 l S
85.129 162.535 m 85.129 139.801 l S
87.672 162.617 m 87.672 139.992 l S
90.211 162.512 m 90.211 140.047 l S
92.754 162.477 m 92.754 140.016 l S
95.293 162.57 m 95.293 139.992 l S
97.836 162.703 m 97.836 139.789 l S
100.375 162.695 m 100.375 139.773 l S
102.918 162.469 m 102.918 139.977 l S
105.457 162.215 m 105.457 140.473 l S
108 162.105 m 108 140.387 l S
110.543 162.316 m 110.543 140.297 l S
113.082 162.352 m 113.082 140.211 l S
115.625 162.457 m 115.625 140.176 l S
118.164 162.238 m 118.164 140.316 l S
120.707 162.363 m 120.707 140.035 l S
123.246 162.414 m 123.246 140.129 l S
125.789 162.535 m 125.789 139.949 l S
128.328 162.699 m 128.328 139.836 l S
130.871 162.59 m 130.871 139.805 l S
133.41 162.625 m 133.41 139.547 l S
135.953 162.996 m 135.953 139.703 l S
138.492 162.793 m 138.492 139.57 l S
141.035 162.848 m 141.035 139.359 l S
143.578 162.809 m 143.578 139.352 l S
146.117 162.793 m 146.117 139.344 l S
148.66 163.133 m 148.66 139.512 l S
151.199 163.074 m 151.199 139.156 l S
153.742 163.16 m 153.742 139.102 l S
156.281 163.074 m 156.281 139.066 l S
158.824 162.906 m 158.824 139.305 l S
161.363 162.984 m 161.363 139.332 l S
163.906 161.234 m 163.906 140.605 l S
166.445 160.41 m 166.445 141.531 l S
168.988 159.375 m 168.988 142.559 l S
171.531 158.434 m 171.531 143.703 l S
174.07 156.664 m 174.07 145.324 l S
176.613 155.539 m 176.613 146.543 l S
179.152 154.516 m 179.152 147.426 l S
181.695 153.621 m 181.695 148.219 l S
184.234 152.984 m 184.234 149.043 l S
186.777 152.43 m 186.777 149.5 l S
189.316 152.203 m 189.316 149.852 l S
191.859 151.883 m 191.859 150.207 l S
194.398 151.609 m 194.398 150.434 l S
196.941 151.469 m 196.941 150.574 l S
199.48 151.371 m 199.48 150.652 l S
202.023 151.332 m 202.023 150.664 l S
204.566 151.25 m 204.566 150.785 l S
207.105 151.191 m 207.105 150.855 l S
209.648 151.16 m 209.648 150.891 l S
212.188 151.141 m 212.188 150.898 l S
214.73 151.129 m 214.73 150.918 l S
217.27 151.121 m 217.27 150.926 l S
219.812 151.121 m 219.812 150.926 l S
222.352 151.121 m 222.352 150.926 l S
224.895 151.121 m 224.895 150.926 l S
227.434 151.121 m 227.434 150.926 l S
229.977 151.121 m 229.977 150.926 l S
232.52 151.121 m 232.52 150.926 l S
235.059 151.121 m 235.059 150.926 l S
237.602 151.121 m 237.602 150.926 l S
240.141 151.121 m 240.141 150.926 l S
242.684 151.121 m 242.684 150.926 l S
245.223 151.121 m 245.223 150.926 l S
247.766 151.121 m 247.766 150.926 l S
250.305 151.121 m 250.305 150.926 l S
252.848 151.121 m 252.848 150.926 l S
255.387 151.121 m 255.387 150.926 l S
255.387 151.121 m 255.387 150.926 l S
Q Q
showpage
%%Trailer
end
%%EOF
