%!PS-Adobe-3.0 EPSF-3.0
%%Creator: cairo 1.16.0 (https://cairographics.org)
%%CreationDate: Wed May 15 11:57:23 2024
%%Pages: 1
%%DocumentData: Clean7Bit
%%LanguageLevel: 2
%%Creator: Wolfram Mathematica
%%BoundingBox: 2 8 257 164
%%EndComments
%%BeginProlog
50 dict begin
/q { gsave } bind def
/Q { grestore } bind def
/cm { 6 array astore concat } bind def
/w { setlinewidth } bind def
/J { setlinecap } bind def
/j { setlinejoin } bind def
/M { setmiterlimit } bind def
/d { setdash } bind def
/m { moveto } bind def
/l { lineto } bind def
/c { curveto } bind def
/h { closepath } bind def
/re { exch dup neg 3 1 roll 5 3 roll moveto 0 rlineto
      0 exch rlineto 0 rlineto closepath } bind def
/S { stroke } bind def
/f { fill } bind def
/f* { eofill } bind def
/n { newpath } bind def
/W { clip } bind def
/W* { eoclip } bind def
/BT { } bind def
/ET { } bind def
/BDC { mark 3 1 roll /BDC pdfmark } bind def
/EMC { mark /EMC pdfmark } bind def
/cairo_store_point { /cairo_point_y exch def /cairo_point_x exch def } def
/Tj { show currentpoint cairo_store_point } bind def
/TJ {
  {
    dup
    type /stringtype eq
    { show } { -0.001 mul 0 cairo_font_matrix dtransform rmoveto } ifelse
  } forall
  currentpoint cairo_store_point
} bind def
/cairo_selectfont { cairo_font_matrix aload pop pop pop 0 0 6 array astore
    cairo_font exch selectfont cairo_point_x cairo_point_y moveto } bind def
/Tf { pop /cairo_font exch def /cairo_font_matrix where
      { pop cairo_selectfont } if } bind def
/Td { matrix translate cairo_font_matrix matrix concatmatrix dup
      /cairo_font_matrix exch def dup 4 get exch 5 get cairo_store_point
      /cairo_font where { pop cairo_selectfont } if } bind def
/Tm { 2 copy 8 2 roll 6 array astore /cairo_font_matrix exch def
      cairo_store_point /cairo_font where { pop cairo_selectfont } if } bind def
/g { setgray } bind def
/rg { setrgbcolor } bind def
/d1 { setcachedevice } bind def
/cairo_data_source {
  CairoDataIndex CairoData length lt
    { CairoData CairoDataIndex get /CairoDataIndex CairoDataIndex 1 add def }
    { () } ifelse
} def
/cairo_flush_ascii85_file { cairo_ascii85_file status { cairo_ascii85_file flushfile } if } def
/cairo_image { image cairo_flush_ascii85_file } def
/cairo_imagemask { imagemask cairo_flush_ascii85_file } def
%%EndProlog
%%BeginSetup
%%EndSetup
%%Page: 1 1
%%BeginPageSetup
%%PageBoundingBox: 2 8 257 164
%%EndPageSetup
q 2 8 255 156 rectclip
1 0 0 -1 0 173 cm q
0 g
1.796436 w
0 J
0 j
[] 0.0 d
3.25 M 3.812 21.473 m 3.812 21.262 l S
6.352 26.242 m 6.352 16.73 l S
8.895 31.094 m 8.895 11.59 l S
11.434 32.695 m 11.434 9.996 l S
13.977 33.305 m 13.977 9.359 l S
16.52 33.441 m 16.52 9.219 l S
19.059 33.539 m 19.059 9.141 l S
21.602 33.633 m 21.602 9.086 l S
24.141 33.699 m 24.141 9.07 l S
26.684 33.707 m 26.684 9.074 l S
29.223 33.609 m 29.223 9.156 l S
31.766 33.5 m 31.766 9.246 l S
34.305 33.484 m 34.305 9.227 l S
36.848 33.531 m 36.848 9.18 l S
39.387 33.547 m 39.387 9.191 l S
41.93 33.57 m 41.93 9.168 l S
44.469 33.617 m 44.469 9.113 l S
47.012 33.57 m 47.012 9.152 l S
49.555 33.5 m 49.555 9.242 l S
52.094 33.457 m 52.094 9.242 l S
54.637 33.445 m 54.637 9.266 l S
57.176 33.453 m 57.176 9.25 l S
59.719 33.457 m 59.719 9.254 l S
62.258 33.469 m 62.258 9.227 l S
64.801 33.473 m 64.801 9.23 l S
67.34 33.469 m 67.34 9.238 l S
69.883 33.496 m 69.883 9.219 l S
72.422 33.492 m 72.422 9.211 l S
74.965 33.496 m 74.965 9.211 l S
77.508 33.5 m 77.508 9.223 l S
80.047 33.48 m 80.047 9.234 l S
82.59 33.461 m 82.59 9.258 l S
85.129 33.426 m 85.129 9.277 l S
87.672 33.441 m 87.672 9.27 l S
90.211 33.445 m 90.211 9.242 l S
92.754 33.473 m 92.754 9.227 l S
95.293 33.48 m 95.293 9.219 l S
97.836 33.469 m 97.836 9.242 l S
100.375 33.488 m 100.375 9.23 l S
102.918 33.516 m 102.918 9.195 l S
105.457 33.535 m 105.457 9.16 l S
108 33.566 m 108 9.141 l S
110.543 33.629 m 110.543 9.09 l S
113.082 33.641 m 113.082 9.074 l S
115.625 33.668 m 115.625 9.078 l S
118.164 33.664 m 118.164 9.062 l S
120.707 33.68 m 120.707 9.059 l S
123.246 33.68 m 123.246 9.059 l S
125.789 33.652 m 125.789 9.086 l S
128.328 33.629 m 128.328 9.105 l S
130.871 33.59 m 130.871 9.141 l S
133.41 33.59 m 133.41 9.129 l S
135.953 33.594 m 135.953 9.117 l S
138.492 33.637 m 138.492 9.098 l S
141.035 33.621 m 141.035 9.105 l S
143.578 33.582 m 143.578 9.137 l S
146.117 33.562 m 146.117 9.152 l S
148.66 33.523 m 148.66 9.195 l S
151.199 33.52 m 151.199 9.191 l S
153.742 33.512 m 153.742 9.191 l S
156.281 33.492 m 156.281 9.215 l S
158.824 33.488 m 158.824 9.207 l S
161.363 33.504 m 161.363 9.195 l S
163.906 33.496 m 163.906 9.199 l S
166.445 33.461 m 166.445 9.238 l S
168.988 33.457 m 168.988 9.234 l S
171.531 33.449 m 171.531 9.238 l S
174.07 33.469 m 174.07 9.223 l S
176.613 33.488 m 176.613 9.215 l S
179.152 33.488 m 179.152 9.227 l S
181.695 33.496 m 181.695 9.215 l S
184.234 33.305 m 184.234 9.496 l S
186.777 29.836 m 186.777 12.715 l S
189.316 27.434 m 189.316 15.332 l S
191.859 25.035 m 191.859 17.707 l S
194.398 23.961 m 194.398 18.906 l S
196.941 23.113 m 196.941 19.66 l S
199.48 22.484 m 199.48 20.266 l S
202.023 22.066 m 202.023 20.668 l S
204.566 21.785 m 204.566 20.938 l S
207.105 21.652 m 207.105 21.082 l S
209.648 21.527 m 209.648 21.191 l S
212.188 21.469 m 212.188 21.25 l S
214.73 21.457 m 214.73 21.262 l S
217.27 21.457 m 217.27 21.262 l S
219.812 21.457 m 219.812 21.262 l S
222.352 21.457 m 222.352 21.262 l S
224.895 21.457 m 224.895 21.262 l S
227.434 21.457 m 227.434 21.262 l S
229.977 21.457 m 229.977 21.262 l S
232.52 21.457 m 232.52 21.262 l S
235.059 21.457 m 235.059 21.262 l S
237.602 21.457 m 237.602 21.262 l S
240.141 21.457 m 240.141 21.262 l S
242.684 21.457 m 242.684 21.262 l S
245.223 21.457 m 245.223 21.262 l S
247.766 21.457 m 247.766 21.262 l S
250.305 21.457 m 250.305 21.262 l S
252.848 21.457 m 252.848 21.262 l S
255.387 21.457 m 255.387 21.262 l S
255.387 21.457 m 255.387 21.262 l S
3.812 64.668 m 3.812 64.461 l S
6.352 68.363 m 6.352 61.035 l S
8.895 71.875 m 8.895 57.477 l S
11.434 72.766 m 11.434 56.559 l S
13.977 73.023 m 13.977 56.301 l S
16.52 73.086 m 16.52 56.285 l S
19.059 73.156 m 19.059 56.207 l S
21.602 73.238 m 21.602 56.156 l S
24.141 73.242 m 24.141 56.141 l S
26.684 73.262 m 26.684 56.137 l S
29.223 73.203 m 29.223 56.184 l S
31.766 73.168 m 31.766 56.223 l S
34.305 73.188 m 34.305 56.211 l S
36.848 73.203 m 36.848 56.188 l S
39.387 73.199 m 39.387 56.219 l S
41.93 73.199 m 41.93 56.184 l S
44.469 73.266 m 44.469 56.168 l S
47.012 73.223 m 47.012 56.195 l S
49.555 73.188 m 49.555 56.254 l S
52.094 73.184 m 52.094 56.23 l S
54.637 73.203 m 54.637 56.234 l S
57.176 73.18 m 57.176 56.25 l S
59.719 73.184 m 59.719 56.246 l S
62.258 73.191 m 62.258 56.234 l S
64.801 73.219 m 64.801 56.246 l S
67.34 73.234 m 67.34 56.234 l S
69.883 73.223 m 69.883 56.227 l S
72.422 73.207 m 72.422 56.211 l S
74.965 73.23 m 74.965 56.207 l S
77.508 73.23 m 77.508 56.227 l S
80.047 73.199 m 80.047 56.23 l S
82.59 73.16 m 82.59 56.227 l S
85.129 73.176 m 85.129 56.262 l S
87.672 73.199 m 87.672 56.238 l S
90.211 73.203 m 90.211 56.203 l S
92.754 73.184 m 92.754 56.234 l S
95.293 73.215 m 95.293 56.23 l S
97.836 73.199 m 97.836 56.242 l S
100.375 73.234 m 100.375 56.191 l S
102.918 73.266 m 102.918 56.18 l S
105.457 73.27 m 105.457 56.195 l S
108 73.266 m 108 56.176 l S
110.543 73.309 m 110.543 56.168 l S
113.082 73.328 m 113.082 56.152 l S
115.625 73.312 m 115.625 56.141 l S
118.164 73.336 m 118.164 56.137 l S
120.707 73.324 m 120.707 56.133 l S
123.246 73.305 m 123.246 56.121 l S
125.789 73.312 m 125.789 56.156 l S
128.328 73.262 m 128.328 56.184 l S
130.871 73.266 m 130.871 56.18 l S
133.41 73.262 m 133.41 56.18 l S
135.953 73.273 m 135.953 56.18 l S
138.492 73.293 m 138.492 56.168 l S
141.035 73.281 m 141.035 56.188 l S
143.578 73.262 m 143.578 56.184 l S
146.117 73.258 m 146.117 56.215 l S
148.66 73.227 m 148.66 56.211 l S
151.199 73.215 m 151.199 56.219 l S
153.742 73.211 m 153.742 56.219 l S
156.281 73.207 m 156.281 56.227 l S
158.824 73.203 m 158.824 56.242 l S
161.363 73.195 m 161.363 56.223 l S
163.906 73.207 m 163.906 56.238 l S
166.445 73.195 m 166.445 56.227 l S
168.988 73.172 m 168.988 56.25 l S
171.531 73.18 m 171.531 56.25 l S
174.07 73.188 m 174.07 56.215 l S
176.613 73.219 m 176.613 56.234 l S
179.152 73.207 m 179.152 56.223 l S
181.695 73.215 m 181.695 56.23 l S
184.234 72.953 m 184.234 56.496 l S
186.777 70.648 m 186.777 58.523 l S
189.316 69.43 m 189.316 59.855 l S
191.859 67.723 m 191.859 61.477 l S
194.398 66.902 m 194.398 62.363 l S
196.941 66.109 m 196.941 63.098 l S
199.48 65.512 m 199.48 63.57 l S
202.023 65.148 m 202.023 63.988 l S
204.566 64.93 m 204.566 64.246 l S
207.105 64.777 m 207.105 64.34 l S
209.648 64.711 m 209.648 64.391 l S
212.188 64.688 m 212.188 64.434 l S
214.73 64.66 m 214.73 64.461 l S
217.27 64.66 m 217.27 64.461 l S
219.812 64.66 m 219.812 64.461 l S
222.352 64.66 m 222.352 64.461 l S
224.895 64.66 m 224.895 64.461 l S
227.434 64.66 m 227.434 64.461 l S
229.977 64.66 m 229.977 64.461 l S
232.52 64.66 m 232.52 64.461 l S
235.059 64.66 m 235.059 64.461 l S
237.602 64.66 m 237.602 64.461 l S
240.141 64.66 m 240.141 64.461 l S
242.684 64.66 m 242.684 64.461 l S
245.223 64.66 m 245.223 64.461 l S
247.766 64.66 m 247.766 64.461 l S
250.305 64.66 m 250.305 64.461 l S
252.848 64.66 m 252.848 64.461 l S
255.387 64.66 m 255.387 64.461 l S
255.387 64.66 m 255.387 64.461 l S
3.812 108.094 m 3.812 107.406 l S
6.352 116.309 m 6.352 99.562 l S
8.895 123.793 m 8.895 91.832 l S
11.434 125.945 m 11.434 89.543 l S
13.977 126.91 m 13.977 88.844 l S
16.52 127.195 m 16.52 88.605 l S
19.059 127.352 m 19.059 88.504 l S
21.602 127.449 m 21.602 88.398 l S
24.141 127.488 m 24.141 88.363 l S
26.684 127.504 m 26.684 88.371 l S
29.223 127.398 m 29.223 88.461 l S
31.766 127.34 m 31.766 88.555 l S
34.305 127.363 m 34.305 88.527 l S
36.848 127.418 m 36.848 88.477 l S
39.387 127.402 m 39.387 88.516 l S
41.93 127.441 m 41.93 88.48 l S
44.469 127.504 m 44.469 88.414 l S
47.012 127.438 m 47.012 88.484 l S
49.555 127.348 m 49.555 88.586 l S
52.094 127.348 m 52.094 88.586 l S
54.637 127.336 m 54.637 88.598 l S
57.176 127.344 m 57.176 88.609 l S
59.719 127.336 m 59.719 88.605 l S
62.258 127.355 m 62.258 88.59 l S
64.801 127.383 m 64.801 88.594 l S
67.34 127.363 m 67.34 88.586 l S
69.883 127.375 m 69.883 88.559 l S
72.422 127.379 m 72.422 88.574 l S
74.965 127.402 m 74.965 88.543 l S
77.508 127.391 m 77.508 88.559 l S
80.047 127.391 m 80.047 88.566 l S
82.59 127.316 m 82.59 88.605 l S
85.129 127.309 m 85.129 88.629 l S
87.672 127.336 m 87.672 88.609 l S
90.211 127.363 m 90.211 88.59 l S
92.754 127.367 m 92.754 88.594 l S
95.293 127.379 m 95.293 88.582 l S
97.836 127.371 m 97.836 88.586 l S
100.375 127.379 m 100.375 88.555 l S
102.918 127.418 m 102.918 88.52 l S
105.457 127.43 m 105.457 88.5 l S
108 127.48 m 108 88.469 l S
110.543 127.551 m 110.543 88.441 l S
113.082 127.543 m 113.082 88.414 l S
115.625 127.57 m 115.625 88.387 l S
118.164 127.609 m 118.164 88.395 l S
120.707 127.637 m 120.707 88.383 l S
123.246 127.598 m 123.246 88.375 l S
125.789 127.57 m 125.789 88.406 l S
128.328 127.543 m 128.328 88.449 l S
130.871 127.516 m 130.871 88.469 l S
133.41 127.508 m 133.41 88.465 l S
135.953 127.52 m 135.953 88.445 l S
138.492 127.547 m 138.492 88.418 l S
141.035 127.523 m 141.035 88.449 l S
143.578 127.484 m 143.578 88.48 l S
146.117 127.453 m 146.117 88.504 l S
148.66 127.426 m 148.66 88.531 l S
151.199 127.422 m 151.199 88.527 l S
153.742 127.422 m 153.742 88.535 l S
156.281 127.395 m 156.281 88.559 l S
158.824 127.383 m 158.824 88.578 l S
161.363 127.406 m 161.363 88.547 l S
163.906 127.418 m 163.906 88.535 l S
166.445 127.375 m 166.445 88.598 l S
168.988 127.359 m 168.988 88.59 l S
171.531 127.352 m 171.531 88.598 l S
174.07 127.391 m 174.07 88.578 l S
176.613 127.391 m 176.613 88.562 l S
179.152 127.391 m 179.152 88.574 l S
181.695 127.375 m 181.695 88.574 l S
184.234 126.957 m 184.234 89.09 l S
186.777 122.031 m 186.777 93.402 l S
189.316 118.598 m 189.316 96.719 l S
191.859 115.699 m 191.859 99.859 l S
194.398 113.648 m 194.398 102.016 l S
196.941 112.094 m 196.941 103.516 l S
199.48 110.566 m 199.48 104.984 l S
202.023 109.578 m 202.023 106.004 l S
204.566 108.785 m 204.566 106.758 l S
207.105 108.406 m 207.105 107.074 l S
209.648 108.105 m 209.648 107.387 l S
212.188 108.027 m 212.188 107.496 l S
214.73 107.945 m 214.73 107.574 l S
217.27 107.883 m 217.27 107.633 l S
219.812 107.859 m 219.812 107.664 l S
222.352 107.859 m 222.352 107.664 l S
224.895 107.859 m 224.895 107.664 l S
227.434 107.859 m 227.434 107.664 l S
229.977 107.859 m 229.977 107.664 l S
232.52 107.859 m 232.52 107.664 l S
235.059 107.859 m 235.059 107.664 l S
237.602 107.859 m 237.602 107.664 l S
240.141 107.859 m 240.141 107.664 l S
242.684 107.859 m 242.684 107.664 l S
245.223 107.859 m 245.223 107.664 l S
247.766 107.859 m 247.766 107.664 l S
250.305 107.859 m 250.305 107.664 l S
252.848 107.859 m 252.848 107.664 l S
255.387 107.859 m 255.387 107.664 l S
255.387 107.859 m 255.387 107.664 l S
3.812 151.137 m 3.812 150.809 l S
6.352 156.574 m 6.352 145.707 l S
8.895 162.035 m 8.895 140.16 l S
11.434 163.844 m 11.434 138.441 l S
13.977 164.391 m 13.977 137.953 l S
16.52 164.664 m 16.52 137.68 l S
19.059 164.816 m 19.059 137.527 l S
21.602 164.902 m 21.602 137.414 l S
24.141 164.945 m 24.141 137.395 l S
26.684 164.941 m 26.684 137.363 l S
29.223 164.867 m 29.223 137.48 l S
31.766 164.82 m 31.766 137.574 l S
34.305 164.812 m 34.305 137.582 l S
36.848 164.867 m 36.848 137.543 l S
39.387 164.867 m 39.387 137.578 l S
41.93 164.781 m 41.93 137.508 l S
44.469 164.922 m 44.469 137.441 l S
47.012 164.875 m 47.012 137.539 l S
49.555 164.789 m 49.555 137.609 l S
52.094 164.746 m 52.094 137.609 l S
54.637 164.758 m 54.637 137.641 l S
57.176 164.73 m 57.176 137.656 l S
59.719 164.746 m 59.719 137.617 l S
62.258 164.773 m 62.258 137.633 l S
64.801 164.754 m 64.801 137.625 l S
67.34 164.754 m 67.34 137.629 l S
69.883 164.789 m 69.883 137.613 l S
72.422 164.797 m 72.422 137.59 l S
74.965 164.805 m 74.965 137.602 l S
77.508 164.762 m 77.508 137.609 l S
80.047 164.766 m 80.047 137.598 l S
82.59 164.75 m 82.59 137.613 l S
85.129 164.734 m 85.129 137.707 l S
87.672 164.828 m 87.672 137.594 l S
90.211 164.809 m 90.211 137.602 l S
92.754 164.785 m 92.754 137.609 l S
95.293 164.781 m 95.293 137.621 l S
97.836 164.77 m 97.836 137.621 l S
100.375 164.801 m 100.375 137.562 l S
102.918 164.855 m 102.918 137.57 l S
105.457 164.855 m 105.457 137.562 l S
108 164.895 m 108 137.5 l S
110.543 164.938 m 110.543 137.5 l S
113.082 164.965 m 113.082 137.469 l S
115.625 164.906 m 115.625 137.391 l S
118.164 164.969 m 118.164 137.391 l S
120.707 164.98 m 120.707 137.375 l S
123.246 164.961 m 123.246 137.422 l S
125.789 164.938 m 125.789 137.438 l S
128.328 164.879 m 128.328 137.48 l S
130.871 164.887 m 130.871 137.508 l S
133.41 164.879 m 133.41 137.523 l S
135.953 164.891 m 135.953 137.516 l S
138.492 164.926 m 138.492 137.484 l S
141.035 164.945 m 141.035 137.539 l S
143.578 164.863 m 143.578 137.535 l S
146.117 164.883 m 146.117 137.555 l S
148.66 164.812 m 148.66 137.582 l S
151.199 164.832 m 151.199 137.59 l S
153.742 164.789 m 153.742 137.574 l S
156.281 164.789 m 156.281 137.645 l S
158.824 164.793 m 158.824 137.664 l S
161.363 164.785 m 161.363 137.629 l S
163.906 164.801 m 163.906 137.645 l S
166.445 164.75 m 166.445 137.668 l S
168.988 164.75 m 168.988 137.691 l S
171.531 164.758 m 171.531 137.711 l S
174.07 164.801 m 174.07 137.668 l S
176.613 164.773 m 176.613 137.656 l S
179.152 164.773 m 179.152 137.645 l S
181.695 164.766 m 181.695 137.637 l S
184.234 164.445 m 184.234 137.992 l S
186.777 160.199 m 186.777 141.863 l S
189.316 157.895 m 189.316 144.082 l S
191.859 155.855 m 191.859 146.219 l S
194.398 154.09 m 194.398 147.953 l S
196.941 153.176 m 196.941 148.809 l S
199.48 152.27 m 199.48 149.613 l S
202.023 151.824 m 202.023 150.16 l S
204.566 151.547 m 204.566 150.477 l S
207.105 151.32 m 207.105 150.566 l S
209.648 151.199 m 209.648 150.707 l S
212.188 151.137 m 212.188 150.773 l S
214.73 151.145 m 214.73 150.793 l S
217.27 151.094 m 217.27 150.809 l S
219.812 151.059 m 219.812 150.863 l S
222.352 151.059 m 222.352 150.863 l S
224.895 151.059 m 224.895 150.863 l S
227.434 151.059 m 227.434 150.863 l S
229.977 151.059 m 229.977 150.863 l S
232.52 151.059 m 232.52 150.863 l S
235.059 151.059 m 235.059 150.863 l S
237.602 151.059 m 237.602 150.863 l S
240.141 151.059 m 240.141 150.863 l S
242.684 151.059 m 242.684 150.863 l S
245.223 151.059 m 245.223 150.863 l S
247.766 151.059 m 247.766 150.863 l S
250.305 151.059 m 250.305 150.863 l S
252.848 151.059 m 252.848 150.863 l S
255.387 151.059 m 255.387 150.863 l S
255.387 151.059 m 255.387 150.863 l S
Q Q
showpage
%%Trailer
end
%%EOF
