%!PS-Adobe-3.0 EPSF-3.0
%%Creator: cairo 1.16.0 (https://cairographics.org)
%%CreationDate: Wed May 15 11:57:24 2024
%%Pages: 1
%%DocumentData: Clean7Bit
%%LanguageLevel: 2
%%Creator: Wolfram Mathematica
%%BoundingBox: 2 2 257 164
%%EndComments
%%BeginProlog
50 dict begin
/q { gsave } bind def
/Q { grestore } bind def
/cm { 6 array astore concat } bind def
/w { setlinewidth } bind def
/J { setlinecap } bind def
/j { setlinejoin } bind def
/M { setmiterlimit } bind def
/d { setdash } bind def
/m { moveto } bind def
/l { lineto } bind def
/c { curveto } bind def
/h { closepath } bind def
/re { exch dup neg 3 1 roll 5 3 roll moveto 0 rlineto
      0 exch rlineto 0 rlineto closepath } bind def
/S { stroke } bind def
/f { fill } bind def
/f* { eofill } bind def
/n { newpath } bind def
/W { clip } bind def
/W* { eoclip } bind def
/BT { } bind def
/ET { } bind def
/BDC { mark 3 1 roll /BDC pdfmark } bind def
/EMC { mark /EMC pdfmark } bind def
/cairo_store_point { /cairo_point_y exch def /cairo_point_x exch def } def
/Tj { show currentpoint cairo_store_point } bind def
/TJ {
  {
    dup
    type /stringtype eq
    { show } { -0.001 mul 0 cairo_font_matrix dtransform rmoveto } ifelse
  } forall
  currentpoint cairo_store_point
} bind def
/cairo_selectfont { cairo_font_matrix aload pop pop pop 0 0 6 array astore
    cairo_font exch selectfont cairo_point_x cairo_point_y moveto } bind def
/Tf { pop /cairo_font exch def /cairo_font_matrix where
      { pop cairo_selectfont } if } bind def
/Td { matrix translate cairo_font_matrix matrix concatmatrix dup
      /cairo_font_matrix exch def dup 4 get exch 5 get cairo_store_point
      /cairo_font where { pop cairo_selectfont } if } bind def
/Tm { 2 copy 8 2 roll 6 array astore /cairo_font_matrix exch def
      cairo_store_point /cairo_font where { pop cairo_selectfont } if } bind def
/g { setgray } bind def
/rg { setrgbcolor } bind def
/d1 { setcachedevice } bind def
/cairo_data_source {
  CairoDataIndex CairoData length lt
    { CairoData CairoDataIndex get /CairoDataIndex CairoDataIndex 1 add def }
    { () } ifelse
} def
/cairo_flush_ascii85_file { cairo_ascii85_file status { cairo_ascii85_file flushfile } if } def
/cairo_image { image cairo_flush_ascii85_file } def
/cairo_imagemask { imagemask cairo_flush_ascii85_file } def
%%EndProlog
%%BeginSetup
%%EndSetup
%%Page: 1 1
%%BeginPageSetup
%%PageBoundingBox: 2 2 257 164
%%EndPageSetup
q 2 2 255 162 rectclip
1 0 0 -1 0 173 cm q
0 g
1.796436 w
0 J
0 j
[] 0.0 d
3.25 M 3.812 21.945 m 3.812 21.414 l S
6.352 28.605 m 6.352 14.68 l S
8.895 32.125 m 8.895 11.238 l S
11.434 33.168 m 11.434 10.344 l S
13.977 33.676 m 13.977 9.832 l S
16.52 33.93 m 16.52 9.578 l S
19.059 34.121 m 19.059 9.414 l S
21.602 34.227 m 21.602 9.328 l S
24.141 34.23 m 24.141 9.328 l S
26.684 34.23 m 26.684 9.324 l S
29.223 34.176 m 29.223 9.344 l S
31.766 34.172 m 31.766 9.367 l S
34.305 34.203 m 34.305 9.352 l S
36.848 34.184 m 36.848 9.336 l S
39.387 34.141 m 39.387 9.391 l S
41.93 34.129 m 41.93 9.398 l S
44.469 34.156 m 44.469 9.398 l S
47.012 34.129 m 47.012 9.391 l S
49.555 34.148 m 49.555 9.387 l S
52.094 34.137 m 52.094 9.395 l S
54.637 34.141 m 54.637 9.391 l S
57.176 34.113 m 57.176 9.426 l S
59.719 34.082 m 59.719 9.445 l S
62.258 34.039 m 62.258 9.453 l S
64.801 34.012 m 64.801 9.496 l S
67.34 34.074 m 67.34 9.441 l S
69.883 34.094 m 69.883 9.43 l S
72.422 34.082 m 72.422 9.441 l S
74.965 34.125 m 74.965 9.426 l S
77.508 34.121 m 77.508 9.434 l S
80.047 34.09 m 80.047 9.402 l S
82.59 33.996 m 82.59 9.477 l S
85.129 34.027 m 85.129 9.508 l S
87.672 34.023 m 87.672 9.477 l S
90.211 33.953 m 90.211 9.527 l S
92.754 33.859 m 92.754 9.594 l S
95.293 33.793 m 95.293 9.668 l S
97.836 33.742 m 97.836 9.727 l S
100.375 33.742 m 100.375 9.73 l S
102.918 33.762 m 102.918 9.707 l S
105.457 33.797 m 105.457 9.664 l S
108 33.766 m 108 9.703 l S
110.543 33.785 m 110.543 9.707 l S
113.082 33.777 m 113.082 9.695 l S
115.625 33.723 m 115.625 9.758 l S
118.164 33.738 m 118.164 9.742 l S
120.707 33.773 m 120.707 9.699 l S
123.246 33.812 m 123.246 9.676 l S
125.789 33.797 m 125.789 9.676 l S
128.328 33.836 m 128.328 9.648 l S
130.871 33.859 m 130.871 9.645 l S
133.41 33.91 m 133.41 9.59 l S
135.953 33.945 m 135.953 9.566 l S
138.492 33.992 m 138.492 9.535 l S
141.035 33.969 m 141.035 9.527 l S
143.578 33.98 m 143.578 9.535 l S
146.117 33.988 m 146.117 9.531 l S
148.66 34.035 m 148.66 9.484 l S
151.199 34.059 m 151.199 9.504 l S
153.742 34.059 m 153.742 9.473 l S
156.281 34.098 m 156.281 9.469 l S
158.824 34.121 m 158.824 9.414 l S
161.363 34.094 m 161.363 9.441 l S
163.906 33.953 m 163.906 9.566 l S
166.445 33.426 m 166.445 10.086 l S
168.988 30.883 m 168.988 12.391 l S
171.531 29.398 m 171.531 13.875 l S
174.07 27.996 m 174.07 15.293 l S
176.613 26.574 m 176.613 16.691 l S
179.152 25.469 m 179.152 17.816 l S
181.695 24.59 m 181.695 18.66 l S
184.234 23.98 m 184.234 19.305 l S
186.777 23.445 m 186.777 19.82 l S
189.316 23.047 m 189.316 20.23 l S
191.859 22.703 m 191.859 20.57 l S
194.398 22.461 m 194.398 20.828 l S
196.941 22.266 m 196.941 21.031 l S
199.48 22.117 m 199.48 21.188 l S
202.023 22.008 m 202.023 21.273 l S
204.566 21.926 m 204.566 21.355 l S
207.105 21.867 m 207.105 21.414 l S
209.648 21.805 m 209.648 21.465 l S
212.188 21.777 m 212.188 21.52 l S
214.73 21.738 m 214.73 21.543 l S
217.27 21.738 m 217.27 21.543 l S
219.812 21.738 m 219.812 21.543 l S
222.352 21.738 m 222.352 21.543 l S
224.895 21.738 m 224.895 21.543 l S
227.434 21.738 m 227.434 21.543 l S
229.977 21.738 m 229.977 21.543 l S
232.52 21.738 m 232.52 21.543 l S
235.059 21.738 m 235.059 21.543 l S
237.602 21.738 m 237.602 21.543 l S
240.141 21.738 m 240.141 21.543 l S
242.684 21.738 m 242.684 21.543 l S
245.223 21.738 m 245.223 21.543 l S
247.766 21.738 m 247.766 21.543 l S
250.305 21.738 m 250.305 21.543 l S
252.848 21.738 m 252.848 21.543 l S
255.387 21.738 m 255.387 21.543 l S
255.387 21.738 m 255.387 21.543 l S
3.812 65.098 m 3.812 64.664 l S
6.352 71.434 m 6.352 58.395 l S
8.895 74.816 m 8.895 54.742 l S
11.434 75.676 m 11.434 53.867 l S
13.977 76.309 m 13.977 53.344 l S
16.52 76.625 m 16.52 53.031 l S
19.059 76.887 m 19.059 52.801 l S
21.602 77.078 m 21.602 52.59 l S
24.141 77.117 m 24.141 52.434 l S
26.684 77.145 m 26.684 52.457 l S
29.223 77.125 m 29.223 52.473 l S
31.766 77.105 m 31.766 52.473 l S
34.305 77.141 m 34.305 52.473 l S
36.848 77.098 m 36.848 52.473 l S
39.387 77.098 m 39.387 52.488 l S
41.93 77.09 m 41.93 52.484 l S
44.469 77.051 m 44.469 52.527 l S
47.012 77.074 m 47.012 52.531 l S
49.555 77.055 m 49.555 52.508 l S
52.094 77.086 m 52.094 52.5 l S
54.637 77.129 m 54.637 52.484 l S
57.176 77.121 m 57.176 52.492 l S
59.719 77.09 m 59.719 52.578 l S
62.258 77.074 m 62.258 52.613 l S
64.801 77.051 m 64.801 52.605 l S
67.34 77.031 m 67.34 52.594 l S
69.883 77.066 m 69.883 52.508 l S
72.422 77.043 m 72.422 52.551 l S
74.965 77.098 m 74.965 52.488 l S
77.508 77.16 m 77.508 52.496 l S
80.047 77.102 m 80.047 52.539 l S
82.59 76.973 m 82.59 52.598 l S
85.129 77.105 m 85.129 52.66 l S
87.672 77.035 m 87.672 52.504 l S
90.211 77.051 m 90.211 52.609 l S
92.754 76.977 m 92.754 52.727 l S
95.293 76.785 m 95.293 52.816 l S
97.836 76.75 m 97.836 52.871 l S
100.375 76.805 m 100.375 52.902 l S
102.918 76.734 m 102.918 52.895 l S
105.457 76.746 m 105.457 52.891 l S
108 76.773 m 108 52.91 l S
110.543 76.809 m 110.543 52.875 l S
113.082 76.746 m 113.082 52.859 l S
115.625 76.664 m 115.625 52.941 l S
118.164 76.676 m 118.164 52.93 l S
120.707 76.742 m 120.707 52.934 l S
123.246 76.75 m 123.246 52.867 l S
125.789 76.758 m 125.789 52.879 l S
128.328 76.77 m 128.328 52.844 l S
130.871 76.793 m 130.871 52.836 l S
133.41 76.836 m 133.41 52.781 l S
135.953 76.898 m 135.953 52.742 l S
138.492 76.898 m 138.492 52.707 l S
141.035 76.848 m 141.035 52.691 l S
143.578 76.871 m 143.578 52.691 l S
146.117 76.879 m 146.117 52.688 l S
148.66 76.879 m 148.66 52.668 l S
151.199 76.898 m 151.199 52.648 l S
153.742 76.938 m 153.742 52.629 l S
156.281 76.957 m 156.281 52.602 l S
158.824 76.973 m 158.824 52.57 l S
161.363 77 m 161.363 52.613 l S
163.906 76.836 m 163.906 52.734 l S
166.445 76.52 m 166.445 53.078 l S
168.988 74.148 m 168.988 55.477 l S
171.531 71.516 m 171.531 57.887 l S
174.07 70.426 m 174.07 59.238 l S
176.613 69.219 m 176.613 60.492 l S
179.152 68.23 m 179.152 61.477 l S
181.695 67.387 m 181.695 62.324 l S
184.234 66.785 m 184.234 62.859 l S
186.777 66.438 m 186.777 63.312 l S
189.316 66.125 m 189.316 63.621 l S
191.859 65.82 m 191.859 63.93 l S
194.398 65.543 m 194.398 64.141 l S
196.941 65.402 m 196.941 64.281 l S
199.48 65.25 m 199.48 64.434 l S
202.023 65.156 m 202.023 64.516 l S
204.566 65.086 m 204.566 64.586 l S
207.105 65.035 m 207.105 64.617 l S
209.648 65.027 m 209.648 64.617 l S
212.188 65.004 m 212.188 64.695 l S
214.73 64.938 m 214.73 64.742 l S
217.27 64.938 m 217.27 64.742 l S
219.812 64.938 m 219.812 64.742 l S
222.352 64.938 m 222.352 64.742 l S
224.895 64.938 m 224.895 64.742 l S
227.434 64.938 m 227.434 64.742 l S
229.977 64.938 m 229.977 64.742 l S
232.52 64.938 m 232.52 64.742 l S
235.059 64.938 m 235.059 64.742 l S
237.602 64.938 m 237.602 64.742 l S
240.141 64.938 m 240.141 64.742 l S
242.684 64.938 m 242.684 64.742 l S
245.223 64.938 m 245.223 64.742 l S
247.766 64.938 m 247.766 64.742 l S
250.305 64.938 m 250.305 64.742 l S
252.848 64.938 m 252.848 64.742 l S
255.387 64.938 m 255.387 64.742 l S
255.387 64.938 m 255.387 64.742 l S
3.812 108.504 m 3.812 107.746 l S
6.352 116.277 m 6.352 99.73 l S
8.895 120.25 m 8.895 95.543 l S
11.434 121.184 m 11.434 94.359 l S
13.977 121.918 m 13.977 93.797 l S
16.52 122.219 m 16.52 93.359 l S
19.059 122.457 m 19.059 93.117 l S
21.602 122.672 m 21.602 92.918 l S
24.141 122.762 m 24.141 92.801 l S
26.684 122.762 m 26.684 92.781 l S
29.223 122.691 m 29.223 92.82 l S
31.766 122.688 m 31.766 92.848 l S
34.305 122.738 m 34.305 92.816 l S
36.848 122.703 m 36.848 92.801 l S
39.387 122.727 m 39.387 92.828 l S
41.93 122.684 m 41.93 92.832 l S
44.469 122.691 m 44.469 92.855 l S
47.012 122.688 m 47.012 92.844 l S
49.555 122.727 m 49.555 92.781 l S
52.094 122.73 m 52.094 92.797 l S
54.637 122.723 m 54.637 92.824 l S
57.176 122.699 m 57.176 92.824 l S
59.719 122.707 m 59.719 92.875 l S
62.258 122.645 m 62.258 92.867 l S
64.801 122.66 m 64.801 92.879 l S
67.34 122.703 m 67.34 92.844 l S
69.883 122.727 m 69.883 92.824 l S
72.422 122.648 m 72.422 92.832 l S
74.965 122.723 m 74.965 92.766 l S
77.508 122.727 m 77.508 92.762 l S
80.047 122.742 m 80.047 92.785 l S
82.59 122.668 m 82.59 92.902 l S
85.129 122.688 m 85.129 92.902 l S
87.672 122.688 m 87.672 92.867 l S
90.211 122.668 m 90.211 92.902 l S
92.754 122.52 m 92.754 93.059 l S
95.293 122.355 m 95.293 93.188 l S
97.836 122.309 m 97.836 93.242 l S
100.375 122.324 m 100.375 93.23 l S
102.918 122.336 m 102.918 93.227 l S
105.457 122.344 m 105.457 93.188 l S
108 122.383 m 108 93.223 l S
110.543 122.363 m 110.543 93.188 l S
113.082 122.344 m 113.082 93.18 l S
115.625 122.27 m 115.625 93.289 l S
118.164 122.352 m 118.164 93.238 l S
120.707 122.387 m 120.707 93.199 l S
123.246 122.391 m 123.246 93.156 l S
125.789 122.375 m 125.789 93.18 l S
128.328 122.387 m 128.328 93.133 l S
130.871 122.414 m 130.871 93.102 l S
133.41 122.539 m 133.41 93.027 l S
135.953 122.562 m 135.953 93.012 l S
138.492 122.57 m 138.492 92.949 l S
141.035 122.543 m 141.035 92.945 l S
143.578 122.535 m 143.578 92.961 l S
146.117 122.535 m 146.117 92.969 l S
148.66 122.566 m 148.66 92.918 l S
151.199 122.598 m 151.199 92.895 l S
153.742 122.656 m 153.742 92.859 l S
156.281 122.664 m 156.281 92.816 l S
158.824 122.719 m 158.824 92.785 l S
161.363 122.684 m 161.363 92.844 l S
163.906 122.547 m 163.906 92.961 l S
166.445 122.016 m 166.445 93.566 l S
168.988 119.992 m 168.988 95.703 l S
171.531 118.152 m 171.531 97.969 l S
174.07 116.23 m 174.07 99.895 l S
176.613 114.652 m 176.613 101.535 l S
179.152 113.277 m 179.152 102.875 l S
181.695 112.168 m 181.695 103.945 l S
184.234 111.277 m 184.234 104.848 l S
186.777 110.594 m 186.777 105.586 l S
189.316 110.008 m 189.316 106.152 l S
191.859 109.605 m 191.859 106.586 l S
194.398 109.25 m 194.398 106.934 l S
196.941 108.977 m 196.941 107.188 l S
199.48 108.73 m 199.48 107.348 l S
202.023 108.551 m 202.023 107.504 l S
204.566 108.461 m 204.566 107.602 l S
207.105 108.375 m 207.105 107.707 l S
209.648 108.285 m 209.648 107.777 l S
212.188 108.266 m 212.188 107.844 l S
214.73 108.199 m 214.73 107.891 l S
217.27 108.156 m 217.27 107.938 l S
219.812 108.137 m 219.812 107.941 l S
222.352 108.137 m 222.352 107.941 l S
224.895 108.137 m 224.895 107.941 l S
227.434 108.137 m 227.434 107.941 l S
229.977 108.137 m 229.977 107.941 l S
232.52 108.137 m 232.52 107.941 l S
235.059 108.137 m 235.059 107.941 l S
237.602 108.137 m 237.602 107.941 l S
240.141 108.137 m 240.141 107.941 l S
242.684 108.137 m 242.684 107.941 l S
245.223 108.137 m 245.223 107.941 l S
247.766 108.137 m 247.766 107.941 l S
250.305 108.137 m 250.305 107.941 l S
252.848 108.137 m 252.848 107.941 l S
255.387 108.137 m 255.387 107.941 l S
255.387 108.137 m 255.387 107.941 l S
3.812 151.777 m 3.812 150.863 l S
6.352 161.34 m 6.352 141.273 l S
8.895 166.598 m 8.895 135.613 l S
11.434 168.254 m 11.434 133.918 l S
13.977 169.438 m 13.977 133.027 l S
16.52 169.895 m 16.52 132.48 l S
19.059 170.344 m 19.059 132.035 l S
21.602 170.664 m 21.602 131.699 l S
24.141 170.809 m 24.141 131.562 l S
26.684 170.824 m 26.684 131.582 l S
29.223 170.828 m 29.223 131.582 l S
31.766 170.789 m 31.766 131.633 l S
34.305 170.836 m 34.305 131.602 l S
36.848 170.785 m 36.848 131.59 l S
39.387 170.758 m 39.387 131.633 l S
41.93 170.773 m 41.93 131.582 l S
44.469 170.746 m 44.469 131.699 l S
47.012 170.727 m 47.012 131.691 l S
49.555 170.754 m 49.555 131.633 l S
52.094 170.746 m 52.094 131.668 l S
54.637 170.738 m 54.637 131.676 l S
57.176 170.777 m 57.176 131.625 l S
59.719 170.762 m 59.719 131.773 l S
62.258 170.723 m 62.258 131.797 l S
64.801 170.625 m 64.801 131.805 l S
67.34 170.684 m 67.34 131.785 l S
69.883 170.691 m 69.883 131.723 l S
72.422 170.684 m 72.422 131.762 l S
74.965 170.836 m 74.965 131.672 l S
77.508 170.699 m 77.508 131.73 l S
80.047 170.711 m 80.047 131.742 l S
82.59 170.57 m 82.59 131.887 l S
85.129 170.543 m 85.129 131.914 l S
87.672 170.664 m 87.672 131.758 l S
90.211 170.594 m 90.211 131.891 l S
92.754 170.43 m 92.754 132.062 l S
95.293 170.137 m 95.293 132.148 l S
97.836 170.102 m 97.836 132.266 l S
100.375 170.121 m 100.375 132.344 l S
102.918 170.137 m 102.918 132.332 l S
105.457 170.09 m 105.457 132.301 l S
108 170.098 m 108 132.301 l S
110.543 170.047 m 110.543 132.305 l S
113.082 170.098 m 113.082 132.258 l S
115.625 170.047 m 115.625 132.379 l S
118.164 170.02 m 118.164 132.379 l S
120.707 170.055 m 120.707 132.344 l S
123.246 170.125 m 123.246 132.328 l S
125.789 170.105 m 125.789 132.312 l S
128.328 170.09 m 128.328 132.227 l S
130.871 170.172 m 130.871 132.219 l S
133.41 170.246 m 133.41 132.191 l S
135.953 170.309 m 135.953 132.113 l S
138.492 170.324 m 138.492 132.078 l S
141.035 170.359 m 141.035 132.074 l S
143.578 170.332 m 143.578 132.098 l S
146.117 170.316 m 146.117 132.055 l S
148.66 170.371 m 148.66 132.027 l S
151.199 170.375 m 151.199 132 l S
153.742 170.465 m 153.742 131.973 l S
156.281 170.43 m 156.281 131.953 l S
158.824 170.531 m 158.824 131.91 l S
161.363 170.461 m 161.363 131.922 l S
163.906 170.32 m 163.906 132.09 l S
166.445 169.645 m 166.445 132.836 l S
168.988 165.781 m 168.988 136.668 l S
171.531 162.027 m 171.531 140.145 l S
174.07 159.91 m 174.07 142.445 l S
176.613 158.395 m 176.613 144.082 l S
179.152 156.906 m 179.152 145.664 l S
181.695 155.602 m 181.695 146.926 l S
184.234 154.758 m 184.234 147.785 l S
186.777 154.098 m 186.777 148.434 l S
189.316 153.52 m 189.316 148.992 l S
191.859 153.035 m 191.859 149.473 l S
194.398 152.602 m 194.398 149.93 l S
196.941 152.281 m 196.941 150.16 l S
199.48 152.012 m 199.48 150.422 l S
202.023 151.836 m 202.023 150.621 l S
204.566 151.676 m 204.566 150.727 l S
207.105 151.66 m 207.105 150.863 l S
209.648 151.523 m 209.648 150.953 l S
212.188 151.496 m 212.188 150.984 l S
214.73 151.418 m 214.73 151.074 l S
217.27 151.398 m 217.27 151.117 l S
219.812 151.34 m 219.812 151.137 l S
222.352 151.336 m 222.352 151.141 l S
224.895 151.336 m 224.895 151.141 l S
227.434 151.336 m 227.434 151.141 l S
229.977 151.336 m 229.977 151.141 l S
232.52 151.336 m 232.52 151.141 l S
235.059 151.336 m 235.059 151.141 l S
237.602 151.336 m 237.602 151.141 l S
240.141 151.336 m 240.141 151.141 l S
242.684 151.336 m 242.684 151.141 l S
245.223 151.336 m 245.223 151.141 l S
247.766 151.336 m 247.766 151.141 l S
250.305 151.336 m 250.305 151.141 l S
252.848 151.336 m 252.848 151.141 l S
255.387 151.336 m 255.387 151.141 l S
255.387 151.336 m 255.387 151.141 l S
Q Q
showpage
%%Trailer
end
%%EOF
