%!PS-Adobe-3.0 EPSF-3.0
%%Creator: cairo 1.16.0 (https://cairographics.org)
%%CreationDate: Wed May 15 11:57:24 2024
%%Pages: 1
%%DocumentData: Clean7Bit
%%LanguageLevel: 2
%%Creator: Wolfram Mathematica
%%BoundingBox: 2 8 257 164
%%EndComments
%%BeginProlog
50 dict begin
/q { gsave } bind def
/Q { grestore } bind def
/cm { 6 array astore concat } bind def
/w { setlinewidth } bind def
/J { setlinecap } bind def
/j { setlinejoin } bind def
/M { setmiterlimit } bind def
/d { setdash } bind def
/m { moveto } bind def
/l { lineto } bind def
/c { curveto } bind def
/h { closepath } bind def
/re { exch dup neg 3 1 roll 5 3 roll moveto 0 rlineto
      0 exch rlineto 0 rlineto closepath } bind def
/S { stroke } bind def
/f { fill } bind def
/f* { eofill } bind def
/n { newpath } bind def
/W { clip } bind def
/W* { eoclip } bind def
/BT { } bind def
/ET { } bind def
/BDC { mark 3 1 roll /BDC pdfmark } bind def
/EMC { mark /EMC pdfmark } bind def
/cairo_store_point { /cairo_point_y exch def /cairo_point_x exch def } def
/Tj { show currentpoint cairo_store_point } bind def
/TJ {
  {
    dup
    type /stringtype eq
    { show } { -0.001 mul 0 cairo_font_matrix dtransform rmoveto } ifelse
  } forall
  currentpoint cairo_store_point
} bind def
/cairo_selectfont { cairo_font_matrix aload pop pop pop 0 0 6 array astore
    cairo_font exch selectfont cairo_point_x cairo_point_y moveto } bind def
/Tf { pop /cairo_font exch def /cairo_font_matrix where
      { pop cairo_selectfont } if } bind def
/Td { matrix translate cairo_font_matrix matrix concatmatrix dup
      /cairo_font_matrix exch def dup 4 get exch 5 get cairo_store_point
      /cairo_font where { pop cairo_selectfont } if } bind def
/Tm { 2 copy 8 2 roll 6 array astore /cairo_font_matrix exch def
      cairo_store_point /cairo_font where { pop cairo_selectfont } if } bind def
/g { setgray } bind def
/rg { setrgbcolor } bind def
/d1 { setcachedevice } bind def
/cairo_data_source {
  CairoDataIndex CairoData length lt
    { CairoData CairoDataIndex get /CairoDataIndex CairoDataIndex 1 add def }
    { () } ifelse
} def
/cairo_flush_ascii85_file { cairo_ascii85_file status { cairo_ascii85_file flushfile } if } def
/cairo_image { image cairo_flush_ascii85_file } def
/cairo_imagemask { imagemask cairo_flush_ascii85_file } def
%%EndProlog
%%BeginSetup
%%EndSetup
%%Page: 1 1
%%BeginPageSetup
%%PageBoundingBox: 2 8 257 164
%%EndPageSetup
q 2 8 255 156 rectclip
1 0 0 -1 0 173 cm q
0 g
1.796436 w
0 J
0 j
[] 0.0 d
3.25 M 3.812 21.613 m 3.812 21.371 l S
6.352 27.527 m 6.352 15.703 l S
8.895 30.262 m 8.895 12.766 l S
11.434 31.406 m 11.434 11.547 l S
13.977 32.145 m 13.977 10.82 l S
16.516 32.527 m 16.516 10.586 l S
19.059 32.738 m 19.059 10.441 l S
21.598 32.809 m 21.598 10.375 l S
24.141 32.836 m 24.141 10.332 l S
26.684 32.879 m 26.684 10.309 l S
29.223 32.898 m 29.223 10.266 l S
31.766 32.953 m 31.766 10.23 l S
34.305 32.977 m 34.305 10.207 l S
36.848 32.996 m 36.848 10.184 l S
39.387 33.02 m 39.387 10.137 l S
41.93 33.078 m 41.93 10.105 l S
44.469 33.121 m 44.469 10.078 l S
47.012 33.129 m 47.012 10.062 l S
49.551 33.141 m 49.551 10.043 l S
52.094 33.16 m 52.094 10.035 l S
54.633 33.16 m 54.633 10.039 l S
57.176 33.148 m 57.176 10.031 l S
59.715 33.156 m 59.715 10.035 l S
62.258 33.152 m 62.258 10.035 l S
64.797 33.152 m 64.797 10.027 l S
67.34 33.168 m 67.34 10.035 l S
69.883 33.148 m 69.883 10.031 l S
72.422 33.156 m 72.422 10.023 l S
74.965 33.172 m 74.965 10.016 l S
77.504 33.184 m 77.504 10.004 l S
80.047 33.191 m 80.047 9.984 l S
82.586 33.203 m 82.586 9.98 l S
85.129 33.219 m 85.129 9.973 l S
87.668 33.215 m 87.668 9.969 l S
90.211 33.199 m 90.211 9.98 l S
92.75 33.203 m 92.75 9.977 l S
95.293 33.219 m 95.293 9.969 l S
97.832 33.234 m 97.832 9.949 l S
100.375 33.23 m 100.375 9.949 l S
102.914 33.227 m 102.914 9.941 l S
105.457 33.23 m 105.457 9.941 l S
107.996 33.266 m 107.996 9.91 l S
110.539 33.293 m 110.539 9.895 l S
113.078 33.281 m 113.078 9.898 l S
115.621 33.277 m 115.621 9.914 l S
118.164 33.273 m 118.164 9.934 l S
120.703 33.262 m 120.703 9.938 l S
123.246 33.238 m 123.246 9.934 l S
125.785 33.25 m 125.785 9.938 l S
128.328 33.25 m 128.328 9.926 l S
130.867 33.238 m 130.867 9.918 l S
133.41 33.25 m 133.41 9.922 l S
135.949 33.25 m 135.949 9.914 l S
138.492 33.262 m 138.492 9.93 l S
141.031 33.27 m 141.031 9.926 l S
143.574 33.262 m 143.574 9.93 l S
146.113 33.258 m 146.113 9.918 l S
148.656 33.23 m 148.656 9.945 l S
151.195 33.242 m 151.195 9.941 l S
153.738 33.242 m 153.738 9.934 l S
156.277 33.23 m 156.277 9.934 l S
158.82 33.234 m 158.82 9.922 l S
161.359 33.234 m 161.359 9.922 l S
163.902 33.277 m 163.902 9.91 l S
166.445 33.273 m 166.445 9.898 l S
168.984 33.316 m 168.984 9.867 l S
171.527 33.312 m 171.527 9.887 l S
174.066 33.309 m 174.066 9.895 l S
176.609 33.262 m 176.609 9.902 l S
179.148 33.266 m 179.148 9.918 l S
181.691 33.223 m 181.691 9.93 l S
184.23 33.211 m 184.23 9.957 l S
186.773 33.23 m 186.773 9.938 l S
189.312 32.84 m 189.312 10.371 l S
191.855 29.754 m 191.855 13.406 l S
194.395 27.113 m 194.395 16.043 l S
196.938 25.586 m 196.938 17.535 l S
199.477 24.488 m 199.477 18.562 l S
202.02 23.652 m 202.02 19.367 l S
204.559 22.93 m 204.559 20.094 l S
207.102 22.379 m 207.102 20.586 l S
209.645 22.133 m 209.645 20.871 l S
212.184 21.863 m 212.184 21.109 l S
214.727 21.723 m 214.727 21.254 l S
217.266 21.656 m 217.266 21.32 l S
219.809 21.59 m 219.809 21.391 l S
222.348 21.59 m 222.348 21.395 l S
224.891 21.59 m 224.891 21.395 l S
227.43 21.59 m 227.43 21.395 l S
229.973 21.59 m 229.973 21.395 l S
232.512 21.59 m 232.512 21.395 l S
235.055 21.59 m 235.055 21.395 l S
237.594 21.59 m 237.594 21.395 l S
240.137 21.59 m 240.137 21.395 l S
242.676 21.59 m 242.676 21.395 l S
245.219 21.59 m 245.219 21.395 l S
247.758 21.59 m 247.758 21.395 l S
250.301 21.59 m 250.301 21.395 l S
252.84 21.59 m 252.84 21.395 l S
255.383 21.59 m 255.383 21.395 l S
255.383 21.59 m 255.383 21.395 l S
3.812 64.922 m 3.812 64.531 l S
6.352 69.52 m 6.352 59.895 l S
8.895 71.676 m 8.895 57.922 l S
11.434 72.535 m 11.434 57.094 l S
13.977 72.836 m 13.977 56.789 l S
16.516 73.023 m 16.516 56.652 l S
19.059 73.141 m 19.059 56.559 l S
21.598 73.215 m 21.598 56.473 l S
24.141 73.266 m 24.141 56.41 l S
26.684 73.285 m 26.684 56.379 l S
29.223 73.32 m 29.223 56.375 l S
31.766 73.367 m 31.766 56.34 l S
34.305 73.363 m 34.305 56.32 l S
36.848 73.398 m 36.848 56.301 l S
39.387 73.418 m 39.387 56.289 l S
41.93 73.461 m 41.93 56.242 l S
44.469 73.488 m 44.469 56.246 l S
47.012 73.477 m 47.012 56.238 l S
49.551 73.488 m 49.551 56.234 l S
52.094 73.488 m 52.094 56.223 l S
54.633 73.492 m 54.633 56.23 l S
57.176 73.492 m 57.176 56.215 l S
59.715 73.52 m 59.715 56.219 l S
62.258 73.559 m 62.258 56.211 l S
64.797 73.535 m 64.797 56.188 l S
67.34 73.52 m 67.34 56.211 l S
69.883 73.535 m 69.883 56.203 l S
72.422 73.508 m 72.422 56.207 l S
74.965 73.52 m 74.965 56.195 l S
77.504 73.543 m 77.504 56.168 l S
80.047 73.551 m 80.047 56.184 l S
82.586 73.559 m 82.586 56.156 l S
85.129 73.559 m 85.129 56.188 l S
87.668 73.555 m 87.668 56.184 l S
90.211 73.559 m 90.211 56.145 l S
92.75 73.582 m 92.75 56.164 l S
95.293 73.594 m 95.293 56.137 l S
97.832 73.582 m 97.832 56.141 l S
100.375 73.617 m 100.375 56.129 l S
102.914 73.656 m 102.914 56.113 l S
105.457 73.641 m 105.457 56.102 l S
107.996 73.652 m 107.996 56.074 l S
110.539 73.641 m 110.539 56.125 l S
113.078 73.625 m 113.078 56.117 l S
115.621 73.695 m 115.621 56.09 l S
118.164 73.645 m 118.164 56.109 l S
120.703 73.645 m 120.703 56.086 l S
123.246 73.648 m 123.246 56.125 l S
125.785 73.598 m 125.785 56.117 l S
128.328 73.656 m 128.328 56.094 l S
130.867 73.684 m 130.867 56.074 l S
133.41 73.684 m 133.41 56.109 l S
135.949 73.68 m 135.949 56.062 l S
138.492 73.656 m 138.492 56.055 l S
141.031 73.707 m 141.031 56.098 l S
143.574 73.648 m 143.574 56.078 l S
146.113 73.695 m 146.113 56.016 l S
148.656 73.621 m 148.656 56.105 l S
151.195 73.641 m 151.195 56.094 l S
153.738 73.676 m 153.738 56.094 l S
156.277 73.652 m 156.277 56.078 l S
158.82 73.641 m 158.82 56.105 l S
161.359 73.664 m 161.359 56.059 l S
163.902 73.66 m 163.902 56.02 l S
166.445 73.703 m 166.445 56.023 l S
168.984 73.742 m 168.984 56.031 l S
171.527 73.684 m 171.527 56.012 l S
174.066 73.695 m 174.066 56.07 l S
176.609 73.77 m 176.609 56.023 l S
179.148 73.645 m 179.148 56.047 l S
181.691 73.637 m 181.691 56.125 l S
184.23 73.637 m 184.23 56.055 l S
186.773 73.648 m 186.773 56.059 l S
189.312 73.18 m 189.312 56.363 l S
191.855 71.254 m 191.855 58.176 l S
194.395 69.641 m 194.395 60.008 l S
196.938 68.371 m 196.938 61.254 l S
199.477 67.25 m 199.477 62.148 l S
202.02 66.508 m 202.02 62.805 l S
204.559 65.918 m 204.559 63.422 l S
207.102 65.551 m 207.102 63.914 l S
209.645 65.195 m 209.645 64.199 l S
212.184 65 m 212.184 64.363 l S
214.727 64.961 m 214.727 64.465 l S
217.266 64.855 m 217.266 64.555 l S
219.809 64.789 m 219.809 64.594 l S
222.348 64.789 m 222.348 64.594 l S
224.891 64.789 m 224.891 64.594 l S
227.43 64.789 m 227.43 64.594 l S
229.973 64.789 m 229.973 64.594 l S
232.512 64.789 m 232.512 64.594 l S
235.055 64.789 m 235.055 64.594 l S
237.594 64.789 m 237.594 64.594 l S
240.137 64.789 m 240.137 64.594 l S
242.676 64.789 m 242.676 64.594 l S
245.219 64.789 m 245.219 64.594 l S
247.758 64.789 m 247.758 64.594 l S
250.301 64.789 m 250.301 64.594 l S
252.84 64.789 m 252.84 64.594 l S
255.383 64.789 m 255.383 64.594 l S
255.383 64.789 m 255.383 64.594 l S
3.812 108.215 m 3.812 107.492 l S
6.352 119.414 m 6.352 96.66 l S
8.895 123.125 m 8.895 92.652 l S
11.434 124.895 m 11.434 90.855 l S
13.977 125.684 m 13.977 90.09 l S
16.516 126.121 m 16.516 89.633 l S
19.059 126.395 m 19.059 89.395 l S
21.598 126.547 m 21.598 89.273 l S
24.141 126.578 m 24.141 89.234 l S
26.684 126.656 m 26.684 89.168 l S
29.223 126.715 m 29.223 89.09 l S
31.766 126.812 m 31.766 89.035 l S
34.305 126.887 m 34.305 88.969 l S
36.848 126.91 m 36.848 88.941 l S
39.387 126.965 m 39.387 88.871 l S
41.93 127.059 m 41.93 88.793 l S
44.469 127.133 m 44.469 88.707 l S
47.012 127.145 m 47.012 88.707 l S
49.551 127.172 m 49.551 88.703 l S
52.094 127.184 m 52.094 88.684 l S
54.633 127.184 m 54.633 88.672 l S
57.176 127.203 m 57.176 88.68 l S
59.715 127.207 m 59.715 88.621 l S
62.258 127.309 m 62.258 88.59 l S
64.797 127.273 m 64.797 88.645 l S
67.34 127.25 m 67.34 88.668 l S
69.883 127.289 m 69.883 88.609 l S
72.422 127.352 m 72.422 88.586 l S
74.965 127.273 m 74.965 88.637 l S
77.504 127.273 m 77.504 88.609 l S
80.047 127.34 m 80.047 88.559 l S
82.586 127.305 m 82.586 88.586 l S
85.129 127.309 m 85.129 88.582 l S
87.668 127.34 m 87.668 88.562 l S
90.211 127.344 m 90.211 88.574 l S
92.75 127.32 m 92.75 88.555 l S
95.293 127.383 m 95.293 88.508 l S
97.832 127.398 m 97.832 88.535 l S
100.375 127.438 m 100.375 88.504 l S
102.914 127.457 m 102.914 88.547 l S
105.457 127.395 m 105.457 88.488 l S
107.996 127.465 m 107.996 88.434 l S
110.539 127.512 m 110.539 88.465 l S
113.078 127.477 m 113.078 88.43 l S
115.621 127.523 m 115.621 88.379 l S
118.164 127.527 m 118.164 88.504 l S
120.703 127.418 m 120.703 88.434 l S
123.246 127.457 m 123.246 88.504 l S
125.785 127.41 m 125.785 88.496 l S
128.328 127.418 m 128.328 88.488 l S
130.867 127.488 m 130.867 88.43 l S
133.41 127.5 m 133.41 88.484 l S
135.949 127.637 m 135.949 88.395 l S
138.492 127.449 m 138.492 88.461 l S
141.031 127.43 m 141.031 88.488 l S
143.574 127.465 m 143.574 88.508 l S
146.113 127.453 m 146.113 88.469 l S
148.656 127.438 m 148.656 88.484 l S
151.195 127.504 m 151.195 88.504 l S
153.738 127.461 m 153.738 88.449 l S
156.277 127.449 m 156.277 88.473 l S
158.82 127.492 m 158.82 88.445 l S
161.359 127.504 m 161.359 88.391 l S
163.902 127.488 m 163.902 88.363 l S
166.445 127.508 m 166.445 88.387 l S
168.984 127.516 m 168.984 88.383 l S
171.527 127.516 m 171.527 88.391 l S
174.066 127.535 m 174.066 88.391 l S
176.609 127.496 m 176.609 88.363 l S
179.148 127.531 m 179.148 88.402 l S
181.691 127.527 m 181.691 88.414 l S
184.23 127.477 m 184.23 88.375 l S
186.773 127.453 m 186.773 88.445 l S
189.312 126.543 m 189.312 89.137 l S
191.855 122.562 m 191.855 93.219 l S
194.395 119.375 m 194.395 96.734 l S
196.938 116.59 m 196.938 99.207 l S
199.477 114.66 m 199.477 101.164 l S
202.02 112.805 m 202.02 102.898 l S
204.559 111.387 m 204.559 104.434 l S
207.102 110.297 m 207.102 105.645 l S
209.645 109.43 m 209.645 106.422 l S
212.184 108.793 m 212.184 106.895 l S
214.727 108.527 m 214.727 107.289 l S
217.266 108.281 m 217.266 107.488 l S
219.809 108.133 m 219.809 107.664 l S
222.348 108.039 m 222.348 107.758 l S
224.891 108.016 m 224.891 107.793 l S
227.43 107.988 m 227.43 107.793 l S
229.973 107.988 m 229.973 107.793 l S
232.512 107.988 m 232.512 107.793 l S
235.055 107.988 m 235.055 107.793 l S
237.594 107.988 m 237.594 107.793 l S
240.137 107.988 m 240.137 107.793 l S
242.676 107.988 m 242.676 107.793 l S
245.219 107.988 m 245.219 107.793 l S
247.758 107.988 m 247.758 107.793 l S
250.301 107.988 m 250.301 107.793 l S
252.84 107.988 m 252.84 107.793 l S
255.383 107.988 m 255.383 107.793 l S
255.383 107.988 m 255.383 107.793 l S
3.812 151.441 m 3.812 150.582 l S
6.352 158.188 m 6.352 143.863 l S
8.895 161.223 m 8.895 141.047 l S
11.434 162.602 m 11.434 139.785 l S
13.977 163.355 m 13.977 139.012 l S
16.516 163.828 m 16.516 138.656 l S
19.059 163.961 m 19.059 138.492 l S
21.598 164.031 m 21.598 138.414 l S
24.141 164.09 m 24.141 138.359 l S
26.684 164.094 m 26.684 138.332 l S
29.223 164.105 m 29.223 138.336 l S
31.766 164.109 m 31.766 138.281 l S
34.305 164.152 m 34.305 138.273 l S
36.848 164.148 m 36.848 138.27 l S
39.387 164.16 m 39.387 138.219 l S
41.93 164.262 m 41.93 138.164 l S
44.469 164.281 m 44.469 138.148 l S
47.012 164.266 m 47.012 138.152 l S
49.551 164.293 m 49.551 138.133 l S
52.094 164.273 m 52.094 138.102 l S
54.633 164.273 m 54.633 138.117 l S
57.176 164.273 m 57.176 138.086 l S
59.715 164.293 m 59.715 138.137 l S
62.258 164.359 m 62.258 138.074 l S
64.797 164.309 m 64.797 138.078 l S
67.34 164.301 m 67.34 138.09 l S
69.883 164.363 m 69.883 138.07 l S
72.422 164.348 m 72.422 138.102 l S
74.965 164.316 m 74.965 138.109 l S
77.504 164.332 m 77.504 138.082 l S
80.047 164.379 m 80.047 138.059 l S
82.586 164.344 m 82.586 138.07 l S
85.129 164.34 m 85.129 138.074 l S
87.668 164.375 m 87.668 138.035 l S
90.211 164.406 m 90.211 138.02 l S
92.75 164.457 m 92.75 138.035 l S
95.293 164.434 m 95.293 137.934 l S
97.832 164.422 m 97.832 137.988 l S
100.375 164.469 m 100.375 137.98 l S
102.914 164.441 m 102.914 137.934 l S
105.457 164.492 m 105.457 137.969 l S
107.996 164.465 m 107.996 137.934 l S
110.539 164.453 m 110.539 137.863 l S
113.078 164.457 m 113.078 137.977 l S
115.621 164.484 m 115.621 137.992 l S
118.164 164.492 m 118.164 137.988 l S
120.703 164.488 m 120.703 137.965 l S
123.246 164.469 m 123.246 138.016 l S
125.785 164.398 m 125.785 138 l S
128.328 164.551 m 128.328 138.008 l S
130.867 164.562 m 130.867 137.926 l S
133.41 164.48 m 133.41 137.918 l S
135.949 164.539 m 135.949 137.902 l S
138.492 164.547 m 138.492 137.902 l S
141.031 164.691 m 141.031 137.832 l S
143.574 164.652 m 143.574 137.875 l S
146.113 164.66 m 146.113 137.75 l S
148.656 164.527 m 148.656 137.98 l S
151.195 164.613 m 151.195 137.98 l S
153.738 164.516 m 153.738 137.945 l S
156.277 164.477 m 156.277 137.91 l S
158.82 164.461 m 158.82 138.004 l S
161.359 164.555 m 161.359 137.969 l S
163.902 164.562 m 163.902 137.746 l S
166.445 164.621 m 166.445 137.766 l S
168.984 164.648 m 168.984 137.832 l S
171.527 164.625 m 171.527 137.703 l S
174.066 164.539 m 174.066 137.875 l S
176.609 164.633 m 176.609 137.922 l S
179.148 164.586 m 179.148 137.852 l S
181.691 164.543 m 181.691 137.996 l S
184.23 164.547 m 184.23 137.938 l S
186.773 164.508 m 186.773 137.98 l S
189.312 163.809 m 189.312 138.453 l S
191.855 160.859 m 191.855 141.52 l S
194.395 158.398 m 194.395 144.047 l S
196.938 156.113 m 196.938 146.09 l S
199.477 154.691 m 199.477 147.57 l S
202.02 153.613 m 202.02 148.621 l S
204.559 152.801 m 204.559 149.324 l S
207.102 152.242 m 207.102 150.051 l S
209.645 151.758 m 209.645 150.414 l S
212.184 151.484 m 212.184 150.66 l S
214.727 151.461 m 214.727 150.793 l S
217.266 151.32 m 217.266 150.895 l S
219.809 151.211 m 219.809 150.965 l S
222.348 151.191 m 222.348 150.992 l S
224.891 151.191 m 224.891 150.992 l S
227.43 151.191 m 227.43 150.992 l S
229.973 151.191 m 229.973 150.992 l S
232.512 151.191 m 232.512 150.992 l S
235.055 151.191 m 235.055 150.992 l S
237.594 151.191 m 237.594 150.992 l S
240.137 151.191 m 240.137 150.992 l S
242.676 151.191 m 242.676 150.992 l S
245.219 151.191 m 245.219 150.992 l S
247.758 151.191 m 247.758 150.992 l S
250.301 151.191 m 250.301 150.992 l S
252.84 151.191 m 252.84 150.992 l S
255.383 151.191 m 255.383 150.992 l S
255.383 151.191 m 255.383 150.992 l S
Q Q
showpage
%%Trailer
end
%%EOF
