%!PS-Adobe-3.0 EPSF-3.0
%%Creator: cairo 1.16.0 (https://cairographics.org)
%%CreationDate: Wed May 15 11:57:24 2024
%%Pages: 1
%%DocumentData: Clean7Bit
%%LanguageLevel: 2
%%Creator: Wolfram Mathematica
%%BoundingBox: 2 2 257 164
%%EndComments
%%BeginProlog
50 dict begin
/q { gsave } bind def
/Q { grestore } bind def
/cm { 6 array astore concat } bind def
/w { setlinewidth } bind def
/J { setlinecap } bind def
/j { setlinejoin } bind def
/M { setmiterlimit } bind def
/d { setdash } bind def
/m { moveto } bind def
/l { lineto } bind def
/c { curveto } bind def
/h { closepath } bind def
/re { exch dup neg 3 1 roll 5 3 roll moveto 0 rlineto
      0 exch rlineto 0 rlineto closepath } bind def
/S { stroke } bind def
/f { fill } bind def
/f* { eofill } bind def
/n { newpath } bind def
/W { clip } bind def
/W* { eoclip } bind def
/BT { } bind def
/ET { } bind def
/BDC { mark 3 1 roll /BDC pdfmark } bind def
/EMC { mark /EMC pdfmark } bind def
/cairo_store_point { /cairo_point_y exch def /cairo_point_x exch def } def
/Tj { show currentpoint cairo_store_point } bind def
/TJ {
  {
    dup
    type /stringtype eq
    { show } { -0.001 mul 0 cairo_font_matrix dtransform rmoveto } ifelse
  } forall
  currentpoint cairo_store_point
} bind def
/cairo_selectfont { cairo_font_matrix aload pop pop pop 0 0 6 array astore
    cairo_font exch selectfont cairo_point_x cairo_point_y moveto } bind def
/Tf { pop /cairo_font exch def /cairo_font_matrix where
      { pop cairo_selectfont } if } bind def
/Td { matrix translate cairo_font_matrix matrix concatmatrix dup
      /cairo_font_matrix exch def dup 4 get exch 5 get cairo_store_point
      /cairo_font where { pop cairo_selectfont } if } bind def
/Tm { 2 copy 8 2 roll 6 array astore /cairo_font_matrix exch def
      cairo_store_point /cairo_font where { pop cairo_selectfont } if } bind def
/g { setgray } bind def
/rg { setrgbcolor } bind def
/d1 { setcachedevice } bind def
/cairo_data_source {
  CairoDataIndex CairoData length lt
    { CairoData CairoDataIndex get /CairoDataIndex CairoDataIndex 1 add def }
    { () } ifelse
} def
/cairo_flush_ascii85_file { cairo_ascii85_file status { cairo_ascii85_file flushfile } if } def
/cairo_image { image cairo_flush_ascii85_file } def
/cairo_imagemask { imagemask cairo_flush_ascii85_file } def
%%EndProlog
%%BeginSetup
%%EndSetup
%%Page: 1 1
%%BeginPageSetup
%%PageBoundingBox: 2 2 257 164
%%EndPageSetup
q 2 2 255 162 rectclip
1 0 0 -1 0 173 cm q
0 g
1.796436 w
0 J
0 j
[] 0.0 d
3.25 M 3.812 22.332 m 3.812 21.164 l S
6.352 26.82 m 6.352 16.422 l S
8.895 31.504 m 8.895 11.91 l S
11.434 32.812 m 11.434 10.695 l S
13.977 33.289 m 13.977 10.348 l S
16.52 33.523 m 16.52 10.145 l S
19.059 33.684 m 19.059 9.969 l S
21.602 33.77 m 21.602 9.922 l S
24.141 33.871 m 24.141 9.809 l S
26.684 33.969 m 26.684 9.727 l S
29.223 34.02 m 29.223 9.668 l S
31.766 34.098 m 31.766 9.656 l S
34.305 34.145 m 34.305 9.605 l S
36.848 34.258 m 36.848 9.543 l S
39.387 34.375 m 39.387 9.406 l S
41.93 34.375 m 41.93 9.395 l S
44.469 34.285 m 44.469 9.453 l S
47.012 34.266 m 47.012 9.492 l S
49.555 34.25 m 49.555 9.504 l S
52.094 34.242 m 52.094 9.539 l S
54.637 34.188 m 54.637 9.562 l S
57.176 34.168 m 57.176 9.594 l S
59.719 34.234 m 59.719 9.559 l S
62.258 34.254 m 62.258 9.512 l S
64.801 34.262 m 64.801 9.508 l S
67.34 34.332 m 67.34 9.453 l S
69.883 34.367 m 69.883 9.441 l S
72.422 34.48 m 72.422 9.34 l S
74.965 34.5 m 74.965 9.336 l S
77.508 34.512 m 77.508 9.316 l S
80.047 34.508 m 80.047 9.316 l S
82.59 34.48 m 82.59 9.332 l S
85.129 34.457 m 85.129 9.352 l S
87.672 34.445 m 87.672 9.355 l S
90.211 34.43 m 90.211 9.395 l S
92.754 34.477 m 92.754 9.352 l S
95.293 34.473 m 95.293 9.32 l S
97.836 34.438 m 97.836 9.375 l S
100.375 34.438 m 100.375 9.363 l S
102.918 34.422 m 102.918 9.383 l S
105.457 34.449 m 105.457 9.355 l S
108 34.461 m 108 9.348 l S
110.543 34.48 m 110.543 9.352 l S
113.082 34.488 m 113.082 9.34 l S
115.625 34.469 m 115.625 9.336 l S
118.164 34.473 m 118.164 9.309 l S
120.707 34.527 m 120.707 9.305 l S
123.246 34.566 m 123.246 9.27 l S
125.789 34.594 m 125.789 9.238 l S
128.328 34.645 m 128.328 9.227 l S
130.871 34.594 m 130.871 9.234 l S
133.41 34.57 m 133.41 9.254 l S
135.953 34.594 m 135.953 9.254 l S
138.492 34.562 m 138.492 9.254 l S
141.035 34.555 m 141.035 9.301 l S
143.578 34.555 m 143.578 9.277 l S
146.117 34.559 m 146.117 9.273 l S
148.66 34.539 m 148.66 9.266 l S
151.199 34.547 m 151.199 9.27 l S
153.742 34.523 m 153.742 9.277 l S
156.281 34.516 m 156.281 9.32 l S
158.824 34.496 m 158.824 9.32 l S
161.363 34.484 m 161.363 9.34 l S
163.906 34.488 m 163.906 9.32 l S
166.445 34.547 m 166.445 9.305 l S
168.988 34.586 m 168.988 9.273 l S
171.531 34.574 m 171.531 9.281 l S
174.07 34.551 m 174.07 9.285 l S
176.613 34.582 m 176.613 9.285 l S
179.152 34.535 m 179.152 9.301 l S
181.695 34.512 m 181.695 9.316 l S
184.234 34.508 m 184.234 9.324 l S
186.777 34.523 m 186.777 9.305 l S
189.316 34.551 m 189.316 9.289 l S
191.859 34.562 m 191.859 9.281 l S
194.398 34.469 m 194.398 9.414 l S
196.941 32.219 m 196.941 11.559 l S
199.48 29.777 m 199.48 13.641 l S
202.023 28.59 m 202.023 14.801 l S
204.566 27.07 m 204.566 16.312 l S
207.105 25.777 m 207.105 17.613 l S
209.648 24.852 m 209.648 18.547 l S
212.188 24.105 m 212.188 19.281 l S
214.73 23.516 m 214.73 19.859 l S
217.27 23.105 m 217.27 20.273 l S
219.812 22.77 m 219.812 20.645 l S
222.352 22.496 m 222.352 20.938 l S
224.895 22.273 m 224.895 21.152 l S
227.434 22.09 m 227.434 21.32 l S
229.977 21.973 m 229.977 21.438 l S
232.52 21.898 m 232.52 21.508 l S
235.059 21.836 m 235.059 21.57 l S
237.602 21.801 m 237.602 21.605 l S
240.141 21.801 m 240.141 21.605 l S
242.684 21.801 m 242.684 21.605 l S
245.223 21.801 m 245.223 21.605 l S
247.766 21.801 m 247.766 21.605 l S
250.305 21.801 m 250.305 21.605 l S
252.848 21.801 m 252.848 21.605 l S
255.387 21.801 m 255.387 21.605 l S
255.387 21.801 m 255.387 21.605 l S
3.812 65.301 m 3.812 64.379 l S
6.352 69.41 m 6.352 60.191 l S
8.895 73.531 m 8.895 55.953 l S
11.434 75.043 m 11.434 54.629 l S
13.977 75.629 m 13.977 54.031 l S
16.52 75.918 m 16.52 53.605 l S
19.059 76.18 m 19.059 53.363 l S
21.602 76.316 m 21.602 53.203 l S
24.141 76.406 m 24.141 53.059 l S
26.684 76.52 m 26.684 52.949 l S
29.223 76.613 m 29.223 52.859 l S
31.766 76.688 m 31.766 52.805 l S
34.305 76.777 m 34.305 52.773 l S
36.848 76.77 m 36.848 52.668 l S
39.387 76.887 m 39.387 52.547 l S
41.93 77.004 m 41.93 52.496 l S
44.469 77.027 m 44.469 52.504 l S
47.012 77.008 m 47.012 52.535 l S
49.555 76.961 m 49.555 52.512 l S
52.094 76.945 m 52.094 52.555 l S
54.637 76.898 m 54.637 52.59 l S
57.176 76.867 m 57.176 52.59 l S
59.719 76.883 m 59.719 52.645 l S
62.258 76.871 m 62.258 52.559 l S
64.801 76.852 m 64.801 52.594 l S
67.34 76.879 m 67.34 52.578 l S
69.883 76.941 m 69.883 52.488 l S
72.422 76.984 m 72.422 52.395 l S
74.965 77.055 m 74.965 52.379 l S
77.508 77.047 m 77.508 52.344 l S
80.047 77.066 m 80.047 52.32 l S
82.59 77.074 m 82.59 52.367 l S
85.129 77.055 m 85.129 52.355 l S
87.672 77.035 m 87.672 52.406 l S
90.211 77.008 m 90.211 52.398 l S
92.754 77.02 m 92.754 52.395 l S
95.293 76.969 m 95.293 52.379 l S
97.836 77.023 m 97.836 52.391 l S
100.375 77.02 m 100.375 52.426 l S
102.918 76.98 m 102.918 52.395 l S
105.457 76.945 m 105.457 52.418 l S
108 76.945 m 108 52.418 l S
110.543 76.973 m 110.543 52.383 l S
113.082 76.973 m 113.082 52.398 l S
115.625 77.012 m 115.625 52.395 l S
118.164 76.961 m 118.164 52.375 l S
120.707 76.938 m 120.707 52.406 l S
123.246 76.977 m 123.246 52.32 l S
125.789 77.074 m 125.789 52.309 l S
128.328 77.066 m 128.328 52.297 l S
130.871 77.07 m 130.871 52.258 l S
133.41 77.082 m 133.41 52.297 l S
135.953 77.094 m 135.953 52.312 l S
138.492 77.078 m 138.492 52.316 l S
141.035 76.969 m 141.035 52.375 l S
143.578 76.996 m 143.578 52.371 l S
146.117 77 m 146.117 52.352 l S
148.66 77.02 m 148.66 52.332 l S
151.199 76.992 m 151.199 52.371 l S
153.742 76.977 m 153.742 52.375 l S
156.281 76.992 m 156.281 52.391 l S
158.824 76.961 m 158.824 52.352 l S
161.363 76.938 m 161.363 52.379 l S
163.906 76.926 m 163.906 52.449 l S
166.445 76.895 m 166.445 52.422 l S
168.988 76.945 m 168.988 52.422 l S
171.531 76.945 m 171.531 52.348 l S
174.07 77.016 m 174.07 52.371 l S
176.613 76.93 m 176.613 52.352 l S
179.152 76.973 m 179.152 52.406 l S
181.695 76.918 m 181.695 52.391 l S
184.234 76.961 m 184.234 52.391 l S
186.777 76.918 m 186.777 52.371 l S
189.316 76.914 m 189.316 52.371 l S
191.859 76.977 m 191.859 52.387 l S
194.398 76.891 m 194.398 52.465 l S
196.941 75.543 m 196.941 54.105 l S
199.48 72.469 m 199.48 57.242 l S
202.023 70.605 m 202.023 59.137 l S
204.566 69.473 m 204.566 60.355 l S
207.105 68.5 m 207.105 61.395 l S
209.648 67.68 m 209.648 62.266 l S
212.188 66.988 m 212.188 62.836 l S
214.73 66.531 m 214.73 63.309 l S
217.27 66.125 m 217.27 63.734 l S
219.812 65.844 m 219.812 64.016 l S
222.352 65.578 m 222.352 64.297 l S
224.895 65.359 m 224.895 64.496 l S
227.434 65.23 m 227.434 64.598 l S
229.977 65.129 m 229.977 64.656 l S
232.52 65.066 m 232.52 64.754 l S
235.059 65.004 m 235.059 64.789 l S
237.602 65.004 m 237.602 64.805 l S
240.141 65.004 m 240.141 64.805 l S
242.684 65.004 m 242.684 64.805 l S
245.223 65.004 m 245.223 64.805 l S
247.766 65.004 m 247.766 64.805 l S
250.305 65.004 m 250.305 64.805 l S
252.848 65.004 m 252.848 64.805 l S
255.387 65.004 m 255.387 64.805 l S
255.387 65.004 m 255.387 64.805 l S
3.812 108.703 m 3.812 107.371 l S
6.352 114.219 m 6.352 101.703 l S
8.895 119.332 m 8.895 96.43 l S
11.434 120.906 m 11.434 94.926 l S
13.977 121.375 m 13.977 94.305 l S
16.52 121.723 m 16.52 93.91 l S
19.059 121.949 m 19.059 93.711 l S
21.602 122.043 m 21.602 93.578 l S
24.141 122.199 m 24.141 93.422 l S
26.684 122.312 m 26.684 93.297 l S
29.223 122.406 m 29.223 93.215 l S
31.766 122.465 m 31.766 93.203 l S
34.305 122.496 m 34.305 93.129 l S
36.848 122.598 m 36.848 92.98 l S
39.387 122.746 m 39.387 92.859 l S
41.93 122.797 m 41.93 92.836 l S
44.469 122.734 m 44.469 92.887 l S
47.012 122.707 m 47.012 92.922 l S
49.555 122.676 m 49.555 92.941 l S
52.094 122.664 m 52.094 92.938 l S
54.637 122.625 m 54.637 92.969 l S
57.176 122.617 m 57.176 93.035 l S
59.719 122.633 m 59.719 92.984 l S
62.258 122.676 m 62.258 92.961 l S
64.801 122.688 m 64.801 92.926 l S
67.34 122.746 m 67.34 92.898 l S
69.883 122.762 m 69.883 92.824 l S
72.422 122.891 m 72.422 92.73 l S
74.965 122.914 m 74.965 92.691 l S
77.508 122.934 m 77.508 92.676 l S
80.047 122.941 m 80.047 92.68 l S
82.59 122.918 m 82.59 92.676 l S
85.129 122.902 m 85.129 92.738 l S
87.672 122.855 m 87.672 92.738 l S
90.211 122.848 m 90.211 92.758 l S
92.754 122.867 m 92.754 92.707 l S
95.293 122.914 m 95.293 92.699 l S
97.836 122.883 m 97.836 92.734 l S
100.375 122.848 m 100.375 92.77 l S
102.918 122.848 m 102.918 92.789 l S
105.457 122.871 m 105.457 92.75 l S
108 122.875 m 108 92.695 l S
110.543 122.898 m 110.543 92.73 l S
113.082 122.883 m 113.082 92.699 l S
115.625 122.926 m 115.625 92.711 l S
118.164 122.91 m 118.164 92.719 l S
120.707 122.941 m 120.707 92.664 l S
123.246 122.988 m 123.246 92.613 l S
125.789 123.016 m 125.789 92.586 l S
128.328 123.047 m 128.328 92.555 l S
130.871 123.012 m 130.871 92.582 l S
133.41 123.016 m 133.41 92.598 l S
135.953 123.023 m 135.953 92.559 l S
138.492 123.012 m 138.492 92.602 l S
141.035 122.945 m 141.035 92.652 l S
143.578 122.969 m 143.578 92.613 l S
146.117 122.961 m 146.117 92.648 l S
148.66 122.969 m 148.66 92.629 l S
151.199 122.992 m 151.199 92.621 l S
153.742 122.965 m 153.742 92.66 l S
156.281 122.957 m 156.281 92.684 l S
158.824 122.934 m 158.824 92.664 l S
161.363 122.898 m 161.363 92.695 l S
163.906 122.883 m 163.906 92.719 l S
166.445 122.941 m 166.445 92.668 l S
168.988 122.973 m 168.988 92.629 l S
171.531 122.953 m 171.531 92.629 l S
174.07 122.957 m 174.07 92.613 l S
176.613 122.961 m 176.613 92.621 l S
179.152 122.938 m 179.152 92.668 l S
181.695 122.91 m 181.695 92.676 l S
184.234 122.91 m 184.234 92.699 l S
186.777 122.914 m 186.777 92.648 l S
189.316 122.949 m 189.316 92.648 l S
191.859 122.941 m 191.859 92.633 l S
194.398 122.785 m 194.398 92.828 l S
196.941 120.629 m 196.941 94.98 l S
199.48 118.414 m 199.48 97.453 l S
202.023 116.84 m 202.023 99.363 l S
204.566 114.992 m 204.566 101.289 l S
207.105 113.543 m 207.105 102.777 l S
209.648 112.383 m 209.648 103.969 l S
212.188 111.406 m 212.188 104.777 l S
214.73 110.719 m 214.73 105.586 l S
217.27 110.113 m 217.27 106.18 l S
219.812 109.598 m 219.812 106.656 l S
222.352 109.242 m 222.352 107.082 l S
224.895 108.906 m 224.895 107.367 l S
227.434 108.66 m 227.434 107.59 l S
229.977 108.488 m 229.977 107.73 l S
232.52 108.359 m 232.52 107.832 l S
235.059 108.289 m 235.059 107.93 l S
237.602 108.238 m 237.602 107.98 l S
240.141 108.203 m 240.141 108.008 l S
242.684 108.203 m 242.684 108.008 l S
245.223 108.203 m 245.223 108.008 l S
247.766 108.203 m 247.766 108.008 l S
250.305 108.203 m 250.305 108.008 l S
252.848 108.203 m 252.848 108.008 l S
255.387 108.203 m 255.387 108.008 l S
255.387 108.203 m 255.387 108.008 l S
3.812 152.008 m 3.812 150.43 l S
6.352 158.223 m 6.352 143.969 l S
8.895 164.379 m 8.895 137.66 l S
11.434 166.926 m 11.434 135.418 l S
13.977 168.156 m 13.977 134.148 l S
16.52 168.816 m 16.52 133.602 l S
19.059 169.211 m 19.059 133.238 l S
21.602 169.387 m 21.602 133.004 l S
24.141 169.645 m 24.141 132.77 l S
26.684 169.766 m 26.684 132.582 l S
29.223 169.988 m 29.223 132.465 l S
31.766 170.148 m 31.766 132.25 l S
34.305 170.137 m 34.305 132.27 l S
36.848 170.23 m 36.848 132.125 l S
39.387 170.41 m 39.387 131.918 l S
41.93 170.555 m 41.93 131.824 l S
44.469 170.547 m 44.469 131.895 l S
47.012 170.531 m 47.012 131.906 l S
49.555 170.457 m 49.555 131.898 l S
52.094 170.418 m 52.094 131.969 l S
54.637 170.34 m 54.637 132.047 l S
57.176 170.301 m 57.176 132.113 l S
59.719 170.297 m 59.719 132.137 l S
62.258 170.297 m 62.258 132.051 l S
64.801 170.348 m 64.801 132.047 l S
67.34 170.395 m 67.34 132.012 l S
69.883 170.445 m 69.883 131.922 l S
72.422 170.559 m 72.422 131.832 l S
74.965 170.664 m 74.965 131.77 l S
77.508 170.68 m 77.508 131.703 l S
80.047 170.695 m 80.047 131.703 l S
82.59 170.719 m 82.59 131.637 l S
85.129 170.699 m 85.129 131.723 l S
87.672 170.648 m 87.672 131.742 l S
90.211 170.586 m 90.211 131.766 l S
92.754 170.605 m 92.754 131.754 l S
95.293 170.68 m 95.293 131.73 l S
97.836 170.66 m 97.836 131.797 l S
100.375 170.652 m 100.375 131.82 l S
102.918 170.598 m 102.918 131.793 l S
105.457 170.602 m 105.457 131.812 l S
108 170.617 m 108 131.758 l S
110.543 170.602 m 110.543 131.82 l S
113.082 170.594 m 113.082 131.777 l S
115.625 170.648 m 115.625 131.793 l S
118.164 170.617 m 118.164 131.785 l S
120.707 170.637 m 120.707 131.746 l S
123.246 170.707 m 123.246 131.68 l S
125.789 170.789 m 125.789 131.609 l S
128.328 170.836 m 128.328 131.562 l S
130.871 170.801 m 130.871 131.621 l S
133.41 170.809 m 133.41 131.594 l S
135.953 170.82 m 135.953 131.613 l S
138.492 170.777 m 138.492 131.574 l S
141.035 170.742 m 141.035 131.691 l S
143.578 170.688 m 143.578 131.691 l S
146.117 170.699 m 146.117 131.691 l S
148.66 170.746 m 148.66 131.707 l S
151.199 170.676 m 151.199 131.707 l S
153.742 170.676 m 153.742 131.719 l S
156.281 170.676 m 156.281 131.762 l S
158.824 170.645 m 158.824 131.766 l S
161.363 170.621 m 161.363 131.801 l S
163.906 170.594 m 163.906 131.812 l S
166.445 170.605 m 166.445 131.77 l S
168.988 170.703 m 168.988 131.738 l S
171.531 170.66 m 171.531 131.715 l S
174.07 170.703 m 174.07 131.73 l S
176.613 170.645 m 176.613 131.715 l S
179.152 170.641 m 179.152 131.75 l S
181.695 170.59 m 181.695 131.773 l S
184.234 170.59 m 184.234 131.809 l S
186.777 170.582 m 186.777 131.781 l S
189.316 170.641 m 189.316 131.762 l S
191.859 170.59 m 191.859 131.738 l S
194.398 170.527 m 194.398 131.879 l S
196.941 168.023 m 196.941 134.562 l S
199.48 163.258 m 199.48 139.219 l S
202.023 160.102 m 202.023 142.133 l S
204.566 158.395 m 204.566 144.16 l S
207.105 157.113 m 207.105 145.586 l S
209.648 155.953 m 209.648 146.883 l S
212.188 154.91 m 212.188 147.824 l S
214.73 154.141 m 214.73 148.637 l S
217.27 153.449 m 217.27 149.227 l S
219.812 152.906 m 219.812 149.668 l S
222.352 152.531 m 222.352 150.152 l S
224.895 152.227 m 224.895 150.488 l S
227.434 151.945 m 227.434 150.711 l S
229.977 151.766 m 229.977 150.883 l S
232.52 151.621 m 232.52 151.004 l S
235.059 151.508 m 235.059 151.043 l S
237.602 151.453 m 237.602 151.172 l S
240.141 151.402 m 240.141 151.199 l S
242.684 151.402 m 242.684 151.207 l S
245.223 151.402 m 245.223 151.207 l S
247.766 151.402 m 247.766 151.207 l S
250.305 151.402 m 250.305 151.207 l S
252.848 151.402 m 252.848 151.207 l S
255.387 151.402 m 255.387 151.207 l S
255.387 151.402 m 255.387 151.207 l S
Q Q
showpage
%%Trailer
end
%%EOF
