%!PS-Adobe-3.0 EPSF-3.0
%%Creator: cairo 1.16.0 (https://cairographics.org)
%%CreationDate: Wed May 15 11:57:24 2024
%%Pages: 1
%%DocumentData: Clean7Bit
%%LanguageLevel: 2
%%Creator: Wolfram Mathematica
%%BoundingBox: 2 6 257 165
%%EndComments
%%BeginProlog
50 dict begin
/q { gsave } bind def
/Q { grestore } bind def
/cm { 6 array astore concat } bind def
/w { setlinewidth } bind def
/J { setlinecap } bind def
/j { setlinejoin } bind def
/M { setmiterlimit } bind def
/d { setdash } bind def
/m { moveto } bind def
/l { lineto } bind def
/c { curveto } bind def
/h { closepath } bind def
/re { exch dup neg 3 1 roll 5 3 roll moveto 0 rlineto
      0 exch rlineto 0 rlineto closepath } bind def
/S { stroke } bind def
/f { fill } bind def
/f* { eofill } bind def
/n { newpath } bind def
/W { clip } bind def
/W* { eoclip } bind def
/BT { } bind def
/ET { } bind def
/BDC { mark 3 1 roll /BDC pdfmark } bind def
/EMC { mark /EMC pdfmark } bind def
/cairo_store_point { /cairo_point_y exch def /cairo_point_x exch def } def
/Tj { show currentpoint cairo_store_point } bind def
/TJ {
  {
    dup
    type /stringtype eq
    { show } { -0.001 mul 0 cairo_font_matrix dtransform rmoveto } ifelse
  } forall
  currentpoint cairo_store_point
} bind def
/cairo_selectfont { cairo_font_matrix aload pop pop pop 0 0 6 array astore
    cairo_font exch selectfont cairo_point_x cairo_point_y moveto } bind def
/Tf { pop /cairo_font exch def /cairo_font_matrix where
      { pop cairo_selectfont } if } bind def
/Td { matrix translate cairo_font_matrix matrix concatmatrix dup
      /cairo_font_matrix exch def dup 4 get exch 5 get cairo_store_point
      /cairo_font where { pop cairo_selectfont } if } bind def
/Tm { 2 copy 8 2 roll 6 array astore /cairo_font_matrix exch def
      cairo_store_point /cairo_font where { pop cairo_selectfont } if } bind def
/g { setgray } bind def
/rg { setrgbcolor } bind def
/d1 { setcachedevice } bind def
/cairo_data_source {
  CairoDataIndex CairoData length lt
    { CairoData CairoDataIndex get /CairoDataIndex CairoDataIndex 1 add def }
    { () } ifelse
} def
/cairo_flush_ascii85_file { cairo_ascii85_file status { cairo_ascii85_file flushfile } if } def
/cairo_image { image cairo_flush_ascii85_file } def
/cairo_imagemask { imagemask cairo_flush_ascii85_file } def
%%EndProlog
%%BeginSetup
%%EndSetup
%%Page: 1 1
%%BeginPageSetup
%%PageBoundingBox: 2 6 257 165
%%EndPageSetup
q 2 6 255 159 rectclip
1 0 0 -1 0 173 cm q
0 g
1.796436 w
0 J
0 j
[] 0.0 d
3.25 M 3.812 21.68 m 3.812 21.484 l S
6.352 25.098 m 6.352 17.914 l S
8.895 29.328 m 8.895 13.664 l S
11.434 31.512 m 11.434 11.812 l S
13.977 32.289 m 13.977 10.715 l S
16.52 32.82 m 16.52 10.039 l S
19.059 33.043 m 19.059 9.918 l S
21.602 32.75 m 21.602 10.027 l S
24.141 32.5 m 24.141 10.66 l S
26.684 32.309 m 26.684 10.816 l S
29.223 32.273 m 29.223 10.828 l S
31.766 32.051 m 31.766 10.875 l S
34.305 31.98 m 34.305 10.867 l S
36.848 31.836 m 36.848 11.109 l S
39.387 31.684 m 39.387 11.082 l S
41.93 31.879 m 41.93 10.969 l S
44.469 32.254 m 44.469 10.711 l S
47.012 32.555 m 47.012 10.43 l S
49.555 33.031 m 49.555 9.871 l S
52.094 33.492 m 52.094 9.246 l S
54.637 34.695 m 54.637 8.652 l S
57.176 34.73 m 57.176 8.383 l S
59.719 34.461 m 59.719 8.551 l S
62.258 34.301 m 62.258 8.824 l S
64.801 33.77 m 64.801 9.109 l S
67.34 33.652 m 67.34 9.516 l S
69.883 33.426 m 69.883 9.832 l S
72.422 33.086 m 72.422 10.113 l S
74.965 32.848 m 74.965 10.219 l S
77.508 32.641 m 77.508 10.434 l S
80.047 32.547 m 80.047 10.57 l S
82.59 32.336 m 82.59 10.699 l S
85.129 32.133 m 85.129 11 l S
87.672 32.066 m 87.672 11.074 l S
90.211 32.047 m 90.211 11.25 l S
92.754 31.859 m 92.754 11.301 l S
95.293 31.984 m 95.293 11.289 l S
97.836 32.742 m 97.836 10.977 l S
100.375 33.496 m 100.375 10.031 l S
102.918 33.758 m 102.918 9.371 l S
105.457 33.488 m 105.457 10.23 l S
108 32.453 m 108 10.988 l S
110.543 31.992 m 110.543 11.312 l S
113.082 31.727 m 113.082 11.551 l S
115.625 31.523 m 115.625 11.633 l S
118.164 31.41 m 118.164 11.691 l S
120.707 31.359 m 120.707 11.715 l S
123.246 31.441 m 123.246 11.66 l S
125.789 31.57 m 125.789 11.527 l S
128.328 31.758 m 128.328 11.379 l S
130.871 32.031 m 130.871 11.152 l S
133.41 31.863 m 133.41 11.199 l S
135.953 31.793 m 135.953 11.496 l S
138.492 31.539 m 138.492 11.805 l S
141.035 31.219 m 141.035 12.055 l S
143.578 31.656 m 143.578 11.812 l S
146.117 32.25 m 146.117 10.977 l S
148.66 32.434 m 148.66 10.73 l S
151.199 32.141 m 151.199 11.16 l S
153.742 31.742 m 153.742 11.527 l S
156.281 31.465 m 156.281 11.746 l S
158.824 31.215 m 158.824 11.77 l S
161.363 31.031 m 161.363 12.047 l S
163.906 31.078 m 163.906 12.152 l S
166.445 31.844 m 166.445 11.68 l S
168.988 32.633 m 168.988 10.457 l S
171.531 33.809 m 171.531 9.613 l S
174.07 33.723 m 174.07 9.137 l S
176.613 33.145 m 176.613 10.465 l S
179.152 31.562 m 179.152 11.445 l S
181.695 30.547 m 181.695 12.328 l S
184.234 29.781 m 184.234 13.199 l S
186.777 29.52 m 186.777 13.453 l S
189.316 29.344 m 189.316 13.625 l S
191.859 29.18 m 191.859 13.832 l S
194.398 29.043 m 194.398 14.066 l S
196.941 28.996 m 196.941 14.234 l S
199.48 28.957 m 199.48 14.359 l S
202.023 28.949 m 202.023 14.398 l S
204.566 28.93 m 204.566 14.391 l S
207.105 28.734 m 207.105 14.473 l S
209.648 27.824 m 209.648 15.215 l S
212.188 26.281 m 212.188 16.895 l S
214.73 25.184 m 214.73 18.082 l S
217.27 24.027 m 217.27 19.027 l S
219.812 23.434 m 219.812 19.875 l S
222.352 22.73 m 222.352 20.57 l S
224.895 22.242 m 224.895 20.879 l S
227.434 22.035 m 227.434 21.18 l S
229.977 21.781 m 229.977 21.371 l S
232.52 21.68 m 232.52 21.484 l S
235.059 21.68 m 235.059 21.484 l S
237.602 21.68 m 237.602 21.484 l S
240.141 21.68 m 240.141 21.484 l S
242.684 21.68 m 242.684 21.484 l S
245.223 21.68 m 245.223 21.484 l S
247.766 21.68 m 247.766 21.484 l S
250.305 21.68 m 250.305 21.484 l S
252.848 21.68 m 252.848 21.484 l S
255.387 21.68 m 255.387 21.484 l S
255.387 21.68 m 255.387 21.484 l S
3.812 64.883 m 3.812 64.684 l S
6.352 67.637 m 6.352 61.906 l S
8.895 71.371 m 8.895 58.402 l S
11.434 73.145 m 11.434 56.645 l S
13.977 73.91 m 13.977 55.613 l S
16.52 74.445 m 16.52 55.188 l S
19.059 74.578 m 19.059 55.238 l S
21.602 74.285 m 21.602 55.281 l S
24.141 74.086 m 24.141 55.457 l S
26.684 74.027 m 26.684 55.551 l S
29.223 74.18 m 29.223 55.5 l S
31.766 74.035 m 31.766 55.617 l S
34.305 74.004 m 34.305 55.402 l S
36.848 74.078 m 36.848 55.504 l S
39.387 74.09 m 39.387 55.523 l S
41.93 74.312 m 41.93 55.43 l S
44.469 74.332 m 44.469 55.09 l S
47.012 74.578 m 47.012 54.949 l S
49.555 74.852 m 49.555 54.531 l S
52.094 75.262 m 52.094 54.375 l S
54.637 75.453 m 54.637 54.336 l S
57.176 74.988 m 57.176 54.621 l S
59.719 74.871 m 59.719 54.941 l S
62.258 74.688 m 62.258 55.07 l S
64.801 74.34 m 64.801 55.348 l S
67.34 74.184 m 67.34 55.52 l S
69.883 74 m 69.883 55.711 l S
72.422 73.859 m 72.422 55.859 l S
74.965 73.781 m 74.965 55.867 l S
77.508 73.605 m 77.508 56.008 l S
80.047 73.598 m 80.047 56.133 l S
82.59 73.492 m 82.59 56.176 l S
85.129 73.355 m 85.129 56.391 l S
87.672 73.293 m 87.672 56.449 l S
90.211 73.227 m 90.211 56.516 l S
92.754 73.184 m 92.754 56.547 l S
95.293 73.188 m 95.293 56.574 l S
97.836 73.562 m 97.836 56.285 l S
100.375 74.043 m 100.375 55.93 l S
102.918 73.836 m 102.918 55.617 l S
105.457 73.277 m 105.457 56.262 l S
108 73.191 m 108 56.629 l S
110.543 72.93 m 110.543 56.84 l S
113.082 72.809 m 113.082 56.941 l S
115.625 72.727 m 115.625 57.012 l S
118.164 72.652 m 118.164 57.062 l S
120.707 72.648 m 120.707 57.082 l S
123.246 72.715 m 123.246 57.012 l S
125.789 72.797 m 125.789 56.949 l S
128.328 72.891 m 128.328 56.812 l S
130.871 72.977 m 130.871 56.656 l S
133.41 72.836 m 133.41 56.719 l S
135.953 72.645 m 135.953 56.961 l S
138.492 72.457 m 138.492 57.129 l S
141.035 72.363 m 141.035 57.297 l S
143.578 72.742 m 143.578 57.191 l S
146.117 73.121 m 146.117 56.738 l S
148.66 73.078 m 148.66 56.699 l S
151.199 72.91 m 151.199 56.957 l S
153.742 72.555 m 153.742 57.164 l S
156.281 72.5 m 156.281 57.348 l S
158.824 72.27 m 158.824 57.293 l S
161.363 72.188 m 161.363 57.539 l S
163.906 72.141 m 163.906 57.539 l S
166.445 72.574 m 166.445 57.309 l S
168.988 73.172 m 168.988 56.738 l S
171.531 73.348 m 171.531 56.18 l S
174.07 73.398 m 174.07 56.195 l S
176.613 73.004 m 176.613 56.945 l S
179.152 72.18 m 179.152 57.695 l S
181.695 71.598 m 181.695 58.035 l S
184.234 71.293 m 184.234 58.406 l S
186.777 71.145 m 186.777 58.574 l S
189.316 70.957 m 189.316 58.719 l S
191.859 70.863 m 191.859 58.816 l S
194.398 70.691 m 194.398 58.977 l S
196.941 70.617 m 196.941 59 l S
199.48 70.562 m 199.48 59.027 l S
202.023 70.551 m 202.023 59.109 l S
204.566 70.566 m 204.566 59.094 l S
207.105 70.477 m 207.105 59.078 l S
209.648 69.887 m 209.648 59.512 l S
212.188 68.828 m 212.188 60.781 l S
214.73 67.809 m 214.73 62.008 l S
217.27 66.75 m 217.27 62.703 l S
219.812 66.246 m 219.812 63.527 l S
222.352 65.602 m 222.352 63.984 l S
224.895 65.301 m 224.895 64.285 l S
227.434 65.113 m 227.434 64.48 l S
229.977 64.934 m 229.977 64.594 l S
232.52 64.883 m 232.52 64.684 l S
235.059 64.883 m 235.059 64.684 l S
237.602 64.883 m 237.602 64.684 l S
240.141 64.883 m 240.141 64.684 l S
242.684 64.883 m 242.684 64.684 l S
245.223 64.883 m 245.223 64.684 l S
247.766 64.883 m 247.766 64.684 l S
250.305 64.883 m 250.305 64.684 l S
252.848 64.883 m 252.848 64.684 l S
255.387 64.883 m 255.387 64.684 l S
255.387 64.883 m 255.387 64.684 l S
3.812 108.148 m 3.812 107.879 l S
6.352 112.309 m 6.352 103.621 l S
8.895 119.145 m 8.895 97.074 l S
11.434 122.41 m 11.434 94.043 l S
13.977 123.984 m 13.977 92.203 l S
16.52 125.223 m 16.52 90.961 l S
19.059 125.195 m 19.059 90.785 l S
21.602 124.836 m 21.602 90.77 l S
24.141 124.309 m 24.141 91.625 l S
26.684 123.801 m 26.684 92.133 l S
29.223 123.234 m 29.223 92.508 l S
31.766 122.613 m 31.766 93.059 l S
34.305 122.273 m 34.305 93.203 l S
36.848 122.125 m 36.848 93.945 l S
39.387 121.844 m 39.387 93.812 l S
41.93 122.172 m 41.93 93.402 l S
44.469 122.973 m 44.469 92.895 l S
47.012 123.383 m 47.012 92.215 l S
49.555 124.586 m 49.555 90.852 l S
52.094 126.566 m 52.094 89.848 l S
54.637 127.559 m 54.637 88.984 l S
57.176 127.637 m 57.176 88.363 l S
59.719 127.113 m 59.719 88.703 l S
62.258 126.734 m 62.258 88.996 l S
64.801 126.418 m 64.801 89.402 l S
67.34 125.879 m 67.34 89.863 l S
69.883 125.477 m 69.883 90.16 l S
72.422 125.254 m 72.422 90.523 l S
74.965 125.078 m 74.965 90.641 l S
77.508 124.785 m 77.508 90.891 l S
80.047 124.664 m 80.047 91.078 l S
82.59 124.449 m 82.59 91.41 l S
85.129 124.312 m 85.129 91.625 l S
87.672 124.211 m 87.672 91.836 l S
90.211 124.129 m 90.211 91.828 l S
92.754 123.859 m 92.754 91.973 l S
95.293 124.086 m 95.293 92.191 l S
97.836 125.062 m 97.836 91.582 l S
100.375 126.418 m 100.375 90.152 l S
102.918 126.23 m 102.918 89.363 l S
105.457 125.961 m 105.457 90.238 l S
108 124.977 m 108 91.285 l S
110.543 124.328 m 110.543 91.809 l S
113.082 124.02 m 113.082 92.039 l S
115.625 123.785 m 115.625 92.227 l S
118.164 123.59 m 118.164 92.305 l S
120.707 123.539 m 120.707 92.359 l S
123.246 123.633 m 123.246 92.336 l S
125.789 123.793 m 125.789 92.176 l S
128.328 124.141 m 128.328 91.988 l S
130.871 124.473 m 130.871 91.629 l S
133.41 124.137 m 133.41 91.512 l S
135.953 123.992 m 135.953 91.855 l S
138.492 123.672 m 138.492 92.309 l S
141.035 123.27 m 141.035 92.684 l S
143.578 124.016 m 143.578 92.289 l S
146.117 124.781 m 146.117 91.234 l S
148.66 125.082 m 148.66 90.922 l S
151.199 124.723 m 151.199 91.492 l S
153.742 124.289 m 153.742 91.914 l S
156.281 123.867 m 156.281 92.164 l S
158.824 123.527 m 158.824 92.562 l S
161.363 123.363 m 161.363 92.609 l S
163.906 123.359 m 163.906 92.699 l S
166.445 124.34 m 166.445 91.812 l S
168.988 125.398 m 168.988 90.367 l S
171.531 126.809 m 171.531 89.012 l S
174.07 126.875 m 174.07 88.945 l S
176.613 126.094 m 176.613 89.98 l S
179.152 124.113 m 179.152 91.73 l S
181.695 122.691 m 181.695 93.195 l S
184.234 121.992 m 184.234 93.793 l S
186.777 121.598 m 186.777 94.23 l S
189.316 121.328 m 189.316 94.492 l S
191.859 121.051 m 191.859 94.891 l S
194.398 120.812 m 194.398 95.188 l S
196.941 120.645 m 196.941 95.375 l S
199.48 120.512 m 199.48 95.508 l S
202.023 120.406 m 202.023 95.605 l S
204.566 120.461 m 204.566 95.609 l S
207.105 120.426 m 207.105 95.637 l S
209.648 119.398 m 209.648 96.168 l S
212.188 117.055 m 212.188 98.785 l S
214.73 114.543 m 214.73 101.09 l S
217.27 113.055 m 217.27 103.32 l S
219.812 111.309 m 219.812 104.582 l S
222.352 110.215 m 222.352 105.824 l S
224.895 109.328 m 224.895 106.578 l S
227.434 108.844 m 227.434 107.164 l S
229.977 108.383 m 229.977 107.504 l S
232.52 108.176 m 232.52 107.754 l S
235.059 108.113 m 235.059 107.879 l S
237.602 108.082 m 237.602 107.887 l S
240.141 108.082 m 240.141 107.887 l S
242.684 108.082 m 242.684 107.887 l S
245.223 108.082 m 245.223 107.887 l S
247.766 108.082 m 247.766 107.887 l S
250.305 108.082 m 250.305 107.887 l S
252.848 108.082 m 252.848 107.887 l S
255.387 108.082 m 255.387 107.887 l S
255.387 108.082 m 255.387 107.887 l S
3.812 151.32 m 3.812 151.086 l S
6.352 155.199 m 6.352 147.031 l S
8.895 161.223 m 8.895 142.43 l S
11.434 162.918 m 11.434 139.371 l S
13.977 164.422 m 13.977 138.625 l S
16.52 165.098 m 16.52 137.867 l S
19.059 165.234 m 19.059 137.656 l S
21.602 164.934 m 21.602 137.617 l S
24.141 164.621 m 24.141 137.801 l S
26.684 164.648 m 26.684 138.086 l S
29.223 164.531 m 29.223 138.043 l S
31.766 164.703 m 31.766 137.898 l S
34.305 164.699 m 34.305 137.98 l S
36.848 164.844 m 36.848 137.832 l S
39.387 164.949 m 39.387 137.637 l S
41.93 164.785 m 41.93 137.855 l S
44.469 164.93 m 44.469 137.914 l S
47.012 165.402 m 47.012 137.41 l S
49.555 165.555 m 49.555 137.176 l S
52.094 166.031 m 52.094 136.48 l S
54.637 166.527 m 54.637 136.062 l S
57.176 166.48 m 57.176 136.141 l S
59.719 166.055 m 59.719 136.766 l S
62.258 165.77 m 62.258 137.137 l S
64.801 165.5 m 64.801 137.328 l S
67.34 165.383 m 67.34 137.73 l S
69.883 164.93 m 69.883 138.129 l S
72.422 164.668 m 72.422 138.289 l S
74.965 164.453 m 74.965 138.406 l S
77.508 164.223 m 77.508 138.605 l S
80.047 164.066 m 80.047 138.773 l S
82.59 163.895 m 82.59 138.973 l S
85.129 163.578 m 85.129 139.148 l S
87.672 163.637 m 87.672 139.168 l S
90.211 163.574 m 90.211 139.223 l S
92.754 163.301 m 92.754 139.371 l S
95.293 163.445 m 95.293 139.289 l S
97.836 164.156 m 97.836 138.75 l S
100.375 164.516 m 100.375 138.008 l S
102.918 165.09 m 102.918 138.004 l S
105.457 164.355 m 105.457 138.793 l S
108 163.684 m 108 139.074 l S
110.543 163.43 m 110.543 139.281 l S
113.082 163.141 m 113.082 139.938 l S
115.625 162.926 m 115.625 140.125 l S
118.164 162.844 m 118.164 140.02 l S
120.707 162.758 m 120.707 140.051 l S
123.246 162.848 m 123.246 139.977 l S
125.789 162.93 m 125.789 139.887 l S
128.328 163.043 m 128.328 139.566 l S
130.871 163.379 m 130.871 139.328 l S
133.41 163.418 m 133.41 139.598 l S
135.953 163.047 m 135.953 139.926 l S
138.492 162.691 m 138.492 140.227 l S
141.035 162.562 m 141.035 140.375 l S
143.578 162.605 m 143.578 140.047 l S
146.117 163.391 m 146.117 139.152 l S
148.66 163.812 m 148.66 139.238 l S
151.199 163.293 m 151.199 139.645 l S
153.742 162.945 m 153.742 139.621 l S
156.281 162.641 m 156.281 140.055 l S
158.824 162.359 m 158.824 140.312 l S
161.363 162.227 m 161.363 140.52 l S
163.906 162.098 m 163.906 140.551 l S
166.445 162.945 m 166.445 139.988 l S
168.988 163.535 m 168.988 138.867 l S
171.531 164.676 m 171.531 138.684 l S
174.07 164.746 m 174.07 138.266 l S
176.613 163.586 m 176.613 139.133 l S
179.152 162.223 m 179.152 140.184 l S
181.695 161.32 m 181.695 141.188 l S
184.234 160.875 m 184.234 141.812 l S
186.777 160.691 m 186.777 142.082 l S
189.316 160.445 m 189.316 142.363 l S
191.859 159.984 m 191.859 142.625 l S
194.398 159.766 m 194.398 142.781 l S
196.941 159.625 m 196.941 142.898 l S
199.48 159.648 m 199.48 142.945 l S
202.023 159.613 m 202.023 142.988 l S
204.566 159.629 m 204.566 142.945 l S
207.105 159.645 m 207.105 143.152 l S
209.648 159.035 m 209.648 143.957 l S
212.188 156.988 m 212.188 145.512 l S
214.73 155.391 m 214.73 146.844 l S
217.27 153.855 m 217.27 148.328 l S
219.812 153.102 m 219.812 149.379 l S
222.352 152.25 m 222.352 149.914 l S
224.895 151.984 m 224.895 150.461 l S
227.434 151.738 m 227.434 150.688 l S
229.977 151.406 m 229.977 150.941 l S
232.52 151.312 m 232.52 151.047 l S
235.059 151.281 m 235.059 151.086 l S
237.602 151.281 m 237.602 151.086 l S
240.141 151.281 m 240.141 151.086 l S
242.684 151.281 m 242.684 151.086 l S
245.223 151.281 m 245.223 151.086 l S
247.766 151.281 m 247.766 151.086 l S
250.305 151.281 m 250.305 151.086 l S
252.848 151.281 m 252.848 151.086 l S
255.387 151.281 m 255.387 151.086 l S
255.387 151.281 m 255.387 151.086 l S
Q Q
showpage
%%Trailer
end
%%EOF
