%!PS-Adobe-3.0 EPSF-3.0
%%Creator: cairo 1.16.0 (https://cairographics.org)
%%CreationDate: Wed May 15 11:57:24 2024
%%Pages: 1
%%DocumentData: Clean7Bit
%%LanguageLevel: 2
%%Creator: Wolfram Mathematica
%%BoundingBox: 2 7 257 164
%%EndComments
%%BeginProlog
50 dict begin
/q { gsave } bind def
/Q { grestore } bind def
/cm { 6 array astore concat } bind def
/w { setlinewidth } bind def
/J { setlinecap } bind def
/j { setlinejoin } bind def
/M { setmiterlimit } bind def
/d { setdash } bind def
/m { moveto } bind def
/l { lineto } bind def
/c { curveto } bind def
/h { closepath } bind def
/re { exch dup neg 3 1 roll 5 3 roll moveto 0 rlineto
      0 exch rlineto 0 rlineto closepath } bind def
/S { stroke } bind def
/f { fill } bind def
/f* { eofill } bind def
/n { newpath } bind def
/W { clip } bind def
/W* { eoclip } bind def
/BT { } bind def
/ET { } bind def
/BDC { mark 3 1 roll /BDC pdfmark } bind def
/EMC { mark /EMC pdfmark } bind def
/cairo_store_point { /cairo_point_y exch def /cairo_point_x exch def } def
/Tj { show currentpoint cairo_store_point } bind def
/TJ {
  {
    dup
    type /stringtype eq
    { show } { -0.001 mul 0 cairo_font_matrix dtransform rmoveto } ifelse
  } forall
  currentpoint cairo_store_point
} bind def
/cairo_selectfont { cairo_font_matrix aload pop pop pop 0 0 6 array astore
    cairo_font exch selectfont cairo_point_x cairo_point_y moveto } bind def
/Tf { pop /cairo_font exch def /cairo_font_matrix where
      { pop cairo_selectfont } if } bind def
/Td { matrix translate cairo_font_matrix matrix concatmatrix dup
      /cairo_font_matrix exch def dup 4 get exch 5 get cairo_store_point
      /cairo_font where { pop cairo_selectfont } if } bind def
/Tm { 2 copy 8 2 roll 6 array astore /cairo_font_matrix exch def
      cairo_store_point /cairo_font where { pop cairo_selectfont } if } bind def
/g { setgray } bind def
/rg { setrgbcolor } bind def
/d1 { setcachedevice } bind def
/cairo_data_source {
  CairoDataIndex CairoData length lt
    { CairoData CairoDataIndex get /CairoDataIndex CairoDataIndex 1 add def }
    { () } ifelse
} def
/cairo_flush_ascii85_file { cairo_ascii85_file status { cairo_ascii85_file flushfile } if } def
/cairo_image { image cairo_flush_ascii85_file } def
/cairo_imagemask { imagemask cairo_flush_ascii85_file } def
%%EndProlog
%%BeginSetup
%%EndSetup
%%Page: 1 1
%%BeginPageSetup
%%PageBoundingBox: 2 7 257 164
%%EndPageSetup
q 2 7 255 157 rectclip
1 0 0 -1 0 173 cm q
0 g
1.796436 w
0 J
0 j
[] 0.0 d
3.25 M 3.812 22.375 m 3.812 21.074 l S
6.352 32.273 m 6.352 10.926 l S
8.895 34.137 m 8.895 9.266 l S
11.434 34.266 m 11.434 9.059 l S
13.977 34.051 m 13.977 9.199 l S
16.52 33.082 m 16.52 10.184 l S
19.059 32.426 m 19.059 10.816 l S
21.602 31.758 m 21.602 11.387 l S
24.141 31.027 m 24.141 12.195 l S
26.684 30.418 m 26.684 12.711 l S
29.223 29.828 m 29.223 13.402 l S
31.766 29.168 m 31.766 14.152 l S
34.305 28.875 m 34.305 14.5 l S
36.848 28.645 m 36.848 14.625 l S
39.387 28.531 m 39.387 14.738 l S
41.93 28.688 m 41.93 14.625 l S
44.469 28.609 m 44.469 14.707 l S
47.012 28.418 m 47.012 14.793 l S
49.555 28.641 m 49.555 14.566 l S
52.094 29.145 m 52.094 14.227 l S
54.637 29.477 m 54.637 13.703 l S
57.176 30.062 m 57.176 13.219 l S
59.719 30.434 m 59.719 12.969 l S
62.258 30.559 m 62.258 12.676 l S
64.801 30.859 m 64.801 12.398 l S
67.34 31.02 m 67.34 12.148 l S
69.883 31.281 m 69.883 11.93 l S
72.422 31.32 m 72.422 11.957 l S
74.965 31.07 m 74.965 12.125 l S
77.508 30.926 m 77.508 12.113 l S
80.047 30.867 m 80.047 12.164 l S
82.59 31.004 m 82.59 12.184 l S
85.129 31.016 m 85.129 12.184 l S
87.672 30.84 m 87.672 12.273 l S
90.211 30.676 m 90.211 12.516 l S
92.754 30.637 m 92.754 12.559 l S
95.293 30.445 m 95.293 12.652 l S
97.836 30.273 m 97.836 12.719 l S
100.375 29.953 m 100.375 12.891 l S
102.918 29.848 m 102.918 13.129 l S
105.457 30.043 m 105.457 12.902 l S
108 30.559 m 108 12.262 l S
110.543 31.812 m 110.543 11.516 l S
113.082 31.922 m 113.082 11.289 l S
115.625 32.266 m 115.625 11.039 l S
118.164 32.129 m 118.164 10.98 l S
120.707 32.188 m 120.707 11.164 l S
123.246 32.16 m 123.246 11.203 l S
125.789 32.402 m 125.789 10.98 l S
128.328 32.367 m 128.328 10.965 l S
130.871 32.191 m 130.871 11.211 l S
133.41 31.676 m 133.41 11.598 l S
135.953 31.629 m 135.953 11.785 l S
138.492 31.777 m 138.492 11.629 l S
141.035 32 m 141.035 11.43 l S
143.578 32.035 m 143.578 11.434 l S
146.117 31.859 m 146.117 11.375 l S
148.66 31.742 m 148.66 11.406 l S
151.199 31.629 m 151.199 11.574 l S
153.742 31.934 m 153.742 10.977 l S
156.281 33.004 m 156.281 10.477 l S
158.824 32.891 m 158.824 10.195 l S
161.363 31.918 m 161.363 11.59 l S
163.906 30.816 m 163.906 12.219 l S
166.445 30.316 m 166.445 12.93 l S
168.988 30.129 m 168.988 13.418 l S
171.531 29.535 m 171.531 13.785 l S
174.07 29.285 m 174.07 14.035 l S
176.613 29.164 m 176.613 14.09 l S
179.152 29.098 m 179.152 14.172 l S
181.695 28.555 m 181.695 14.426 l S
184.234 27.309 m 184.234 15.766 l S
186.777 26.039 m 186.777 17.137 l S
189.316 24.902 m 189.316 18.523 l S
191.859 23.961 m 191.859 19.418 l S
194.398 23.133 m 194.398 20.164 l S
196.941 22.66 m 196.941 20.711 l S
199.48 22.355 m 199.48 20.992 l S
202.023 22.133 m 202.023 21.188 l S
204.566 21.988 m 204.566 21.332 l S
207.105 21.898 m 207.105 21.43 l S
209.648 21.82 m 209.648 21.496 l S
212.188 21.773 m 212.188 21.547 l S
214.73 21.758 m 214.73 21.562 l S
217.27 21.758 m 217.27 21.562 l S
219.812 21.758 m 219.812 21.562 l S
222.352 21.758 m 222.352 21.562 l S
224.895 21.758 m 224.895 21.562 l S
227.434 21.758 m 227.434 21.562 l S
229.977 21.758 m 229.977 21.562 l S
232.52 21.758 m 232.52 21.562 l S
235.059 21.758 m 235.059 21.562 l S
237.602 21.758 m 237.602 21.562 l S
240.141 21.758 m 240.141 21.562 l S
242.684 21.758 m 242.684 21.562 l S
245.223 21.758 m 245.223 21.562 l S
247.766 21.758 m 247.766 21.562 l S
250.305 21.758 m 250.305 21.562 l S
252.848 21.758 m 252.848 21.562 l S
255.387 21.758 m 255.387 21.562 l S
255.387 21.758 m 255.387 21.562 l S
3.812 65.27 m 3.812 64.398 l S
6.352 72.973 m 6.352 56.828 l S
8.895 73.77 m 8.895 55.992 l S
11.434 73.789 m 11.434 55.988 l S
13.977 73.66 m 13.977 56.168 l S
16.52 73.094 m 16.52 56.68 l S
19.059 72.863 m 19.059 56.941 l S
21.602 72.453 m 21.602 57.418 l S
24.141 71.988 m 24.141 57.793 l S
26.684 71.699 m 26.684 58.086 l S
29.223 71.328 m 29.223 58.531 l S
31.766 70.797 m 31.766 59.031 l S
34.305 70.52 m 34.305 59.324 l S
36.848 70.484 m 36.848 59.461 l S
39.387 70.445 m 39.387 59.508 l S
41.93 70.387 m 41.93 59.371 l S
44.469 70.336 m 44.469 59.387 l S
47.012 70.332 m 47.012 59.371 l S
49.555 70.734 m 49.555 59.359 l S
52.094 71.375 m 52.094 58.449 l S
54.637 71.672 m 54.637 57.996 l S
57.176 72.074 m 57.176 57.484 l S
59.719 72.414 m 59.719 57.242 l S
62.258 72.668 m 62.258 57.121 l S
64.801 72.883 m 64.801 56.738 l S
67.34 73.285 m 67.34 56.57 l S
69.883 73.465 m 69.883 56.227 l S
72.422 73.355 m 72.422 56.203 l S
74.965 73.531 m 74.965 56.207 l S
77.508 73.516 m 77.508 56.145 l S
80.047 73.535 m 80.047 56.191 l S
82.59 73.41 m 82.59 56.277 l S
85.129 73.465 m 85.129 56.262 l S
87.672 73.457 m 87.672 56.238 l S
90.211 73.16 m 90.211 56.395 l S
92.754 73.215 m 92.754 56.449 l S
95.293 73.137 m 95.293 56.527 l S
97.836 73.086 m 97.836 56.484 l S
100.375 72.973 m 100.375 56.562 l S
102.918 72.816 m 102.918 56.797 l S
105.457 72.773 m 105.457 56.727 l S
108 73.25 m 108 56.344 l S
110.543 74.078 m 110.543 55.766 l S
113.082 74.137 m 113.082 55.551 l S
115.625 74.297 m 115.625 55.375 l S
118.164 74.074 m 118.164 55.508 l S
120.707 74.004 m 120.707 55.59 l S
123.246 73.957 m 123.246 55.766 l S
125.789 74.055 m 125.789 55.695 l S
128.328 74.074 m 128.328 55.809 l S
130.871 73.945 m 130.871 55.934 l S
133.41 73.488 m 133.41 56.176 l S
135.953 73.453 m 135.953 56.34 l S
138.492 73.504 m 138.492 56.23 l S
141.035 73.695 m 141.035 56.172 l S
143.578 73.637 m 143.578 56.258 l S
146.117 73.582 m 146.117 56.305 l S
148.66 73.445 m 148.66 56.457 l S
151.199 73.293 m 151.199 56.645 l S
153.742 73.465 m 153.742 56.309 l S
156.281 73.922 m 156.281 56.094 l S
158.824 73.711 m 158.824 55.984 l S
161.363 73 m 161.363 56.906 l S
163.906 72.484 m 163.906 57.355 l S
166.445 72.141 m 166.445 57.746 l S
168.988 71.844 m 168.988 57.887 l S
171.531 71.57 m 171.531 58.18 l S
174.07 71.34 m 174.07 58.441 l S
176.613 71.336 m 176.613 58.477 l S
179.152 71.32 m 179.152 58.465 l S
181.695 70.785 m 181.695 59 l S
184.234 69.797 m 184.234 60.012 l S
186.777 68.766 m 186.777 61.008 l S
189.316 67.684 m 189.316 61.941 l S
191.859 66.906 m 191.859 62.934 l S
194.398 66.148 m 194.398 63.559 l S
196.941 65.746 m 196.941 64.078 l S
199.48 65.512 m 199.48 64.367 l S
202.023 65.238 m 202.023 64.465 l S
204.566 65.129 m 204.566 64.582 l S
207.105 65.086 m 207.105 64.617 l S
209.648 65.027 m 209.648 64.68 l S
212.188 64.965 m 212.188 64.746 l S
214.73 64.973 m 214.73 64.746 l S
217.27 64.961 m 217.27 64.762 l S
219.812 64.961 m 219.812 64.762 l S
222.352 64.961 m 222.352 64.754 l S
224.895 64.961 m 224.895 64.762 l S
227.434 64.961 m 227.434 64.762 l S
229.977 64.961 m 229.977 64.762 l S
232.52 64.961 m 232.52 64.762 l S
235.059 64.961 m 235.059 64.762 l S
237.602 64.961 m 237.602 64.762 l S
240.141 64.961 m 240.141 64.762 l S
242.684 64.961 m 242.684 64.762 l S
245.223 64.961 m 245.223 64.762 l S
247.766 64.961 m 247.766 64.762 l S
250.305 64.961 m 250.305 64.762 l S
252.848 64.961 m 252.848 64.762 l S
255.387 64.961 m 255.387 64.762 l S
255.387 64.961 m 255.387 64.762 l S
3.812 109.742 m 3.812 106.148 l S
6.352 125.051 m 6.352 91.074 l S
8.895 127.391 m 8.895 88.48 l S
11.434 127.637 m 11.434 88.363 l S
13.977 127.461 m 13.977 88.676 l S
16.52 126.281 m 16.52 89.734 l S
19.059 125.574 m 19.059 90.477 l S
21.602 124.836 m 21.602 91.223 l S
24.141 123.844 m 24.141 92.176 l S
26.684 123.363 m 26.684 92.785 l S
29.223 122.316 m 29.223 93.746 l S
31.766 121.168 m 31.766 94.965 l S
34.305 120.559 m 34.305 95.492 l S
36.848 120.395 m 36.848 95.625 l S
39.387 120.102 m 39.387 95.848 l S
41.93 120.207 m 41.93 95.836 l S
44.469 120.238 m 44.469 95.953 l S
47.012 119.863 m 47.012 96.312 l S
49.555 119.965 m 49.555 96.125 l S
52.094 120.281 m 52.094 95.891 l S
54.637 121.152 m 54.637 94.828 l S
57.176 121.684 m 57.176 94.18 l S
59.719 121.938 m 59.719 94.078 l S
62.258 122.207 m 62.258 93.617 l S
64.801 122.184 m 64.801 93.691 l S
67.34 122.559 m 67.34 93.324 l S
69.883 122.316 m 69.883 93.566 l S
72.422 122.309 m 72.422 93.637 l S
74.965 122.113 m 74.965 93.5 l S
77.508 122 m 77.508 93.746 l S
80.047 121.781 m 80.047 93.949 l S
82.59 121.324 m 82.59 94.223 l S
85.129 121.094 m 85.129 94.719 l S
87.672 121.176 m 87.672 94.867 l S
90.211 120.594 m 90.211 95.145 l S
92.754 120.543 m 92.754 95.355 l S
95.293 120.176 m 95.293 95.746 l S
97.836 119.676 m 97.836 95.73 l S
100.375 119.453 m 100.375 96.262 l S
102.918 119.059 m 102.918 96.711 l S
105.457 119.406 m 105.457 96.145 l S
108 120.812 m 108 95.008 l S
110.543 123.004 m 110.543 93.5 l S
113.082 123.629 m 113.082 91.852 l S
115.625 124.066 m 115.625 91.789 l S
118.164 124.441 m 118.164 91.566 l S
120.707 124.402 m 120.707 91.457 l S
123.246 124.434 m 123.246 91.453 l S
125.789 124.898 m 125.789 91.043 l S
128.328 125.301 m 128.328 90.828 l S
130.871 124.801 m 130.871 91.043 l S
133.41 124.316 m 133.41 91.707 l S
135.953 124.086 m 135.953 92.051 l S
138.492 124.5 m 138.492 91.848 l S
141.035 124.848 m 141.035 91.258 l S
143.578 124.941 m 143.578 91.254 l S
146.117 124.898 m 146.117 91.191 l S
148.66 124.773 m 148.66 91.18 l S
151.199 124.574 m 151.199 91.465 l S
153.742 125.293 m 153.742 90.723 l S
156.281 126.461 m 156.281 89.891 l S
158.824 126.211 m 158.824 89.684 l S
161.363 124.938 m 161.363 91.375 l S
163.906 123.668 m 163.906 92.613 l S
166.445 122.848 m 166.445 93.023 l S
168.988 122.219 m 168.988 93.656 l S
171.531 121.703 m 171.531 94.309 l S
174.07 121.246 m 174.07 94.805 l S
176.613 120.945 m 176.613 95.074 l S
179.152 120.672 m 179.152 95.328 l S
181.695 119.984 m 181.695 96.082 l S
184.234 118.18 m 184.234 97.738 l S
186.777 116.031 m 186.777 100.258 l S
189.316 113.891 m 189.316 101.789 l S
191.859 112.582 m 191.859 103.934 l S
194.398 110.68 m 194.398 105.629 l S
196.941 109.914 m 196.941 106.457 l S
199.48 109.168 m 199.48 106.93 l S
202.023 108.805 m 202.023 107.371 l S
204.566 108.543 m 204.566 107.527 l S
207.105 108.434 m 207.105 107.703 l S
209.648 108.32 m 209.648 107.77 l S
212.188 108.258 m 212.188 107.871 l S
214.73 108.223 m 214.73 107.883 l S
217.27 108.199 m 217.27 107.949 l S
219.812 108.195 m 219.812 107.965 l S
222.352 108.203 m 222.352 107.957 l S
224.895 108.16 m 224.895 107.965 l S
227.434 108.16 m 227.434 107.965 l S
229.977 108.16 m 229.977 107.965 l S
232.52 108.16 m 232.52 107.965 l S
235.059 108.16 m 235.059 107.965 l S
237.602 108.16 m 237.602 107.965 l S
240.141 108.16 m 240.141 107.965 l S
242.684 108.16 m 242.684 107.965 l S
245.223 108.16 m 245.223 107.965 l S
247.766 108.16 m 247.766 107.965 l S
250.305 108.16 m 250.305 107.965 l S
252.848 108.16 m 252.848 107.965 l S
255.387 108.16 m 255.387 107.965 l S
255.387 108.16 m 255.387 107.965 l S
3.812 151.773 m 3.812 150.391 l S
6.352 163.207 m 6.352 139.586 l S
8.895 164.887 m 8.895 137.906 l S
11.434 165.035 m 11.434 137.809 l S
13.977 164.742 m 13.977 138.047 l S
16.52 163.957 m 16.52 138.797 l S
19.059 163.52 m 19.059 139.195 l S
21.602 162.797 m 21.602 139.887 l S
24.141 162.121 m 24.141 140.703 l S
26.684 161.535 m 26.684 141.336 l S
29.223 160.836 m 29.223 142.051 l S
31.766 160.062 m 31.766 142.84 l S
34.305 159.719 m 34.305 143.32 l S
36.848 159.535 m 36.848 143.352 l S
39.387 159.301 m 39.387 143.5 l S
41.93 159.418 m 41.93 143.207 l S
44.469 159.438 m 44.469 143.367 l S
47.012 159.211 m 47.012 143.328 l S
49.555 159.992 m 49.555 143.141 l S
52.094 160.508 m 52.094 142.355 l S
54.637 161.137 m 54.637 141.547 l S
57.176 161.906 m 57.176 141.031 l S
59.719 162.621 m 59.719 140.195 l S
62.258 162.887 m 62.258 139.871 l S
64.801 163.406 m 64.801 139.391 l S
67.34 163.672 m 67.34 139.305 l S
69.883 163.984 m 69.883 138.965 l S
72.422 164.176 m 72.422 138.84 l S
74.965 163.918 m 74.965 138.91 l S
77.508 163.98 m 77.508 138.859 l S
80.047 163.945 m 80.047 138.785 l S
82.59 163.969 m 82.59 138.82 l S
85.129 164.23 m 85.129 138.715 l S
87.672 164 m 87.672 138.746 l S
90.211 163.855 m 90.211 139.016 l S
92.754 163.801 m 92.754 138.902 l S
95.293 163.754 m 95.293 139.02 l S
97.836 163.836 m 97.836 139.086 l S
100.375 163.566 m 100.375 139.293 l S
102.918 163.316 m 102.918 139.535 l S
105.457 163.547 m 105.457 139.527 l S
108 164.094 m 108 139.156 l S
110.543 164.824 m 110.543 138.008 l S
113.082 165.004 m 113.082 138.02 l S
115.625 165.059 m 115.625 137.863 l S
118.164 165.055 m 118.164 137.91 l S
120.707 164.984 m 120.707 137.957 l S
123.246 164.906 m 123.246 138.035 l S
125.789 164.969 m 125.789 137.953 l S
128.328 165.027 m 128.328 137.938 l S
130.871 164.648 m 130.871 138.297 l S
133.41 164.238 m 133.41 138.562 l S
135.953 164.152 m 135.953 138.977 l S
138.492 164.23 m 138.492 138.848 l S
141.035 164.355 m 141.035 138.598 l S
143.578 164.359 m 143.578 138.586 l S
146.117 164.172 m 146.117 138.848 l S
148.66 163.754 m 148.66 138.828 l S
151.199 163.738 m 151.199 139.121 l S
153.742 164.074 m 153.742 138.934 l S
156.281 164.832 m 156.281 138.406 l S
158.824 164.766 m 158.824 138.289 l S
161.363 163.328 m 161.363 139.418 l S
163.906 162.594 m 163.906 140.301 l S
166.445 161.953 m 166.445 141.082 l S
168.988 161.422 m 168.988 141.547 l S
171.531 161.195 m 171.531 141.84 l S
174.07 160.848 m 174.07 142.035 l S
176.613 160.707 m 176.613 142.168 l S
179.152 160.602 m 179.152 142.203 l S
181.695 159.75 m 181.695 143.059 l S
184.234 158.363 m 184.234 144.117 l S
186.777 156.945 m 186.777 145.457 l S
189.316 155.895 m 189.316 146.852 l S
191.859 154.414 m 191.859 148.199 l S
194.398 153.473 m 194.398 149.098 l S
196.941 152.809 m 196.941 149.836 l S
199.48 152.379 m 199.48 150.281 l S
202.023 152 m 202.023 150.512 l S
204.566 151.762 m 204.566 150.73 l S
207.105 151.684 m 207.105 150.801 l S
209.648 151.57 m 209.648 150.945 l S
212.188 151.496 m 212.188 151.027 l S
214.73 151.473 m 214.73 151.059 l S
217.27 151.402 m 217.27 151.105 l S
219.812 151.445 m 219.812 151.105 l S
222.352 151.457 m 222.352 151.059 l S
224.895 151.359 m 224.895 151.164 l S
227.434 151.359 m 227.434 151.164 l S
229.977 151.359 m 229.977 151.164 l S
232.52 151.359 m 232.52 151.164 l S
235.059 151.359 m 235.059 151.164 l S
237.602 151.359 m 237.602 151.164 l S
240.141 151.359 m 240.141 151.164 l S
242.684 151.359 m 242.684 151.164 l S
245.223 151.359 m 245.223 151.164 l S
247.766 151.359 m 247.766 151.164 l S
250.305 151.359 m 250.305 151.164 l S
252.848 151.359 m 252.848 151.164 l S
255.387 151.359 m 255.387 151.164 l S
255.387 151.359 m 255.387 151.164 l S
Q Q
showpage
%%Trailer
end
%%EOF
