%!PS-Adobe-3.0 EPSF-3.0
%%Creator: cairo 1.16.0 (https://cairographics.org)
%%CreationDate: Wed May 15 11:57:25 2024
%%Pages: 1
%%DocumentData: Clean7Bit
%%LanguageLevel: 2
%%Creator: Wolfram Mathematica
%%BoundingBox: 2 6 257 166
%%EndComments
%%BeginProlog
50 dict begin
/q { gsave } bind def
/Q { grestore } bind def
/cm { 6 array astore concat } bind def
/w { setlinewidth } bind def
/J { setlinecap } bind def
/j { setlinejoin } bind def
/M { setmiterlimit } bind def
/d { setdash } bind def
/m { moveto } bind def
/l { lineto } bind def
/c { curveto } bind def
/h { closepath } bind def
/re { exch dup neg 3 1 roll 5 3 roll moveto 0 rlineto
      0 exch rlineto 0 rlineto closepath } bind def
/S { stroke } bind def
/f { fill } bind def
/f* { eofill } bind def
/n { newpath } bind def
/W { clip } bind def
/W* { eoclip } bind def
/BT { } bind def
/ET { } bind def
/BDC { mark 3 1 roll /BDC pdfmark } bind def
/EMC { mark /EMC pdfmark } bind def
/cairo_store_point { /cairo_point_y exch def /cairo_point_x exch def } def
/Tj { show currentpoint cairo_store_point } bind def
/TJ {
  {
    dup
    type /stringtype eq
    { show } { -0.001 mul 0 cairo_font_matrix dtransform rmoveto } ifelse
  } forall
  currentpoint cairo_store_point
} bind def
/cairo_selectfont { cairo_font_matrix aload pop pop pop 0 0 6 array astore
    cairo_font exch selectfont cairo_point_x cairo_point_y moveto } bind def
/Tf { pop /cairo_font exch def /cairo_font_matrix where
      { pop cairo_selectfont } if } bind def
/Td { matrix translate cairo_font_matrix matrix concatmatrix dup
      /cairo_font_matrix exch def dup 4 get exch 5 get cairo_store_point
      /cairo_font where { pop cairo_selectfont } if } bind def
/Tm { 2 copy 8 2 roll 6 array astore /cairo_font_matrix exch def
      cairo_store_point /cairo_font where { pop cairo_selectfont } if } bind def
/g { setgray } bind def
/rg { setrgbcolor } bind def
/d1 { setcachedevice } bind def
/cairo_data_source {
  CairoDataIndex CairoData length lt
    { CairoData CairoDataIndex get /CairoDataIndex CairoDataIndex 1 add def }
    { () } ifelse
} def
/cairo_flush_ascii85_file { cairo_ascii85_file status { cairo_ascii85_file flushfile } if } def
/cairo_image { image cairo_flush_ascii85_file } def
/cairo_imagemask { imagemask cairo_flush_ascii85_file } def
%%EndProlog
%%BeginSetup
%%EndSetup
%%Page: 1 1
%%BeginPageSetup
%%PageBoundingBox: 2 6 257 166
%%EndPageSetup
q 2 6 255 160 rectclip
1 0 0 -1 0 173 cm q
0 g
1.796436 w
0 J
0 j
[] 0.0 d
3.25 M 3.812 21.941 m 3.812 20.848 l S
6.352 32.02 m 6.352 11.164 l S
8.895 34.391 m 8.895 8.988 l S
11.434 35.238 m 11.434 8.164 l S
13.977 35.445 m 13.977 7.953 l S
16.52 35.496 m 16.52 7.902 l S
19.059 35.5 m 19.059 7.902 l S
21.602 35.52 m 21.602 7.898 l S
24.141 35.504 m 24.141 7.914 l S
26.684 35.477 m 26.684 7.941 l S
29.223 35.469 m 29.223 7.973 l S
31.766 35.492 m 31.766 7.941 l S
34.305 35.523 m 34.305 7.887 l S
36.848 35.574 m 36.848 7.844 l S
39.387 35.629 m 39.387 7.805 l S
41.93 35.605 m 41.93 7.805 l S
44.469 35.609 m 44.469 7.816 l S
47.012 35.621 m 47.012 7.789 l S
49.555 35.641 m 49.555 7.762 l S
52.094 35.684 m 52.094 7.727 l S
54.637 35.703 m 54.637 7.707 l S
57.176 35.684 m 57.176 7.727 l S
59.719 35.746 m 59.719 7.668 l S
62.258 35.75 m 62.258 7.664 l S
64.801 35.703 m 64.801 7.703 l S
67.34 35.668 m 67.34 7.73 l S
69.883 35.688 m 69.883 7.719 l S
72.422 35.695 m 72.422 7.723 l S
74.965 35.691 m 74.965 7.707 l S
77.508 35.672 m 77.508 7.738 l S
80.047 35.672 m 80.047 7.738 l S
82.59 35.66 m 82.59 7.742 l S
85.129 35.672 m 85.129 7.738 l S
87.672 35.707 m 87.672 7.707 l S
90.211 35.703 m 90.211 7.707 l S
92.754 35.695 m 92.754 7.723 l S
95.293 35.688 m 95.293 7.719 l S
97.836 35.699 m 97.836 7.715 l S
100.375 35.738 m 100.375 7.668 l S
102.918 35.793 m 102.918 7.602 l S
105.457 35.793 m 105.457 7.598 l S
108 35.703 m 108 7.668 l S
110.543 35.664 m 110.543 7.699 l S
113.082 35.73 m 113.082 7.66 l S
115.625 35.746 m 115.625 7.652 l S
118.164 35.746 m 118.164 7.625 l S
120.707 35.824 m 120.707 7.555 l S
123.246 35.863 m 123.246 7.52 l S
125.789 35.875 m 125.789 7.492 l S
128.328 35.875 m 128.328 7.516 l S
130.871 35.855 m 130.871 7.527 l S
133.41 35.828 m 133.41 7.559 l S
135.953 35.867 m 135.953 7.543 l S
138.492 35.863 m 138.492 7.535 l S
141.035 35.832 m 141.035 7.539 l S
143.578 35.785 m 143.578 7.605 l S
146.117 35.719 m 146.117 7.66 l S
148.66 35.734 m 148.66 7.676 l S
151.199 35.723 m 151.199 7.672 l S
153.742 35.715 m 153.742 7.691 l S
156.281 35.723 m 156.281 7.691 l S
158.824 35.711 m 158.824 7.691 l S
161.363 35.73 m 161.363 7.688 l S
163.906 35.754 m 163.906 7.648 l S
166.445 35.746 m 166.445 7.66 l S
168.988 35.758 m 168.988 7.641 l S
171.531 35.762 m 171.531 7.648 l S
174.07 35.738 m 174.07 7.641 l S
176.613 35.758 m 176.613 7.637 l S
179.152 35.734 m 179.152 7.652 l S
181.695 35.254 m 181.695 8.152 l S
184.234 29.582 m 184.234 13.516 l S
186.777 26.133 m 186.777 16.809 l S
189.316 24.672 m 189.316 18.254 l S
191.859 23.211 m 191.859 19.547 l S
194.398 22.301 m 194.398 20.551 l S
196.941 21.906 m 196.941 20.961 l S
199.48 21.711 m 199.48 21.125 l S
202.023 21.57 m 202.023 21.293 l S
204.566 21.527 m 204.566 21.332 l S
207.105 21.527 m 207.105 21.332 l S
209.648 21.527 m 209.648 21.332 l S
212.188 21.527 m 212.188 21.332 l S
214.73 21.527 m 214.73 21.332 l S
217.27 21.527 m 217.27 21.332 l S
219.812 21.527 m 219.812 21.332 l S
222.352 21.527 m 222.352 21.332 l S
224.895 21.527 m 224.895 21.332 l S
227.434 21.527 m 227.434 21.332 l S
229.977 21.527 m 229.977 21.332 l S
232.52 21.527 m 232.52 21.332 l S
235.059 21.527 m 235.059 21.332 l S
237.602 21.527 m 237.602 21.332 l S
240.141 21.527 m 240.141 21.332 l S
242.684 21.527 m 242.684 21.332 l S
245.223 21.527 m 245.223 21.332 l S
247.766 21.527 m 247.766 21.332 l S
250.305 21.527 m 250.305 21.332 l S
252.848 21.527 m 252.848 21.332 l S
255.387 21.527 m 255.387 21.332 l S
255.387 21.527 m 255.387 21.332 l S
3.812 64.984 m 3.812 64.125 l S
6.352 70.793 m 6.352 58.719 l S
8.895 72.082 m 8.895 57.102 l S
11.434 72.402 m 11.434 56.684 l S
13.977 72.594 m 13.977 56.562 l S
16.52 72.598 m 16.52 56.535 l S
19.059 72.625 m 19.059 56.504 l S
21.602 72.652 m 21.602 56.48 l S
24.141 72.672 m 24.141 56.48 l S
26.684 72.645 m 26.684 56.461 l S
29.223 72.672 m 29.223 56.445 l S
31.766 72.727 m 31.766 56.434 l S
34.305 72.727 m 34.305 56.406 l S
36.848 72.766 m 36.848 56.348 l S
39.387 72.816 m 39.387 56.316 l S
41.93 72.82 m 41.93 56.312 l S
44.469 72.832 m 44.469 56.301 l S
47.012 72.828 m 47.012 56.316 l S
49.555 72.867 m 49.555 56.297 l S
52.094 72.855 m 52.094 56.285 l S
54.637 72.918 m 54.637 56.223 l S
57.176 72.895 m 57.176 56.23 l S
59.719 72.945 m 59.719 56.223 l S
62.258 72.941 m 62.258 56.207 l S
64.801 72.934 m 64.801 56.215 l S
67.34 72.891 m 67.34 56.254 l S
69.883 72.926 m 69.883 56.25 l S
72.422 72.891 m 72.422 56.238 l S
74.965 72.902 m 74.965 56.211 l S
77.508 72.895 m 77.508 56.227 l S
80.047 72.914 m 80.047 56.246 l S
82.59 72.891 m 82.59 56.234 l S
85.129 72.934 m 85.129 56.199 l S
87.672 72.973 m 87.672 56.164 l S
90.211 72.98 m 90.211 56.145 l S
92.754 72.965 m 92.754 56.18 l S
95.293 72.938 m 95.293 56.219 l S
97.836 72.934 m 97.836 56.219 l S
100.375 72.945 m 100.375 56.188 l S
102.918 72.961 m 102.918 56.172 l S
105.457 72.98 m 105.457 56.18 l S
108 72.957 m 108 56.203 l S
110.543 72.922 m 110.543 56.23 l S
113.082 72.949 m 113.082 56.18 l S
115.625 72.945 m 115.625 56.188 l S
118.164 72.961 m 118.164 56.168 l S
120.707 73 m 120.707 56.125 l S
123.246 73.031 m 123.246 56.102 l S
125.789 73.039 m 125.789 56.105 l S
128.328 73.059 m 128.328 56.09 l S
130.871 73.047 m 130.871 56.082 l S
133.41 73.02 m 133.41 56.09 l S
135.953 73.02 m 135.953 56.113 l S
138.492 73.035 m 138.492 56.102 l S
141.035 73.031 m 141.035 56.125 l S
143.578 73.016 m 143.578 56.16 l S
146.117 72.973 m 146.117 56.188 l S
148.66 72.969 m 148.66 56.176 l S
151.199 72.961 m 151.199 56.176 l S
153.742 72.953 m 153.742 56.16 l S
156.281 72.949 m 156.281 56.207 l S
158.824 72.945 m 158.824 56.191 l S
161.363 72.938 m 161.363 56.168 l S
163.906 72.988 m 163.906 56.152 l S
166.445 73.02 m 166.445 56.172 l S
168.988 73.031 m 168.988 56.094 l S
171.531 73.094 m 171.531 56.082 l S
174.07 73.074 m 174.07 56.082 l S
176.613 73.039 m 176.613 56.098 l S
179.152 73.039 m 179.152 56.098 l S
181.695 72.621 m 181.695 56.734 l S
184.234 69.707 m 184.234 59.562 l S
186.777 67.234 m 186.777 61.957 l S
189.316 66.441 m 189.316 62.902 l S
191.859 65.656 m 191.859 63.707 l S
194.398 65.102 m 194.398 64.105 l S
196.941 64.887 m 196.941 64.344 l S
199.48 64.859 m 199.48 64.387 l S
202.023 64.754 m 202.023 64.512 l S
204.566 64.738 m 204.566 64.531 l S
207.105 64.73 m 207.105 64.5 l S
209.648 64.73 m 209.648 64.531 l S
212.188 64.73 m 212.188 64.531 l S
214.73 64.73 m 214.73 64.531 l S
217.27 64.73 m 217.27 64.531 l S
219.812 64.73 m 219.812 64.531 l S
222.352 64.73 m 222.352 64.531 l S
224.895 64.73 m 224.895 64.527 l S
227.434 64.73 m 227.434 64.531 l S
229.977 64.73 m 229.977 64.531 l S
232.52 64.73 m 232.52 64.531 l S
235.059 64.73 m 235.059 64.531 l S
237.602 64.73 m 237.602 64.527 l S
240.141 64.73 m 240.141 64.531 l S
242.684 64.73 m 242.684 64.531 l S
245.223 64.73 m 245.223 64.531 l S
247.766 64.73 m 247.766 64.531 l S
250.305 64.73 m 250.305 64.531 l S
252.848 64.73 m 252.848 64.531 l S
255.387 64.73 m 255.387 64.531 l S
255.387 64.73 m 255.387 64.531 l S
3.812 109.355 m 3.812 106.188 l S
6.352 122.691 m 6.352 93.75 l S
8.895 125.25 m 8.895 90.621 l S
11.434 126.148 m 11.434 89.574 l S
13.977 126.57 m 13.977 89.285 l S
16.52 126.66 m 16.52 89.211 l S
19.059 126.773 m 19.059 89.102 l S
21.602 126.812 m 21.602 89.066 l S
24.141 126.863 m 24.141 89.031 l S
26.684 126.875 m 26.684 89.016 l S
29.223 126.926 m 29.223 88.93 l S
31.766 126.973 m 31.766 88.902 l S
34.305 127.035 m 34.305 88.812 l S
36.848 127.125 m 36.848 88.73 l S
39.387 127.18 m 39.387 88.707 l S
41.93 127.203 m 41.93 88.699 l S
44.469 127.207 m 44.469 88.699 l S
47.012 127.242 m 47.012 88.676 l S
49.555 127.297 m 49.555 88.664 l S
52.094 127.328 m 52.094 88.621 l S
54.637 127.348 m 54.637 88.59 l S
57.176 127.332 m 57.176 88.59 l S
59.719 127.418 m 59.719 88.555 l S
62.258 127.402 m 62.258 88.551 l S
64.801 127.391 m 64.801 88.574 l S
67.34 127.348 m 67.34 88.645 l S
69.883 127.375 m 69.883 88.613 l S
72.422 127.352 m 72.422 88.605 l S
74.965 127.387 m 74.965 88.598 l S
77.508 127.355 m 77.508 88.621 l S
80.047 127.367 m 80.047 88.617 l S
82.59 127.352 m 82.59 88.633 l S
85.129 127.402 m 85.129 88.574 l S
87.672 127.414 m 87.672 88.547 l S
90.211 127.402 m 90.211 88.566 l S
92.754 127.414 m 92.754 88.547 l S
95.293 127.391 m 95.293 88.594 l S
97.836 127.41 m 97.836 88.574 l S
100.375 127.441 m 100.375 88.523 l S
102.918 127.496 m 102.918 88.484 l S
105.457 127.496 m 105.457 88.496 l S
108 127.395 m 108 88.562 l S
110.543 127.371 m 110.543 88.602 l S
113.082 127.457 m 113.082 88.523 l S
115.625 127.465 m 115.625 88.516 l S
118.164 127.488 m 118.164 88.484 l S
120.707 127.57 m 120.707 88.395 l S
123.246 127.637 m 123.246 88.363 l S
125.789 127.617 m 125.789 88.371 l S
128.328 127.605 m 128.328 88.395 l S
130.871 127.609 m 130.871 88.383 l S
133.41 127.574 m 133.41 88.395 l S
135.953 127.605 m 135.953 88.398 l S
138.492 127.613 m 138.492 88.387 l S
141.035 127.594 m 141.035 88.406 l S
143.578 127.531 m 143.578 88.477 l S
146.117 127.484 m 146.117 88.516 l S
148.66 127.48 m 148.66 88.508 l S
151.199 127.488 m 151.199 88.508 l S
153.742 127.469 m 153.742 88.527 l S
156.281 127.461 m 156.281 88.527 l S
158.824 127.441 m 158.824 88.516 l S
161.363 127.461 m 161.363 88.508 l S
163.906 127.496 m 163.906 88.477 l S
166.445 127.508 m 166.445 88.48 l S
168.988 127.551 m 168.988 88.461 l S
171.531 127.598 m 171.531 88.43 l S
174.07 127.547 m 174.07 88.43 l S
176.613 127.539 m 176.613 88.418 l S
179.152 127.527 m 179.152 88.473 l S
181.695 126.742 m 181.695 89.312 l S
184.234 121.133 m 184.234 94.91 l S
186.777 116.43 m 186.777 99.09 l S
189.316 113.848 m 189.316 101.965 l S
191.859 111.453 m 191.859 104.203 l S
194.398 109.82 m 194.398 105.957 l S
196.941 108.84 m 196.941 106.797 l S
199.48 108.469 m 199.48 107.25 l S
202.023 108.172 m 202.023 107.531 l S
204.566 108.047 m 204.566 107.641 l S
207.105 107.961 m 207.105 107.629 l S
209.648 107.938 m 209.648 107.719 l S
212.188 107.938 m 212.188 107.711 l S
214.73 107.934 m 214.73 107.73 l S
217.27 107.93 m 217.27 107.727 l S
219.812 107.93 m 219.812 107.734 l S
222.352 107.953 m 222.352 107.715 l S
224.895 107.949 m 224.895 107.711 l S
227.434 107.941 m 227.434 107.719 l S
229.977 107.934 m 229.977 107.73 l S
232.52 107.93 m 232.52 107.734 l S
235.059 107.93 m 235.059 107.734 l S
237.602 107.93 m 237.602 107.734 l S
240.141 107.93 m 240.141 107.734 l S
242.684 107.93 m 242.684 107.734 l S
245.223 107.93 m 245.223 107.734 l S
247.766 107.93 m 247.766 107.734 l S
250.305 107.93 m 250.305 107.734 l S
252.848 107.93 m 252.848 107.734 l S
255.387 107.93 m 255.387 107.734 l S
255.387 107.93 m 255.387 107.734 l S
3.812 151.777 m 3.812 150.242 l S
6.352 161.934 m 6.352 140.324 l S
8.895 164.469 m 8.895 137.547 l S
11.434 165.145 m 11.434 136.887 l S
13.977 165.484 m 13.977 136.609 l S
16.52 165.477 m 16.52 136.633 l S
19.059 165.473 m 19.059 136.617 l S
21.602 165.527 m 21.602 136.59 l S
24.141 165.516 m 24.141 136.605 l S
26.684 165.469 m 26.684 136.609 l S
29.223 165.469 m 29.223 136.598 l S
31.766 165.527 m 31.766 136.574 l S
34.305 165.562 m 34.305 136.539 l S
36.848 165.598 m 36.848 136.445 l S
39.387 165.68 m 39.387 136.457 l S
41.93 165.645 m 41.93 136.371 l S
44.469 165.66 m 44.469 136.383 l S
47.012 165.664 m 47.012 136.41 l S
49.555 165.742 m 49.555 136.414 l S
52.094 165.715 m 52.094 136.387 l S
54.637 165.781 m 54.637 136.309 l S
57.176 165.73 m 57.176 136.336 l S
59.719 165.828 m 59.719 136.32 l S
62.258 165.809 m 62.258 136.297 l S
64.801 165.859 m 64.801 136.301 l S
67.34 165.758 m 67.34 136.367 l S
69.883 165.816 m 69.883 136.359 l S
72.422 165.785 m 72.422 136.367 l S
74.965 165.777 m 74.965 136.336 l S
77.508 165.742 m 77.508 136.371 l S
80.047 165.793 m 80.047 136.375 l S
82.59 165.723 m 82.59 136.379 l S
85.129 165.797 m 85.129 136.324 l S
87.672 165.867 m 87.672 136.262 l S
90.211 165.797 m 90.211 136.262 l S
92.754 165.812 m 92.754 136.309 l S
95.293 165.895 m 95.293 136.32 l S
97.836 165.793 m 97.836 136.332 l S
100.375 165.805 m 100.375 136.324 l S
102.918 165.867 m 102.918 136.262 l S
105.457 165.887 m 105.457 136.266 l S
108 165.793 m 108 136.359 l S
110.543 165.77 m 110.543 136.371 l S
113.082 165.809 m 113.082 136.316 l S
115.625 165.832 m 115.625 136.301 l S
118.164 165.855 m 118.164 136.262 l S
120.707 165.957 m 120.707 136.191 l S
123.246 165.988 m 123.246 136.125 l S
125.789 165.98 m 125.789 136.137 l S
128.328 165.992 m 128.328 136.188 l S
130.871 166.031 m 130.871 136.105 l S
133.41 165.961 m 133.41 136.18 l S
135.953 165.938 m 135.953 136.168 l S
138.492 165.969 m 138.492 136.184 l S
141.035 165.957 m 141.035 136.148 l S
143.578 165.926 m 143.578 136.195 l S
146.117 165.895 m 146.117 136.242 l S
148.66 165.852 m 148.66 136.27 l S
151.199 165.863 m 151.199 136.254 l S
153.742 165.848 m 153.742 136.254 l S
156.281 165.852 m 156.281 136.293 l S
158.824 165.848 m 158.824 136.246 l S
161.363 165.844 m 161.363 136.277 l S
163.906 165.918 m 163.906 136.234 l S
166.445 165.957 m 166.445 136.223 l S
168.988 165.961 m 168.988 136.184 l S
171.531 166.102 m 171.531 136.16 l S
174.07 166.043 m 174.07 136.105 l S
176.613 165.965 m 176.613 136.137 l S
179.152 165.898 m 179.152 136.262 l S
181.695 165.344 m 181.695 136.953 l S
184.234 160.57 m 184.234 141.656 l S
186.777 156.488 m 186.777 145.23 l S
189.316 154.754 m 189.316 147.73 l S
191.859 153.102 m 191.859 148.926 l S
194.398 152.262 m 194.398 149.715 l S
196.941 151.723 m 196.941 150.242 l S
199.48 151.594 m 199.48 150.465 l S
202.023 151.293 m 202.023 150.746 l S
204.566 151.242 m 204.566 150.805 l S
207.105 151.258 m 207.105 150.816 l S
209.648 151.203 m 209.648 150.844 l S
212.188 151.148 m 212.188 150.871 l S
214.73 151.215 m 214.73 150.844 l S
217.27 151.234 m 217.27 150.805 l S
219.812 151.164 m 219.812 150.875 l S
222.352 151.223 m 222.352 150.844 l S
224.895 151.211 m 224.895 150.828 l S
227.434 151.211 m 227.434 150.848 l S
229.977 151.195 m 229.977 150.859 l S
232.52 151.164 m 232.52 150.859 l S
235.059 151.168 m 235.059 150.891 l S
237.602 151.168 m 237.602 150.879 l S
240.141 151.129 m 240.141 150.934 l S
242.684 151.129 m 242.684 150.934 l S
245.223 151.129 m 245.223 150.934 l S
247.766 151.129 m 247.766 150.934 l S
250.305 151.129 m 250.305 150.934 l S
252.848 151.129 m 252.848 150.934 l S
255.387 151.129 m 255.387 150.934 l S
255.387 151.129 m 255.387 150.934 l S
Q Q
showpage
%%Trailer
end
%%EOF
