%!PS-Adobe-3.0 EPSF-3.0
%%Creator: cairo 1.16.0 (https://cairographics.org)
%%CreationDate: Wed May 15 11:57:25 2024
%%Pages: 1
%%DocumentData: Clean7Bit
%%LanguageLevel: 2
%%Creator: Wolfram Mathematica
%%BoundingBox: 2 2 257 167
%%EndComments
%%BeginProlog
50 dict begin
/q { gsave } bind def
/Q { grestore } bind def
/cm { 6 array astore concat } bind def
/w { setlinewidth } bind def
/J { setlinecap } bind def
/j { setlinejoin } bind def
/M { setmiterlimit } bind def
/d { setdash } bind def
/m { moveto } bind def
/l { lineto } bind def
/c { curveto } bind def
/h { closepath } bind def
/re { exch dup neg 3 1 roll 5 3 roll moveto 0 rlineto
      0 exch rlineto 0 rlineto closepath } bind def
/S { stroke } bind def
/f { fill } bind def
/f* { eofill } bind def
/n { newpath } bind def
/W { clip } bind def
/W* { eoclip } bind def
/BT { } bind def
/ET { } bind def
/BDC { mark 3 1 roll /BDC pdfmark } bind def
/EMC { mark /EMC pdfmark } bind def
/cairo_store_point { /cairo_point_y exch def /cairo_point_x exch def } def
/Tj { show currentpoint cairo_store_point } bind def
/TJ {
  {
    dup
    type /stringtype eq
    { show } { -0.001 mul 0 cairo_font_matrix dtransform rmoveto } ifelse
  } forall
  currentpoint cairo_store_point
} bind def
/cairo_selectfont { cairo_font_matrix aload pop pop pop 0 0 6 array astore
    cairo_font exch selectfont cairo_point_x cairo_point_y moveto } bind def
/Tf { pop /cairo_font exch def /cairo_font_matrix where
      { pop cairo_selectfont } if } bind def
/Td { matrix translate cairo_font_matrix matrix concatmatrix dup
      /cairo_font_matrix exch def dup 4 get exch 5 get cairo_store_point
      /cairo_font where { pop cairo_selectfont } if } bind def
/Tm { 2 copy 8 2 roll 6 array astore /cairo_font_matrix exch def
      cairo_store_point /cairo_font where { pop cairo_selectfont } if } bind def
/g { setgray } bind def
/rg { setrgbcolor } bind def
/d1 { setcachedevice } bind def
/cairo_data_source {
  CairoDataIndex CairoData length lt
    { CairoData CairoDataIndex get /CairoDataIndex CairoDataIndex 1 add def }
    { () } ifelse
} def
/cairo_flush_ascii85_file { cairo_ascii85_file status { cairo_ascii85_file flushfile } if } def
/cairo_image { image cairo_flush_ascii85_file } def
/cairo_imagemask { imagemask cairo_flush_ascii85_file } def
%%EndProlog
%%BeginSetup
%%EndSetup
%%Page: 1 1
%%BeginPageSetup
%%PageBoundingBox: 2 2 257 167
%%EndPageSetup
q 2 2 255 165 rectclip
1 0 0 -1 0 173 cm q
0 g
1.796436 w
0 J
0 j
[] 0.0 d
3.25 M 3.812 21.75 m 3.812 21.551 l S
6.352 26.133 m 6.352 16.836 l S
8.895 32.078 m 8.895 11.516 l S
11.434 33.66 m 11.434 9.809 l S
13.977 34.617 m 13.977 8.973 l S
16.52 35.078 m 16.52 8.488 l S
19.059 35.383 m 19.059 8.16 l S
21.602 35.547 m 21.602 8.016 l S
24.141 35.672 m 24.141 7.883 l S
26.684 35.734 m 26.684 7.816 l S
29.223 35.766 m 29.223 7.781 l S
31.766 35.773 m 31.766 7.781 l S
34.305 35.762 m 34.305 7.797 l S
36.848 35.848 m 36.848 7.742 l S
39.387 35.953 m 39.387 7.613 l S
41.93 36.012 m 41.93 7.559 l S
44.469 36.043 m 44.469 7.531 l S
47.012 36.113 m 47.012 7.465 l S
49.555 36.211 m 49.555 7.379 l S
52.094 36.316 m 52.094 7.305 l S
54.637 36.402 m 54.637 7.191 l S
57.176 36.543 m 57.176 7.07 l S
59.719 36.613 m 59.719 7.023 l S
62.258 36.695 m 62.258 6.945 l S
64.801 36.758 m 64.801 6.852 l S
67.34 36.859 m 67.34 6.777 l S
69.883 36.953 m 69.883 6.68 l S
72.422 37.02 m 72.422 6.621 l S
74.965 37.016 m 74.965 6.617 l S
77.508 37.035 m 77.508 6.602 l S
80.047 37.02 m 80.047 6.621 l S
82.59 37.027 m 82.59 6.625 l S
85.129 37.012 m 85.129 6.605 l S
87.672 37 m 87.672 6.629 l S
90.211 36.996 m 90.211 6.656 l S
92.754 36.965 m 92.754 6.68 l S
95.293 36.953 m 95.293 6.703 l S
97.836 36.922 m 97.836 6.715 l S
100.375 36.926 m 100.375 6.715 l S
102.918 36.949 m 102.918 6.703 l S
105.457 36.945 m 105.457 6.676 l S
108 36.926 m 108 6.727 l S
110.543 36.914 m 110.543 6.715 l S
113.082 36.887 m 113.082 6.746 l S
115.625 36.914 m 115.625 6.754 l S
118.164 36.938 m 118.164 6.703 l S
120.707 36.938 m 120.707 6.684 l S
123.246 36.961 m 123.246 6.648 l S
125.789 36.98 m 125.789 6.633 l S
128.328 37.004 m 128.328 6.66 l S
130.871 36.984 m 130.871 6.621 l S
133.41 37.012 m 133.41 6.613 l S
135.953 37.004 m 135.953 6.641 l S
138.492 36.926 m 138.492 6.691 l S
141.035 36.875 m 141.035 6.75 l S
143.578 36.883 m 143.578 6.738 l S
146.117 36.902 m 146.117 6.734 l S
148.66 36.906 m 148.66 6.715 l S
151.199 36.934 m 151.199 6.711 l S
153.742 36.938 m 153.742 6.684 l S
156.281 36.934 m 156.281 6.707 l S
158.824 36.93 m 158.824 6.691 l S
161.363 36.922 m 161.363 6.707 l S
163.906 36.902 m 163.906 6.727 l S
166.445 36.879 m 166.445 6.719 l S
168.988 36.883 m 168.988 6.742 l S
171.531 36.895 m 171.531 6.73 l S
174.07 36.875 m 174.07 6.738 l S
176.613 36.777 m 176.613 6.832 l S
179.152 34.164 m 179.152 9.406 l S
181.695 30.535 m 181.695 12.73 l S
184.234 28.516 m 184.234 14.746 l S
186.777 26.98 m 186.777 16.402 l S
189.316 25.695 m 189.316 17.617 l S
191.859 24.648 m 191.859 18.656 l S
194.398 23.812 m 194.398 19.492 l S
196.941 23.148 m 196.941 20.109 l S
199.48 22.602 m 199.48 20.66 l S
202.023 22.297 m 202.023 20.969 l S
204.566 22.105 m 204.566 21.195 l S
207.105 21.945 m 207.105 21.352 l S
209.648 21.852 m 209.648 21.438 l S
212.188 21.801 m 212.188 21.488 l S
214.73 21.758 m 214.73 21.551 l S
217.27 21.75 m 217.27 21.551 l S
219.812 21.75 m 219.812 21.551 l S
222.352 21.75 m 222.352 21.551 l S
224.895 21.75 m 224.895 21.551 l S
227.434 21.75 m 227.434 21.551 l S
229.977 21.75 m 229.977 21.551 l S
232.52 21.75 m 232.52 21.551 l S
235.059 21.75 m 235.059 21.551 l S
237.602 21.75 m 237.602 21.551 l S
240.141 21.75 m 240.141 21.551 l S
242.684 21.75 m 242.684 21.551 l S
245.223 21.75 m 245.223 21.551 l S
247.766 21.75 m 247.766 21.551 l S
250.305 21.75 m 250.305 21.551 l S
252.848 21.75 m 252.848 21.551 l S
255.387 21.75 m 255.387 21.551 l S
255.387 21.75 m 255.387 21.551 l S
3.812 64.949 m 3.812 64.754 l S
6.352 68.559 m 6.352 60.938 l S
8.895 74.008 m 8.895 55.863 l S
11.434 75.277 m 11.434 54.172 l S
13.977 76.125 m 13.977 53.465 l S
16.52 76.664 m 16.52 52.973 l S
19.059 77.023 m 19.059 52.613 l S
21.602 77.16 m 21.602 52.406 l S
24.141 77.254 m 24.141 52.434 l S
26.684 77.348 m 26.684 52.312 l S
29.223 77.336 m 29.223 52.301 l S
31.766 77.414 m 31.766 52.195 l S
34.305 77.473 m 34.305 52.215 l S
36.848 77.414 m 36.848 52.242 l S
39.387 77.492 m 39.387 52.152 l S
41.93 77.535 m 41.93 52.098 l S
44.469 77.578 m 44.469 52.02 l S
47.012 77.637 m 47.012 52.031 l S
49.555 77.762 m 49.555 51.871 l S
52.094 77.773 m 52.094 51.828 l S
54.637 77.855 m 54.637 51.762 l S
57.176 77.957 m 57.176 51.621 l S
59.719 78.047 m 59.719 51.566 l S
62.258 78.117 m 62.258 51.48 l S
64.801 78.234 m 64.801 51.363 l S
67.34 78.25 m 67.34 51.285 l S
69.883 78.336 m 69.883 51.219 l S
72.422 78.414 m 72.422 51.094 l S
74.965 78.445 m 74.965 51.16 l S
77.508 78.43 m 77.508 51.129 l S
80.047 78.41 m 80.047 51.184 l S
82.59 78.438 m 82.59 51.145 l S
85.129 78.406 m 85.129 51.168 l S
87.672 78.484 m 87.672 51.152 l S
90.211 78.418 m 90.211 51.156 l S
92.754 78.402 m 92.754 51.176 l S
95.293 78.359 m 95.293 51.215 l S
97.836 78.391 m 97.836 51.215 l S
100.375 78.371 m 100.375 51.18 l S
102.918 78.363 m 102.918 51.211 l S
105.457 78.426 m 105.457 51.207 l S
108 78.398 m 108 51.203 l S
110.543 78.379 m 110.543 51.211 l S
113.082 78.379 m 113.082 51.195 l S
115.625 78.402 m 115.625 51.16 l S
118.164 78.449 m 118.164 51.152 l S
120.707 78.438 m 120.707 51.145 l S
123.246 78.453 m 123.246 51.152 l S
125.789 78.477 m 125.789 51.109 l S
128.328 78.438 m 128.328 51.098 l S
130.871 78.5 m 130.871 51.055 l S
133.41 78.457 m 133.41 51.102 l S
135.953 78.449 m 135.953 51.125 l S
138.492 78.434 m 138.492 51.176 l S
141.035 78.383 m 141.035 51.195 l S
143.578 78.348 m 143.578 51.23 l S
146.117 78.363 m 146.117 51.223 l S
148.66 78.406 m 148.66 51.176 l S
151.199 78.41 m 151.199 51.16 l S
153.742 78.457 m 153.742 51.168 l S
156.281 78.426 m 156.281 51.176 l S
158.824 78.422 m 158.824 51.16 l S
161.363 78.43 m 161.363 51.121 l S
163.906 78.383 m 163.906 51.188 l S
166.445 78.395 m 166.445 51.184 l S
168.988 78.363 m 168.988 51.184 l S
171.531 78.418 m 171.531 51.164 l S
174.07 78.398 m 174.07 51.152 l S
176.613 78.344 m 176.613 51.305 l S
179.152 76.938 m 179.152 52.75 l S
181.695 74.203 m 181.695 55.543 l S
184.234 71.922 m 184.234 57.648 l S
186.777 70.273 m 186.777 59.348 l S
189.316 68.996 m 189.316 60.766 l S
191.859 67.957 m 191.859 61.77 l S
194.398 67.141 m 194.398 62.555 l S
196.941 66.504 m 196.941 63.215 l S
199.48 65.969 m 199.48 63.711 l S
202.023 65.609 m 202.023 64.137 l S
204.566 65.355 m 204.566 64.359 l S
207.105 65.211 m 207.105 64.492 l S
209.648 65.105 m 209.648 64.594 l S
212.188 65.066 m 212.188 64.691 l S
214.73 64.988 m 214.73 64.688 l S
217.27 64.949 m 217.27 64.754 l S
219.812 64.949 m 219.812 64.754 l S
222.352 64.949 m 222.352 64.754 l S
224.895 64.949 m 224.895 64.754 l S
227.434 64.949 m 227.434 64.754 l S
229.977 64.949 m 229.977 64.754 l S
232.52 64.949 m 232.52 64.754 l S
235.059 64.949 m 235.059 64.754 l S
237.602 64.949 m 237.602 64.754 l S
240.141 64.949 m 240.141 64.754 l S
242.684 64.949 m 242.684 64.754 l S
245.223 64.949 m 245.223 64.754 l S
247.766 64.949 m 247.766 64.754 l S
250.305 64.949 m 250.305 64.754 l S
252.848 64.949 m 252.848 64.754 l S
255.387 64.949 m 255.387 64.754 l S
255.387 64.949 m 255.387 64.754 l S
3.812 108.148 m 3.812 107.953 l S
6.352 113.465 m 6.352 102.281 l S
8.895 119.406 m 8.895 96.934 l S
11.434 120.586 m 11.434 95.363 l S
13.977 121.465 m 13.977 94.523 l S
16.52 121.953 m 16.52 94.008 l S
19.059 122.312 m 19.059 93.715 l S
21.602 122.484 m 21.602 93.508 l S
24.141 122.59 m 24.141 93.395 l S
26.684 122.684 m 26.684 93.27 l S
29.223 122.684 m 29.223 93.234 l S
31.766 122.727 m 31.766 93.188 l S
34.305 122.773 m 34.305 93.238 l S
36.848 122.719 m 36.848 93.211 l S
39.387 122.859 m 39.387 93.051 l S
41.93 122.949 m 41.93 92.965 l S
44.469 122.941 m 44.469 92.969 l S
47.012 123.008 m 47.012 92.934 l S
49.555 123.199 m 49.555 92.734 l S
52.094 123.18 m 52.094 92.668 l S
54.637 123.281 m 54.637 92.605 l S
57.176 123.418 m 57.176 92.406 l S
59.719 123.512 m 59.719 92.367 l S
62.258 123.586 m 62.258 92.281 l S
64.801 123.676 m 64.801 92.191 l S
67.34 123.785 m 67.34 92.059 l S
69.883 123.875 m 69.883 91.953 l S
72.422 123.953 m 72.422 91.91 l S
74.965 123.953 m 74.965 91.902 l S
77.508 123.969 m 77.508 91.879 l S
80.047 123.926 m 80.047 91.926 l S
82.59 123.965 m 82.59 91.895 l S
85.129 123.906 m 85.129 91.91 l S
87.672 123.949 m 87.672 91.918 l S
90.211 123.918 m 90.211 91.918 l S
92.754 123.879 m 92.754 91.953 l S
95.293 123.844 m 95.293 91.988 l S
97.836 123.832 m 97.836 91.988 l S
100.375 123.844 m 100.375 91.961 l S
102.918 123.848 m 102.918 91.973 l S
105.457 123.926 m 105.457 91.961 l S
108 123.844 m 108 91.945 l S
110.543 123.895 m 110.543 92.02 l S
113.082 123.875 m 113.082 92.008 l S
115.625 123.855 m 115.625 91.98 l S
118.164 123.879 m 118.164 91.957 l S
120.707 123.898 m 120.707 91.949 l S
123.246 123.988 m 123.246 91.906 l S
125.789 123.922 m 125.789 91.91 l S
128.328 123.926 m 128.328 91.879 l S
130.871 123.934 m 130.871 91.852 l S
133.41 123.945 m 133.41 91.852 l S
135.953 123.914 m 135.953 91.918 l S
138.492 123.867 m 138.492 91.945 l S
141.035 123.793 m 141.035 91.984 l S
143.578 123.852 m 143.578 92.012 l S
146.117 123.828 m 146.117 91.992 l S
148.66 123.867 m 148.66 91.957 l S
151.199 123.895 m 151.199 91.914 l S
153.742 123.938 m 153.742 91.91 l S
156.281 123.875 m 156.281 91.957 l S
158.824 123.844 m 158.824 91.98 l S
161.363 123.863 m 161.363 91.953 l S
163.906 123.852 m 163.906 92 l S
166.445 123.844 m 166.445 92.008 l S
168.988 123.828 m 168.988 91.969 l S
171.531 123.855 m 171.531 91.992 l S
174.07 123.812 m 174.07 92.016 l S
176.613 123.719 m 176.613 92.168 l S
179.152 121.328 m 179.152 94.312 l S
181.695 118.363 m 181.695 97.691 l S
184.234 115.871 m 184.234 100.078 l S
186.777 114.195 m 186.777 101.832 l S
189.316 112.863 m 189.316 103.344 l S
191.859 111.629 m 191.859 104.371 l S
194.398 110.684 m 194.398 105.309 l S
196.941 110.004 m 196.941 106.074 l S
199.48 109.402 m 199.48 106.723 l S
202.023 109.023 m 202.023 107.195 l S
204.566 108.691 m 204.566 107.457 l S
207.105 108.465 m 207.105 107.613 l S
209.648 108.336 m 209.648 107.742 l S
212.188 108.316 m 212.188 107.871 l S
214.73 108.215 m 214.73 107.871 l S
217.27 108.152 m 217.27 107.941 l S
219.812 108.148 m 219.812 107.953 l S
222.352 108.148 m 222.352 107.953 l S
224.895 108.148 m 224.895 107.953 l S
227.434 108.148 m 227.434 107.953 l S
229.977 108.148 m 229.977 107.953 l S
232.52 108.148 m 232.52 107.953 l S
235.059 108.148 m 235.059 107.953 l S
237.602 108.148 m 237.602 107.953 l S
240.141 108.148 m 240.141 107.953 l S
242.684 108.148 m 242.684 107.953 l S
245.223 108.148 m 245.223 107.953 l S
247.766 108.148 m 247.766 107.953 l S
250.305 108.148 m 250.305 107.953 l S
252.848 108.148 m 252.848 107.953 l S
255.387 108.148 m 255.387 107.953 l S
255.387 108.148 m 255.387 107.953 l S
3.812 151.348 m 3.812 151.152 l S
6.352 157.895 m 6.352 144.719 l S
8.895 165.301 m 8.895 137.547 l S
11.434 166.766 m 11.434 135.422 l S
13.977 167.891 m 13.977 134.453 l S
16.52 168.406 m 16.52 133.891 l S
19.059 168.887 m 19.059 133.625 l S
21.602 169.105 m 21.602 133.367 l S
24.141 169.129 m 24.141 133.312 l S
26.684 169.273 m 26.684 133.191 l S
29.223 169.266 m 29.223 133.109 l S
31.766 169.336 m 31.766 133.109 l S
34.305 169.414 m 34.305 133.102 l S
36.848 169.336 m 36.848 133.121 l S
39.387 169.438 m 39.387 132.961 l S
41.93 169.488 m 41.93 132.926 l S
44.469 169.512 m 44.469 132.867 l S
47.012 169.594 m 47.012 132.867 l S
49.555 169.867 m 49.555 132.66 l S
52.094 169.828 m 52.094 132.496 l S
54.637 169.961 m 54.637 132.508 l S
57.176 170.098 m 57.176 132.316 l S
59.719 170.219 m 59.719 132.242 l S
62.258 170.352 m 62.258 132.082 l S
64.801 170.512 m 64.801 132.043 l S
67.34 170.551 m 67.34 131.93 l S
69.883 170.684 m 69.883 131.809 l S
72.422 170.766 m 72.422 131.648 l S
74.965 170.793 m 74.965 131.676 l S
77.508 170.719 m 77.508 131.727 l S
80.047 170.742 m 80.047 131.738 l S
82.59 170.758 m 82.59 131.762 l S
85.129 170.715 m 85.129 131.73 l S
87.672 170.824 m 87.672 131.738 l S
90.211 170.742 m 90.211 131.738 l S
92.754 170.703 m 92.754 131.785 l S
95.293 170.629 m 95.293 131.809 l S
97.836 170.676 m 97.836 131.816 l S
100.375 170.672 m 100.375 131.766 l S
102.918 170.699 m 102.918 131.777 l S
105.457 170.73 m 105.457 131.766 l S
108 170.637 m 108 131.762 l S
110.543 170.703 m 110.543 131.812 l S
113.082 170.66 m 113.082 131.773 l S
115.625 170.691 m 115.625 131.711 l S
118.164 170.719 m 118.164 131.746 l S
120.707 170.754 m 120.707 131.707 l S
123.246 170.836 m 123.246 131.656 l S
125.789 170.836 m 125.789 131.668 l S
128.328 170.828 m 128.328 131.645 l S
130.871 170.812 m 130.871 131.562 l S
133.41 170.816 m 133.41 131.594 l S
135.953 170.754 m 135.953 131.648 l S
138.492 170.66 m 138.492 131.727 l S
141.035 170.629 m 141.035 131.797 l S
143.578 170.707 m 143.578 131.738 l S
146.117 170.648 m 146.117 131.738 l S
148.66 170.707 m 148.66 131.707 l S
151.199 170.738 m 151.199 131.703 l S
153.742 170.77 m 153.742 131.668 l S
156.281 170.766 m 156.281 131.66 l S
158.824 170.758 m 158.824 131.688 l S
161.363 170.734 m 161.363 131.695 l S
163.906 170.707 m 163.906 131.723 l S
166.445 170.699 m 166.445 131.727 l S
168.988 170.715 m 168.988 131.707 l S
171.531 170.711 m 171.531 131.719 l S
174.07 170.672 m 174.07 131.711 l S
176.613 170.555 m 176.613 131.934 l S
179.152 168.281 m 179.152 134.219 l S
181.695 164.781 m 181.695 137.77 l S
184.234 161.582 m 184.234 140.887 l S
186.777 159.199 m 186.777 143.238 l S
189.316 157.504 m 189.316 145.316 l S
191.859 155.883 m 191.859 146.586 l S
194.398 154.805 m 194.398 147.73 l S
196.941 153.852 m 196.941 148.695 l S
199.48 153.094 m 199.48 149.422 l S
202.023 152.566 m 202.023 150.023 l S
204.566 152.078 m 204.566 150.395 l S
207.105 151.875 m 207.105 150.672 l S
209.648 151.68 m 209.648 150.797 l S
212.188 151.645 m 212.188 151.004 l S
214.73 151.477 m 214.73 151.004 l S
217.27 151.395 m 217.27 151.098 l S
219.812 151.352 m 219.812 151.137 l S
222.352 151.363 m 222.352 151.152 l S
224.895 151.348 m 224.895 151.152 l S
227.434 151.348 m 227.434 151.152 l S
229.977 151.348 m 229.977 151.152 l S
232.52 151.348 m 232.52 151.152 l S
235.059 151.348 m 235.059 151.152 l S
237.602 151.348 m 237.602 151.152 l S
240.141 151.348 m 240.141 151.152 l S
242.684 151.348 m 242.684 151.152 l S
245.223 151.348 m 245.223 151.152 l S
247.766 151.348 m 247.766 151.152 l S
250.305 151.348 m 250.305 151.152 l S
252.848 151.348 m 252.848 151.152 l S
255.387 151.348 m 255.387 151.152 l S
255.387 151.348 m 255.387 151.152 l S
Q Q
showpage
%%Trailer
end
%%EOF
