%!PS-Adobe-3.0 EPSF-3.0
%%Creator: cairo 1.16.0 (https://cairographics.org)
%%CreationDate: Wed May 15 11:57:25 2024
%%Pages: 1
%%DocumentData: Clean7Bit
%%LanguageLevel: 2
%%Creator: Wolfram Mathematica
%%BoundingBox: 2 7 257 165
%%EndComments
%%BeginProlog
50 dict begin
/q { gsave } bind def
/Q { grestore } bind def
/cm { 6 array astore concat } bind def
/w { setlinewidth } bind def
/J { setlinecap } bind def
/j { setlinejoin } bind def
/M { setmiterlimit } bind def
/d { setdash } bind def
/m { moveto } bind def
/l { lineto } bind def
/c { curveto } bind def
/h { closepath } bind def
/re { exch dup neg 3 1 roll 5 3 roll moveto 0 rlineto
      0 exch rlineto 0 rlineto closepath } bind def
/S { stroke } bind def
/f { fill } bind def
/f* { eofill } bind def
/n { newpath } bind def
/W { clip } bind def
/W* { eoclip } bind def
/BT { } bind def
/ET { } bind def
/BDC { mark 3 1 roll /BDC pdfmark } bind def
/EMC { mark /EMC pdfmark } bind def
/cairo_store_point { /cairo_point_y exch def /cairo_point_x exch def } def
/Tj { show currentpoint cairo_store_point } bind def
/TJ {
  {
    dup
    type /stringtype eq
    { show } { -0.001 mul 0 cairo_font_matrix dtransform rmoveto } ifelse
  } forall
  currentpoint cairo_store_point
} bind def
/cairo_selectfont { cairo_font_matrix aload pop pop pop 0 0 6 array astore
    cairo_font exch selectfont cairo_point_x cairo_point_y moveto } bind def
/Tf { pop /cairo_font exch def /cairo_font_matrix where
      { pop cairo_selectfont } if } bind def
/Td { matrix translate cairo_font_matrix matrix concatmatrix dup
      /cairo_font_matrix exch def dup 4 get exch 5 get cairo_store_point
      /cairo_font where { pop cairo_selectfont } if } bind def
/Tm { 2 copy 8 2 roll 6 array astore /cairo_font_matrix exch def
      cairo_store_point /cairo_font where { pop cairo_selectfont } if } bind def
/g { setgray } bind def
/rg { setrgbcolor } bind def
/d1 { setcachedevice } bind def
/cairo_data_source {
  CairoDataIndex CairoData length lt
    { CairoData CairoDataIndex get /CairoDataIndex CairoDataIndex 1 add def }
    { () } ifelse
} def
/cairo_flush_ascii85_file { cairo_ascii85_file status { cairo_ascii85_file flushfile } if } def
/cairo_image { image cairo_flush_ascii85_file } def
/cairo_imagemask { imagemask cairo_flush_ascii85_file } def
%%EndProlog
%%BeginSetup
%%EndSetup
%%Page: 1 1
%%BeginPageSetup
%%PageBoundingBox: 2 7 257 165
%%EndPageSetup
q 2 7 255 158 rectclip
1 0 0 -1 0 173 cm q
0 g
1.796436 w
0 J
0 j
[] 0.0 d
3.25 M 3.812 21.473 m 3.812 21.277 l S
6.352 23.668 m 6.352 19.445 l S
8.895 30.043 m 8.895 12.816 l S
11.434 32.57 m 11.434 10.324 l S
13.977 33.73 m 13.977 9.41 l S
16.516 34.312 m 16.516 8.93 l S
19.059 34.496 m 19.059 8.742 l S
21.598 34.605 m 21.598 8.656 l S
24.141 34.633 m 24.141 8.625 l S
26.68 34.656 m 26.68 8.609 l S
29.223 34.652 m 29.223 8.617 l S
31.762 34.652 m 31.762 8.629 l S
34.305 34.652 m 34.305 8.625 l S
36.844 34.676 m 36.844 8.598 l S
39.387 34.684 m 39.387 8.598 l S
41.93 34.695 m 41.93 8.562 l S
44.469 34.699 m 44.469 8.57 l S
47.012 34.707 m 47.012 8.559 l S
49.551 34.738 m 49.551 8.523 l S
52.094 34.738 m 52.094 8.535 l S
54.633 34.73 m 54.633 8.535 l S
57.176 34.73 m 57.176 8.539 l S
59.715 34.746 m 59.715 8.527 l S
62.258 34.777 m 62.258 8.504 l S
64.797 34.797 m 64.797 8.473 l S
67.34 34.824 m 67.34 8.469 l S
69.879 34.812 m 69.879 8.465 l S
72.422 34.816 m 72.422 8.453 l S
74.961 34.836 m 74.961 8.445 l S
77.504 34.832 m 77.504 8.445 l S
80.043 34.82 m 80.043 8.453 l S
82.586 34.828 m 82.586 8.441 l S
85.125 34.84 m 85.125 8.441 l S
87.668 34.883 m 87.668 8.387 l S
90.207 34.922 m 90.207 8.348 l S
92.75 34.938 m 92.75 8.34 l S
95.289 34.965 m 95.289 8.328 l S
97.832 35.008 m 97.832 8.277 l S
100.371 35.023 m 100.371 8.262 l S
102.914 35.016 m 102.914 8.273 l S
105.453 35.004 m 105.453 8.285 l S
107.996 34.996 m 107.996 8.301 l S
110.535 34.977 m 110.535 8.289 l S
113.078 34.973 m 113.078 8.324 l S
115.617 34.922 m 115.617 8.34 l S
118.16 34.871 m 118.16 8.402 l S
120.703 34.855 m 120.703 8.414 l S
123.242 34.848 m 123.242 8.422 l S
125.785 34.84 m 125.785 8.43 l S
128.324 34.871 m 128.324 8.422 l S
130.867 34.879 m 130.867 8.395 l S
133.406 34.883 m 133.406 8.398 l S
135.949 34.879 m 135.949 8.391 l S
138.488 34.895 m 138.488 8.379 l S
141.031 34.914 m 141.031 8.371 l S
143.57 34.93 m 143.57 8.367 l S
146.113 34.957 m 146.113 8.34 l S
148.652 34.961 m 148.652 8.316 l S
151.195 34.969 m 151.195 8.316 l S
153.734 34.973 m 153.734 8.312 l S
156.277 34.996 m 156.277 8.293 l S
158.816 34.969 m 158.816 8.297 l S
161.359 34.992 m 161.359 8.273 l S
163.898 34.984 m 163.898 8.289 l S
166.441 34.98 m 166.441 8.305 l S
168.98 34.977 m 168.98 8.305 l S
171.523 34.969 m 171.523 8.32 l S
174.062 34.965 m 174.062 8.312 l S
176.605 34.969 m 176.605 8.324 l S
179.145 34.973 m 179.145 8.332 l S
181.688 34.938 m 181.688 8.348 l S
184.227 34.953 m 184.227 8.367 l S
186.77 34.902 m 186.77 8.371 l S
189.309 34.906 m 189.309 8.383 l S
191.852 34.883 m 191.852 8.414 l S
194.391 32.715 m 194.391 10.441 l S
196.934 28.512 m 196.934 14.25 l S
199.473 26.215 m 199.473 16.594 l S
202.016 24.547 m 202.016 18.211 l S
204.559 23.25 m 204.559 19.512 l S
207.098 22.441 m 207.098 20.312 l S
209.641 22.047 m 209.641 20.691 l S
212.18 21.809 m 212.18 20.957 l S
214.723 21.641 m 214.723 21.117 l S
217.262 21.527 m 217.262 21.238 l S
219.805 21.477 m 219.805 21.27 l S
222.344 21.473 m 222.344 21.277 l S
224.887 21.473 m 224.887 21.277 l S
227.426 21.473 m 227.426 21.277 l S
229.969 21.473 m 229.969 21.277 l S
232.508 21.473 m 232.508 21.277 l S
235.051 21.473 m 235.051 21.277 l S
237.59 21.473 m 237.59 21.277 l S
240.133 21.473 m 240.133 21.277 l S
242.672 21.473 m 242.672 21.277 l S
245.215 21.473 m 245.215 21.277 l S
247.754 21.473 m 247.754 21.277 l S
250.297 21.473 m 250.297 21.277 l S
252.836 21.473 m 252.836 21.277 l S
255.379 21.473 m 255.379 21.277 l S
255.379 21.473 m 255.379 21.277 l S
3.812 64.672 m 3.812 64.477 l S
6.352 66 m 6.352 63.203 l S
8.895 69.648 m 8.895 59.418 l S
11.434 71.223 m 11.434 57.793 l S
13.977 71.996 m 13.977 57.082 l S
16.516 72.234 m 16.516 56.75 l S
19.059 72.379 m 19.059 56.688 l S
21.598 72.414 m 21.598 56.648 l S
24.141 72.41 m 24.141 56.602 l S
26.68 72.453 m 26.68 56.57 l S
29.223 72.445 m 29.223 56.57 l S
31.762 72.457 m 31.762 56.559 l S
34.305 72.441 m 34.305 56.578 l S
36.844 72.457 m 36.844 56.539 l S
39.387 72.469 m 39.387 56.531 l S
41.93 72.57 m 41.93 56.477 l S
44.469 72.547 m 44.469 56.484 l S
47.012 72.52 m 47.012 56.492 l S
49.551 72.574 m 49.551 56.449 l S
52.094 72.535 m 52.094 56.434 l S
54.633 72.52 m 54.633 56.477 l S
57.176 72.512 m 57.176 56.488 l S
59.715 72.531 m 59.715 56.457 l S
62.258 72.562 m 62.258 56.445 l S
64.797 72.602 m 64.797 56.434 l S
67.34 72.59 m 67.34 56.402 l S
69.879 72.602 m 69.879 56.418 l S
72.422 72.594 m 72.422 56.41 l S
74.961 72.594 m 74.961 56.422 l S
77.504 72.617 m 77.504 56.406 l S
80.043 72.613 m 80.043 56.387 l S
82.586 72.629 m 82.586 56.395 l S
85.125 72.625 m 85.125 56.414 l S
87.668 72.645 m 87.668 56.367 l S
90.207 72.699 m 90.207 56.328 l S
92.75 72.684 m 92.75 56.289 l S
95.289 72.672 m 95.289 56.25 l S
97.832 72.723 m 97.832 56.27 l S
100.371 72.742 m 100.371 56.246 l S
102.914 72.738 m 102.914 56.234 l S
105.453 72.73 m 105.453 56.238 l S
107.996 72.746 m 107.996 56.262 l S
110.535 72.723 m 110.535 56.289 l S
113.078 72.707 m 113.078 56.262 l S
115.617 72.73 m 115.617 56.266 l S
118.16 72.738 m 118.16 56.301 l S
120.703 72.719 m 120.703 56.305 l S
123.242 72.688 m 123.242 56.305 l S
125.785 72.691 m 125.785 56.34 l S
128.324 72.734 m 128.324 56.336 l S
130.867 72.742 m 130.867 56.305 l S
133.406 72.73 m 133.406 56.316 l S
135.949 72.805 m 135.949 56.328 l S
138.488 72.758 m 138.488 56.277 l S
141.031 72.766 m 141.031 56.293 l S
143.57 72.852 m 143.57 56.309 l S
146.113 72.73 m 146.113 56.277 l S
148.652 72.801 m 148.652 56.246 l S
151.195 72.766 m 151.195 56.246 l S
153.734 72.91 m 153.734 56.184 l S
156.277 72.824 m 156.277 56.203 l S
158.816 72.758 m 158.816 56.27 l S
161.359 72.859 m 161.359 56.18 l S
163.898 72.824 m 163.898 56.277 l S
166.441 72.793 m 166.441 56.219 l S
168.98 72.762 m 168.98 56.27 l S
171.523 72.758 m 171.523 56.203 l S
174.062 72.832 m 174.062 56.25 l S
176.605 72.816 m 176.605 56.281 l S
179.145 72.758 m 179.145 56.277 l S
181.688 72.801 m 181.688 56.238 l S
184.227 72.758 m 184.227 56.203 l S
186.77 72.762 m 186.77 56.27 l S
189.309 72.773 m 189.309 56.277 l S
191.852 72.766 m 191.852 56.414 l S
194.391 71.195 m 194.391 57.715 l S
196.934 68.777 m 196.934 60.348 l S
199.473 67.344 m 199.473 61.938 l S
202.016 66.277 m 202.016 62.887 l S
204.559 65.652 m 204.559 63.625 l S
207.098 65.141 m 207.098 64.035 l S
209.641 64.988 m 209.641 64.18 l S
212.18 64.848 m 212.18 64.262 l S
214.723 64.77 m 214.723 64.387 l S
217.262 64.727 m 217.262 64.441 l S
219.805 64.672 m 219.805 64.477 l S
222.344 64.672 m 222.344 64.477 l S
224.887 64.672 m 224.887 64.477 l S
227.426 64.672 m 227.426 64.477 l S
229.969 64.672 m 229.969 64.477 l S
232.508 64.672 m 232.508 64.477 l S
235.051 64.672 m 235.051 64.477 l S
237.59 64.672 m 237.59 64.477 l S
240.133 64.672 m 240.133 64.477 l S
242.672 64.672 m 242.672 64.477 l S
245.215 64.672 m 245.215 64.477 l S
247.754 64.672 m 247.754 64.477 l S
250.297 64.672 m 250.297 64.477 l S
252.836 64.672 m 252.836 64.477 l S
255.379 64.672 m 255.379 64.477 l S
255.379 64.672 m 255.379 64.477 l S
3.812 107.875 m 3.812 107.676 l S
6.352 112.086 m 6.352 103.672 l S
8.895 120.828 m 8.895 94.613 l S
11.434 124.18 m 11.434 91.324 l S
13.977 125.672 m 13.977 90.219 l S
16.516 126.246 m 16.516 89.535 l S
19.059 126.613 m 19.059 89.289 l S
21.598 126.699 m 21.598 89.145 l S
24.141 126.844 m 24.141 89.062 l S
26.68 126.879 m 26.68 89.004 l S
29.223 126.98 m 29.223 88.969 l S
31.762 126.969 m 31.762 88.977 l S
34.305 126.934 m 34.305 88.953 l S
36.844 126.992 m 36.844 88.922 l S
39.387 127.012 m 39.387 88.887 l S
41.93 127.117 m 41.93 88.859 l S
44.469 127.098 m 44.469 88.852 l S
47.012 127.109 m 47.012 88.801 l S
49.551 127.188 m 49.551 88.75 l S
52.094 127.168 m 52.094 88.734 l S
54.633 127.195 m 54.633 88.746 l S
57.176 127.164 m 57.176 88.797 l S
59.715 127.281 m 59.715 88.75 l S
62.258 127.258 m 62.258 88.746 l S
64.797 127.273 m 64.797 88.676 l S
67.34 127.266 m 67.34 88.688 l S
69.879 127.328 m 69.879 88.664 l S
72.422 127.293 m 72.422 88.676 l S
74.961 127.297 m 74.961 88.695 l S
77.504 127.297 m 77.504 88.684 l S
80.043 127.309 m 80.043 88.703 l S
82.586 127.344 m 82.586 88.668 l S
85.125 127.348 m 85.125 88.672 l S
87.668 127.371 m 87.668 88.574 l S
90.207 127.469 m 90.207 88.566 l S
92.75 127.492 m 92.75 88.523 l S
95.289 127.523 m 95.289 88.5 l S
97.832 127.555 m 97.832 88.449 l S
100.371 127.602 m 100.371 88.418 l S
102.914 127.574 m 102.914 88.441 l S
105.453 127.539 m 105.453 88.484 l S
107.996 127.531 m 107.996 88.469 l S
110.535 127.555 m 110.535 88.473 l S
113.078 127.527 m 113.078 88.527 l S
115.617 127.504 m 115.617 88.543 l S
118.16 127.496 m 118.16 88.512 l S
120.703 127.492 m 120.703 88.617 l S
123.242 127.395 m 123.242 88.605 l S
125.785 127.379 m 125.785 88.637 l S
128.324 127.375 m 128.324 88.609 l S
130.867 127.469 m 130.867 88.57 l S
133.406 127.48 m 133.406 88.527 l S
135.949 127.484 m 135.949 88.586 l S
138.488 127.457 m 138.488 88.555 l S
141.031 127.5 m 141.031 88.523 l S
143.57 127.551 m 143.57 88.527 l S
146.113 127.516 m 146.113 88.523 l S
148.652 127.543 m 148.652 88.473 l S
151.195 127.57 m 151.195 88.5 l S
153.734 127.578 m 153.734 88.438 l S
156.277 127.586 m 156.277 88.363 l S
158.816 127.594 m 158.816 88.469 l S
161.359 127.637 m 161.359 88.406 l S
163.898 127.613 m 163.898 88.41 l S
166.441 127.566 m 166.441 88.48 l S
168.98 127.578 m 168.98 88.453 l S
171.523 127.543 m 171.523 88.422 l S
174.062 127.547 m 174.062 88.484 l S
176.605 127.559 m 176.605 88.469 l S
179.145 127.551 m 179.145 88.5 l S
181.688 127.516 m 181.688 88.492 l S
184.227 127.492 m 184.227 88.426 l S
186.77 127.516 m 186.77 88.535 l S
189.309 127.461 m 189.309 88.566 l S
191.852 127.391 m 191.852 88.684 l S
194.391 124.625 m 194.391 91.07 l S
196.934 119.703 m 196.934 95.695 l S
199.473 116.695 m 199.473 99.145 l S
202.016 113.887 m 202.016 101.793 l S
204.559 111.699 m 204.559 104.082 l S
207.098 110.031 m 207.098 105.359 l S
209.641 109.316 m 209.641 106.371 l S
212.18 108.719 m 212.18 106.832 l S
214.723 108.297 m 214.723 107.199 l S
217.262 108.098 m 217.262 107.438 l S
219.805 108.043 m 219.805 107.555 l S
222.344 107.891 m 222.344 107.648 l S
224.887 107.875 m 224.887 107.676 l S
227.426 107.875 m 227.426 107.676 l S
229.969 107.875 m 229.969 107.676 l S
232.508 107.875 m 232.508 107.676 l S
235.051 107.875 m 235.051 107.676 l S
237.59 107.875 m 237.59 107.676 l S
240.133 107.875 m 240.133 107.676 l S
242.672 107.875 m 242.672 107.676 l S
245.215 107.875 m 245.215 107.676 l S
247.754 107.875 m 247.754 107.676 l S
250.297 107.875 m 250.297 107.676 l S
252.836 107.875 m 252.836 107.676 l S
255.379 107.875 m 255.379 107.676 l S
255.379 107.875 m 255.379 107.676 l S
3.812 151.074 m 3.812 150.879 l S
6.352 153.414 m 6.352 148.574 l S
8.895 160.176 m 8.895 141.418 l S
11.434 163.043 m 11.434 138.703 l S
13.977 164.383 m 13.977 137.652 l S
16.516 164.742 m 16.516 137.121 l S
19.059 165.074 m 19.059 136.957 l S
21.598 165.156 m 21.598 136.832 l S
24.141 165.148 m 24.141 136.785 l S
26.68 165.199 m 26.68 136.789 l S
29.223 165.25 m 29.223 136.73 l S
31.762 165.238 m 31.762 136.789 l S
34.305 165.215 m 34.305 136.742 l S
36.844 165.285 m 36.844 136.762 l S
39.387 165.242 m 39.387 136.738 l S
41.93 165.426 m 41.93 136.703 l S
44.469 165.316 m 44.469 136.664 l S
47.012 165.336 m 47.012 136.676 l S
49.551 165.398 m 49.551 136.566 l S
52.094 165.363 m 52.094 136.605 l S
54.633 165.363 m 54.633 136.609 l S
57.176 165.355 m 57.176 136.66 l S
59.715 165.367 m 59.715 136.586 l S
62.258 165.375 m 62.258 136.633 l S
64.797 165.375 m 64.797 136.582 l S
67.34 165.375 m 67.34 136.57 l S
69.879 165.398 m 69.879 136.574 l S
72.422 165.398 m 72.422 136.543 l S
74.961 165.422 m 74.961 136.543 l S
77.504 165.469 m 77.504 136.547 l S
80.043 165.383 m 80.043 136.566 l S
82.586 165.48 m 82.586 136.559 l S
85.125 165.418 m 85.125 136.578 l S
87.668 165.484 m 87.668 136.43 l S
90.207 165.547 m 90.207 136.414 l S
92.75 165.574 m 92.75 136.422 l S
95.289 165.531 m 95.289 136.387 l S
97.832 165.605 m 97.832 136.355 l S
100.371 165.598 m 100.371 136.367 l S
102.914 165.656 m 102.914 136.348 l S
105.453 165.582 m 105.453 136.328 l S
107.996 165.656 m 107.996 136.363 l S
110.535 165.594 m 110.535 136.379 l S
113.078 165.562 m 113.078 136.375 l S
115.617 165.551 m 115.617 136.344 l S
118.16 165.5 m 118.16 136.371 l S
120.703 165.559 m 120.703 136.438 l S
123.242 165.516 m 123.242 136.348 l S
125.785 165.441 m 125.785 136.461 l S
128.324 165.492 m 128.324 136.465 l S
130.867 165.559 m 130.867 136.414 l S
133.406 165.504 m 133.406 136.414 l S
135.949 165.59 m 135.949 136.457 l S
138.488 165.531 m 138.488 136.391 l S
141.031 165.496 m 141.031 136.41 l S
143.57 165.633 m 143.57 136.305 l S
146.113 165.492 m 146.113 136.379 l S
148.652 165.547 m 148.652 136.316 l S
151.195 165.566 m 151.195 136.367 l S
153.734 165.699 m 153.734 136.301 l S
156.277 165.668 m 156.277 136.293 l S
158.816 165.59 m 158.816 136.371 l S
161.359 165.707 m 161.359 136.227 l S
163.898 165.609 m 163.898 136.297 l S
166.441 165.57 m 166.441 136.352 l S
168.98 165.562 m 168.98 136.363 l S
171.523 165.516 m 171.523 136.348 l S
174.062 165.625 m 174.062 136.371 l S
176.605 165.551 m 176.605 136.395 l S
179.145 165.574 m 179.145 136.367 l S
181.688 165.551 m 181.688 136.406 l S
184.227 165.484 m 184.227 136.246 l S
186.77 165.477 m 186.77 136.441 l S
189.309 165.492 m 189.309 136.461 l S
191.852 165.438 m 191.852 136.562 l S
194.391 163.336 m 194.391 138.27 l S
196.934 159.113 m 196.934 142.73 l S
199.473 156.59 m 199.473 145.5 l S
202.016 154.641 m 202.016 147.426 l S
204.559 153.445 m 204.559 148.73 l S
207.098 152.457 m 207.098 149.637 l S
209.641 151.906 m 209.641 150.008 l S
212.18 151.559 m 212.18 150.402 l S
214.723 151.387 m 214.723 150.543 l S
217.262 151.25 m 217.262 150.715 l S
219.805 151.141 m 219.805 150.812 l S
222.344 151.074 m 222.344 150.879 l S
224.887 151.074 m 224.887 150.879 l S
227.426 151.074 m 227.426 150.879 l S
229.969 151.074 m 229.969 150.879 l S
232.508 151.074 m 232.508 150.879 l S
235.051 151.074 m 235.051 150.879 l S
237.59 151.074 m 237.59 150.879 l S
240.133 151.074 m 240.133 150.879 l S
242.672 151.074 m 242.672 150.879 l S
245.215 151.074 m 245.215 150.879 l S
247.754 151.074 m 247.754 150.879 l S
250.297 151.074 m 250.297 150.879 l S
252.836 151.074 m 252.836 150.879 l S
255.379 151.074 m 255.379 150.879 l S
255.379 151.074 m 255.379 150.879 l S
Q Q
showpage
%%Trailer
end
%%EOF
