%!PS-Adobe-3.0 EPSF-3.0
%%Creator: cairo 1.16.0 (https://cairographics.org)
%%CreationDate: Wed May 15 11:57:25 2024
%%Pages: 1
%%DocumentData: Clean7Bit
%%LanguageLevel: 2
%%Creator: Wolfram Mathematica
%%BoundingBox: 2 2 257 167
%%EndComments
%%BeginProlog
50 dict begin
/q { gsave } bind def
/Q { grestore } bind def
/cm { 6 array astore concat } bind def
/w { setlinewidth } bind def
/J { setlinecap } bind def
/j { setlinejoin } bind def
/M { setmiterlimit } bind def
/d { setdash } bind def
/m { moveto } bind def
/l { lineto } bind def
/c { curveto } bind def
/h { closepath } bind def
/re { exch dup neg 3 1 roll 5 3 roll moveto 0 rlineto
      0 exch rlineto 0 rlineto closepath } bind def
/S { stroke } bind def
/f { fill } bind def
/f* { eofill } bind def
/n { newpath } bind def
/W { clip } bind def
/W* { eoclip } bind def
/BT { } bind def
/ET { } bind def
/BDC { mark 3 1 roll /BDC pdfmark } bind def
/EMC { mark /EMC pdfmark } bind def
/cairo_store_point { /cairo_point_y exch def /cairo_point_x exch def } def
/Tj { show currentpoint cairo_store_point } bind def
/TJ {
  {
    dup
    type /stringtype eq
    { show } { -0.001 mul 0 cairo_font_matrix dtransform rmoveto } ifelse
  } forall
  currentpoint cairo_store_point
} bind def
/cairo_selectfont { cairo_font_matrix aload pop pop pop 0 0 6 array astore
    cairo_font exch selectfont cairo_point_x cairo_point_y moveto } bind def
/Tf { pop /cairo_font exch def /cairo_font_matrix where
      { pop cairo_selectfont } if } bind def
/Td { matrix translate cairo_font_matrix matrix concatmatrix dup
      /cairo_font_matrix exch def dup 4 get exch 5 get cairo_store_point
      /cairo_font where { pop cairo_selectfont } if } bind def
/Tm { 2 copy 8 2 roll 6 array astore /cairo_font_matrix exch def
      cairo_store_point /cairo_font where { pop cairo_selectfont } if } bind def
/g { setgray } bind def
/rg { setrgbcolor } bind def
/d1 { setcachedevice } bind def
/cairo_data_source {
  CairoDataIndex CairoData length lt
    { CairoData CairoDataIndex get /CairoDataIndex CairoDataIndex 1 add def }
    { () } ifelse
} def
/cairo_flush_ascii85_file { cairo_ascii85_file status { cairo_ascii85_file flushfile } if } def
/cairo_image { image cairo_flush_ascii85_file } def
/cairo_imagemask { imagemask cairo_flush_ascii85_file } def
%%EndProlog
%%BeginSetup
%%EndSetup
%%Page: 1 1
%%BeginPageSetup
%%PageBoundingBox: 2 2 257 167
%%EndPageSetup
q 2 2 255 165 rectclip
1 0 0 -1 0 173 cm q
0 g
1.796436 w
0 J
0 j
[] 0.0 d
3.25 M 3.812 21.777 m 3.812 21.582 l S
6.352 21.922 m 6.352 21.488 l S
8.895 29.426 m 8.895 13.695 l S
11.434 33.812 m 11.434 9.715 l S
13.977 35.723 m 13.977 7.926 l S
16.52 36.66 m 16.52 6.926 l S
19.059 37.086 m 19.059 6.594 l S
21.602 37.262 m 21.602 6.375 l S
24.141 37.348 m 24.141 6.289 l S
26.684 37.395 m 26.684 6.262 l S
29.223 37.395 m 29.223 6.254 l S
31.766 37.398 m 31.766 6.258 l S
34.305 37.438 m 34.305 6.188 l S
36.848 37.52 m 36.848 6.133 l S
39.387 37.598 m 39.387 6.027 l S
41.93 37.609 m 41.93 6.031 l S
44.469 37.57 m 44.469 6.066 l S
47.012 37.617 m 47.012 6.043 l S
49.555 37.645 m 49.555 6.012 l S
52.094 37.656 m 52.094 6.016 l S
54.637 37.621 m 54.637 6.012 l S
57.176 37.566 m 57.176 6.09 l S
59.719 37.598 m 59.719 6.07 l S
62.258 37.578 m 62.258 6.094 l S
64.801 37.547 m 64.801 6.109 l S
67.34 37.516 m 67.34 6.156 l S
69.883 37.504 m 69.883 6.172 l S
72.422 37.516 m 72.422 6.145 l S
74.965 37.539 m 74.965 6.113 l S
77.508 37.527 m 77.508 6.129 l S
80.047 37.512 m 80.047 6.148 l S
82.59 37.434 m 82.59 6.234 l S
85.129 37.379 m 85.129 6.285 l S
87.672 37.359 m 87.672 6.32 l S
90.211 37.336 m 90.211 6.34 l S
92.754 37.312 m 92.754 6.367 l S
95.293 37.324 m 95.293 6.371 l S
97.836 37.375 m 97.836 6.312 l S
100.375 37.43 m 100.375 6.266 l S
102.918 37.453 m 102.918 6.238 l S
105.457 37.48 m 105.457 6.207 l S
108 37.492 m 108 6.18 l S
110.543 37.504 m 110.543 6.184 l S
113.082 37.48 m 113.082 6.207 l S
115.625 37.457 m 115.625 6.211 l S
118.164 37.527 m 118.164 6.164 l S
120.707 37.562 m 120.707 6.105 l S
123.246 37.586 m 123.246 6.086 l S
125.789 37.578 m 125.789 6.078 l S
128.328 37.559 m 128.328 6.121 l S
130.871 37.52 m 130.871 6.156 l S
133.41 37.492 m 133.41 6.199 l S
135.953 37.477 m 135.953 6.219 l S
138.492 37.43 m 138.492 6.246 l S
141.035 37.418 m 141.035 6.25 l S
143.578 37.371 m 143.578 6.285 l S
146.117 37.379 m 146.117 6.316 l S
148.66 37.363 m 148.66 6.316 l S
151.199 37.406 m 151.199 6.285 l S
153.742 37.438 m 153.742 6.238 l S
156.281 37.434 m 156.281 6.23 l S
158.824 37.422 m 158.824 6.242 l S
161.363 37.406 m 161.363 6.27 l S
163.906 37.438 m 163.906 6.258 l S
166.445 37.422 m 166.445 6.258 l S
168.988 37.398 m 168.988 6.273 l S
171.531 37.355 m 171.531 6.324 l S
174.07 37.352 m 174.07 6.336 l S
176.613 37.188 m 176.613 6.457 l S
179.152 34.609 m 179.152 8.996 l S
181.695 31.133 m 181.695 12.305 l S
184.234 28.688 m 184.234 14.715 l S
186.777 27.207 m 186.777 16.23 l S
189.316 25.895 m 189.316 17.508 l S
191.859 24.77 m 191.859 18.551 l S
194.398 23.984 m 194.398 19.332 l S
196.941 23.289 m 196.941 20.07 l S
199.48 22.727 m 199.48 20.562 l S
202.023 22.395 m 202.023 20.945 l S
204.566 22.188 m 204.566 21.164 l S
207.105 21.996 m 207.105 21.344 l S
209.648 21.926 m 209.648 21.445 l S
212.188 21.852 m 212.188 21.5 l S
214.73 21.789 m 214.73 21.57 l S
217.27 21.777 m 217.27 21.582 l S
219.812 21.777 m 219.812 21.582 l S
222.352 21.777 m 222.352 21.582 l S
224.895 21.777 m 224.895 21.582 l S
227.434 21.777 m 227.434 21.582 l S
229.977 21.777 m 229.977 21.582 l S
232.52 21.777 m 232.52 21.582 l S
235.059 21.777 m 235.059 21.582 l S
237.602 21.777 m 237.602 21.582 l S
240.141 21.777 m 240.141 21.582 l S
242.684 21.777 m 242.684 21.582 l S
245.223 21.777 m 245.223 21.582 l S
247.766 21.777 m 247.766 21.582 l S
250.305 21.777 m 250.305 21.582 l S
252.848 21.777 m 252.848 21.582 l S
255.387 21.777 m 255.387 21.582 l S
255.387 21.777 m 255.387 21.582 l S
3.812 64.977 m 3.812 64.781 l S
6.352 65.105 m 6.352 64.684 l S
8.895 71.691 m 8.895 58.281 l S
11.434 75.398 m 11.434 54.16 l S
13.977 76.914 m 13.977 52.746 l S
16.52 77.742 m 16.52 51.875 l S
19.059 78.008 m 19.059 51.621 l S
21.602 78.199 m 21.602 51.418 l S
24.141 78.383 m 24.141 51.324 l S
26.684 78.391 m 26.684 51.332 l S
29.223 78.43 m 29.223 51.293 l S
31.766 78.441 m 31.766 51.254 l S
34.305 78.477 m 34.305 51.223 l S
36.848 78.512 m 36.848 51.156 l S
39.387 78.602 m 39.387 51.109 l S
41.93 78.621 m 41.93 51.109 l S
44.469 78.633 m 44.469 51.062 l S
47.012 78.621 m 47.012 51.086 l S
49.555 78.66 m 49.555 51.027 l S
52.094 78.699 m 52.094 50.992 l S
54.637 78.637 m 54.637 51.098 l S
57.176 78.605 m 57.176 51.086 l S
59.719 78.723 m 59.719 50.992 l S
62.258 78.66 m 62.258 51.062 l S
64.801 78.668 m 64.801 51.059 l S
67.34 78.547 m 67.34 51.109 l S
69.883 78.586 m 69.883 51.098 l S
72.422 78.586 m 72.422 51.098 l S
74.965 78.637 m 74.965 51.121 l S
77.508 78.621 m 77.508 51.102 l S
80.047 78.578 m 80.047 51.105 l S
82.59 78.586 m 82.59 51.137 l S
85.129 78.492 m 85.129 51.23 l S
87.672 78.461 m 87.672 51.227 l S
90.211 78.488 m 90.211 51.219 l S
92.754 78.414 m 92.754 51.273 l S
95.293 78.391 m 95.293 51.262 l S
97.836 78.461 m 97.836 51.23 l S
100.375 78.469 m 100.375 51.207 l S
102.918 78.535 m 102.918 51.172 l S
105.457 78.535 m 105.457 51.137 l S
108 78.555 m 108 51.164 l S
110.543 78.543 m 110.543 51.16 l S
113.082 78.539 m 113.082 51.125 l S
115.625 78.535 m 115.625 51.137 l S
118.164 78.555 m 118.164 51.098 l S
120.707 78.625 m 120.707 51.086 l S
123.246 78.664 m 123.246 51.074 l S
125.789 78.66 m 125.789 51.07 l S
128.328 78.621 m 128.328 51.086 l S
130.871 78.59 m 130.871 51.113 l S
133.41 78.602 m 133.41 51.121 l S
135.953 78.613 m 135.953 51.141 l S
138.492 78.559 m 138.492 51.121 l S
141.035 78.539 m 141.035 51.145 l S
143.578 78.551 m 143.578 51.199 l S
146.117 78.527 m 146.117 51.199 l S
148.66 78.488 m 148.66 51.234 l S
151.199 78.547 m 151.199 51.199 l S
153.742 78.547 m 153.742 51.156 l S
156.281 78.539 m 156.281 51.148 l S
158.824 78.527 m 158.824 51.152 l S
161.363 78.551 m 161.363 51.191 l S
163.906 78.574 m 163.906 51.137 l S
166.445 78.543 m 166.445 51.168 l S
168.988 78.523 m 168.988 51.113 l S
171.531 78.48 m 171.531 51.199 l S
174.07 78.48 m 174.07 51.223 l S
176.613 78.418 m 176.613 51.25 l S
179.152 77.016 m 179.152 52.684 l S
181.695 74.32 m 181.695 55.492 l S
184.234 72.094 m 184.234 57.551 l S
186.777 70.484 m 186.777 59.199 l S
189.316 69.168 m 189.316 60.582 l S
191.859 68.18 m 191.859 61.66 l S
194.398 67.227 m 194.398 62.465 l S
196.941 66.617 m 196.941 63.172 l S
199.48 66.172 m 199.48 63.695 l S
202.023 65.664 m 202.023 63.965 l S
204.566 65.457 m 204.566 64.309 l S
207.105 65.289 m 207.105 64.512 l S
209.648 65.145 m 209.648 64.586 l S
212.188 65.082 m 212.188 64.648 l S
214.73 65.035 m 214.73 64.746 l S
217.27 64.977 m 217.27 64.762 l S
219.812 64.977 m 219.812 64.781 l S
222.352 64.977 m 222.352 64.781 l S
224.895 64.977 m 224.895 64.781 l S
227.434 64.977 m 227.434 64.781 l S
229.977 64.977 m 229.977 64.781 l S
232.52 64.977 m 232.52 64.781 l S
235.059 64.977 m 235.059 64.781 l S
237.602 64.977 m 237.602 64.781 l S
240.141 64.977 m 240.141 64.781 l S
242.684 64.977 m 242.684 64.781 l S
245.223 64.977 m 245.223 64.781 l S
247.766 64.977 m 247.766 64.781 l S
250.305 64.977 m 250.305 64.781 l S
252.848 64.977 m 252.848 64.781 l S
255.387 64.977 m 255.387 64.781 l S
255.387 64.977 m 255.387 64.781 l S
3.812 108.176 m 3.812 107.98 l S
6.352 108.43 m 6.352 107.781 l S
8.895 116.824 m 8.895 99.762 l S
11.434 120.66 m 11.434 95.117 l S
13.977 122.559 m 13.977 93.551 l S
16.52 123.324 m 16.52 92.52 l S
19.059 123.746 m 19.059 92.156 l S
21.602 123.887 m 21.602 91.992 l S
24.141 124.02 m 24.141 91.852 l S
26.684 124.078 m 26.684 91.828 l S
29.223 124.035 m 29.223 91.785 l S
31.766 124.086 m 31.766 91.77 l S
34.305 124.094 m 34.305 91.73 l S
36.848 124.199 m 36.848 91.629 l S
39.387 124.27 m 39.387 91.539 l S
41.93 124.301 m 41.93 91.559 l S
44.469 124.242 m 44.469 91.57 l S
47.012 124.289 m 47.012 91.535 l S
49.555 124.348 m 49.555 91.496 l S
52.094 124.363 m 52.094 91.504 l S
54.637 124.301 m 54.637 91.527 l S
57.176 124.262 m 57.176 91.559 l S
59.719 124.34 m 59.719 91.496 l S
62.258 124.297 m 62.258 91.582 l S
64.801 124.352 m 64.801 91.551 l S
67.34 124.215 m 67.34 91.605 l S
69.883 124.246 m 69.883 91.586 l S
72.422 124.254 m 72.422 91.605 l S
74.965 124.262 m 74.965 91.609 l S
77.508 124.223 m 77.508 91.621 l S
80.047 124.207 m 80.047 91.648 l S
82.59 124.152 m 82.59 91.711 l S
85.129 124.062 m 85.129 91.762 l S
87.672 124.031 m 87.672 91.781 l S
90.211 124.074 m 90.211 91.789 l S
92.754 123.996 m 92.754 91.867 l S
95.293 124 m 95.293 91.84 l S
97.836 124.062 m 97.836 91.805 l S
100.375 124.086 m 100.375 91.754 l S
102.918 124.133 m 102.918 91.711 l S
105.457 124.148 m 105.457 91.668 l S
108 124.16 m 108 91.672 l S
110.543 124.195 m 110.543 91.641 l S
113.082 124.172 m 113.082 91.676 l S
115.625 124.168 m 115.625 91.664 l S
118.164 124.199 m 118.164 91.613 l S
120.707 124.234 m 120.707 91.59 l S
123.246 124.25 m 123.246 91.574 l S
125.789 124.254 m 125.789 91.555 l S
128.328 124.234 m 128.328 91.598 l S
130.871 124.215 m 130.871 91.59 l S
133.41 124.176 m 133.41 91.613 l S
135.953 124.164 m 135.953 91.656 l S
138.492 124.152 m 138.492 91.688 l S
141.035 124.082 m 141.035 91.762 l S
143.578 124.07 m 143.578 91.762 l S
146.117 124.07 m 146.117 91.758 l S
148.66 124.062 m 148.66 91.793 l S
151.199 124.094 m 151.199 91.738 l S
153.742 124.117 m 153.742 91.703 l S
156.281 124.145 m 156.281 91.711 l S
158.824 124.102 m 158.824 91.734 l S
161.363 124.102 m 161.363 91.734 l S
163.906 124.117 m 163.906 91.719 l S
166.445 124.125 m 166.445 91.723 l S
168.988 124.117 m 168.988 91.734 l S
171.531 124.043 m 171.531 91.805 l S
174.07 124.039 m 174.07 91.801 l S
176.613 123.891 m 176.613 91.953 l S
179.152 121.41 m 179.152 94.398 l S
181.695 118.449 m 181.695 97.719 l S
184.234 116.211 m 184.234 99.957 l S
186.777 114.383 m 186.777 101.707 l S
189.316 113.035 m 189.316 103.207 l S
191.859 111.793 m 191.859 104.332 l S
194.398 110.766 m 194.398 105.199 l S
196.941 110.109 m 196.941 106.066 l S
199.48 109.586 m 199.48 106.688 l S
202.023 109.094 m 202.023 107.098 l S
204.566 108.77 m 204.566 107.355 l S
207.105 108.594 m 207.105 107.652 l S
209.648 108.383 m 209.648 107.727 l S
212.188 108.324 m 212.188 107.848 l S
214.73 108.242 m 214.73 107.887 l S
217.27 108.215 m 217.27 107.934 l S
219.812 108.176 m 219.812 107.98 l S
222.352 108.176 m 222.352 107.98 l S
224.895 108.176 m 224.895 107.98 l S
227.434 108.176 m 227.434 107.98 l S
229.977 108.176 m 229.977 107.98 l S
232.52 108.176 m 232.52 107.98 l S
235.059 108.176 m 235.059 107.98 l S
237.602 108.176 m 237.602 107.98 l S
240.141 108.176 m 240.141 107.98 l S
242.684 108.176 m 242.684 107.98 l S
245.223 108.176 m 245.223 107.98 l S
247.766 108.176 m 247.766 107.98 l S
250.305 108.176 m 250.305 107.98 l S
252.848 108.176 m 252.848 107.98 l S
255.387 108.176 m 255.387 107.98 l S
255.387 108.176 m 255.387 107.98 l S
3.812 151.375 m 3.812 151.18 l S
6.352 151.684 m 6.352 150.902 l S
8.895 162.023 m 8.895 141.051 l S
11.434 166.879 m 11.434 135.402 l S
13.977 169.031 m 13.977 133.504 l S
16.52 169.859 m 16.52 132.539 l S
19.059 170.207 m 19.059 132.223 l S
21.602 170.332 m 21.602 132.066 l S
24.141 170.48 m 24.141 131.996 l S
26.684 170.504 m 26.684 131.953 l S
29.223 170.438 m 29.223 131.926 l S
31.766 170.516 m 31.766 131.938 l S
34.305 170.523 m 34.305 131.852 l S
36.848 170.613 m 36.848 131.777 l S
39.387 170.73 m 39.387 131.691 l S
41.93 170.684 m 41.93 131.664 l S
44.469 170.684 m 44.469 131.664 l S
47.012 170.789 m 47.012 131.66 l S
49.555 170.789 m 49.555 131.562 l S
52.094 170.836 m 52.094 131.613 l S
54.637 170.691 m 54.637 131.664 l S
57.176 170.816 m 57.176 131.664 l S
59.719 170.762 m 59.719 131.562 l S
62.258 170.781 m 62.258 131.613 l S
64.801 170.75 m 64.801 131.609 l S
67.34 170.637 m 67.34 131.754 l S
69.883 170.57 m 69.883 131.75 l S
72.422 170.684 m 72.422 131.73 l S
74.965 170.676 m 74.965 131.727 l S
77.508 170.645 m 77.508 131.746 l S
80.047 170.625 m 80.047 131.766 l S
82.59 170.586 m 82.59 131.82 l S
85.129 170.48 m 85.129 131.914 l S
87.672 170.434 m 87.672 131.934 l S
90.211 170.418 m 90.211 131.879 l S
92.754 170.379 m 92.754 131.961 l S
95.293 170.395 m 95.293 131.957 l S
97.836 170.453 m 97.836 131.891 l S
100.375 170.504 m 100.375 131.855 l S
102.918 170.555 m 102.918 131.812 l S
105.457 170.578 m 105.457 131.766 l S
108 170.547 m 108 131.785 l S
110.543 170.543 m 110.543 131.789 l S
113.082 170.559 m 113.082 131.789 l S
115.625 170.555 m 115.625 131.824 l S
118.164 170.594 m 118.164 131.715 l S
120.707 170.68 m 120.707 131.684 l S
123.246 170.68 m 123.246 131.68 l S
125.789 170.691 m 125.789 131.688 l S
128.328 170.629 m 128.328 131.711 l S
130.871 170.629 m 130.871 131.711 l S
133.41 170.613 m 133.41 131.766 l S
135.953 170.539 m 135.953 131.805 l S
138.492 170.52 m 138.492 131.785 l S
141.035 170.488 m 141.035 131.832 l S
143.578 170.48 m 143.578 131.883 l S
146.117 170.445 m 146.117 131.883 l S
148.66 170.465 m 148.66 131.934 l S
151.199 170.5 m 151.199 131.84 l S
153.742 170.539 m 153.742 131.801 l S
156.281 170.512 m 156.281 131.805 l S
158.824 170.539 m 158.824 131.801 l S
161.363 170.531 m 161.363 131.828 l S
163.906 170.527 m 163.906 131.832 l S
166.445 170.531 m 166.445 131.828 l S
168.988 170.508 m 168.988 131.863 l S
171.531 170.445 m 171.531 131.918 l S
174.07 170.418 m 174.07 131.949 l S
176.613 170.285 m 176.613 132.117 l S
179.152 167.73 m 179.152 134.512 l S
181.695 164.508 m 181.695 138.031 l S
184.234 161.551 m 184.234 140.75 l S
186.777 159.527 m 186.777 143.07 l S
189.316 157.641 m 189.316 145.012 l S
191.859 156.199 m 191.859 146.402 l S
194.398 154.824 m 194.398 147.523 l S
196.941 154.051 m 196.941 148.57 l S
199.48 153.32 m 199.48 149.324 l S
202.023 152.754 m 202.023 150.008 l S
204.566 152.227 m 204.566 150.266 l S
207.105 152.086 m 207.105 150.641 l S
209.648 151.762 m 209.648 150.742 l S
212.188 151.602 m 212.188 150.902 l S
214.73 151.523 m 214.73 150.992 l S
217.27 151.441 m 217.27 151.066 l S
219.812 151.418 m 219.812 151.18 l S
222.352 151.375 m 222.352 151.176 l S
224.895 151.375 m 224.895 151.18 l S
227.434 151.375 m 227.434 151.18 l S
229.977 151.375 m 229.977 151.18 l S
232.52 151.375 m 232.52 151.18 l S
235.059 151.375 m 235.059 151.18 l S
237.602 151.375 m 237.602 151.18 l S
240.141 151.375 m 240.141 151.18 l S
242.684 151.375 m 242.684 151.18 l S
245.223 151.375 m 245.223 151.18 l S
247.766 151.375 m 247.766 151.18 l S
250.305 151.375 m 250.305 151.18 l S
252.848 151.375 m 252.848 151.18 l S
255.387 151.375 m 255.387 151.18 l S
255.387 151.375 m 255.387 151.18 l S
Q Q
showpage
%%Trailer
end
%%EOF
