%!PS-Adobe-3.0 EPSF-3.0
%%Creator: cairo 1.16.0 (https://cairographics.org)
%%CreationDate: Wed May 15 11:57:26 2024
%%Pages: 1
%%DocumentData: Clean7Bit
%%LanguageLevel: 2
%%Creator: Wolfram Mathematica
%%BoundingBox: 2 5 257 167
%%EndComments
%%BeginProlog
50 dict begin
/q { gsave } bind def
/Q { grestore } bind def
/cm { 6 array astore concat } bind def
/w { setlinewidth } bind def
/J { setlinecap } bind def
/j { setlinejoin } bind def
/M { setmiterlimit } bind def
/d { setdash } bind def
/m { moveto } bind def
/l { lineto } bind def
/c { curveto } bind def
/h { closepath } bind def
/re { exch dup neg 3 1 roll 5 3 roll moveto 0 rlineto
      0 exch rlineto 0 rlineto closepath } bind def
/S { stroke } bind def
/f { fill } bind def
/f* { eofill } bind def
/n { newpath } bind def
/W { clip } bind def
/W* { eoclip } bind def
/BT { } bind def
/ET { } bind def
/BDC { mark 3 1 roll /BDC pdfmark } bind def
/EMC { mark /EMC pdfmark } bind def
/cairo_store_point { /cairo_point_y exch def /cairo_point_x exch def } def
/Tj { show currentpoint cairo_store_point } bind def
/TJ {
  {
    dup
    type /stringtype eq
    { show } { -0.001 mul 0 cairo_font_matrix dtransform rmoveto } ifelse
  } forall
  currentpoint cairo_store_point
} bind def
/cairo_selectfont { cairo_font_matrix aload pop pop pop 0 0 6 array astore
    cairo_font exch selectfont cairo_point_x cairo_point_y moveto } bind def
/Tf { pop /cairo_font exch def /cairo_font_matrix where
      { pop cairo_selectfont } if } bind def
/Td { matrix translate cairo_font_matrix matrix concatmatrix dup
      /cairo_font_matrix exch def dup 4 get exch 5 get cairo_store_point
      /cairo_font where { pop cairo_selectfont } if } bind def
/Tm { 2 copy 8 2 roll 6 array astore /cairo_font_matrix exch def
      cairo_store_point /cairo_font where { pop cairo_selectfont } if } bind def
/g { setgray } bind def
/rg { setrgbcolor } bind def
/d1 { setcachedevice } bind def
/cairo_data_source {
  CairoDataIndex CairoData length lt
    { CairoData CairoDataIndex get /CairoDataIndex CairoDataIndex 1 add def }
    { () } ifelse
} def
/cairo_flush_ascii85_file { cairo_ascii85_file status { cairo_ascii85_file flushfile } if } def
/cairo_image { image cairo_flush_ascii85_file } def
/cairo_imagemask { imagemask cairo_flush_ascii85_file } def
%%EndProlog
%%BeginSetup
%%EndSetup
%%Page: 1 1
%%BeginPageSetup
%%PageBoundingBox: 2 5 257 167
%%EndPageSetup
q 2 5 255 162 rectclip
1 0 0 -1 0 173 cm q
0 g
1.796436 w
0 J
0 j
[] 0.0 d
3.25 M 3.812 21.594 m 3.812 21.289 l S
6.352 31.133 m 6.352 11.453 l S
8.895 36.031 m 8.895 7.121 l S
11.434 36.641 m 11.434 6.633 l S
13.977 36.254 m 13.977 6.902 l S
16.52 35.137 m 16.52 8.074 l S
19.059 33.879 m 19.059 9.426 l S
21.602 32.852 m 21.602 10.539 l S
24.141 31.918 m 24.141 11.148 l S
26.684 31.605 m 26.684 11.473 l S
29.223 31.543 m 29.223 11.551 l S
31.766 31.129 m 31.766 11.945 l S
34.305 30.492 m 34.305 12.59 l S
36.848 30.359 m 36.848 12.652 l S
39.387 30.309 m 39.387 12.664 l S
41.93 30.285 m 41.93 12.66 l S
44.469 30.07 m 44.469 12.902 l S
47.012 29.793 m 47.012 13.195 l S
49.555 29.613 m 49.555 13.246 l S
52.094 29.883 m 52.094 13.16 l S
54.637 30.203 m 54.637 12.859 l S
57.176 30.609 m 57.176 12.551 l S
59.719 31.164 m 59.719 11.555 l S
62.258 32.469 m 62.258 10.852 l S
64.801 33 m 64.801 10.008 l S
67.34 33.832 m 67.34 9.496 l S
69.883 34.07 m 69.883 8.926 l S
72.422 34.316 m 72.422 8.676 l S
74.965 34.684 m 74.965 8.445 l S
77.508 34.672 m 77.508 8.445 l S
80.047 34.449 m 80.047 8.719 l S
82.59 34.031 m 82.59 9.164 l S
85.129 33.688 m 85.129 9.469 l S
87.672 33.535 m 87.672 9.562 l S
90.211 33.512 m 90.211 9.547 l S
92.754 33.418 m 92.754 9.656 l S
95.293 33.305 m 95.293 9.727 l S
97.836 33.352 m 97.836 9.754 l S
100.375 33.207 m 100.375 9.863 l S
102.918 32.957 m 102.918 10.086 l S
105.457 32.57 m 105.457 10.438 l S
108 31.812 m 108 11.195 l S
110.543 31.234 m 110.543 11.773 l S
113.082 30.707 m 113.082 12.168 l S
115.625 30.523 m 115.625 12.344 l S
118.164 30.961 m 118.164 11.82 l S
120.707 31.703 m 120.707 11.375 l S
123.246 32.055 m 123.246 10.895 l S
125.789 32.176 m 125.789 10.746 l S
128.328 32.555 m 128.328 10.484 l S
130.871 32.828 m 130.871 10.262 l S
133.41 33 m 133.41 10.082 l S
135.953 33.027 m 135.953 9.98 l S
138.492 32.945 m 138.492 10.023 l S
141.035 32.574 m 141.035 10.379 l S
143.578 32.121 m 143.578 10.836 l S
146.117 31.84 m 146.117 11.145 l S
148.66 31.738 m 148.66 10.973 l S
151.199 32.598 m 151.199 9.93 l S
153.742 34.293 m 153.742 9.5 l S
156.281 34.684 m 156.281 8.695 l S
158.824 34.633 m 158.824 8.656 l S
161.363 34.113 m 161.363 9.039 l S
163.906 34.008 m 163.906 9.156 l S
166.445 33.961 m 166.445 9.129 l S
168.988 33.707 m 168.988 9.168 l S
171.531 33.672 m 171.531 9.465 l S
174.07 33.523 m 174.07 9.465 l S
176.613 33.43 m 176.613 9.461 l S
179.152 33.328 m 179.152 9.758 l S
181.695 32.992 m 181.695 10.066 l S
184.234 33.016 m 184.234 10.145 l S
186.777 33.188 m 186.777 9.816 l S
189.316 32.957 m 189.316 9.953 l S
191.859 32.156 m 191.859 10.609 l S
194.398 31.41 m 194.398 11.434 l S
196.941 30.859 m 196.941 11.988 l S
199.48 30.527 m 199.48 12.441 l S
202.023 30.586 m 202.023 12.352 l S
204.566 31.539 m 204.566 11.648 l S
207.105 32.184 m 207.105 10.211 l S
209.648 34.039 m 209.648 9.184 l S
212.188 34.859 m 212.188 8.582 l S
214.73 34.438 m 214.73 8.566 l S
217.27 32.047 m 217.27 11.578 l S
219.812 27.734 m 219.812 14.438 l S
222.352 26.258 m 222.352 17.062 l S
224.895 24.27 m 224.895 18.434 l S
227.434 23.422 m 227.434 19.465 l S
229.977 22.625 m 229.977 20.379 l S
232.52 22.082 m 232.52 20.828 l S
235.059 21.801 m 235.059 21.062 l S
237.602 21.676 m 237.602 21.219 l S
240.141 21.566 m 240.141 21.309 l S
242.684 21.539 m 242.684 21.344 l S
245.223 21.539 m 245.223 21.344 l S
247.766 21.539 m 247.766 21.344 l S
250.305 21.539 m 250.305 21.344 l S
252.848 21.539 m 252.848 21.344 l S
255.387 21.539 m 255.387 21.344 l S
255.387 21.539 m 255.387 21.344 l S
3.812 64.738 m 3.812 64.543 l S
6.352 70.75 m 6.352 58.555 l S
8.895 73.023 m 8.895 55.945 l S
11.434 73.328 m 11.434 55.707 l S
13.977 73.086 m 13.977 55.828 l S
16.52 72.469 m 16.52 56.5 l S
19.059 71.902 m 19.059 57.188 l S
21.602 71.309 m 21.602 57.848 l S
24.141 70.789 m 24.141 58.262 l S
26.684 70.746 m 26.684 58.414 l S
29.223 70.68 m 29.223 58.492 l S
31.766 70.379 m 31.766 58.711 l S
34.305 70.027 m 34.305 59.07 l S
36.848 70.047 m 36.848 59.125 l S
39.387 70.129 m 39.387 59.039 l S
41.93 70.086 m 41.93 59.094 l S
44.469 69.973 m 44.469 59.328 l S
47.012 69.848 m 47.012 59.375 l S
49.555 69.93 m 49.555 59.375 l S
52.094 70.137 m 52.094 58.973 l S
54.637 70.523 m 54.637 58.59 l S
57.176 71.211 m 57.176 58.137 l S
59.719 72.086 m 59.719 57.062 l S
62.258 72.734 m 62.258 56.098 l S
64.801 73.879 m 64.801 55.492 l S
67.34 74.586 m 67.34 54.641 l S
69.883 75.312 m 69.883 53.84 l S
72.422 76 m 72.422 53.438 l S
74.965 75.988 m 74.965 53.043 l S
77.508 75.875 m 77.508 53.105 l S
80.047 75.891 m 80.047 53.156 l S
82.59 75.602 m 82.59 53.406 l S
85.129 75.438 m 85.129 53.699 l S
87.672 75.449 m 87.672 53.656 l S
90.211 75.383 m 90.211 53.715 l S
92.754 75.328 m 92.754 53.887 l S
95.293 75.293 m 95.293 53.93 l S
97.836 75.16 m 97.836 53.859 l S
100.375 75.141 m 100.375 53.98 l S
102.918 75.047 m 102.918 54.227 l S
105.457 74.762 m 105.457 54.465 l S
108 74.137 m 108 55.016 l S
110.543 73.594 m 110.543 55.672 l S
113.082 73.188 m 113.082 55.988 l S
115.625 72.84 m 115.625 56.254 l S
118.164 73.207 m 118.164 56.109 l S
120.707 73.582 m 120.707 55.426 l S
123.246 74.004 m 123.246 55.191 l S
125.789 74.039 m 125.789 55.188 l S
128.328 74.207 m 128.328 55.102 l S
130.871 74.422 m 130.871 54.867 l S
133.41 74.668 m 133.41 54.496 l S
135.953 74.836 m 135.953 54.465 l S
138.492 74.82 m 138.492 54.609 l S
141.035 74.574 m 141.035 54.871 l S
143.578 74.148 m 143.578 55.242 l S
146.117 73.762 m 146.117 55.617 l S
148.66 73.543 m 148.66 55.586 l S
151.199 73.996 m 151.199 55.309 l S
153.742 74.164 m 153.742 55.008 l S
156.281 74.598 m 156.281 54.805 l S
158.824 74.465 m 158.824 54.758 l S
161.363 74.363 m 161.363 54.805 l S
163.906 74.418 m 163.906 54.867 l S
166.445 74.531 m 166.445 54.609 l S
168.988 74.594 m 168.988 54.625 l S
171.531 74.48 m 171.531 54.586 l S
174.07 74.461 m 174.07 54.629 l S
176.613 74.645 m 176.613 54.398 l S
179.152 74.719 m 179.152 54.586 l S
181.695 74.586 m 181.695 54.586 l S
184.234 74.652 m 184.234 54.5 l S
186.777 74.848 m 186.777 54.305 l S
189.316 74.859 m 189.316 54.34 l S
191.859 74.469 m 191.859 54.879 l S
194.398 73.789 m 194.398 55.59 l S
196.941 73.059 m 196.941 56.062 l S
199.48 72.727 m 199.48 56.441 l S
202.023 72.672 m 202.023 56.59 l S
204.566 72.98 m 204.566 56.051 l S
207.105 73.691 m 207.105 55.895 l S
209.648 74.246 m 209.648 55.125 l S
212.188 74.469 m 212.188 54.734 l S
214.73 73.812 m 214.73 55.035 l S
217.27 72.355 m 217.27 56.453 l S
219.812 70.008 m 219.812 59.559 l S
222.352 68.285 m 222.352 60.918 l S
224.895 67.23 m 224.895 62.105 l S
227.434 66.391 m 227.434 62.922 l S
229.977 65.695 m 229.977 63.551 l S
232.52 65.23 m 232.52 63.996 l S
235.059 65.016 m 235.059 64.289 l S
237.602 64.887 m 237.602 64.438 l S
240.141 64.777 m 240.141 64.516 l S
242.684 64.738 m 242.684 64.543 l S
245.223 64.738 m 245.223 64.543 l S
247.766 64.738 m 247.766 64.543 l S
250.305 64.738 m 250.305 64.543 l S
252.848 64.738 m 252.848 64.543 l S
255.387 64.738 m 255.387 64.543 l S
255.387 64.738 m 255.387 64.543 l S
3.812 108.023 m 3.812 107.625 l S
6.352 121.348 m 6.352 94.246 l S
8.895 127.102 m 8.895 88.824 l S
11.434 127.637 m 11.434 88.363 l S
13.977 127.211 m 13.977 88.703 l S
16.52 126.016 m 16.52 89.996 l S
19.059 124.742 m 19.059 91.176 l S
21.602 123.473 m 21.602 92.297 l S
24.141 122.496 m 24.141 93.188 l S
26.684 122.18 m 26.684 93.586 l S
29.223 122.172 m 29.223 93.695 l S
31.766 121.562 m 31.766 94.121 l S
34.305 120.816 m 34.305 94.941 l S
36.848 120.695 m 36.848 95.141 l S
39.387 120.695 m 39.387 95.156 l S
41.93 120.633 m 41.93 95.129 l S
44.469 120.273 m 44.469 95.398 l S
47.012 119.863 m 47.012 95.883 l S
49.555 119.684 m 49.555 96.027 l S
52.094 119.809 m 52.094 95.973 l S
54.637 120.102 m 54.637 95.75 l S
57.176 120.547 m 57.176 95.281 l S
59.719 120.961 m 59.719 94.449 l S
62.258 122.027 m 62.258 93.844 l S
64.801 122.422 m 64.801 93.301 l S
67.34 122.758 m 67.34 92.871 l S
69.883 122.508 m 69.883 92.918 l S
72.422 122.449 m 72.422 93.277 l S
74.965 122.113 m 74.965 93.305 l S
77.508 121.973 m 77.508 93.383 l S
80.047 121.676 m 80.047 93.801 l S
82.59 121.027 m 82.59 94.195 l S
85.129 120.77 m 85.129 94.672 l S
87.672 120.617 m 87.672 94.723 l S
90.211 120.594 m 90.211 94.801 l S
92.754 120.371 m 92.754 94.918 l S
95.293 120.301 m 95.293 95.051 l S
97.836 120.266 m 97.836 95.02 l S
100.375 120.117 m 100.375 95.18 l S
102.918 119.984 m 102.918 95.445 l S
105.457 119.695 m 105.457 95.781 l S
108 118.684 m 108 96.566 l S
110.543 118.273 m 110.543 97.332 l S
113.082 117.949 m 113.082 97.59 l S
115.625 118.016 m 115.625 97.438 l S
118.164 118.938 m 118.164 96.938 l S
120.707 119.68 m 120.707 96.059 l S
123.246 119.977 m 123.246 95.676 l S
125.789 120.102 m 125.789 95.293 l S
128.328 120.473 m 128.328 94.805 l S
130.871 120.941 m 130.871 94.805 l S
133.41 121.051 m 133.41 94.637 l S
135.953 120.852 m 135.953 94.504 l S
138.492 120.609 m 138.492 94.516 l S
141.035 120.219 m 141.035 94.988 l S
143.578 119.883 m 143.578 95.535 l S
146.117 120.129 m 146.117 95.684 l S
148.66 121.039 m 148.66 94.691 l S
151.199 122.285 m 151.199 92.938 l S
153.742 124.398 m 153.742 91.875 l S
156.281 125.012 m 156.281 90.785 l S
158.824 124.934 m 158.824 90.883 l S
161.363 124.605 m 161.363 91.391 l S
163.906 124 m 163.906 91.746 l S
166.445 123.848 m 166.445 92.246 l S
168.988 123.254 m 168.988 92.371 l S
171.531 123.168 m 171.531 92.586 l S
174.07 122.742 m 174.07 92.75 l S
176.613 122.312 m 176.613 93.035 l S
179.152 121.977 m 179.152 93.738 l S
181.695 121.324 m 181.695 94.121 l S
184.234 121.211 m 184.234 94.609 l S
186.777 121.039 m 186.777 94.445 l S
189.316 120.395 m 189.316 94.586 l S
191.859 119.535 m 191.859 95.473 l S
194.398 118.844 m 194.398 96.676 l S
196.941 118.484 m 196.941 97.074 l S
199.48 118.332 m 199.48 97.297 l S
202.023 119.066 m 202.023 96.75 l S
204.566 120.168 m 204.566 95.723 l S
207.105 121.793 m 207.105 93.422 l S
209.648 124.727 m 209.648 91.66 l S
212.188 125.297 m 212.188 90.535 l S
214.73 125.07 m 214.73 90.293 l S
217.27 122.355 m 217.27 94.617 l S
219.812 117.273 m 219.812 97.969 l S
222.352 114.66 m 222.352 101.207 l S
224.895 112.223 m 224.895 103.211 l S
227.434 110.551 m 227.434 104.98 l S
229.977 109.551 m 229.977 106.094 l S
232.52 108.832 m 232.52 106.871 l S
235.059 108.414 m 235.059 107.25 l S
237.602 108.211 m 237.602 107.523 l S
240.141 108.031 m 240.141 107.672 l S
242.684 107.941 m 242.684 107.742 l S
245.223 107.941 m 245.223 107.742 l S
247.766 107.941 m 247.766 107.742 l S
250.305 107.941 m 250.305 107.742 l S
252.848 107.941 m 252.848 107.742 l S
255.387 107.941 m 255.387 107.742 l S
255.387 107.941 m 255.387 107.742 l S
3.812 151.168 m 3.812 150.883 l S
6.352 161.223 m 6.352 140.984 l S
8.895 165.898 m 8.895 136.258 l S
11.434 166.426 m 11.434 135.656 l S
13.977 166 m 13.977 136.059 l S
16.52 165.145 m 16.52 137.016 l S
19.059 163.965 m 19.059 138.281 l S
21.602 163.023 m 21.602 139.34 l S
24.141 162.16 m 24.141 139.941 l S
26.684 162.004 m 26.684 140.34 l S
29.223 161.941 m 29.223 140.438 l S
31.766 161.461 m 31.766 140.781 l S
34.305 160.902 m 34.305 141.387 l S
36.848 160.695 m 36.848 141.59 l S
39.387 160.781 m 39.387 141.543 l S
41.93 160.797 m 41.93 141.566 l S
44.469 160.527 m 44.469 141.918 l S
47.012 160.305 m 47.012 141.996 l S
49.555 160.328 m 49.555 142.23 l S
52.094 160.656 m 52.094 141.941 l S
54.637 160.977 m 54.637 141.527 l S
57.176 161.461 m 57.176 140.621 l S
59.719 163.172 m 59.719 139.777 l S
62.258 164.125 m 62.258 137.988 l S
64.801 165.055 m 64.801 137.281 l S
67.34 166.09 m 67.34 136.027 l S
69.883 167.141 m 69.883 135.648 l S
72.422 167.438 m 72.422 134.852 l S
74.965 167.27 m 74.965 134.766 l S
77.508 167.34 m 77.508 134.586 l S
80.047 167.164 m 80.047 134.742 l S
82.59 166.539 m 82.59 135.156 l S
85.129 166.449 m 85.129 135.457 l S
87.672 166.398 m 87.672 135.445 l S
90.211 166.305 m 90.211 135.414 l S
92.754 166.254 m 92.754 135.652 l S
95.293 166.293 m 95.293 135.723 l S
97.836 166.125 m 97.836 135.691 l S
100.375 166.008 m 100.375 135.875 l S
102.918 165.867 m 102.918 136.16 l S
105.457 165.449 m 105.457 136.477 l S
108 164.625 m 108 137.258 l S
110.543 163.902 m 110.543 138.148 l S
113.082 163.488 m 113.082 138.641 l S
115.625 163.168 m 115.625 138.988 l S
118.164 163.668 m 118.164 138.57 l S
120.707 164.379 m 120.707 137.633 l S
123.246 164.891 m 123.246 137.332 l S
125.789 164.98 m 125.789 137.438 l S
128.328 165.223 m 128.328 137.129 l S
130.871 165.699 m 130.871 136.684 l S
133.41 165.895 m 133.41 136.383 l S
135.953 165.902 m 135.953 136.469 l S
138.492 165.668 m 138.492 136.57 l S
141.035 165.352 m 141.035 136.844 l S
143.578 164.797 m 143.578 137.34 l S
146.117 164.426 m 146.117 137.832 l S
148.66 164.602 m 148.66 137.918 l S
151.199 165.449 m 151.199 137.445 l S
153.742 166.273 m 153.742 136.309 l S
156.281 166.586 m 156.281 135.953 l S
158.824 166.773 m 158.824 136.039 l S
161.363 166.172 m 161.363 136.172 l S
163.906 166.191 m 163.906 136.199 l S
166.445 166.258 m 166.445 136.137 l S
168.988 166.246 m 168.988 136.277 l S
171.531 166.016 m 171.531 136.461 l S
174.07 166.043 m 174.07 136.324 l S
176.613 166.242 m 176.613 136.141 l S
179.152 166.023 m 179.152 136.168 l S
181.695 165.629 m 181.695 136.586 l S
184.234 165.84 m 184.234 136.355 l S
186.777 165.938 m 186.777 136.309 l S
189.316 165.789 m 189.316 136.125 l S
191.859 165.027 m 191.859 136.836 l S
194.398 164.176 m 194.398 138.168 l S
196.941 163.68 m 196.941 138.871 l S
199.48 163.277 m 199.48 139.262 l S
202.023 163.172 m 202.023 139.27 l S
204.566 163.758 m 204.566 138.742 l S
207.105 165.016 m 207.105 138.031 l S
209.648 165.926 m 209.648 136.367 l S
212.188 166.688 m 212.188 136.074 l S
214.73 166.781 m 214.73 136.402 l S
217.27 163.902 m 217.27 138.871 l S
219.812 159.418 m 219.812 142.863 l S
222.352 157.492 m 222.352 145.062 l S
224.895 155.312 m 224.895 146.836 l S
227.434 153.926 m 227.434 148.23 l S
229.977 152.766 m 229.977 149.16 l S
232.52 152.102 m 232.52 149.914 l S
235.059 151.699 m 235.059 150.375 l S
237.602 151.438 m 237.602 150.629 l S
240.141 151.273 m 240.141 150.82 l S
242.684 151.18 m 242.684 150.914 l S
245.223 151.141 m 245.223 150.941 l S
247.766 151.141 m 247.766 150.941 l S
250.305 151.141 m 250.305 150.941 l S
252.848 151.141 m 252.848 150.941 l S
255.387 151.141 m 255.387 150.941 l S
255.387 151.141 m 255.387 150.941 l S
Q Q
showpage
%%Trailer
end
%%EOF
