%!PS-Adobe-3.0 EPSF-3.0
%%Creator: cairo 1.16.0 (https://cairographics.org)
%%CreationDate: Wed May 15 11:57:26 2024
%%Pages: 1
%%DocumentData: Clean7Bit
%%LanguageLevel: 2
%%Creator: Wolfram Mathematica
%%BoundingBox: 2 2 257 167
%%EndComments
%%BeginProlog
50 dict begin
/q { gsave } bind def
/Q { grestore } bind def
/cm { 6 array astore concat } bind def
/w { setlinewidth } bind def
/J { setlinecap } bind def
/j { setlinejoin } bind def
/M { setmiterlimit } bind def
/d { setdash } bind def
/m { moveto } bind def
/l { lineto } bind def
/c { curveto } bind def
/h { closepath } bind def
/re { exch dup neg 3 1 roll 5 3 roll moveto 0 rlineto
      0 exch rlineto 0 rlineto closepath } bind def
/S { stroke } bind def
/f { fill } bind def
/f* { eofill } bind def
/n { newpath } bind def
/W { clip } bind def
/W* { eoclip } bind def
/BT { } bind def
/ET { } bind def
/BDC { mark 3 1 roll /BDC pdfmark } bind def
/EMC { mark /EMC pdfmark } bind def
/cairo_store_point { /cairo_point_y exch def /cairo_point_x exch def } def
/Tj { show currentpoint cairo_store_point } bind def
/TJ {
  {
    dup
    type /stringtype eq
    { show } { -0.001 mul 0 cairo_font_matrix dtransform rmoveto } ifelse
  } forall
  currentpoint cairo_store_point
} bind def
/cairo_selectfont { cairo_font_matrix aload pop pop pop 0 0 6 array astore
    cairo_font exch selectfont cairo_point_x cairo_point_y moveto } bind def
/Tf { pop /cairo_font exch def /cairo_font_matrix where
      { pop cairo_selectfont } if } bind def
/Td { matrix translate cairo_font_matrix matrix concatmatrix dup
      /cairo_font_matrix exch def dup 4 get exch 5 get cairo_store_point
      /cairo_font where { pop cairo_selectfont } if } bind def
/Tm { 2 copy 8 2 roll 6 array astore /cairo_font_matrix exch def
      cairo_store_point /cairo_font where { pop cairo_selectfont } if } bind def
/g { setgray } bind def
/rg { setrgbcolor } bind def
/d1 { setcachedevice } bind def
/cairo_data_source {
  CairoDataIndex CairoData length lt
    { CairoData CairoDataIndex get /CairoDataIndex CairoDataIndex 1 add def }
    { () } ifelse
} def
/cairo_flush_ascii85_file { cairo_ascii85_file status { cairo_ascii85_file flushfile } if } def
/cairo_image { image cairo_flush_ascii85_file } def
/cairo_imagemask { imagemask cairo_flush_ascii85_file } def
%%EndProlog
%%BeginSetup
%%EndSetup
%%Page: 1 1
%%BeginPageSetup
%%PageBoundingBox: 2 2 257 167
%%EndPageSetup
q 2 2 255 165 rectclip
1 0 0 -1 0 173 cm q
0 g
1.796436 w
0 J
0 j
[] 0.0 d
3.25 M 3.812 21.773 m 3.812 21.578 l S
6.352 27.523 m 6.352 16.055 l S
8.895 31.785 m 8.895 11.551 l S
11.434 33.516 m 11.434 9.93 l S
13.977 34.473 m 13.977 8.996 l S
16.52 35.152 m 16.52 8.332 l S
19.059 35.422 m 19.059 8.125 l S
21.602 35.621 m 21.602 7.98 l S
24.141 35.836 m 24.141 7.82 l S
26.684 35.973 m 26.684 7.629 l S
29.223 36.34 m 29.223 7.281 l S
31.766 36.488 m 31.766 7.051 l S
34.305 36.586 m 34.305 6.984 l S
36.848 36.625 m 36.848 6.941 l S
39.387 36.598 m 39.387 6.965 l S
41.93 36.41 m 41.93 7.172 l S
44.469 35.461 m 44.469 7.988 l S
47.012 34.211 m 47.012 9.254 l S
49.555 32.973 m 49.555 10.402 l S
52.094 31.836 m 52.094 11.562 l S
54.637 30.719 m 54.637 12.605 l S
57.176 29.645 m 57.176 13.527 l S
59.719 28.836 m 59.719 14.477 l S
62.258 28.598 m 62.258 14.648 l S
64.801 28.738 m 64.801 14.535 l S
67.34 28.613 m 67.34 14.68 l S
69.883 27.809 m 69.883 15.422 l S
72.422 26.863 m 72.422 16.445 l S
74.965 26.098 m 74.965 17.168 l S
77.508 26.316 m 77.508 16.777 l S
80.047 29.219 m 80.047 13.992 l S
82.59 31.461 m 82.59 11.953 l S
85.129 32.625 m 85.129 10.926 l S
87.672 33.203 m 87.672 9.926 l S
90.211 33.793 m 90.211 9.617 l S
92.754 33.859 m 92.754 9.316 l S
95.293 33.934 m 95.293 9.234 l S
97.836 33.996 m 97.836 9.188 l S
100.375 33.781 m 100.375 9.539 l S
102.918 33.906 m 102.918 9.484 l S
105.457 34.316 m 105.457 9.051 l S
108 34.641 m 108 8.75 l S
110.543 35.156 m 110.543 7.977 l S
113.082 35.879 m 113.082 7.25 l S
115.625 36.578 m 115.625 6.77 l S
118.164 37.062 m 118.164 6.605 l S
120.707 37.191 m 120.707 6.484 l S
123.246 37.215 m 123.246 6.211 l S
125.789 35.973 m 125.789 7.219 l S
128.328 35.164 m 128.328 8.48 l S
130.871 33.477 m 130.871 9.699 l S
133.41 32.547 m 133.41 10.863 l S
135.953 32.145 m 135.953 11.367 l S
138.492 31.695 m 138.492 11.891 l S
141.035 30.957 m 141.035 12.176 l S
143.578 30.578 m 143.578 12.578 l S
146.117 30.418 m 146.117 12.797 l S
148.66 30.605 m 148.66 12.633 l S
151.199 31.309 m 151.199 11.879 l S
153.742 32.211 m 153.742 10.941 l S
156.281 33.074 m 156.281 10.223 l S
158.824 33.832 m 158.824 9.535 l S
161.363 34.105 m 161.363 9.359 l S
163.906 34.031 m 163.906 9.422 l S
166.445 33.773 m 166.445 9.641 l S
168.988 33.789 m 168.988 9.719 l S
171.531 33.535 m 171.531 10.09 l S
174.07 33.172 m 174.07 10.484 l S
176.613 32.812 m 176.613 10.656 l S
179.152 32.707 m 179.152 10.742 l S
181.695 33.02 m 181.695 10.434 l S
184.234 33.262 m 184.234 10.328 l S
186.777 33.273 m 186.777 10.25 l S
189.316 33.051 m 189.316 10.289 l S
191.859 33.051 m 191.859 10.406 l S
194.398 32.516 m 194.398 10.812 l S
196.941 32.078 m 196.941 11.309 l S
199.48 31.891 m 199.48 11.391 l S
202.023 32.316 m 202.023 10.957 l S
204.566 32.805 m 204.566 10.605 l S
207.105 32.965 m 207.105 10.434 l S
209.648 33.148 m 209.648 10.402 l S
212.188 32.832 m 212.188 10.496 l S
214.73 32.184 m 214.73 11 l S
217.27 31.797 m 217.27 11.695 l S
219.812 31.223 m 219.812 12.258 l S
222.352 29.469 m 222.352 14.355 l S
224.895 27.25 m 224.895 16.422 l S
227.434 25.285 m 227.434 18.082 l S
229.977 24.035 m 229.977 19.293 l S
232.52 23.156 m 232.52 20.117 l S
235.059 22.613 m 235.059 20.734 l S
237.602 22.25 m 237.602 21.121 l S
240.141 22 m 240.141 21.375 l S
242.684 21.852 m 242.684 21.492 l S
245.223 21.773 m 245.223 21.578 l S
247.766 21.773 m 247.766 21.578 l S
250.305 21.773 m 250.305 21.578 l S
252.848 21.773 m 252.848 21.578 l S
255.387 21.773 m 255.387 21.578 l S
255.387 21.773 m 255.387 21.578 l S
3.812 64.977 m 3.812 64.777 l S
6.352 69.902 m 6.352 59.93 l S
8.895 73.742 m 8.895 55.926 l S
11.434 75.488 m 11.434 54.176 l S
13.977 76.414 m 13.977 53.168 l S
16.52 76.84 m 16.52 52.734 l S
19.059 77.285 m 19.059 52.566 l S
21.602 77.348 m 21.602 52.27 l S
24.141 77.574 m 24.141 52.133 l S
26.684 77.793 m 26.684 51.953 l S
29.223 78.141 m 29.223 51.68 l S
31.766 78.32 m 31.766 51.418 l S
34.305 78.43 m 34.305 51.293 l S
36.848 78.504 m 36.848 51.262 l S
39.387 78.477 m 39.387 51.234 l S
41.93 78.367 m 41.93 51.473 l S
44.469 77.609 m 44.469 52.055 l S
47.012 76.594 m 47.012 53.125 l S
49.555 75.598 m 49.555 54.137 l S
52.094 74.484 m 52.094 55.172 l S
54.637 73.562 m 54.637 56.297 l S
57.176 72.59 m 57.176 57.086 l S
59.719 71.887 m 59.719 57.887 l S
62.258 71.504 m 62.258 58.234 l S
64.801 71.609 m 64.801 58.055 l S
67.34 71.559 m 67.34 58.289 l S
69.883 70.727 m 69.883 58.91 l S
72.422 69.938 m 72.422 59.652 l S
74.965 69.418 m 74.965 60.668 l S
77.508 68.938 m 77.508 61.008 l S
80.047 70.469 m 80.047 59.648 l S
82.59 71.625 m 82.59 58.336 l S
85.129 72.133 m 85.129 57.375 l S
87.672 72.766 m 87.672 57.121 l S
90.211 73.105 m 90.211 56.75 l S
92.754 73.18 m 92.754 56.66 l S
95.293 73.246 m 95.293 56.582 l S
97.836 73.238 m 97.836 56.613 l S
100.375 72.98 m 100.375 56.707 l S
102.918 73.199 m 102.918 56.523 l S
105.457 73.68 m 105.457 55.781 l S
108 74.492 m 108 55.223 l S
110.543 75.062 m 110.543 54.559 l S
113.082 75.969 m 113.082 53.852 l S
115.625 76.695 m 115.625 52.922 l S
118.164 77.359 m 118.164 52.117 l S
120.707 77.824 m 120.707 51.598 l S
123.246 78.137 m 123.246 51.742 l S
125.789 77.266 m 125.789 52.188 l S
128.328 76.523 m 128.328 53.262 l S
130.871 75.66 m 130.871 54.129 l S
133.41 74.602 m 133.41 54.652 l S
135.953 74.09 m 135.953 55.297 l S
138.492 73.742 m 138.492 55.848 l S
141.035 73.387 m 141.035 56.645 l S
143.578 72.922 m 143.578 57.027 l S
146.117 72.547 m 146.117 57.422 l S
148.66 72.371 m 148.66 57.555 l S
151.199 72.746 m 151.199 57.238 l S
153.742 73.48 m 153.742 56.492 l S
156.281 74.07 m 156.281 55.852 l S
158.824 74.641 m 158.824 54.984 l S
161.363 74.949 m 161.363 54.73 l S
163.906 74.996 m 163.906 54.68 l S
166.445 75.051 m 166.445 54.691 l S
168.988 75.004 m 168.988 54.824 l S
171.531 74.812 m 171.531 55.004 l S
174.07 74.332 m 174.07 55.25 l S
176.613 74.07 m 176.613 55.586 l S
179.152 74.055 m 179.152 55.574 l S
181.695 74.25 m 181.695 55.441 l S
184.234 74.492 m 184.234 55.273 l S
186.777 74.504 m 186.777 55.172 l S
189.316 74.531 m 189.316 55.137 l S
191.859 74.453 m 191.859 55.359 l S
194.398 74.211 m 194.398 55.711 l S
196.941 73.738 m 196.941 56.051 l S
199.48 73.531 m 199.48 56.234 l S
202.023 73.832 m 202.023 56.035 l S
204.566 74.141 m 204.566 55.699 l S
207.105 74.465 m 207.105 55.285 l S
209.648 74.609 m 209.648 55.09 l S
212.188 74.551 m 212.188 55.195 l S
214.73 74.309 m 214.73 55.566 l S
217.27 73.691 m 217.27 56.055 l S
219.812 73.117 m 219.812 56.504 l S
222.352 71.672 m 222.352 57.68 l S
224.895 69.945 m 224.895 59.961 l S
227.434 68.473 m 227.434 61.199 l S
229.977 67.414 m 229.977 62.309 l S
232.52 66.496 m 232.52 63.254 l S
235.059 65.898 m 235.059 63.852 l S
237.602 65.426 m 237.602 64.238 l S
240.141 65.219 m 240.141 64.574 l S
242.684 65.125 m 242.684 64.691 l S
245.223 64.996 m 245.223 64.766 l S
247.766 64.977 m 247.766 64.777 l S
250.305 64.977 m 250.305 64.777 l S
252.848 64.977 m 252.848 64.777 l S
255.387 64.977 m 255.387 64.777 l S
255.387 64.977 m 255.387 64.777 l S
3.812 108.176 m 3.812 107.98 l S
6.352 114.586 m 6.352 101.867 l S
8.895 119.238 m 8.895 96.434 l S
11.434 120.531 m 11.434 95.195 l S
13.977 121.762 m 13.977 94.059 l S
16.52 122.344 m 16.52 93.445 l S
19.059 122.582 m 19.059 93.207 l S
21.602 122.742 m 21.602 92.988 l S
24.141 122.926 m 24.141 92.82 l S
26.684 123.125 m 26.684 92.715 l S
29.223 123.543 m 29.223 92.352 l S
31.766 123.793 m 31.766 92.191 l S
34.305 123.93 m 34.305 92.062 l S
36.848 123.969 m 36.848 92.051 l S
39.387 123.949 m 39.387 92.023 l S
41.93 123.66 m 41.93 92.324 l S
44.469 122.703 m 44.469 93.219 l S
47.012 121.559 m 47.012 94.594 l S
49.555 120.297 m 49.555 95.773 l S
52.094 118.934 m 52.094 97.004 l S
54.637 117.746 m 54.637 98.348 l S
57.176 116.824 m 57.176 99.199 l S
59.719 115.984 m 59.719 100.059 l S
62.258 116.086 m 62.258 100.195 l S
64.801 115.953 m 64.801 100.012 l S
67.34 115.805 m 67.34 100.305 l S
69.883 114.855 m 69.883 101.281 l S
72.422 113.805 m 72.422 101.988 l S
74.965 113.359 m 74.965 102.68 l S
77.508 115.309 m 77.508 100.68 l S
80.047 119.609 m 80.047 96.391 l S
82.59 122.855 m 82.59 93.305 l S
85.129 123.926 m 85.129 92.082 l S
87.672 125.031 m 87.672 90.934 l S
90.211 125.75 m 90.211 90.156 l S
92.754 126 m 92.754 90.113 l S
95.293 126.281 m 95.293 89.969 l S
97.836 126.133 m 97.836 90.043 l S
100.375 125.699 m 100.375 90.355 l S
102.918 125.555 m 102.918 90.691 l S
105.457 125.582 m 105.457 90.605 l S
108 126.023 m 108 90.289 l S
110.543 126.395 m 110.543 89.711 l S
113.082 126.641 m 113.082 89.363 l S
115.625 126.723 m 115.625 89.289 l S
118.164 126.672 m 118.164 89.422 l S
120.707 126.711 m 120.707 89.254 l S
123.246 126.18 m 123.246 89.707 l S
125.789 124.5 m 125.789 91.293 l S
128.328 123.496 m 128.328 92.172 l S
130.871 121.566 m 130.871 93.516 l S
133.41 120.844 m 133.41 94.785 l S
135.953 120.082 m 135.953 95.289 l S
138.492 120.078 m 138.492 96.016 l S
141.035 119.543 m 141.035 96.59 l S
143.578 119.285 m 143.578 96.531 l S
146.117 119.754 m 146.117 96.418 l S
148.66 120.574 m 148.66 96.078 l S
151.199 121.355 m 151.199 94.887 l S
153.742 122.262 m 153.742 93.93 l S
156.281 123.438 m 156.281 92.973 l S
158.824 123.785 m 158.824 92.219 l S
161.363 123.703 m 161.363 92.191 l S
163.906 123.664 m 163.906 92.414 l S
166.445 123.391 m 166.445 92.578 l S
168.988 123.031 m 168.988 92.824 l S
171.531 123.121 m 171.531 93.117 l S
174.07 122.473 m 174.07 93.445 l S
176.613 122.273 m 176.613 93.766 l S
179.152 122.234 m 179.152 93.824 l S
181.695 122.285 m 181.695 93.586 l S
184.234 122.582 m 184.234 93.414 l S
186.777 122.332 m 186.777 93.727 l S
189.316 122.273 m 189.316 93.633 l S
191.859 122.004 m 191.859 93.82 l S
194.398 121.66 m 194.398 94.133 l S
196.941 121.289 m 196.941 94.516 l S
199.48 121.41 m 199.48 94.77 l S
202.023 121.484 m 202.023 94.426 l S
204.566 122.035 m 204.566 93.914 l S
207.105 121.852 m 207.105 94.117 l S
209.648 122.039 m 209.648 93.855 l S
212.188 121.438 m 212.188 94.051 l S
214.73 120.766 m 214.73 94.898 l S
217.27 120.328 m 217.27 95.699 l S
219.812 119.895 m 219.812 96.117 l S
222.352 117.324 m 222.352 98.672 l S
224.895 114.715 m 224.895 101.23 l S
227.434 112.934 m 227.434 103.32 l S
229.977 111.297 m 229.977 104.75 l S
232.52 110.215 m 232.52 105.969 l S
235.059 109.492 m 235.059 106.754 l S
237.602 108.797 m 237.602 107.289 l S
240.141 108.539 m 240.141 107.727 l S
242.684 108.34 m 242.684 107.844 l S
245.223 108.23 m 245.223 107.949 l S
247.766 108.176 m 247.766 107.98 l S
250.305 108.176 m 250.305 107.98 l S
252.848 108.176 m 252.848 107.98 l S
255.387 108.176 m 255.387 107.98 l S
255.387 108.176 m 255.387 107.98 l S
3.812 151.375 m 3.812 151.18 l S
6.352 158.684 m 6.352 144.043 l S
8.895 165.895 m 8.895 136.457 l S
11.434 167.309 m 11.434 135.41 l S
13.977 168.242 m 13.977 134.105 l S
16.52 168.996 m 16.52 133.312 l S
19.059 169.434 m 19.059 132.969 l S
21.602 169.754 m 21.602 132.773 l S
24.141 169.84 m 24.141 132.535 l S
26.684 170.074 m 26.684 132.332 l S
29.223 170.43 m 29.223 132.02 l S
31.766 170.617 m 31.766 131.746 l S
34.305 170.695 m 34.305 131.645 l S
36.848 170.785 m 36.848 131.594 l S
39.387 170.801 m 39.387 131.562 l S
41.93 170.574 m 41.93 131.914 l S
44.469 169.625 m 44.469 132.887 l S
47.012 168.348 m 47.012 134.141 l S
49.555 166.848 m 49.555 135.395 l S
52.094 165.656 m 52.094 136.75 l S
54.637 164.352 m 54.637 138.332 l S
57.176 163.012 m 57.176 139.617 l S
59.719 161.891 m 59.719 140.691 l S
62.258 161.75 m 62.258 141.008 l S
64.801 161.816 m 64.801 140.715 l S
67.34 161.637 m 67.34 140.973 l S
69.883 160.332 m 69.883 142.141 l S
72.422 159.09 m 72.422 143.324 l S
74.965 158.156 m 74.965 144.727 l S
77.508 157.617 m 77.508 144.895 l S
80.047 160.141 m 80.047 142.32 l S
82.59 162.594 m 82.59 139.742 l S
85.129 163.824 m 85.129 138.801 l S
87.672 164.695 m 87.672 138.148 l S
90.211 165.23 m 90.211 137.297 l S
92.754 165.434 m 92.754 137.539 l S
95.293 165.535 m 95.293 137.477 l S
97.836 165.398 m 97.836 137.652 l S
100.375 165.391 m 100.375 137.773 l S
102.918 165.285 m 102.918 137.355 l S
105.457 165.906 m 105.457 137.301 l S
108 166.898 m 108 136.289 l S
110.543 167.957 m 110.543 135.105 l S
113.082 169.152 m 113.082 133.793 l S
115.625 169.977 m 115.625 132.777 l S
118.164 170.508 m 118.164 131.938 l S
120.707 170.809 m 120.707 131.57 l S
123.246 170.836 m 123.246 132.188 l S
125.789 169.887 m 125.789 132.738 l S
128.328 168.738 m 128.328 133.645 l S
130.871 167.457 m 130.871 135.062 l S
133.41 166.18 m 133.41 136.051 l S
135.953 165.281 m 135.953 136.891 l S
138.492 164.949 m 138.492 137.676 l S
141.035 164.352 m 141.035 138.328 l S
143.578 163.863 m 143.578 139.289 l S
146.117 163.441 m 146.117 139.602 l S
148.66 163.469 m 148.66 139.586 l S
151.199 163.855 m 151.199 138.887 l S
153.742 165.184 m 153.742 138.059 l S
156.281 166.027 m 156.281 137.219 l S
158.824 166.734 m 158.824 135.816 l S
161.363 167.555 m 161.363 135.469 l S
163.906 167.465 m 163.906 135.359 l S
166.445 167.422 m 166.445 135.418 l S
168.988 167.113 m 168.988 135.945 l S
171.531 166.699 m 171.531 136.449 l S
174.07 166.328 m 174.07 136.551 l S
176.613 166.102 m 176.613 136.828 l S
179.152 166.082 m 179.152 136.91 l S
181.695 166.117 m 181.695 136.918 l S
184.234 166.18 m 184.234 136.691 l S
186.777 166.762 m 186.777 136.25 l S
189.316 166.641 m 189.316 136.25 l S
191.859 166.07 m 191.859 136.715 l S
194.398 165.551 m 194.398 137.328 l S
196.941 165.383 m 196.941 137.621 l S
199.48 165.051 m 199.48 137.758 l S
202.023 165.211 m 202.023 137.566 l S
204.566 165.629 m 204.566 137.246 l S
207.105 166.578 m 207.105 136.465 l S
209.648 166.543 m 209.648 136.316 l S
212.188 166.07 m 212.188 136.652 l S
214.73 165.957 m 214.73 136.926 l S
217.27 165.309 m 217.27 137.656 l S
219.812 163.715 m 219.812 138.668 l S
222.352 161.465 m 222.352 140.754 l S
224.895 159.137 m 224.895 143.836 l S
227.434 156.957 m 227.434 145.621 l S
229.977 155.367 m 229.977 147.148 l S
232.52 154 m 232.52 148.664 l S
235.059 152.973 m 235.059 149.559 l S
237.602 152.25 m 237.602 150.168 l S
240.141 151.848 m 240.141 150.695 l S
242.684 151.656 m 242.684 150.938 l S
245.223 151.48 m 245.223 151.09 l S
247.766 151.375 m 247.766 151.176 l S
250.305 151.375 m 250.305 151.18 l S
252.848 151.375 m 252.848 151.18 l S
255.387 151.375 m 255.387 151.18 l S
255.387 151.375 m 255.387 151.18 l S
Q Q
showpage
%%Trailer
end
%%EOF
