%!PS-Adobe-3.0 EPSF-3.0
%%Creator: cairo 1.16.0 (https://cairographics.org)
%%CreationDate: Wed May 15 11:57:26 2024
%%Pages: 1
%%DocumentData: Clean7Bit
%%LanguageLevel: 2
%%Creator: Wolfram Mathematica
%%BoundingBox: 2 5 257 168
%%EndComments
%%BeginProlog
50 dict begin
/q { gsave } bind def
/Q { grestore } bind def
/cm { 6 array astore concat } bind def
/w { setlinewidth } bind def
/J { setlinecap } bind def
/j { setlinejoin } bind def
/M { setmiterlimit } bind def
/d { setdash } bind def
/m { moveto } bind def
/l { lineto } bind def
/c { curveto } bind def
/h { closepath } bind def
/re { exch dup neg 3 1 roll 5 3 roll moveto 0 rlineto
      0 exch rlineto 0 rlineto closepath } bind def
/S { stroke } bind def
/f { fill } bind def
/f* { eofill } bind def
/n { newpath } bind def
/W { clip } bind def
/W* { eoclip } bind def
/BT { } bind def
/ET { } bind def
/BDC { mark 3 1 roll /BDC pdfmark } bind def
/EMC { mark /EMC pdfmark } bind def
/cairo_store_point { /cairo_point_y exch def /cairo_point_x exch def } def
/Tj { show currentpoint cairo_store_point } bind def
/TJ {
  {
    dup
    type /stringtype eq
    { show } { -0.001 mul 0 cairo_font_matrix dtransform rmoveto } ifelse
  } forall
  currentpoint cairo_store_point
} bind def
/cairo_selectfont { cairo_font_matrix aload pop pop pop 0 0 6 array astore
    cairo_font exch selectfont cairo_point_x cairo_point_y moveto } bind def
/Tf { pop /cairo_font exch def /cairo_font_matrix where
      { pop cairo_selectfont } if } bind def
/Td { matrix translate cairo_font_matrix matrix concatmatrix dup
      /cairo_font_matrix exch def dup 4 get exch 5 get cairo_store_point
      /cairo_font where { pop cairo_selectfont } if } bind def
/Tm { 2 copy 8 2 roll 6 array astore /cairo_font_matrix exch def
      cairo_store_point /cairo_font where { pop cairo_selectfont } if } bind def
/g { setgray } bind def
/rg { setrgbcolor } bind def
/d1 { setcachedevice } bind def
/cairo_data_source {
  CairoDataIndex CairoData length lt
    { CairoData CairoDataIndex get /CairoDataIndex CairoDataIndex 1 add def }
    { () } ifelse
} def
/cairo_flush_ascii85_file { cairo_ascii85_file status { cairo_ascii85_file flushfile } if } def
/cairo_image { image cairo_flush_ascii85_file } def
/cairo_imagemask { imagemask cairo_flush_ascii85_file } def
%%EndProlog
%%BeginSetup
%%EndSetup
%%Page: 1 1
%%BeginPageSetup
%%PageBoundingBox: 2 5 257 168
%%EndPageSetup
q 2 5 255 163 rectclip
1 0 0 -1 0 173 cm q
0 g
1.796436 w
0 J
0 j
[] 0.0 d
3.25 M 3.812 21.551 m 3.812 21.355 l S
6.352 26.66 m 6.352 16.652 l S
8.895 36.176 m 8.895 6.941 l S
11.434 37.266 m 11.434 6.086 l S
13.977 37.387 m 13.977 5.898 l S
16.52 37.395 m 16.52 5.871 l S
19.059 37.355 m 19.059 5.926 l S
21.602 37.375 m 21.602 5.883 l S
24.141 37.438 m 24.141 5.809 l S
26.684 37.496 m 26.684 5.746 l S
29.223 37.523 m 29.223 5.746 l S
31.766 37.496 m 31.766 5.754 l S
34.305 37.492 m 34.305 5.773 l S
36.848 37.461 m 36.848 5.797 l S
39.387 37.473 m 39.387 5.809 l S
41.93 37.434 m 41.93 5.828 l S
44.469 37.367 m 44.469 5.887 l S
47.012 37.328 m 47.012 5.941 l S
49.555 37.277 m 49.555 5.996 l S
52.094 37.316 m 52.094 5.965 l S
54.637 37.242 m 54.637 6.023 l S
57.176 37.254 m 57.176 6.039 l S
59.719 37.273 m 59.719 6.02 l S
62.258 37.324 m 62.258 5.945 l S
64.801 37.441 m 64.801 5.832 l S
67.34 37.457 m 67.34 5.816 l S
69.883 37.469 m 69.883 5.805 l S
72.422 37.469 m 72.422 5.805 l S
74.965 37.344 m 74.965 5.938 l S
77.508 37.402 m 77.508 5.887 l S
80.047 37.398 m 80.047 5.883 l S
82.59 37.371 m 82.59 5.91 l S
85.129 37.363 m 85.129 5.922 l S
87.672 37.387 m 87.672 5.887 l S
90.211 37.422 m 90.211 5.852 l S
92.754 37.402 m 92.754 5.879 l S
95.293 37.422 m 95.293 5.855 l S
97.836 37.43 m 97.836 5.844 l S
100.375 37.398 m 100.375 5.883 l S
102.918 37.402 m 102.918 5.875 l S
105.457 37.496 m 105.457 5.797 l S
108 37.547 m 108 5.715 l S
110.543 37.57 m 110.543 5.699 l S
113.082 37.59 m 113.082 5.688 l S
115.625 37.59 m 115.625 5.688 l S
118.164 37.594 m 118.164 5.68 l S
120.707 37.605 m 120.707 5.668 l S
123.246 37.551 m 123.246 5.73 l S
125.789 37.539 m 125.789 5.746 l S
128.328 37.52 m 128.328 5.738 l S
130.871 37.531 m 130.871 5.73 l S
133.41 37.543 m 133.41 5.73 l S
135.953 37.523 m 135.953 5.742 l S
138.492 37.48 m 138.492 5.781 l S
141.035 37.457 m 141.035 5.809 l S
143.578 37.473 m 143.578 5.801 l S
146.117 37.539 m 146.117 5.715 l S
148.66 37.613 m 148.66 5.66 l S
151.199 37.594 m 151.199 5.68 l S
153.742 37.52 m 153.742 5.738 l S
156.281 37.535 m 156.281 5.746 l S
158.824 37.543 m 158.824 5.727 l S
161.363 37.609 m 161.363 5.648 l S
163.906 37.633 m 163.906 5.625 l S
166.445 37.664 m 166.445 5.613 l S
168.988 37.684 m 168.988 5.586 l S
171.531 37.664 m 171.531 5.602 l S
174.07 36.703 m 174.07 6.504 l S
176.613 28.652 m 176.613 14.309 l S
179.152 25.125 m 179.152 17.809 l S
181.695 23.098 m 181.695 19.797 l S
184.234 22.035 m 184.234 20.859 l S
186.777 21.734 m 186.777 21.145 l S
189.316 21.562 m 189.316 21.324 l S
191.859 21.551 m 191.859 21.355 l S
194.398 21.551 m 194.398 21.355 l S
196.941 21.551 m 196.941 21.355 l S
199.48 21.551 m 199.48 21.355 l S
202.023 21.551 m 202.023 21.355 l S
204.566 21.551 m 204.566 21.355 l S
207.105 21.551 m 207.105 21.355 l S
209.648 21.551 m 209.648 21.355 l S
212.188 21.551 m 212.188 21.355 l S
214.73 21.551 m 214.73 21.355 l S
217.27 21.551 m 217.27 21.355 l S
219.812 21.551 m 219.812 21.355 l S
222.352 21.551 m 222.352 21.355 l S
224.895 21.551 m 224.895 21.355 l S
227.434 21.551 m 227.434 21.355 l S
229.977 21.551 m 229.977 21.355 l S
232.52 21.551 m 232.52 21.355 l S
235.059 21.551 m 235.059 21.355 l S
237.602 21.551 m 237.602 21.355 l S
240.141 21.551 m 240.141 21.355 l S
242.684 21.551 m 242.684 21.355 l S
245.223 21.551 m 245.223 21.355 l S
247.766 21.551 m 247.766 21.355 l S
250.305 21.551 m 250.305 21.355 l S
252.848 21.551 m 252.848 21.355 l S
255.387 21.551 m 255.387 21.355 l S
255.387 21.551 m 255.387 21.355 l S
3.812 64.754 m 3.812 64.555 l S
6.352 67.734 m 6.352 61.781 l S
8.895 72.836 m 8.895 56.809 l S
11.434 72.781 m 11.434 56.504 l S
13.977 72.82 m 13.977 56.492 l S
16.52 72.895 m 16.52 56.453 l S
19.059 72.906 m 19.059 56.43 l S
21.602 72.984 m 21.602 56.391 l S
24.141 73.059 m 24.141 56.336 l S
26.684 73.117 m 26.684 56.242 l S
29.223 73.125 m 29.223 56.223 l S
31.766 73.125 m 31.766 56.25 l S
34.305 73.121 m 34.305 56.258 l S
36.848 73.09 m 36.848 56.254 l S
39.387 73.105 m 39.387 56.23 l S
41.93 73.09 m 41.93 56.27 l S
44.469 73.07 m 44.469 56.254 l S
47.012 73.055 m 47.012 56.312 l S
49.555 73.012 m 49.555 56.344 l S
52.094 73.02 m 52.094 56.309 l S
54.637 73.004 m 54.637 56.344 l S
57.176 73.016 m 57.176 56.348 l S
59.719 73.012 m 59.719 56.305 l S
62.258 73.082 m 62.258 56.277 l S
64.801 73.164 m 64.801 56.195 l S
67.34 73.156 m 67.34 56.188 l S
69.883 73.168 m 69.883 56.16 l S
72.422 73.211 m 72.422 56.16 l S
74.965 73.125 m 74.965 56.242 l S
77.508 73.16 m 77.508 56.184 l S
80.047 73.16 m 80.047 56.195 l S
82.59 73.188 m 82.59 56.207 l S
85.129 73.16 m 85.129 56.207 l S
87.672 73.188 m 87.672 56.188 l S
90.211 73.203 m 90.211 56.172 l S
92.754 73.176 m 92.754 56.176 l S
95.293 73.207 m 95.293 56.168 l S
97.836 73.223 m 97.836 56.156 l S
100.375 73.199 m 100.375 56.152 l S
102.918 73.18 m 102.918 56.164 l S
105.457 73.305 m 105.457 56.117 l S
108 73.301 m 108 56.102 l S
110.543 73.32 m 110.543 56.055 l S
113.082 73.34 m 113.082 56.043 l S
115.625 73.301 m 115.625 56.074 l S
118.164 73.336 m 118.164 56.051 l S
120.707 73.32 m 120.707 56.055 l S
123.246 73.285 m 123.246 56.094 l S
125.789 73.301 m 125.789 56.055 l S
128.328 73.289 m 128.328 56.078 l S
130.871 73.285 m 130.871 56.074 l S
133.41 73.316 m 133.41 56.078 l S
135.953 73.281 m 135.953 56.098 l S
138.492 73.258 m 138.492 56.117 l S
141.035 73.25 m 141.035 56.137 l S
143.578 73.266 m 143.578 56.125 l S
146.117 73.301 m 146.117 56.094 l S
148.66 73.344 m 148.66 56.027 l S
151.199 73.336 m 151.199 56.074 l S
153.742 73.285 m 153.742 56.098 l S
156.281 73.324 m 156.281 56.078 l S
158.824 73.297 m 158.824 56.062 l S
161.363 73.332 m 161.363 56.031 l S
163.906 73.359 m 163.906 56.016 l S
166.445 73.367 m 166.445 56.012 l S
168.988 73.414 m 168.988 55.977 l S
171.531 73.367 m 171.531 56.016 l S
174.07 72.629 m 174.07 56.625 l S
176.613 67.539 m 176.613 61.645 l S
179.152 66.059 m 179.152 63.207 l S
181.695 65.43 m 181.695 63.93 l S
184.234 65.047 m 184.234 64.254 l S
186.777 64.926 m 186.777 64.387 l S
189.316 64.754 m 189.316 64.477 l S
191.859 64.754 m 191.859 64.555 l S
194.398 64.754 m 194.398 64.555 l S
196.941 64.754 m 196.941 64.551 l S
199.48 64.754 m 199.48 64.555 l S
202.023 64.754 m 202.023 64.555 l S
204.566 64.754 m 204.566 64.555 l S
207.105 64.754 m 207.105 64.555 l S
209.648 64.754 m 209.648 64.555 l S
212.188 64.754 m 212.188 64.555 l S
214.73 64.754 m 214.73 64.555 l S
217.27 64.754 m 217.27 64.555 l S
219.812 64.754 m 219.812 64.555 l S
222.352 64.754 m 222.352 64.555 l S
224.895 64.754 m 224.895 64.555 l S
227.434 64.754 m 227.434 64.555 l S
229.977 64.754 m 229.977 64.555 l S
232.52 64.754 m 232.52 64.555 l S
235.059 64.754 m 235.059 64.555 l S
237.602 64.754 m 237.602 64.555 l S
240.141 64.754 m 240.141 64.555 l S
242.684 64.754 m 242.684 64.555 l S
245.223 64.754 m 245.223 64.555 l S
247.766 64.754 m 247.766 64.555 l S
250.305 64.754 m 250.305 64.555 l S
252.848 64.754 m 252.848 64.555 l S
255.387 64.754 m 255.387 64.555 l S
255.387 64.754 m 255.387 64.555 l S
3.812 107.953 m 3.812 107.758 l S
6.352 115.418 m 6.352 100.156 l S
8.895 125.672 m 8.895 90.691 l S
11.434 126.387 m 11.434 89.473 l S
13.977 126.66 m 13.977 89.27 l S
16.52 126.762 m 16.52 89.16 l S
19.059 126.797 m 19.059 89.105 l S
21.602 126.898 m 21.602 88.996 l S
24.141 127.062 m 24.141 88.863 l S
26.684 127.16 m 26.684 88.758 l S
29.223 127.207 m 29.223 88.707 l S
31.766 127.215 m 31.766 88.703 l S
34.305 127.234 m 34.305 88.699 l S
36.848 127.254 m 36.848 88.668 l S
39.387 127.25 m 39.387 88.664 l S
41.93 127.234 m 41.93 88.68 l S
44.469 127.188 m 44.469 88.73 l S
47.012 127.156 m 47.012 88.77 l S
49.555 127.141 m 49.555 88.809 l S
52.094 127.172 m 52.094 88.793 l S
54.637 127.102 m 54.637 88.848 l S
57.176 127.109 m 57.176 88.855 l S
59.719 127.125 m 59.719 88.824 l S
62.258 127.219 m 62.258 88.777 l S
64.801 127.348 m 64.801 88.648 l S
67.34 127.355 m 67.34 88.625 l S
69.883 127.355 m 69.883 88.605 l S
72.422 127.352 m 72.422 88.629 l S
74.965 127.223 m 74.965 88.734 l S
77.508 127.289 m 77.508 88.684 l S
80.047 127.301 m 80.047 88.68 l S
82.59 127.293 m 82.59 88.699 l S
85.129 127.266 m 85.129 88.699 l S
87.672 127.324 m 87.672 88.676 l S
90.211 127.32 m 90.211 88.648 l S
92.754 127.301 m 92.754 88.668 l S
95.293 127.34 m 95.293 88.621 l S
97.836 127.355 m 97.836 88.633 l S
100.375 127.312 m 100.375 88.668 l S
102.918 127.316 m 102.918 88.641 l S
105.457 127.453 m 105.457 88.57 l S
108 127.508 m 108 88.508 l S
110.543 127.508 m 110.543 88.469 l S
113.082 127.508 m 113.082 88.449 l S
115.625 127.52 m 115.625 88.461 l S
118.164 127.531 m 118.164 88.445 l S
120.707 127.531 m 120.707 88.453 l S
123.246 127.477 m 123.246 88.508 l S
125.789 127.453 m 125.789 88.52 l S
128.328 127.469 m 128.328 88.52 l S
130.871 127.477 m 130.871 88.504 l S
133.41 127.473 m 133.41 88.527 l S
135.953 127.449 m 135.953 88.531 l S
138.492 127.41 m 138.492 88.562 l S
141.035 127.383 m 141.035 88.613 l S
143.578 127.406 m 143.578 88.594 l S
146.117 127.488 m 146.117 88.512 l S
148.66 127.562 m 148.66 88.445 l S
151.199 127.52 m 151.199 88.48 l S
153.742 127.449 m 153.742 88.539 l S
156.281 127.461 m 156.281 88.527 l S
158.824 127.48 m 158.824 88.508 l S
161.363 127.555 m 161.363 88.445 l S
163.906 127.578 m 163.906 88.41 l S
166.445 127.621 m 166.445 88.391 l S
168.988 127.637 m 168.988 88.363 l S
171.531 127.609 m 171.531 88.395 l S
174.07 126.238 m 174.07 89.555 l S
176.613 117.375 m 176.613 98.312 l S
179.152 113.164 m 179.152 102.555 l S
181.695 110.41 m 181.695 105.379 l S
184.234 108.766 m 184.234 106.969 l S
186.777 108.289 m 186.777 107.387 l S
189.316 108.012 m 189.316 107.609 l S
191.859 107.965 m 191.859 107.727 l S
194.398 107.961 m 194.398 107.754 l S
196.941 107.957 m 196.941 107.754 l S
199.48 107.988 m 199.48 107.711 l S
202.023 107.969 m 202.023 107.734 l S
204.566 107.953 m 204.566 107.75 l S
207.105 107.953 m 207.105 107.758 l S
209.648 107.953 m 209.648 107.758 l S
212.188 107.953 m 212.188 107.758 l S
214.73 107.953 m 214.73 107.758 l S
217.27 107.953 m 217.27 107.758 l S
219.812 107.953 m 219.812 107.758 l S
222.352 107.953 m 222.352 107.758 l S
224.895 107.953 m 224.895 107.758 l S
227.434 107.953 m 227.434 107.758 l S
229.977 107.953 m 229.977 107.758 l S
232.52 107.953 m 232.52 107.758 l S
235.059 107.953 m 235.059 107.758 l S
237.602 107.953 m 237.602 107.758 l S
240.141 107.953 m 240.141 107.758 l S
242.684 107.953 m 242.684 107.758 l S
245.223 107.953 m 245.223 107.758 l S
247.766 107.953 m 247.766 107.758 l S
250.305 107.953 m 250.305 107.758 l S
252.848 107.953 m 252.848 107.758 l S
255.387 107.953 m 255.387 107.758 l S
255.387 107.953 m 255.387 107.758 l S
3.812 151.152 m 3.812 150.957 l S
6.352 156.047 m 6.352 146.246 l S
8.895 165.652 m 8.895 136.559 l S
11.434 166.488 m 11.434 135.414 l S
13.977 166.664 m 13.977 135.309 l S
16.52 166.742 m 16.52 135.277 l S
19.059 166.727 m 19.059 135.289 l S
21.602 166.785 m 21.602 135.27 l S
24.141 166.844 m 24.141 135.191 l S
26.684 166.973 m 26.684 135.059 l S
29.223 166.945 m 29.223 135.07 l S
31.766 166.941 m 31.766 135.098 l S
34.305 166.938 m 34.305 135.113 l S
36.848 166.898 m 36.848 135.129 l S
39.387 166.926 m 39.387 135.098 l S
41.93 166.879 m 41.93 135.152 l S
44.469 166.836 m 44.469 135.168 l S
47.012 166.816 m 47.012 135.254 l S
49.555 166.758 m 49.555 135.301 l S
52.094 166.781 m 52.094 135.258 l S
54.637 166.727 m 54.637 135.289 l S
57.176 166.738 m 57.176 135.305 l S
59.719 166.727 m 59.719 135.281 l S
62.258 166.84 m 62.258 135.246 l S
64.801 166.906 m 64.801 135.082 l S
67.34 166.953 m 67.34 135.09 l S
69.883 166.961 m 69.883 135.07 l S
72.422 166.992 m 72.422 135.102 l S
74.965 166.84 m 74.965 135.195 l S
77.508 166.91 m 77.508 135.113 l S
80.047 166.922 m 80.047 135.121 l S
82.59 166.965 m 82.59 135.121 l S
85.129 166.906 m 85.129 135.137 l S
87.672 166.934 m 87.672 135.113 l S
90.211 166.969 m 90.211 135.098 l S
92.754 166.918 m 92.754 135.074 l S
95.293 166.973 m 95.293 135.062 l S
97.836 166.992 m 97.836 135.074 l S
100.375 166.934 m 100.375 135.102 l S
102.918 166.926 m 102.918 135.094 l S
105.457 167.078 m 105.457 135.004 l S
108 167.074 m 108 134.977 l S
110.543 167.074 m 110.543 134.902 l S
113.082 167.125 m 113.082 134.91 l S
115.625 167.105 m 115.625 134.961 l S
118.164 167.109 m 118.164 134.93 l S
120.707 167.098 m 120.707 134.922 l S
123.246 167.098 m 123.246 134.977 l S
125.789 167.066 m 125.789 134.941 l S
128.328 167.07 m 128.328 134.996 l S
130.871 167.066 m 130.871 134.973 l S
133.41 167.074 m 133.41 134.961 l S
135.953 167.027 m 135.953 134.977 l S
138.492 166.988 m 138.492 135.031 l S
141.035 166.996 m 141.035 135.035 l S
143.578 166.996 m 143.578 135.039 l S
146.117 167.062 m 146.117 134.984 l S
148.66 167.121 m 148.66 134.902 l S
151.199 167.145 m 151.199 134.949 l S
153.742 167.059 m 153.742 134.973 l S
156.281 167.082 m 156.281 134.992 l S
158.824 167.059 m 158.824 134.957 l S
161.363 167.117 m 161.363 134.902 l S
163.906 167.168 m 163.906 134.891 l S
166.445 167.211 m 166.445 134.855 l S
168.988 167.211 m 168.988 134.82 l S
171.531 167.176 m 171.531 134.883 l S
174.07 166.234 m 174.07 135.703 l S
176.613 158.312 m 176.613 143.375 l S
179.152 154.574 m 179.152 147.574 l S
181.695 152.75 m 181.695 149.5 l S
184.234 151.668 m 184.234 150.512 l S
186.777 151.543 m 186.777 150.527 l S
189.316 151.211 m 189.316 150.762 l S
191.859 151.18 m 191.859 150.938 l S
194.398 151.164 m 194.398 150.957 l S
196.941 151.152 m 196.941 150.934 l S
199.48 151.18 m 199.48 150.863 l S
202.023 151.16 m 202.023 150.883 l S
204.566 151.242 m 204.566 150.848 l S
207.105 151.176 m 207.105 150.914 l S
209.648 151.152 m 209.648 150.957 l S
212.188 151.152 m 212.188 150.957 l S
214.73 151.152 m 214.73 150.945 l S
217.27 151.16 m 217.27 150.957 l S
219.812 151.152 m 219.812 150.957 l S
222.352 151.152 m 222.352 150.957 l S
224.895 151.152 m 224.895 150.957 l S
227.434 151.152 m 227.434 150.957 l S
229.977 151.152 m 229.977 150.957 l S
232.52 151.152 m 232.52 150.957 l S
235.059 151.152 m 235.059 150.957 l S
237.602 151.152 m 237.602 150.957 l S
240.141 151.152 m 240.141 150.957 l S
242.684 151.152 m 242.684 150.957 l S
245.223 151.152 m 245.223 150.957 l S
247.766 151.152 m 247.766 150.957 l S
250.305 151.152 m 250.305 150.957 l S
252.848 151.152 m 252.848 150.957 l S
255.387 151.152 m 255.387 150.957 l S
255.387 151.152 m 255.387 150.957 l S
Q Q
showpage
%%Trailer
end
%%EOF
