%!PS-Adobe-3.0 EPSF-3.0
%%Creator: cairo 1.16.0 (https://cairographics.org)
%%CreationDate: Wed May 15 11:57:26 2024
%%Pages: 1
%%DocumentData: Clean7Bit
%%LanguageLevel: 2
%%Creator: Wolfram Mathematica
%%BoundingBox: 2 2 257 169
%%EndComments
%%BeginProlog
50 dict begin
/q { gsave } bind def
/Q { grestore } bind def
/cm { 6 array astore concat } bind def
/w { setlinewidth } bind def
/J { setlinecap } bind def
/j { setlinejoin } bind def
/M { setmiterlimit } bind def
/d { setdash } bind def
/m { moveto } bind def
/l { lineto } bind def
/c { curveto } bind def
/h { closepath } bind def
/re { exch dup neg 3 1 roll 5 3 roll moveto 0 rlineto
      0 exch rlineto 0 rlineto closepath } bind def
/S { stroke } bind def
/f { fill } bind def
/f* { eofill } bind def
/n { newpath } bind def
/W { clip } bind def
/W* { eoclip } bind def
/BT { } bind def
/ET { } bind def
/BDC { mark 3 1 roll /BDC pdfmark } bind def
/EMC { mark /EMC pdfmark } bind def
/cairo_store_point { /cairo_point_y exch def /cairo_point_x exch def } def
/Tj { show currentpoint cairo_store_point } bind def
/TJ {
  {
    dup
    type /stringtype eq
    { show } { -0.001 mul 0 cairo_font_matrix dtransform rmoveto } ifelse
  } forall
  currentpoint cairo_store_point
} bind def
/cairo_selectfont { cairo_font_matrix aload pop pop pop 0 0 6 array astore
    cairo_font exch selectfont cairo_point_x cairo_point_y moveto } bind def
/Tf { pop /cairo_font exch def /cairo_font_matrix where
      { pop cairo_selectfont } if } bind def
/Td { matrix translate cairo_font_matrix matrix concatmatrix dup
      /cairo_font_matrix exch def dup 4 get exch 5 get cairo_store_point
      /cairo_font where { pop cairo_selectfont } if } bind def
/Tm { 2 copy 8 2 roll 6 array astore /cairo_font_matrix exch def
      cairo_store_point /cairo_font where { pop cairo_selectfont } if } bind def
/g { setgray } bind def
/rg { setrgbcolor } bind def
/d1 { setcachedevice } bind def
/cairo_data_source {
  CairoDataIndex CairoData length lt
    { CairoData CairoDataIndex get /CairoDataIndex CairoDataIndex 1 add def }
    { () } ifelse
} def
/cairo_flush_ascii85_file { cairo_ascii85_file status { cairo_ascii85_file flushfile } if } def
/cairo_image { image cairo_flush_ascii85_file } def
/cairo_imagemask { imagemask cairo_flush_ascii85_file } def
%%EndProlog
%%BeginSetup
%%EndSetup
%%Page: 1 1
%%BeginPageSetup
%%PageBoundingBox: 2 2 257 169
%%EndPageSetup
q 2 2 255 167 rectclip
1 0 0 -1 0 173 cm q
0 g
1.796436 w
0 J
0 j
[] 0.0 d
3.25 M 3.812 22.629 m 3.812 20.789 l S
6.352 30.188 m 6.352 12.727 l S
8.895 34.02 m 8.895 9.219 l S
11.434 35.305 m 11.434 8.07 l S
13.977 35.879 m 13.977 7.516 l S
16.52 36.176 m 16.52 7.199 l S
19.059 36.43 m 19.059 6.98 l S
21.602 36.582 m 21.602 6.836 l S
24.141 36.656 m 24.141 6.746 l S
26.684 36.625 m 26.684 6.777 l S
29.223 36.547 m 29.223 6.84 l S
31.766 36.629 m 31.766 6.777 l S
34.305 36.801 m 34.305 6.633 l S
36.848 37.004 m 36.848 6.438 l S
39.387 37.207 m 39.387 6.211 l S
41.93 37.469 m 41.93 5.973 l S
44.469 37.785 m 44.469 5.723 l S
47.012 38.02 m 47.012 5.453 l S
49.555 38.16 m 49.555 5.324 l S
52.094 38.223 m 52.094 5.25 l S
54.637 38.332 m 54.637 5.148 l S
57.176 38.352 m 57.176 5.148 l S
59.719 38.355 m 59.719 5.133 l S
62.258 38.527 m 62.258 5 l S
64.801 38.547 m 64.801 4.965 l S
67.34 38.578 m 67.34 4.926 l S
69.883 38.617 m 69.883 4.91 l S
72.422 38.617 m 72.422 4.891 l S
74.965 38.641 m 74.965 4.879 l S
77.508 38.668 m 77.508 4.852 l S
80.047 38.684 m 80.047 4.836 l S
82.59 38.699 m 82.59 4.832 l S
85.129 38.688 m 85.129 4.828 l S
87.672 38.68 m 87.672 4.844 l S
90.211 38.617 m 90.211 4.902 l S
92.754 38.57 m 92.754 4.953 l S
95.293 38.555 m 95.293 4.969 l S
97.836 38.617 m 97.836 4.895 l S
100.375 38.699 m 100.375 4.809 l S
102.918 38.746 m 102.918 4.781 l S
105.457 38.742 m 105.457 4.797 l S
108 38.805 m 108 4.719 l S
110.543 38.824 m 110.543 4.695 l S
113.082 38.781 m 113.082 4.742 l S
115.625 38.738 m 115.625 4.777 l S
118.164 38.754 m 118.164 4.773 l S
120.707 38.828 m 120.707 4.715 l S
123.246 38.824 m 123.246 4.699 l S
125.789 38.836 m 125.789 4.68 l S
128.328 38.844 m 128.328 4.684 l S
130.871 38.812 m 130.871 4.715 l S
133.41 38.77 m 133.41 4.738 l S
135.953 38.734 m 135.953 4.781 l S
138.492 38.734 m 138.492 4.793 l S
141.035 38.746 m 141.035 4.777 l S
143.578 38.758 m 143.578 4.75 l S
146.117 38.727 m 146.117 4.781 l S
148.66 38.734 m 148.66 4.801 l S
151.199 38.695 m 151.199 4.84 l S
153.742 38.68 m 153.742 4.84 l S
156.281 38.664 m 156.281 4.859 l S
158.824 38.66 m 158.824 4.859 l S
161.363 37.434 m 161.363 6.039 l S
163.906 33.461 m 163.906 9.523 l S
166.445 30.223 m 166.445 12.801 l S
168.988 28.168 m 168.988 15.023 l S
171.531 26.238 m 171.531 16.746 l S
174.07 24.812 m 174.07 18.285 l S
176.613 23.762 m 176.613 19.281 l S
179.152 23.133 m 179.152 19.941 l S
181.695 22.68 m 181.695 20.422 l S
184.234 22.371 m 184.234 20.781 l S
186.777 22.086 m 186.777 21.066 l S
189.316 21.938 m 189.316 21.203 l S
191.859 21.859 m 191.859 21.289 l S
194.398 21.773 m 194.398 21.375 l S
196.941 21.734 m 196.941 21.406 l S
199.48 21.699 m 199.48 21.434 l S
202.023 21.668 m 202.023 21.473 l S
204.566 21.668 m 204.566 21.473 l S
207.105 21.668 m 207.105 21.473 l S
209.648 21.668 m 209.648 21.473 l S
212.188 21.668 m 212.188 21.473 l S
214.73 21.668 m 214.73 21.473 l S
217.27 21.668 m 217.27 21.473 l S
219.812 21.668 m 219.812 21.473 l S
222.352 21.668 m 222.352 21.473 l S
224.895 21.668 m 224.895 21.473 l S
227.434 21.668 m 227.434 21.473 l S
229.977 21.668 m 229.977 21.473 l S
232.52 21.668 m 232.52 21.473 l S
235.059 21.668 m 235.059 21.473 l S
237.602 21.668 m 237.602 21.473 l S
240.141 21.668 m 240.141 21.473 l S
242.684 21.668 m 242.684 21.473 l S
245.223 21.668 m 245.223 21.473 l S
247.766 21.668 m 247.766 21.473 l S
250.305 21.668 m 250.305 21.473 l S
252.848 21.668 m 252.848 21.473 l S
255.387 21.668 m 255.387 21.473 l S
255.387 21.668 m 255.387 21.473 l S
3.812 65.266 m 3.812 64.207 l S
6.352 71.469 m 6.352 58.008 l S
8.895 74.207 m 8.895 55.176 l S
11.434 75.02 m 11.434 54.469 l S
13.977 75.406 m 13.977 53.98 l S
16.52 75.602 m 16.52 53.898 l S
19.059 75.664 m 19.059 53.742 l S
21.602 75.848 m 21.602 53.617 l S
24.141 75.957 m 24.141 53.559 l S
26.684 75.895 m 26.684 53.582 l S
29.223 75.844 m 29.223 53.637 l S
31.766 75.867 m 31.766 53.531 l S
34.305 76.031 m 34.305 53.367 l S
36.848 76.109 m 36.848 53.277 l S
39.387 76.297 m 39.387 53.133 l S
41.93 76.496 m 41.93 52.953 l S
44.469 76.652 m 44.469 52.738 l S
47.012 76.824 m 47.012 52.523 l S
49.555 76.938 m 49.555 52.422 l S
52.094 76.996 m 52.094 52.371 l S
54.637 77.098 m 54.637 52.242 l S
57.176 77.051 m 57.176 52.262 l S
59.719 77.074 m 59.719 52.242 l S
62.258 77.176 m 62.258 52.113 l S
64.801 77.254 m 64.801 52.105 l S
67.34 77.324 m 67.34 52.055 l S
69.883 77.305 m 69.883 52.055 l S
72.422 77.348 m 72.422 52.043 l S
74.965 77.324 m 74.965 51.973 l S
77.508 77.348 m 77.508 51.969 l S
80.047 77.367 m 80.047 51.91 l S
82.59 77.426 m 82.59 51.965 l S
85.129 77.367 m 85.129 51.93 l S
87.672 77.457 m 87.672 51.938 l S
90.211 77.328 m 90.211 52.027 l S
92.754 77.344 m 92.754 52.051 l S
95.293 77.324 m 95.293 52.039 l S
97.836 77.395 m 97.836 51.926 l S
100.375 77.48 m 100.375 51.883 l S
102.918 77.445 m 102.918 51.895 l S
105.457 77.508 m 105.457 51.883 l S
108 77.516 m 108 51.797 l S
110.543 77.523 m 110.543 51.766 l S
113.082 77.441 m 113.082 51.863 l S
115.625 77.473 m 115.625 51.863 l S
118.164 77.512 m 118.164 51.812 l S
120.707 77.523 m 120.707 51.762 l S
123.246 77.621 m 123.246 51.781 l S
125.789 77.629 m 125.789 51.758 l S
128.328 77.574 m 128.328 51.77 l S
130.871 77.527 m 130.871 51.812 l S
133.41 77.488 m 133.41 51.848 l S
135.953 77.484 m 135.953 51.883 l S
138.492 77.504 m 138.492 51.812 l S
141.035 77.488 m 141.035 51.801 l S
143.578 77.492 m 143.578 51.867 l S
146.117 77.473 m 146.117 51.863 l S
148.66 77.453 m 148.66 51.879 l S
151.199 77.438 m 151.199 51.887 l S
153.742 77.43 m 153.742 51.891 l S
156.281 77.41 m 156.281 51.926 l S
158.824 77.391 m 158.824 51.945 l S
161.363 77 m 161.363 52.395 l S
163.906 74.773 m 163.906 54.758 l S
166.445 72.727 m 166.445 56.82 l S
168.988 70.695 m 168.988 58.824 l S
171.531 69.105 m 171.531 60.492 l S
174.07 67.719 m 174.07 61.824 l S
176.613 66.777 m 176.613 62.695 l S
179.152 66.18 m 179.152 63.461 l S
181.695 65.648 m 181.695 63.832 l S
184.234 65.41 m 184.234 64.145 l S
186.777 65.238 m 186.777 64.328 l S
189.316 65.109 m 189.316 64.418 l S
191.859 65.039 m 191.859 64.539 l S
194.398 64.992 m 194.398 64.59 l S
196.941 64.914 m 196.941 64.629 l S
199.48 64.895 m 199.48 64.645 l S
202.023 64.867 m 202.023 64.668 l S
204.566 64.867 m 204.566 64.672 l S
207.105 64.867 m 207.105 64.672 l S
209.648 64.867 m 209.648 64.672 l S
212.188 64.867 m 212.188 64.672 l S
214.73 64.867 m 214.73 64.672 l S
217.27 64.867 m 217.27 64.672 l S
219.812 64.867 m 219.812 64.672 l S
222.352 64.867 m 222.352 64.672 l S
224.895 64.867 m 224.895 64.672 l S
227.434 64.867 m 227.434 64.672 l S
229.977 64.867 m 229.977 64.672 l S
232.52 64.867 m 232.52 64.672 l S
235.059 64.867 m 235.059 64.672 l S
237.602 64.867 m 237.602 64.672 l S
240.141 64.867 m 240.141 64.672 l S
242.684 64.867 m 242.684 64.672 l S
245.223 64.867 m 245.223 64.672 l S
247.766 64.867 m 247.766 64.672 l S
250.305 64.867 m 250.305 64.672 l S
252.848 64.867 m 252.848 64.672 l S
255.387 64.867 m 255.387 64.672 l S
255.387 64.867 m 255.387 64.672 l S
3.812 108.746 m 3.812 106.891 l S
6.352 116.879 m 6.352 98.914 l S
8.895 120.258 m 8.895 95.609 l S
11.434 121.453 m 11.434 94.5 l S
13.977 121.977 m 13.977 93.965 l S
16.52 122.25 m 16.52 93.68 l S
19.059 122.469 m 19.059 93.418 l S
21.602 122.664 m 21.602 93.27 l S
24.141 122.77 m 24.141 93.176 l S
26.684 122.707 m 26.684 93.215 l S
29.223 122.676 m 29.223 93.285 l S
31.766 122.742 m 31.766 93.199 l S
34.305 122.879 m 34.305 92.965 l S
36.848 123.098 m 36.848 92.812 l S
39.387 123.371 m 39.387 92.582 l S
41.93 123.598 m 41.93 92.316 l S
44.469 123.887 m 44.469 91.98 l S
47.012 124.113 m 47.012 91.75 l S
49.555 124.227 m 49.555 91.609 l S
52.094 124.324 m 52.094 91.512 l S
54.637 124.434 m 54.637 91.418 l S
57.176 124.453 m 57.176 91.414 l S
59.719 124.453 m 59.719 91.344 l S
62.258 124.559 m 62.258 91.215 l S
64.801 124.598 m 64.801 91.203 l S
67.34 124.727 m 67.34 91.16 l S
69.883 124.73 m 69.883 91.125 l S
72.422 124.73 m 72.422 91.109 l S
74.965 124.73 m 74.965 91.027 l S
77.508 124.746 m 77.508 91.055 l S
80.047 124.781 m 80.047 91.004 l S
82.59 124.793 m 82.59 91.027 l S
85.129 124.77 m 85.129 91.043 l S
87.672 124.863 m 87.672 90.988 l S
90.211 124.676 m 90.211 91.125 l S
92.754 124.652 m 92.754 91.152 l S
95.293 124.637 m 95.293 91.133 l S
97.836 124.727 m 97.836 91.074 l S
100.375 124.859 m 100.375 90.988 l S
102.918 124.797 m 102.918 90.969 l S
105.457 124.883 m 105.457 90.957 l S
108 124.926 m 108 90.859 l S
110.543 124.898 m 110.543 90.867 l S
113.082 124.848 m 113.082 90.965 l S
115.625 124.867 m 115.625 90.957 l S
118.164 124.875 m 118.164 90.965 l S
120.707 124.895 m 120.707 90.863 l S
123.246 124.938 m 123.246 90.84 l S
125.789 124.957 m 125.789 90.844 l S
128.328 124.898 m 128.328 90.883 l S
130.871 124.863 m 130.871 90.898 l S
133.41 124.902 m 133.41 90.941 l S
135.953 124.805 m 135.953 90.965 l S
138.492 124.816 m 138.492 90.977 l S
141.035 124.812 m 141.035 90.945 l S
143.578 124.812 m 143.578 90.945 l S
146.117 124.812 m 146.117 90.961 l S
148.66 124.77 m 148.66 90.965 l S
151.199 124.723 m 151.199 91.031 l S
153.742 124.734 m 153.742 91.031 l S
156.281 124.715 m 156.281 91.051 l S
158.824 124.73 m 158.824 91.062 l S
161.363 123.336 m 161.363 92.625 l S
163.906 119.738 m 163.906 96.031 l S
166.445 116.949 m 166.445 98.949 l S
168.988 114.793 m 168.988 101.277 l S
171.531 112.945 m 171.531 102.996 l S
174.07 111.441 m 174.07 104.559 l S
176.613 110.336 m 176.613 105.512 l S
179.152 109.711 m 179.152 106.301 l S
181.695 109.078 m 181.695 106.711 l S
184.234 108.855 m 184.234 107.16 l S
186.777 108.516 m 186.777 107.324 l S
189.316 108.41 m 189.316 107.543 l S
191.859 108.344 m 191.859 107.645 l S
194.398 108.27 m 194.398 107.75 l S
196.941 108.16 m 196.941 107.766 l S
199.48 108.102 m 199.48 107.816 l S
202.023 108.078 m 202.023 107.867 l S
204.566 108.066 m 204.566 107.871 l S
207.105 108.066 m 207.105 107.871 l S
209.648 108.066 m 209.648 107.871 l S
212.188 108.066 m 212.188 107.871 l S
214.73 108.066 m 214.73 107.871 l S
217.27 108.066 m 217.27 107.871 l S
219.812 108.066 m 219.812 107.871 l S
222.352 108.066 m 222.352 107.871 l S
224.895 108.066 m 224.895 107.871 l S
227.434 108.066 m 227.434 107.871 l S
229.977 108.066 m 229.977 107.871 l S
232.52 108.066 m 232.52 107.871 l S
235.059 108.066 m 235.059 107.871 l S
237.602 108.066 m 237.602 107.871 l S
240.141 108.066 m 240.141 107.871 l S
242.684 108.066 m 242.684 107.871 l S
245.223 108.066 m 245.223 107.871 l S
247.766 108.066 m 247.766 107.871 l S
250.305 108.066 m 250.305 107.871 l S
252.848 108.066 m 252.848 107.871 l S
255.387 108.066 m 255.387 107.871 l S
255.387 108.066 m 255.387 107.871 l S
3.812 152.441 m 3.812 149.977 l S
6.352 162.098 m 6.352 140.09 l S
8.895 165.57 m 8.895 136.516 l S
11.434 166.84 m 11.434 135.355 l S
13.977 167.418 m 13.977 134.688 l S
16.52 167.742 m 16.52 134.465 l S
19.059 168.074 m 19.059 134.176 l S
21.602 168.215 m 21.602 134.051 l S
24.141 168.41 m 24.141 133.906 l S
26.684 168.262 m 26.684 133.961 l S
29.223 168.191 m 29.223 134.078 l S
31.766 168.297 m 31.766 134.004 l S
34.305 168.488 m 34.305 133.809 l S
36.848 168.656 m 36.848 133.523 l S
39.387 168.996 m 39.387 133.344 l S
41.93 169.219 m 41.93 133.09 l S
44.469 169.512 m 44.469 132.668 l S
47.012 169.84 m 47.012 132.488 l S
49.555 169.957 m 49.555 132.277 l S
52.094 170.051 m 52.094 132.195 l S
54.637 170.176 m 54.637 132.164 l S
57.176 170.195 m 57.176 132.125 l S
59.719 170.145 m 59.719 132.129 l S
62.258 170.324 m 62.258 131.941 l S
64.801 170.418 m 64.801 131.91 l S
67.34 170.473 m 67.34 131.879 l S
69.883 170.473 m 69.883 131.84 l S
72.422 170.547 m 72.422 131.867 l S
74.965 170.512 m 74.965 131.75 l S
77.508 170.602 m 77.508 131.777 l S
80.047 170.551 m 80.047 131.715 l S
82.59 170.562 m 82.59 131.797 l S
85.129 170.543 m 85.129 131.789 l S
87.672 170.68 m 87.672 131.738 l S
90.211 170.508 m 90.211 131.855 l S
92.754 170.449 m 92.754 131.879 l S
95.293 170.457 m 95.293 131.895 l S
97.836 170.484 m 97.836 131.824 l S
100.375 170.664 m 100.375 131.762 l S
102.918 170.625 m 102.918 131.738 l S
105.457 170.68 m 105.457 131.727 l S
108 170.723 m 108 131.664 l S
110.543 170.707 m 110.543 131.621 l S
113.082 170.68 m 113.082 131.688 l S
115.625 170.66 m 115.625 131.676 l S
118.164 170.734 m 118.164 131.688 l S
120.707 170.668 m 120.707 131.625 l S
123.246 170.82 m 123.246 131.578 l S
125.789 170.836 m 125.789 131.562 l S
128.328 170.711 m 128.328 131.605 l S
130.871 170.727 m 130.871 131.605 l S
133.41 170.695 m 133.41 131.652 l S
135.953 170.625 m 135.953 131.727 l S
138.492 170.645 m 138.492 131.68 l S
141.035 170.613 m 141.035 131.684 l S
143.578 170.629 m 143.578 131.695 l S
146.117 170.645 m 146.117 131.703 l S
148.66 170.574 m 148.66 131.691 l S
151.199 170.559 m 151.199 131.801 l S
153.742 170.535 m 153.742 131.75 l S
156.281 170.52 m 156.281 131.758 l S
158.824 170.559 m 158.824 131.848 l S
161.363 169.188 m 161.363 133.254 l S
163.906 164.883 m 163.906 137.27 l S
166.445 162.191 m 166.445 140.199 l S
168.988 159.258 m 168.988 143.074 l S
171.531 157.152 m 171.531 145.289 l S
174.07 155.305 m 174.07 146.934 l S
176.613 154.008 m 176.613 148.254 l S
179.152 153.227 m 179.152 149.133 l S
181.695 152.484 m 181.695 149.73 l S
184.234 152.242 m 184.234 150.164 l S
186.777 151.961 m 186.777 150.34 l S
189.316 151.723 m 189.316 150.516 l S
191.859 151.695 m 191.859 150.785 l S
194.398 151.551 m 194.398 150.879 l S
196.941 151.398 m 196.941 150.91 l S
199.48 151.352 m 199.48 150.969 l S
202.023 151.316 m 202.023 151.016 l S
204.566 151.273 m 204.566 151.07 l S
207.105 151.27 m 207.105 151.07 l S
209.648 151.281 m 209.648 151.07 l S
212.188 151.27 m 212.188 151.07 l S
214.73 151.27 m 214.73 151.07 l S
217.27 151.27 m 217.27 151.07 l S
219.812 151.27 m 219.812 151.07 l S
222.352 151.27 m 222.352 151.07 l S
224.895 151.27 m 224.895 151.07 l S
227.434 151.27 m 227.434 151.07 l S
229.977 151.27 m 229.977 151.07 l S
232.52 151.27 m 232.52 151.07 l S
235.059 151.27 m 235.059 151.07 l S
237.602 151.27 m 237.602 151.07 l S
240.141 151.27 m 240.141 151.07 l S
242.684 151.27 m 242.684 151.07 l S
245.223 151.27 m 245.223 151.07 l S
247.766 151.27 m 247.766 151.07 l S
250.305 151.27 m 250.305 151.07 l S
252.848 151.27 m 252.848 151.07 l S
255.387 151.27 m 255.387 151.07 l S
255.387 151.27 m 255.387 151.07 l S
Q Q
showpage
%%Trailer
end
%%EOF
