%!PS-Adobe-3.0 EPSF-3.0
%%Creator: cairo 1.16.0 (https://cairographics.org)
%%CreationDate: Wed May 15 11:57:26 2024
%%Pages: 1
%%DocumentData: Clean7Bit
%%LanguageLevel: 2
%%Creator: Wolfram Mathematica
%%BoundingBox: 2 6 257 167
%%EndComments
%%BeginProlog
50 dict begin
/q { gsave } bind def
/Q { grestore } bind def
/cm { 6 array astore concat } bind def
/w { setlinewidth } bind def
/J { setlinecap } bind def
/j { setlinejoin } bind def
/M { setmiterlimit } bind def
/d { setdash } bind def
/m { moveto } bind def
/l { lineto } bind def
/c { curveto } bind def
/h { closepath } bind def
/re { exch dup neg 3 1 roll 5 3 roll moveto 0 rlineto
      0 exch rlineto 0 rlineto closepath } bind def
/S { stroke } bind def
/f { fill } bind def
/f* { eofill } bind def
/n { newpath } bind def
/W { clip } bind def
/W* { eoclip } bind def
/BT { } bind def
/ET { } bind def
/BDC { mark 3 1 roll /BDC pdfmark } bind def
/EMC { mark /EMC pdfmark } bind def
/cairo_store_point { /cairo_point_y exch def /cairo_point_x exch def } def
/Tj { show currentpoint cairo_store_point } bind def
/TJ {
  {
    dup
    type /stringtype eq
    { show } { -0.001 mul 0 cairo_font_matrix dtransform rmoveto } ifelse
  } forall
  currentpoint cairo_store_point
} bind def
/cairo_selectfont { cairo_font_matrix aload pop pop pop 0 0 6 array astore
    cairo_font exch selectfont cairo_point_x cairo_point_y moveto } bind def
/Tf { pop /cairo_font exch def /cairo_font_matrix where
      { pop cairo_selectfont } if } bind def
/Td { matrix translate cairo_font_matrix matrix concatmatrix dup
      /cairo_font_matrix exch def dup 4 get exch 5 get cairo_store_point
      /cairo_font where { pop cairo_selectfont } if } bind def
/Tm { 2 copy 8 2 roll 6 array astore /cairo_font_matrix exch def
      cairo_store_point /cairo_font where { pop cairo_selectfont } if } bind def
/g { setgray } bind def
/rg { setrgbcolor } bind def
/d1 { setcachedevice } bind def
/cairo_data_source {
  CairoDataIndex CairoData length lt
    { CairoData CairoDataIndex get /CairoDataIndex CairoDataIndex 1 add def }
    { () } ifelse
} def
/cairo_flush_ascii85_file { cairo_ascii85_file status { cairo_ascii85_file flushfile } if } def
/cairo_image { image cairo_flush_ascii85_file } def
/cairo_imagemask { imagemask cairo_flush_ascii85_file } def
%%EndProlog
%%BeginSetup
%%EndSetup
%%Page: 1 1
%%BeginPageSetup
%%PageBoundingBox: 2 6 257 167
%%EndPageSetup
q 2 6 255 161 rectclip
1 0 0 -1 0 173 cm q
0 g
1.796436 w
0 J
0 j
[] 0.0 d
3.25 M 3.812 21.531 m 3.812 21.336 l S
6.352 31.129 m 6.352 12.246 l S
8.895 34.477 m 8.895 8.473 l S
11.434 35.246 m 11.434 7.691 l S
13.977 35.578 m 13.977 7.387 l S
16.52 35.684 m 16.52 7.305 l S
19.059 35.785 m 19.059 7.195 l S
21.602 35.82 m 21.602 7.148 l S
24.141 35.848 m 24.141 7.113 l S
26.684 35.918 m 26.684 7.07 l S
29.223 35.938 m 29.223 7.043 l S
31.766 35.934 m 31.766 7.008 l S
34.305 35.988 m 34.305 6.961 l S
36.848 36.051 m 36.848 6.922 l S
39.387 36.059 m 39.387 6.914 l S
41.93 36.078 m 41.93 6.895 l S
44.469 36.09 m 44.469 6.871 l S
47.012 36.164 m 47.012 6.805 l S
49.555 36.238 m 49.555 6.719 l S
52.094 36.27 m 52.094 6.699 l S
54.637 36.285 m 54.637 6.668 l S
57.176 36.32 m 57.176 6.652 l S
59.719 36.293 m 59.719 6.66 l S
62.258 36.301 m 62.258 6.672 l S
64.801 36.32 m 64.801 6.625 l S
67.34 36.344 m 67.34 6.621 l S
69.883 36.344 m 69.883 6.609 l S
72.422 36.348 m 72.422 6.605 l S
74.965 36.355 m 74.965 6.594 l S
77.508 36.32 m 77.508 6.605 l S
80.047 36.352 m 80.047 6.59 l S
82.59 36.359 m 82.59 6.578 l S
85.129 36.41 m 85.129 6.504 l S
87.672 36.449 m 87.672 6.508 l S
90.211 36.414 m 90.211 6.516 l S
92.754 36.438 m 92.754 6.488 l S
95.293 36.453 m 95.293 6.492 l S
97.836 36.469 m 97.836 6.469 l S
100.375 36.484 m 100.375 6.445 l S
102.918 36.512 m 102.918 6.422 l S
105.457 36.602 m 105.457 6.348 l S
108 36.664 m 108 6.254 l S
110.543 36.676 m 110.543 6.25 l S
113.082 36.66 m 113.082 6.262 l S
115.625 36.668 m 115.625 6.266 l S
118.164 36.68 m 118.164 6.238 l S
120.707 36.695 m 120.707 6.23 l S
123.246 36.703 m 123.246 6.199 l S
125.789 36.719 m 125.789 6.207 l S
128.328 36.723 m 128.328 6.203 l S
130.871 36.73 m 130.871 6.184 l S
133.41 36.742 m 133.41 6.176 l S
135.953 36.715 m 135.953 6.207 l S
138.492 36.715 m 138.492 6.195 l S
141.035 36.707 m 141.035 6.203 l S
143.578 36.703 m 143.578 6.199 l S
146.117 36.754 m 146.117 6.168 l S
148.66 36.75 m 148.66 6.16 l S
151.199 36.727 m 151.199 6.18 l S
153.742 36.723 m 153.742 6.191 l S
156.281 36.699 m 156.281 6.207 l S
158.824 36.715 m 158.824 6.199 l S
161.363 36.691 m 161.363 6.207 l S
163.906 36.684 m 163.906 6.223 l S
166.445 36.684 m 166.445 6.215 l S
168.988 35.539 m 168.988 7.492 l S
171.531 28.98 m 171.531 14.027 l S
174.07 25.199 m 174.07 17.691 l S
176.613 22.941 m 176.613 19.93 l S
179.152 22 m 179.152 20.918 l S
181.695 21.66 m 181.695 21.195 l S
184.234 21.555 m 184.234 21.32 l S
186.777 21.531 m 186.777 21.336 l S
189.316 21.531 m 189.316 21.336 l S
191.859 21.531 m 191.859 21.336 l S
194.398 21.531 m 194.398 21.336 l S
196.941 21.531 m 196.941 21.336 l S
199.48 21.531 m 199.48 21.336 l S
202.023 21.531 m 202.023 21.336 l S
204.566 21.531 m 204.566 21.336 l S
207.105 21.531 m 207.105 21.336 l S
209.648 21.531 m 209.648 21.336 l S
212.188 21.531 m 212.188 21.336 l S
214.73 21.531 m 214.73 21.336 l S
217.27 21.531 m 217.27 21.336 l S
219.812 21.531 m 219.812 21.336 l S
222.352 21.531 m 222.352 21.336 l S
224.895 21.531 m 224.895 21.336 l S
227.434 21.531 m 227.434 21.336 l S
229.977 21.531 m 229.977 21.336 l S
232.52 21.531 m 232.52 21.336 l S
235.059 21.531 m 235.059 21.336 l S
237.602 21.531 m 237.602 21.336 l S
240.141 21.531 m 240.141 21.336 l S
242.684 21.531 m 242.684 21.336 l S
245.223 21.531 m 245.223 21.336 l S
247.766 21.531 m 247.766 21.336 l S
250.305 21.531 m 250.305 21.336 l S
252.848 21.531 m 252.848 21.336 l S
255.387 21.531 m 255.387 21.336 l S
255.387 21.531 m 255.387 21.336 l S
3.812 64.734 m 3.812 64.535 l S
6.352 69.738 m 6.352 59.672 l S
8.895 71.629 m 8.895 57.746 l S
11.434 71.938 m 11.434 57.32 l S
13.977 71.984 m 13.977 57.262 l S
16.52 71.984 m 16.52 57.238 l S
19.059 72.039 m 19.059 57.219 l S
21.602 72.043 m 21.602 57.207 l S
24.141 72.047 m 24.141 57.164 l S
26.684 72.168 m 26.684 57.141 l S
29.223 72.148 m 29.223 57.105 l S
31.766 72.164 m 31.766 57.062 l S
34.305 72.207 m 34.305 57.074 l S
36.848 72.227 m 36.848 57.008 l S
39.387 72.195 m 39.387 57.016 l S
41.93 72.223 m 41.93 57.055 l S
44.469 72.211 m 44.469 57.012 l S
47.012 72.266 m 47.012 56.945 l S
49.555 72.352 m 49.555 56.93 l S
52.094 72.359 m 52.094 56.906 l S
54.637 72.391 m 54.637 56.879 l S
57.176 72.367 m 57.176 56.848 l S
59.719 72.379 m 59.719 56.871 l S
62.258 72.355 m 62.258 56.879 l S
64.801 72.387 m 64.801 56.844 l S
67.34 72.375 m 67.34 56.836 l S
69.883 72.406 m 69.883 56.844 l S
72.422 72.379 m 72.422 56.816 l S
74.965 72.391 m 74.965 56.844 l S
77.508 72.422 m 77.508 56.875 l S
80.047 72.398 m 80.047 56.824 l S
82.59 72.398 m 82.59 56.816 l S
85.129 72.457 m 85.129 56.805 l S
87.672 72.469 m 87.672 56.754 l S
90.211 72.477 m 90.211 56.758 l S
92.754 72.48 m 92.754 56.758 l S
95.293 72.461 m 95.293 56.754 l S
97.836 72.496 m 97.836 56.746 l S
100.375 72.488 m 100.375 56.754 l S
102.918 72.496 m 102.918 56.75 l S
105.457 72.578 m 105.457 56.684 l S
108 72.586 m 108 56.633 l S
110.543 72.641 m 110.543 56.578 l S
113.082 72.645 m 113.082 56.605 l S
115.625 72.625 m 115.625 56.598 l S
118.164 72.633 m 118.164 56.578 l S
120.707 72.668 m 120.707 56.551 l S
123.246 72.664 m 123.246 56.543 l S
125.789 72.645 m 125.789 56.598 l S
128.328 72.688 m 128.328 56.586 l S
130.871 72.691 m 130.871 56.543 l S
133.41 72.691 m 133.41 56.574 l S
135.953 72.645 m 135.953 56.59 l S
138.492 72.672 m 138.492 56.559 l S
141.035 72.648 m 141.035 56.582 l S
143.578 72.656 m 143.578 56.566 l S
146.117 72.676 m 146.117 56.559 l S
148.66 72.699 m 148.66 56.535 l S
151.199 72.691 m 151.199 56.562 l S
153.742 72.691 m 153.742 56.52 l S
156.281 72.668 m 156.281 56.535 l S
158.824 72.719 m 158.824 56.531 l S
161.363 72.676 m 161.363 56.551 l S
163.906 72.633 m 163.906 56.566 l S
166.445 72.633 m 166.445 56.602 l S
168.988 71.727 m 168.988 57.641 l S
171.531 67.602 m 171.531 61.371 l S
174.07 66.305 m 174.07 62.953 l S
176.613 65.457 m 176.613 63.746 l S
179.152 65.02 m 179.152 64.242 l S
181.695 64.836 m 181.695 64.422 l S
184.234 64.762 m 184.234 64.516 l S
186.777 64.758 m 186.777 64.473 l S
189.316 64.734 m 189.316 64.531 l S
191.859 64.746 m 191.859 64.516 l S
194.398 64.781 m 194.398 64.508 l S
196.941 64.75 m 196.941 64.535 l S
199.48 64.734 m 199.48 64.535 l S
202.023 64.734 m 202.023 64.535 l S
204.566 64.734 m 204.566 64.535 l S
207.105 64.734 m 207.105 64.535 l S
209.648 64.734 m 209.648 64.535 l S
212.188 64.734 m 212.188 64.535 l S
214.73 64.734 m 214.73 64.535 l S
217.27 64.734 m 217.27 64.535 l S
219.812 64.734 m 219.812 64.535 l S
222.352 64.734 m 222.352 64.535 l S
224.895 64.734 m 224.895 64.535 l S
227.434 64.734 m 227.434 64.535 l S
229.977 64.734 m 229.977 64.535 l S
232.52 64.734 m 232.52 64.535 l S
235.059 64.734 m 235.059 64.535 l S
237.602 64.734 m 237.602 64.535 l S
240.141 64.734 m 240.141 64.535 l S
242.684 64.734 m 242.684 64.535 l S
245.223 64.734 m 245.223 64.535 l S
247.766 64.734 m 247.766 64.535 l S
250.305 64.734 m 250.305 64.535 l S
252.848 64.734 m 252.848 64.535 l S
255.387 64.734 m 255.387 64.535 l S
255.387 64.734 m 255.387 64.535 l S
3.812 108.094 m 3.812 107.547 l S
6.352 121.047 m 6.352 95.125 l S
8.895 124.879 m 8.895 91.117 l S
11.434 125.66 m 11.434 90.289 l S
13.977 125.879 m 13.977 89.965 l S
16.52 126.023 m 16.52 89.875 l S
19.059 126.23 m 19.059 89.648 l S
21.602 126.352 m 21.602 89.641 l S
24.141 126.289 m 24.141 89.617 l S
26.684 126.445 m 26.684 89.535 l S
29.223 126.488 m 29.223 89.473 l S
31.766 126.543 m 31.766 89.379 l S
34.305 126.57 m 34.305 89.324 l S
36.848 126.605 m 36.848 89.332 l S
39.387 126.598 m 39.387 89.289 l S
41.93 126.668 m 41.93 89.293 l S
44.469 126.777 m 44.469 89.191 l S
47.012 126.859 m 47.012 89.047 l S
49.555 126.953 m 49.555 89.082 l S
52.094 126.938 m 52.094 88.953 l S
54.637 127.105 m 54.637 88.852 l S
57.176 126.98 m 57.176 88.977 l S
59.719 126.992 m 59.719 88.988 l S
62.258 127.004 m 62.258 88.871 l S
64.801 127.016 m 64.801 88.941 l S
67.34 127.09 m 67.34 88.898 l S
69.883 127.082 m 69.883 88.918 l S
72.422 127.09 m 72.422 88.875 l S
74.965 127.086 m 74.965 88.91 l S
77.508 127.059 m 77.508 88.953 l S
80.047 127.168 m 80.047 88.777 l S
82.59 127.152 m 82.59 88.879 l S
85.129 127.238 m 85.129 88.793 l S
87.672 127.152 m 87.672 88.801 l S
90.211 127.266 m 90.211 88.719 l S
92.754 127.219 m 92.754 88.762 l S
95.293 127.195 m 95.293 88.781 l S
97.836 127.211 m 97.836 88.773 l S
100.375 127.258 m 100.375 88.738 l S
102.918 127.309 m 102.918 88.672 l S
105.457 127.371 m 105.457 88.625 l S
108 127.449 m 108 88.539 l S
110.543 127.445 m 110.543 88.531 l S
113.082 127.453 m 113.082 88.535 l S
115.625 127.453 m 115.625 88.527 l S
118.164 127.508 m 118.164 88.461 l S
120.707 127.527 m 120.707 88.465 l S
123.246 127.527 m 123.246 88.434 l S
125.789 127.52 m 125.789 88.461 l S
128.328 127.559 m 128.328 88.398 l S
130.871 127.574 m 130.871 88.445 l S
133.41 127.562 m 133.41 88.398 l S
135.953 127.551 m 135.953 88.469 l S
138.492 127.559 m 138.492 88.426 l S
141.035 127.605 m 141.035 88.41 l S
143.578 127.625 m 143.578 88.387 l S
146.117 127.637 m 146.117 88.363 l S
148.66 127.586 m 148.66 88.367 l S
151.199 127.578 m 151.199 88.402 l S
153.742 127.625 m 153.742 88.375 l S
156.281 127.559 m 156.281 88.453 l S
158.824 127.551 m 158.824 88.449 l S
161.363 127.555 m 161.363 88.457 l S
163.906 127.539 m 163.906 88.461 l S
166.445 127.5 m 166.445 88.465 l S
168.988 125.969 m 168.988 90.262 l S
171.531 118.07 m 171.531 97.883 l S
174.07 113.383 m 174.07 102.52 l S
176.613 109.953 m 176.613 105.527 l S
179.152 108.555 m 179.152 107.109 l S
181.695 108.164 m 181.695 107.5 l S
184.234 108.039 m 184.234 107.613 l S
186.777 107.957 m 186.777 107.652 l S
189.316 107.945 m 189.316 107.699 l S
191.859 108.004 m 191.859 107.68 l S
194.398 108.027 m 194.398 107.645 l S
196.941 107.977 m 196.941 107.707 l S
199.48 107.934 m 199.48 107.715 l S
202.023 107.934 m 202.023 107.734 l S
204.566 107.934 m 204.566 107.734 l S
207.105 107.934 m 207.105 107.695 l S
209.648 107.934 m 209.648 107.734 l S
212.188 107.934 m 212.188 107.734 l S
214.73 107.934 m 214.73 107.734 l S
217.27 107.934 m 217.27 107.734 l S
219.812 107.934 m 219.812 107.734 l S
222.352 107.934 m 222.352 107.734 l S
224.895 107.934 m 224.895 107.734 l S
227.434 107.934 m 227.434 107.734 l S
229.977 107.934 m 229.977 107.734 l S
232.52 107.934 m 232.52 107.734 l S
235.059 107.934 m 235.059 107.734 l S
237.602 107.934 m 237.602 107.734 l S
240.141 107.934 m 240.141 107.734 l S
242.684 107.934 m 242.684 107.734 l S
245.223 107.934 m 245.223 107.734 l S
247.766 107.934 m 247.766 107.734 l S
250.305 107.934 m 250.305 107.734 l S
252.848 107.934 m 252.848 107.734 l S
255.387 107.934 m 255.387 107.734 l S
255.387 107.934 m 255.387 107.734 l S
3.812 151.184 m 3.812 150.91 l S
6.352 160.977 m 6.352 141.266 l S
8.895 164.59 m 8.895 137.715 l S
11.434 165.145 m 11.434 136.848 l S
13.977 165.41 m 13.977 136.68 l S
16.52 165.539 m 16.52 136.531 l S
19.059 165.668 m 19.059 136.402 l S
21.602 165.688 m 21.602 136.34 l S
24.141 165.73 m 24.141 136.395 l S
26.684 165.879 m 26.684 136.293 l S
29.223 165.824 m 29.223 136.262 l S
31.766 165.797 m 31.766 136.242 l S
34.305 165.898 m 34.305 136.219 l S
36.848 165.945 m 36.848 136.078 l S
39.387 165.945 m 39.387 136.082 l S
41.93 165.941 m 41.93 136.145 l S
44.469 165.957 m 44.469 136.035 l S
47.012 166.051 m 47.012 136.004 l S
49.555 166.172 m 49.555 135.961 l S
52.094 166.18 m 52.094 135.91 l S
54.637 166.211 m 54.637 135.914 l S
57.176 166.207 m 57.176 135.789 l S
59.719 166.16 m 59.719 135.902 l S
62.258 166.195 m 62.258 135.941 l S
64.801 166.195 m 64.801 135.855 l S
67.34 166.207 m 67.34 135.832 l S
69.883 166.242 m 69.883 135.863 l S
72.422 166.238 m 72.422 135.871 l S
74.965 166.234 m 74.965 135.859 l S
77.508 166.219 m 77.508 135.875 l S
80.047 166.266 m 80.047 135.805 l S
82.59 166.258 m 82.59 135.824 l S
85.129 166.363 m 85.129 135.797 l S
87.672 166.359 m 87.672 135.738 l S
90.211 166.355 m 90.211 135.742 l S
92.754 166.383 m 92.754 135.754 l S
95.293 166.336 m 95.293 135.754 l S
97.836 166.379 m 97.836 135.723 l S
100.375 166.387 m 100.375 135.727 l S
102.918 166.406 m 102.918 135.723 l S
105.457 166.512 m 105.457 135.574 l S
108 166.598 m 108 135.547 l S
110.543 166.629 m 110.543 135.496 l S
113.082 166.594 m 113.082 135.508 l S
115.625 166.586 m 115.625 135.477 l S
118.164 166.609 m 118.164 135.453 l S
120.707 166.703 m 120.707 135.438 l S
123.246 166.648 m 123.246 135.465 l S
125.789 166.645 m 125.789 135.504 l S
128.328 166.707 m 128.328 135.477 l S
130.871 166.691 m 130.871 135.453 l S
133.41 166.734 m 133.41 135.438 l S
135.953 166.672 m 135.953 135.484 l S
138.492 166.676 m 138.492 135.469 l S
141.035 166.664 m 141.035 135.453 l S
143.578 166.707 m 143.578 135.461 l S
146.117 166.723 m 146.117 135.426 l S
148.66 166.684 m 148.66 135.426 l S
151.199 166.703 m 151.199 135.461 l S
153.742 166.727 m 153.742 135.438 l S
156.281 166.703 m 156.281 135.426 l S
158.824 166.723 m 158.824 135.461 l S
161.363 166.664 m 161.363 135.492 l S
163.906 166.672 m 163.906 135.477 l S
166.445 166.613 m 166.445 135.504 l S
168.988 165.465 m 168.988 136.836 l S
171.531 158.289 m 171.531 143.297 l S
174.07 154.508 m 174.07 147.352 l S
176.613 152.57 m 176.613 149.461 l S
179.152 151.703 m 179.152 150.492 l S
181.695 151.328 m 181.695 150.734 l S
184.234 151.246 m 184.234 150.805 l S
186.777 151.238 m 186.777 150.797 l S
189.316 151.191 m 189.316 150.844 l S
191.859 151.242 m 191.859 150.832 l S
194.398 151.246 m 194.398 150.777 l S
196.941 151.238 m 196.941 150.793 l S
199.48 151.219 m 199.48 150.855 l S
202.023 151.223 m 202.023 150.855 l S
204.566 151.168 m 204.566 150.84 l S
207.105 151.211 m 207.105 150.859 l S
209.648 151.203 m 209.648 150.906 l S
212.188 151.16 m 212.188 150.934 l S
214.73 151.141 m 214.73 150.938 l S
217.27 151.133 m 217.27 150.938 l S
219.812 151.133 m 219.812 150.938 l S
222.352 151.133 m 222.352 150.938 l S
224.895 151.133 m 224.895 150.938 l S
227.434 151.133 m 227.434 150.938 l S
229.977 151.133 m 229.977 150.938 l S
232.52 151.133 m 232.52 150.938 l S
235.059 151.133 m 235.059 150.938 l S
237.602 151.133 m 237.602 150.938 l S
240.141 151.133 m 240.141 150.938 l S
242.684 151.133 m 242.684 150.938 l S
245.223 151.133 m 245.223 150.938 l S
247.766 151.133 m 247.766 150.938 l S
250.305 151.133 m 250.305 150.938 l S
252.848 151.133 m 252.848 150.938 l S
255.387 151.133 m 255.387 150.938 l S
255.387 151.133 m 255.387 150.938 l S
Q Q
showpage
%%Trailer
end
%%EOF
