%!PS-Adobe-3.0 EPSF-3.0
%%Creator: cairo 1.16.0 (https://cairographics.org)
%%CreationDate: Wed May 15 11:57:26 2024
%%Pages: 1
%%DocumentData: Clean7Bit
%%LanguageLevel: 2
%%Creator: Wolfram Mathematica
%%BoundingBox: 2 2 257 169
%%EndComments
%%BeginProlog
50 dict begin
/q { gsave } bind def
/Q { grestore } bind def
/cm { 6 array astore concat } bind def
/w { setlinewidth } bind def
/J { setlinecap } bind def
/j { setlinejoin } bind def
/M { setmiterlimit } bind def
/d { setdash } bind def
/m { moveto } bind def
/l { lineto } bind def
/c { curveto } bind def
/h { closepath } bind def
/re { exch dup neg 3 1 roll 5 3 roll moveto 0 rlineto
      0 exch rlineto 0 rlineto closepath } bind def
/S { stroke } bind def
/f { fill } bind def
/f* { eofill } bind def
/n { newpath } bind def
/W { clip } bind def
/W* { eoclip } bind def
/BT { } bind def
/ET { } bind def
/BDC { mark 3 1 roll /BDC pdfmark } bind def
/EMC { mark /EMC pdfmark } bind def
/cairo_store_point { /cairo_point_y exch def /cairo_point_x exch def } def
/Tj { show currentpoint cairo_store_point } bind def
/TJ {
  {
    dup
    type /stringtype eq
    { show } { -0.001 mul 0 cairo_font_matrix dtransform rmoveto } ifelse
  } forall
  currentpoint cairo_store_point
} bind def
/cairo_selectfont { cairo_font_matrix aload pop pop pop 0 0 6 array astore
    cairo_font exch selectfont cairo_point_x cairo_point_y moveto } bind def
/Tf { pop /cairo_font exch def /cairo_font_matrix where
      { pop cairo_selectfont } if } bind def
/Td { matrix translate cairo_font_matrix matrix concatmatrix dup
      /cairo_font_matrix exch def dup 4 get exch 5 get cairo_store_point
      /cairo_font where { pop cairo_selectfont } if } bind def
/Tm { 2 copy 8 2 roll 6 array astore /cairo_font_matrix exch def
      cairo_store_point /cairo_font where { pop cairo_selectfont } if } bind def
/g { setgray } bind def
/rg { setrgbcolor } bind def
/d1 { setcachedevice } bind def
/cairo_data_source {
  CairoDataIndex CairoData length lt
    { CairoData CairoDataIndex get /CairoDataIndex CairoDataIndex 1 add def }
    { () } ifelse
} def
/cairo_flush_ascii85_file { cairo_ascii85_file status { cairo_ascii85_file flushfile } if } def
/cairo_image { image cairo_flush_ascii85_file } def
/cairo_imagemask { imagemask cairo_flush_ascii85_file } def
%%EndProlog
%%BeginSetup
%%EndSetup
%%Page: 1 1
%%BeginPageSetup
%%PageBoundingBox: 2 2 257 169
%%EndPageSetup
q 2 2 255 167 rectclip
1 0 0 -1 0 173 cm q
0 g
1.796436 w
0 J
0 j
[] 0.0 d
3.25 M 3.812 21.75 m 3.812 21.555 l S
6.352 27.074 m 6.352 16.75 l S
8.895 32.832 m 8.895 10.391 l S
11.434 35.32 m 11.434 8.066 l S
13.977 36.582 m 13.977 6.883 l S
16.52 37.18 m 16.52 6.27 l S
19.059 37.52 m 19.059 5.965 l S
21.602 37.727 m 21.602 5.789 l S
24.141 37.895 m 24.141 5.625 l S
26.684 37.988 m 26.684 5.504 l S
29.223 38.133 m 29.223 5.406 l S
31.766 38.152 m 31.766 5.367 l S
34.305 38.145 m 34.305 5.367 l S
36.848 38.109 m 36.848 5.422 l S
39.387 38.105 m 39.387 5.422 l S
41.93 38.117 m 41.93 5.371 l S
44.469 38.113 m 44.469 5.402 l S
47.012 38.117 m 47.012 5.391 l S
49.555 38.125 m 49.555 5.383 l S
52.094 38.152 m 52.094 5.375 l S
54.637 38.152 m 54.637 5.375 l S
57.176 38.148 m 57.176 5.371 l S
59.719 38.172 m 59.719 5.344 l S
62.258 38.242 m 62.258 5.281 l S
64.801 38.289 m 64.801 5.227 l S
67.34 38.336 m 67.34 5.18 l S
69.883 38.355 m 69.883 5.164 l S
72.422 38.359 m 72.422 5.16 l S
74.965 38.379 m 74.965 5.152 l S
77.508 38.391 m 77.508 5.133 l S
80.047 38.422 m 80.047 5.121 l S
82.59 38.461 m 82.59 5.09 l S
85.129 38.492 m 85.129 5.059 l S
87.672 38.523 m 87.672 5 l S
90.211 38.559 m 90.211 4.969 l S
92.754 38.605 m 92.754 4.938 l S
95.293 38.605 m 95.293 4.93 l S
97.836 38.59 m 97.836 4.914 l S
100.375 38.594 m 100.375 4.945 l S
102.918 38.582 m 102.918 4.941 l S
105.457 38.586 m 105.457 4.961 l S
108 38.617 m 108 4.926 l S
110.543 38.625 m 110.543 4.902 l S
113.082 38.648 m 113.082 4.883 l S
115.625 38.664 m 115.625 4.879 l S
118.164 38.652 m 118.164 4.883 l S
120.707 38.648 m 120.707 4.891 l S
123.246 38.621 m 123.246 4.906 l S
125.789 38.613 m 125.789 4.938 l S
128.328 38.609 m 128.328 4.922 l S
130.871 38.617 m 130.871 4.93 l S
133.41 38.621 m 133.41 4.918 l S
135.953 38.641 m 135.953 4.906 l S
138.492 38.656 m 138.492 4.875 l S
141.035 38.68 m 141.035 4.871 l S
143.578 38.676 m 143.578 4.867 l S
146.117 38.68 m 146.117 4.859 l S
148.66 38.656 m 148.66 4.879 l S
151.199 38.656 m 151.199 4.875 l S
153.742 38.676 m 153.742 4.852 l S
156.281 38.77 m 156.281 4.762 l S
158.824 38.809 m 158.824 4.703 l S
161.363 38.82 m 161.363 4.703 l S
163.906 38.793 m 163.906 4.742 l S
166.445 38.766 m 166.445 4.762 l S
168.988 38.723 m 168.988 4.805 l S
171.531 38.746 m 171.531 4.82 l S
174.07 38.746 m 174.07 4.785 l S
176.613 38.754 m 176.613 4.801 l S
179.152 38.738 m 179.152 4.797 l S
181.695 38.75 m 181.695 4.797 l S
184.234 38.715 m 184.234 4.824 l S
186.777 38.133 m 186.777 5.32 l S
189.316 34.613 m 189.316 8.859 l S
191.859 31.125 m 191.859 12.07 l S
194.398 28.711 m 194.398 14.629 l S
196.941 26.891 m 196.941 16.422 l S
199.48 25.301 m 199.48 17.824 l S
202.023 24.32 m 202.023 18.961 l S
204.566 23.488 m 204.566 19.73 l S
207.105 22.961 m 207.105 20.328 l S
209.648 22.562 m 209.648 20.723 l S
212.188 22.238 m 212.188 21.055 l S
214.73 22.098 m 214.73 21.238 l S
217.27 21.91 m 217.27 21.383 l S
219.812 21.832 m 219.812 21.465 l S
222.352 21.797 m 222.352 21.512 l S
224.895 21.75 m 224.895 21.555 l S
227.434 21.75 m 227.434 21.555 l S
229.977 21.75 m 229.977 21.555 l S
232.52 21.75 m 232.52 21.555 l S
235.059 21.75 m 235.059 21.555 l S
237.602 21.75 m 237.602 21.555 l S
240.141 21.75 m 240.141 21.555 l S
242.684 21.75 m 242.684 21.555 l S
245.223 21.75 m 245.223 21.555 l S
247.766 21.75 m 247.766 21.555 l S
250.305 21.75 m 250.305 21.555 l S
252.848 21.75 m 252.848 21.555 l S
255.387 21.75 m 255.387 21.555 l S
255.387 21.75 m 255.387 21.555 l S
3.812 64.949 m 3.812 64.754 l S
6.352 69.195 m 6.352 60.473 l S
8.895 74.086 m 8.895 55.543 l S
11.434 75.609 m 11.434 53.969 l S
13.977 76.387 m 13.977 53.168 l S
16.52 76.699 m 16.52 52.801 l S
19.059 76.848 m 19.059 52.594 l S
21.602 77.012 m 21.602 52.496 l S
24.141 77.105 m 24.141 52.32 l S
26.684 77.172 m 26.684 52.285 l S
29.223 77.289 m 29.223 52.254 l S
31.766 77.324 m 31.766 52.125 l S
34.305 77.309 m 34.305 52.145 l S
36.848 77.27 m 36.848 52.215 l S
39.387 77.289 m 39.387 52.152 l S
41.93 77.344 m 41.93 52.137 l S
44.469 77.34 m 44.469 52.105 l S
47.012 77.336 m 47.012 52.141 l S
49.555 77.328 m 49.555 52.117 l S
52.094 77.34 m 52.094 52.141 l S
54.637 77.344 m 54.637 52.117 l S
57.176 77.371 m 57.176 52.098 l S
59.719 77.402 m 59.719 52.113 l S
62.258 77.43 m 62.258 52.047 l S
64.801 77.473 m 64.801 52.004 l S
67.34 77.539 m 67.34 51.922 l S
69.883 77.531 m 69.883 51.938 l S
72.422 77.551 m 72.422 51.98 l S
74.965 77.566 m 74.965 51.93 l S
77.508 77.613 m 77.508 51.918 l S
80.047 77.605 m 80.047 51.918 l S
82.59 77.605 m 82.59 51.855 l S
85.129 77.613 m 85.129 51.852 l S
87.672 77.656 m 87.672 51.832 l S
90.211 77.66 m 90.211 51.848 l S
92.754 77.742 m 92.754 51.77 l S
95.293 77.691 m 95.293 51.809 l S
97.836 77.734 m 97.836 51.742 l S
100.375 77.695 m 100.375 51.738 l S
102.918 77.676 m 102.918 51.82 l S
105.457 77.707 m 105.457 51.797 l S
108 77.688 m 108 51.762 l S
110.543 77.738 m 110.543 51.699 l S
113.082 77.734 m 113.082 51.77 l S
115.625 77.754 m 115.625 51.73 l S
118.164 77.738 m 118.164 51.742 l S
120.707 77.719 m 120.707 51.734 l S
123.246 77.703 m 123.246 51.77 l S
125.789 77.695 m 125.789 51.746 l S
128.328 77.719 m 128.328 51.762 l S
130.871 77.715 m 130.871 51.777 l S
133.41 77.73 m 133.41 51.758 l S
135.953 77.742 m 135.953 51.75 l S
138.492 77.754 m 138.492 51.691 l S
141.035 77.773 m 141.035 51.695 l S
143.578 77.75 m 143.578 51.727 l S
146.117 77.785 m 146.117 51.707 l S
148.66 77.762 m 148.66 51.738 l S
151.199 77.777 m 151.199 51.711 l S
153.742 77.785 m 153.742 51.672 l S
156.281 77.93 m 156.281 51.566 l S
158.824 77.895 m 158.824 51.566 l S
161.363 77.883 m 161.363 51.578 l S
163.906 77.883 m 163.906 51.625 l S
166.445 77.848 m 166.445 51.625 l S
168.988 77.789 m 168.988 51.695 l S
171.531 77.848 m 171.531 51.637 l S
174.07 77.836 m 174.07 51.668 l S
176.613 77.844 m 176.613 51.629 l S
179.152 77.824 m 179.152 51.68 l S
181.695 77.844 m 181.695 51.68 l S
184.234 77.734 m 184.234 51.703 l S
186.777 77.395 m 186.777 52.145 l S
189.316 75.242 m 189.316 54.23 l S
191.859 72.871 m 191.859 56.48 l S
194.398 71.16 m 194.398 58.586 l S
196.941 69.535 m 196.941 60.219 l S
199.48 68.277 m 199.48 61.59 l S
202.023 67.172 m 202.023 62.48 l S
204.566 66.469 m 204.566 63.242 l S
207.105 65.945 m 207.105 63.762 l S
209.648 65.594 m 209.648 64.137 l S
212.188 65.418 m 212.188 64.328 l S
214.73 65.203 m 214.73 64.492 l S
217.27 65.066 m 217.27 64.641 l S
219.812 65.027 m 219.812 64.688 l S
222.352 64.984 m 222.352 64.734 l S
224.895 64.949 m 224.895 64.754 l S
227.434 64.949 m 227.434 64.754 l S
229.977 64.949 m 229.977 64.754 l S
232.52 64.949 m 232.52 64.754 l S
235.059 64.949 m 235.059 64.754 l S
237.602 64.949 m 237.602 64.754 l S
240.141 64.949 m 240.141 64.754 l S
242.684 64.949 m 242.684 64.754 l S
245.223 64.949 m 245.223 64.754 l S
247.766 64.949 m 247.766 64.754 l S
250.305 64.949 m 250.305 64.754 l S
252.848 64.949 m 252.848 64.754 l S
255.387 64.949 m 255.387 64.754 l S
255.387 64.949 m 255.387 64.754 l S
3.812 108.148 m 3.812 107.953 l S
6.352 114.305 m 6.352 101.973 l S
8.895 119.539 m 8.895 96.383 l S
11.434 121.598 m 11.434 94.406 l S
13.977 122.801 m 13.977 93.215 l S
16.52 123.332 m 16.52 92.559 l S
19.059 123.688 m 19.059 92.281 l S
21.602 123.895 m 21.602 92.07 l S
24.141 124.023 m 24.141 91.891 l S
26.684 124.129 m 26.684 91.781 l S
29.223 124.309 m 29.223 91.652 l S
31.766 124.309 m 31.766 91.602 l S
34.305 124.328 m 34.305 91.586 l S
36.848 124.285 m 36.848 91.66 l S
39.387 124.301 m 39.387 91.641 l S
41.93 124.332 m 41.93 91.613 l S
44.469 124.309 m 44.469 91.617 l S
47.012 124.305 m 47.012 91.605 l S
49.555 124.305 m 49.555 91.617 l S
52.094 124.359 m 52.094 91.559 l S
54.637 124.352 m 54.637 91.582 l S
57.176 124.355 m 57.176 91.578 l S
59.719 124.434 m 59.719 91.547 l S
62.258 124.426 m 62.258 91.488 l S
64.801 124.496 m 64.801 91.434 l S
67.34 124.535 m 67.34 91.395 l S
69.883 124.551 m 69.883 91.34 l S
72.422 124.57 m 72.422 91.363 l S
74.965 124.566 m 74.965 91.324 l S
77.508 124.594 m 77.508 91.336 l S
80.047 124.598 m 80.047 91.336 l S
82.59 124.609 m 82.59 91.297 l S
85.129 124.633 m 85.129 91.293 l S
87.672 124.707 m 87.672 91.238 l S
90.211 124.703 m 90.211 91.188 l S
92.754 124.75 m 92.754 91.137 l S
95.293 124.785 m 95.293 91.164 l S
97.836 124.793 m 97.836 91.102 l S
100.375 124.73 m 100.375 91.156 l S
102.918 124.77 m 102.918 91.168 l S
105.457 124.75 m 105.457 91.16 l S
108 124.781 m 108 91.141 l S
110.543 124.777 m 110.543 91.105 l S
113.082 124.801 m 113.082 91.102 l S
115.625 124.812 m 115.625 91.074 l S
118.164 124.781 m 118.164 91.094 l S
120.707 124.781 m 120.707 91.109 l S
123.246 124.777 m 123.246 91.141 l S
125.789 124.738 m 125.789 91.172 l S
128.328 124.766 m 128.328 91.172 l S
130.871 124.754 m 130.871 91.16 l S
133.41 124.785 m 133.41 91.152 l S
135.953 124.766 m 135.953 91.137 l S
138.492 124.805 m 138.492 91.113 l S
141.035 124.828 m 141.035 91.07 l S
143.578 124.812 m 143.578 91.086 l S
146.117 124.84 m 146.117 91.055 l S
148.66 124.809 m 148.66 91.109 l S
151.199 124.789 m 151.199 91.098 l S
153.742 124.789 m 153.742 91.098 l S
156.281 124.855 m 156.281 91.02 l S
158.824 124.926 m 158.824 90.98 l S
161.363 124.922 m 161.363 90.957 l S
163.906 124.898 m 163.906 91.012 l S
166.445 124.902 m 166.445 91.012 l S
168.988 124.852 m 168.988 91.062 l S
171.531 124.859 m 171.531 91.039 l S
174.07 124.898 m 174.07 91.012 l S
176.613 124.863 m 176.613 91.02 l S
179.152 124.836 m 179.152 91.043 l S
181.695 124.883 m 181.695 91.039 l S
184.234 124.82 m 184.234 91.055 l S
186.777 124.285 m 186.777 91.734 l S
189.316 120.566 m 189.316 95.281 l S
191.859 117.359 m 191.859 98.473 l S
194.398 115.266 m 194.398 100.957 l S
196.941 113.449 m 196.941 102.707 l S
199.48 111.91 m 199.48 104.148 l S
202.023 110.816 m 202.023 105.172 l S
204.566 109.957 m 204.566 105.93 l S
207.105 109.465 m 207.105 106.641 l S
209.648 109 m 209.648 107.066 l S
212.188 108.758 m 212.188 107.426 l S
214.73 108.512 m 214.73 107.586 l S
217.27 108.371 m 217.27 107.77 l S
219.812 108.258 m 219.812 107.832 l S
222.352 108.219 m 222.352 107.891 l S
224.895 108.16 m 224.895 107.945 l S
227.434 108.148 m 227.434 107.953 l S
229.977 108.148 m 229.977 107.953 l S
232.52 108.148 m 232.52 107.953 l S
235.059 108.148 m 235.059 107.953 l S
237.602 108.148 m 237.602 107.953 l S
240.141 108.148 m 240.141 107.953 l S
242.684 108.148 m 242.684 107.953 l S
245.223 108.148 m 245.223 107.953 l S
247.766 108.148 m 247.766 107.953 l S
250.305 108.148 m 250.305 107.953 l S
252.848 108.148 m 252.848 107.953 l S
255.387 108.148 m 255.387 107.953 l S
255.387 108.148 m 255.387 107.953 l S
3.812 151.348 m 3.812 151.152 l S
6.352 158.512 m 6.352 144.188 l S
8.895 164.883 m 8.895 137.422 l S
11.434 167.176 m 11.434 135.293 l S
13.977 168.492 m 13.977 134.008 l S
16.52 169.094 m 16.52 133.293 l S
19.059 169.406 m 19.059 132.93 l S
21.602 169.652 m 21.602 132.773 l S
24.141 169.91 m 24.141 132.523 l S
26.684 169.953 m 26.684 132.449 l S
29.223 170.156 m 29.223 132.25 l S
31.766 170.141 m 31.766 132.242 l S
34.305 170.145 m 34.305 132.297 l S
36.848 170.105 m 36.848 132.34 l S
39.387 170.098 m 39.387 132.258 l S
41.93 170.141 m 41.93 132.27 l S
44.469 170.133 m 44.469 132.242 l S
47.012 170.188 m 47.012 132.289 l S
49.555 170.121 m 49.555 132.316 l S
52.094 170.141 m 52.094 132.273 l S
54.637 170.129 m 54.637 132.297 l S
57.176 170.145 m 57.176 132.293 l S
59.719 170.184 m 59.719 132.258 l S
62.258 170.273 m 62.258 132.184 l S
64.801 170.328 m 64.801 132.113 l S
67.34 170.406 m 67.34 132.059 l S
69.883 170.395 m 69.883 132.012 l S
72.422 170.418 m 72.422 132.039 l S
74.965 170.426 m 74.965 131.957 l S
77.508 170.406 m 77.508 131.969 l S
80.047 170.457 m 80.047 132 l S
82.59 170.477 m 82.59 131.941 l S
85.129 170.469 m 85.129 131.945 l S
87.672 170.512 m 87.672 131.902 l S
90.211 170.57 m 90.211 131.84 l S
92.754 170.625 m 92.754 131.785 l S
95.293 170.66 m 95.293 131.793 l S
97.836 170.695 m 97.836 131.773 l S
100.375 170.645 m 100.375 131.801 l S
102.918 170.625 m 102.918 131.832 l S
105.457 170.66 m 105.457 131.801 l S
108 170.637 m 108 131.762 l S
110.543 170.645 m 110.543 131.727 l S
113.082 170.656 m 113.082 131.766 l S
115.625 170.676 m 115.625 131.734 l S
118.164 170.676 m 118.164 131.727 l S
120.707 170.668 m 120.707 131.746 l S
123.246 170.637 m 123.246 131.793 l S
125.789 170.613 m 125.789 131.777 l S
128.328 170.648 m 128.328 131.789 l S
130.871 170.617 m 130.871 131.801 l S
133.41 170.645 m 133.41 131.742 l S
135.953 170.66 m 135.953 131.777 l S
138.492 170.738 m 138.492 131.746 l S
141.035 170.684 m 141.035 131.688 l S
143.578 170.738 m 143.578 131.738 l S
146.117 170.723 m 146.117 131.715 l S
148.66 170.746 m 148.66 131.75 l S
151.199 170.676 m 151.199 131.711 l S
153.742 170.695 m 153.742 131.738 l S
156.281 170.797 m 156.281 131.605 l S
158.824 170.836 m 158.824 131.562 l S
161.363 170.773 m 161.363 131.578 l S
163.906 170.809 m 163.906 131.621 l S
166.445 170.789 m 166.445 131.652 l S
168.988 170.789 m 168.988 131.664 l S
171.531 170.738 m 171.531 131.641 l S
174.07 170.809 m 174.07 131.609 l S
176.613 170.777 m 176.613 131.648 l S
179.152 170.746 m 179.152 131.637 l S
181.695 170.777 m 181.695 131.598 l S
184.234 170.66 m 184.234 131.668 l S
186.777 170.176 m 186.777 132.336 l S
189.316 165.656 m 189.316 136.656 l S
191.859 162.262 m 191.859 139.848 l S
194.398 159.809 m 194.398 142.762 l S
196.941 157.496 m 196.941 144.844 l S
199.48 155.918 m 199.48 146.586 l S
202.023 154.547 m 202.023 147.863 l S
204.566 153.602 m 204.566 148.75 l S
207.105 152.914 m 207.105 149.57 l S
209.648 152.418 m 209.648 150.133 l S
212.188 152.133 m 212.188 150.441 l S
214.73 151.836 m 214.73 150.5 l S
217.27 151.656 m 217.27 150.867 l S
219.812 151.555 m 219.812 150.988 l S
222.352 151.457 m 222.352 151.043 l S
224.895 151.398 m 224.895 151.117 l S
227.434 151.363 m 227.434 151.137 l S
229.977 151.348 m 229.977 151.152 l S
232.52 151.348 m 232.52 151.152 l S
235.059 151.348 m 235.059 151.152 l S
237.602 151.348 m 237.602 151.152 l S
240.141 151.348 m 240.141 151.152 l S
242.684 151.348 m 242.684 151.152 l S
245.223 151.348 m 245.223 151.152 l S
247.766 151.348 m 247.766 151.152 l S
250.305 151.348 m 250.305 151.152 l S
252.848 151.348 m 252.848 151.152 l S
255.387 151.348 m 255.387 151.152 l S
255.387 151.348 m 255.387 151.152 l S
Q Q
showpage
%%Trailer
end
%%EOF
