%!PS-Adobe-3.0 EPSF-3.0
%%Creator: cairo 1.16.0 (https://cairographics.org)
%%CreationDate: Wed May 15 11:57:27 2024
%%Pages: 1
%%DocumentData: Clean7Bit
%%LanguageLevel: 2
%%Creator: Wolfram Mathematica
%%BoundingBox: 2 3 257 168
%%EndComments
%%BeginProlog
50 dict begin
/q { gsave } bind def
/Q { grestore } bind def
/cm { 6 array astore concat } bind def
/w { setlinewidth } bind def
/J { setlinecap } bind def
/j { setlinejoin } bind def
/M { setmiterlimit } bind def
/d { setdash } bind def
/m { moveto } bind def
/l { lineto } bind def
/c { curveto } bind def
/h { closepath } bind def
/re { exch dup neg 3 1 roll 5 3 roll moveto 0 rlineto
      0 exch rlineto 0 rlineto closepath } bind def
/S { stroke } bind def
/f { fill } bind def
/f* { eofill } bind def
/n { newpath } bind def
/W { clip } bind def
/W* { eoclip } bind def
/BT { } bind def
/ET { } bind def
/BDC { mark 3 1 roll /BDC pdfmark } bind def
/EMC { mark /EMC pdfmark } bind def
/cairo_store_point { /cairo_point_y exch def /cairo_point_x exch def } def
/Tj { show currentpoint cairo_store_point } bind def
/TJ {
  {
    dup
    type /stringtype eq
    { show } { -0.001 mul 0 cairo_font_matrix dtransform rmoveto } ifelse
  } forall
  currentpoint cairo_store_point
} bind def
/cairo_selectfont { cairo_font_matrix aload pop pop pop 0 0 6 array astore
    cairo_font exch selectfont cairo_point_x cairo_point_y moveto } bind def
/Tf { pop /cairo_font exch def /cairo_font_matrix where
      { pop cairo_selectfont } if } bind def
/Td { matrix translate cairo_font_matrix matrix concatmatrix dup
      /cairo_font_matrix exch def dup 4 get exch 5 get cairo_store_point
      /cairo_font where { pop cairo_selectfont } if } bind def
/Tm { 2 copy 8 2 roll 6 array astore /cairo_font_matrix exch def
      cairo_store_point /cairo_font where { pop cairo_selectfont } if } bind def
/g { setgray } bind def
/rg { setrgbcolor } bind def
/d1 { setcachedevice } bind def
/cairo_data_source {
  CairoDataIndex CairoData length lt
    { CairoData CairoDataIndex get /CairoDataIndex CairoDataIndex 1 add def }
    { () } ifelse
} def
/cairo_flush_ascii85_file { cairo_ascii85_file status { cairo_ascii85_file flushfile } if } def
/cairo_image { image cairo_flush_ascii85_file } def
/cairo_imagemask { imagemask cairo_flush_ascii85_file } def
%%EndProlog
%%BeginSetup
%%EndSetup
%%Page: 1 1
%%BeginPageSetup
%%PageBoundingBox: 2 3 257 168
%%EndPageSetup
q 2 3 255 165 rectclip
1 0 0 -1 0 173 cm q
0 g
1.796436 w
0 J
0 j
[] 0.0 d
3.25 M 3.812 21.633 m 3.812 21.434 l S
6.352 25.211 m 6.352 18.199 l S
8.895 31.387 m 8.895 11.664 l S
11.434 33.965 m 11.434 9.266 l S
13.977 35.199 m 13.977 7.938 l S
16.52 36.008 m 16.52 7.117 l S
19.059 36.266 m 19.059 6.867 l S
21.602 36.246 m 21.602 6.855 l S
24.141 36.152 m 24.141 6.945 l S
26.684 35.902 m 26.684 7.211 l S
29.223 35.465 m 29.223 7.664 l S
31.766 35.203 m 31.766 7.918 l S
34.305 34.996 m 34.305 8.141 l S
36.848 34.922 m 36.848 8.254 l S
39.387 35.195 m 39.387 8.02 l S
41.93 35.816 m 41.93 7.324 l S
44.469 36.656 m 44.469 6.453 l S
47.012 37.043 m 47.012 6.051 l S
49.555 36.875 m 49.555 6.25 l S
52.094 35.977 m 52.094 7.129 l S
54.637 34.68 m 54.637 8.5 l S
57.176 33.375 m 57.176 9.719 l S
59.719 32.797 m 59.719 10.316 l S
62.258 32.344 m 62.258 10.805 l S
64.801 32 m 64.801 11.137 l S
67.34 31.484 m 67.34 11.609 l S
69.883 30.711 m 69.883 12.344 l S
72.422 30.086 m 72.422 12.852 l S
74.965 30.391 m 74.965 12.297 l S
77.508 33.918 m 77.508 9.422 l S
80.047 36.18 m 80.047 6.707 l S
82.59 37.277 m 82.59 6.086 l S
85.129 37.242 m 85.129 5.957 l S
87.672 37.414 m 87.672 6.074 l S
90.211 36.875 m 90.211 6.352 l S
92.754 36.992 m 92.754 6.461 l S
95.293 37.152 m 95.293 6.172 l S
97.836 37.234 m 97.836 6.051 l S
100.375 37.203 m 100.375 6.145 l S
102.918 37.07 m 102.918 6.234 l S
105.457 36.863 m 105.457 6.328 l S
108 36.648 m 108 6.645 l S
110.543 36.43 m 110.543 6.922 l S
113.082 35.973 m 113.082 7.289 l S
115.625 35.473 m 115.625 7.762 l S
118.164 34.598 m 118.164 8.492 l S
120.707 34.355 m 120.707 8.785 l S
123.246 35.906 m 123.246 7.207 l S
125.789 38.012 m 125.789 5.574 l S
128.328 38.473 m 128.328 5.039 l S
130.871 38.012 m 130.871 5.566 l S
133.41 37.789 m 133.41 5.625 l S
135.953 37.121 m 135.953 6.027 l S
138.492 36.355 m 138.492 7.336 l S
141.035 35.973 m 141.035 7.367 l S
143.578 36.152 m 143.578 7.074 l S
146.117 36.387 m 146.117 6.965 l S
148.66 36.188 m 148.66 6.844 l S
151.199 35.93 m 151.199 7.008 l S
153.742 35.629 m 153.742 7.289 l S
156.281 36.062 m 156.281 7.059 l S
158.824 37.008 m 158.824 6.242 l S
161.363 37.48 m 161.363 5.879 l S
163.906 37.309 m 163.906 6.109 l S
166.445 37.555 m 166.445 5.879 l S
168.988 37.781 m 168.988 5.492 l S
171.531 37.008 m 171.531 6.023 l S
174.07 36.328 m 174.07 7.301 l S
176.613 35.938 m 176.613 7.359 l S
179.152 36.098 m 179.152 7.211 l S
181.695 35.762 m 181.695 7.543 l S
184.234 34.867 m 184.234 8.625 l S
186.777 31.352 m 186.777 12.238 l S
189.316 28.109 m 189.316 15.289 l S
191.859 25.691 m 191.859 17.074 l S
194.398 24.359 m 194.398 18.727 l S
196.941 23.246 m 196.941 19.82 l S
199.48 22.613 m 199.48 20.469 l S
202.023 22.215 m 202.023 20.848 l S
204.566 21.992 m 204.566 21.094 l S
207.105 21.805 m 207.105 21.25 l S
209.648 21.723 m 209.648 21.336 l S
212.188 21.652 m 212.188 21.406 l S
214.73 21.637 m 214.73 21.43 l S
217.27 21.633 m 217.27 21.434 l S
219.812 21.633 m 219.812 21.434 l S
222.352 21.633 m 222.352 21.434 l S
224.895 21.633 m 224.895 21.434 l S
227.434 21.633 m 227.434 21.434 l S
229.977 21.633 m 229.977 21.434 l S
232.52 21.633 m 232.52 21.434 l S
235.059 21.633 m 235.059 21.434 l S
237.602 21.633 m 237.602 21.434 l S
240.141 21.633 m 240.141 21.434 l S
242.684 21.633 m 242.684 21.434 l S
245.223 21.633 m 245.223 21.434 l S
247.766 21.633 m 247.766 21.434 l S
250.305 21.633 m 250.305 21.434 l S
252.848 21.633 m 252.848 21.434 l S
255.387 21.633 m 255.387 21.434 l S
255.387 21.633 m 255.387 21.434 l S
3.812 64.832 m 3.812 64.637 l S
6.352 67.516 m 6.352 61.859 l S
8.895 72.949 m 8.895 56.523 l S
11.434 74.781 m 11.434 54.652 l S
13.977 75.723 m 13.977 53.766 l S
16.52 76.34 m 16.52 53.133 l S
19.059 76.453 m 19.059 52.957 l S
21.602 76.469 m 21.602 52.996 l S
24.141 76.391 m 24.141 53.047 l S
26.684 76.207 m 26.684 53.277 l S
29.223 75.875 m 29.223 53.527 l S
31.766 75.836 m 31.766 53.676 l S
34.305 75.672 m 34.305 53.848 l S
36.848 75.613 m 36.848 53.863 l S
39.387 75.703 m 39.387 53.66 l S
41.93 76.266 m 41.93 53.223 l S
44.469 76.84 m 44.469 52.586 l S
47.012 77.145 m 47.012 52.289 l S
49.555 76.914 m 49.555 52.508 l S
52.094 76.285 m 52.094 53.094 l S
54.637 75.383 m 54.637 54.07 l S
57.176 74.48 m 57.176 54.949 l S
59.719 74.223 m 59.719 55.359 l S
62.258 73.738 m 62.258 55.711 l S
64.801 73.496 m 64.801 56.004 l S
67.34 73.113 m 67.34 56.363 l S
69.883 72.473 m 69.883 57.023 l S
72.422 71.926 m 72.422 57.461 l S
74.965 71.969 m 74.965 57.613 l S
77.508 73.438 m 77.508 55.766 l S
80.047 74.906 m 80.047 54.863 l S
82.59 74.98 m 82.59 54.41 l S
85.129 75.195 m 85.129 54.355 l S
87.672 75.078 m 87.672 54.391 l S
90.211 74.832 m 90.211 54.574 l S
92.754 75.062 m 92.754 54.262 l S
95.293 75.461 m 95.293 53.91 l S
97.836 75.629 m 97.836 53.656 l S
100.375 75.801 m 100.375 53.625 l S
102.918 75.859 m 102.918 53.57 l S
105.457 75.883 m 105.457 53.492 l S
108 75.84 m 108 53.484 l S
110.543 75.844 m 110.543 53.465 l S
113.082 75.613 m 113.082 53.676 l S
115.625 75.352 m 115.625 53.961 l S
118.164 74.883 m 118.164 54.508 l S
120.707 74.789 m 120.707 54.902 l S
123.246 75.25 m 123.246 54.219 l S
125.789 75.891 m 125.789 53.359 l S
128.328 75.785 m 128.328 53.621 l S
130.871 75.207 m 130.871 53.965 l S
133.41 75.094 m 133.41 54.414 l S
135.953 74.648 m 135.953 54.848 l S
138.492 74.035 m 138.492 55.328 l S
141.035 74.441 m 141.035 55.094 l S
143.578 75.004 m 143.578 54.562 l S
146.117 75.383 m 146.117 53.977 l S
148.66 75.738 m 148.66 53.965 l S
151.199 75.691 m 151.199 53.914 l S
153.742 75.539 m 153.742 54.047 l S
156.281 75.527 m 156.281 53.941 l S
158.824 75.66 m 158.824 53.785 l S
161.363 75.805 m 161.363 53.578 l S
163.906 75.387 m 163.906 53.844 l S
166.445 75.398 m 166.445 54.012 l S
168.988 75.27 m 168.988 54.25 l S
171.531 74.738 m 171.531 54.953 l S
174.07 74.055 m 174.07 55.238 l S
176.613 74.559 m 176.613 54.844 l S
179.152 75.27 m 179.152 54.191 l S
181.695 75.172 m 181.695 54.223 l S
184.234 74.488 m 184.234 54.598 l S
186.777 72.742 m 186.777 57.383 l S
189.316 70.074 m 189.316 59.543 l S
191.859 68.297 m 191.859 61.246 l S
194.398 67.207 m 194.398 62.477 l S
196.941 66.191 m 196.941 63.246 l S
199.48 65.707 m 199.48 63.824 l S
202.023 65.281 m 202.023 64.168 l S
204.566 65.125 m 204.566 64.324 l S
207.105 64.977 m 207.105 64.508 l S
209.648 64.906 m 209.648 64.551 l S
212.188 64.852 m 212.188 64.609 l S
214.73 64.855 m 214.73 64.617 l S
217.27 64.832 m 217.27 64.629 l S
219.812 64.832 m 219.812 64.637 l S
222.352 64.832 m 222.352 64.637 l S
224.895 64.832 m 224.895 64.637 l S
227.434 64.832 m 227.434 64.637 l S
229.977 64.832 m 229.977 64.637 l S
232.52 64.832 m 232.52 64.637 l S
235.059 64.832 m 235.059 64.637 l S
237.602 64.832 m 237.602 64.637 l S
240.141 64.832 m 240.141 64.637 l S
242.684 64.832 m 242.684 64.637 l S
245.223 64.832 m 245.223 64.637 l S
247.766 64.832 m 247.766 64.637 l S
250.305 64.832 m 250.305 64.637 l S
252.848 64.832 m 252.848 64.637 l S
255.387 64.832 m 255.387 64.637 l S
255.387 64.832 m 255.387 64.637 l S
3.812 108.031 m 3.812 107.836 l S
6.352 111.504 m 6.352 103.855 l S
8.895 118.078 m 8.895 97.773 l S
11.434 120.266 m 11.434 95.551 l S
13.977 121.496 m 13.977 94.363 l S
16.52 122.188 m 16.52 93.555 l S
19.059 122.543 m 19.059 93.297 l S
21.602 122.508 m 21.602 93.293 l S
24.141 122.414 m 24.141 93.422 l S
26.684 122.105 m 26.684 93.773 l S
29.223 121.668 m 29.223 94.098 l S
31.766 121.457 m 31.766 94.395 l S
34.305 121.258 m 34.305 94.578 l S
36.848 121.207 m 36.848 94.641 l S
39.387 121.449 m 39.387 94.336 l S
41.93 122.156 m 41.93 93.754 l S
44.469 122.977 m 44.469 92.84 l S
47.012 123.414 m 47.012 92.438 l S
49.555 123.145 m 49.555 92.746 l S
52.094 122.238 m 52.094 93.75 l S
54.637 120.855 m 54.637 95.031 l S
57.176 119.609 m 57.176 96.254 l S
59.719 119.199 m 59.719 96.789 l S
62.258 118.68 m 62.258 97.164 l S
64.801 118.398 m 64.801 97.52 l S
67.34 117.867 m 67.34 98.008 l S
69.883 117.059 m 69.883 98.715 l S
72.422 116.629 m 72.422 99.074 l S
74.965 118.305 m 74.965 98.273 l S
77.508 122.055 m 77.508 93.711 l S
80.047 125.465 m 80.047 90.125 l S
82.59 126.367 m 82.59 89.812 l S
85.129 126.336 m 85.129 89.598 l S
87.672 126.695 m 87.672 89.574 l S
90.211 125.969 m 90.211 90.117 l S
92.754 125.879 m 92.754 90.254 l S
95.293 125.758 m 95.293 90.305 l S
97.836 125.832 m 97.836 90.258 l S
100.375 125.629 m 100.375 90.375 l S
102.918 125.422 m 102.918 90.91 l S
105.457 124.723 m 105.457 90.977 l S
108 124.477 m 108 91.473 l S
110.543 123.797 m 110.543 92.102 l S
113.082 123.43 m 113.082 92.707 l S
115.625 122.508 m 115.625 93.512 l S
118.164 121.691 m 118.164 94.07 l S
120.707 122.195 m 120.707 93.652 l S
123.246 124.465 m 123.246 90.531 l S
125.789 127.129 m 125.789 89.133 l S
128.328 127.637 m 128.328 88.363 l S
130.871 127.062 m 130.871 89.004 l S
133.41 127.199 m 133.41 88.953 l S
135.953 126.328 m 135.953 89.238 l S
138.492 125.551 m 138.492 90.887 l S
141.035 124.875 m 141.035 91.195 l S
143.578 124.918 m 143.578 91.312 l S
146.117 124.703 m 146.117 91.438 l S
148.66 124.305 m 148.66 91.844 l S
151.199 123.648 m 151.199 92.02 l S
153.742 123.488 m 153.742 92.375 l S
156.281 124.312 m 156.281 91.723 l S
158.824 125.809 m 158.824 90.414 l S
161.363 126.227 m 161.363 89.914 l S
163.906 126.18 m 163.906 89.906 l S
166.445 126.641 m 166.445 89.309 l S
168.988 127.137 m 168.988 88.836 l S
171.531 126.156 m 171.531 89.355 l S
174.07 125.484 m 174.07 90.941 l S
176.613 124.742 m 176.613 91.387 l S
179.152 124.371 m 179.152 91.562 l S
181.695 123.918 m 181.695 92.359 l S
184.234 122.949 m 184.234 93.457 l S
186.777 118.676 m 186.777 97.633 l S
189.316 114.859 m 189.316 101.453 l S
191.859 112.059 m 191.859 103.523 l S
194.398 110.809 m 194.398 105.066 l S
196.941 109.727 m 196.941 106.012 l S
199.48 109.086 m 199.48 106.719 l S
202.023 108.625 m 202.023 107.16 l S
204.566 108.391 m 204.566 107.414 l S
207.105 108.238 m 207.105 107.621 l S
209.648 108.133 m 209.648 107.715 l S
212.188 108.094 m 212.188 107.777 l S
214.73 108.078 m 214.73 107.773 l S
217.27 108.031 m 217.27 107.809 l S
219.812 108.031 m 219.812 107.836 l S
222.352 108.031 m 222.352 107.832 l S
224.895 108.031 m 224.895 107.836 l S
227.434 108.031 m 227.434 107.836 l S
229.977 108.031 m 229.977 107.836 l S
232.52 108.031 m 232.52 107.836 l S
235.059 108.031 m 235.059 107.836 l S
237.602 108.031 m 237.602 107.836 l S
240.141 108.031 m 240.141 107.836 l S
242.684 108.031 m 242.684 107.836 l S
245.223 108.031 m 245.223 107.836 l S
247.766 108.031 m 247.766 107.836 l S
250.305 108.031 m 250.305 107.836 l S
252.848 108.031 m 252.848 107.836 l S
255.387 108.031 m 255.387 107.836 l S
255.387 108.031 m 255.387 107.836 l S
3.812 151.23 m 3.812 151.035 l S
6.352 156.129 m 6.352 146.16 l S
8.895 163.246 m 8.895 138.887 l S
11.434 165.75 m 11.434 136.449 l S
13.977 167.125 m 13.977 134.984 l S
16.52 167.961 m 16.52 134.211 l S
19.059 168.254 m 19.059 133.879 l S
21.602 168.234 m 21.602 133.895 l S
24.141 168.141 m 24.141 134.016 l S
26.684 167.812 m 26.684 134.387 l S
29.223 167.234 m 29.223 134.766 l S
31.766 167.09 m 31.766 135.141 l S
34.305 166.867 m 34.305 135.32 l S
36.848 166.801 m 36.848 135.395 l S
39.387 166.953 m 39.387 135.062 l S
41.93 167.801 m 41.93 134.293 l S
44.469 168.727 m 44.469 133.426 l S
47.012 169.312 m 47.012 132.934 l S
49.555 168.965 m 49.555 133.348 l S
52.094 167.852 m 52.094 134.34 l S
54.637 166.363 m 54.637 135.852 l S
57.176 164.988 m 57.176 137.23 l S
59.719 164.512 m 59.719 137.816 l S
62.258 163.887 m 62.258 138.27 l S
64.801 163.547 m 64.801 138.699 l S
67.34 162.988 m 67.34 139.223 l S
69.883 162.008 m 69.883 139.992 l S
72.422 161.586 m 72.422 140.586 l S
74.965 161.891 m 74.965 140.711 l S
77.508 164.738 m 77.508 137.934 l S
80.047 167.832 m 80.047 135.387 l S
82.59 168.223 m 82.59 134.238 l S
85.129 168.473 m 85.129 134.535 l S
87.672 168.102 m 87.672 134.273 l S
90.211 168.047 m 90.211 134.668 l S
92.754 167.883 m 92.754 134.48 l S
95.293 168.527 m 95.293 134.203 l S
97.836 168.629 m 97.836 133.988 l S
100.375 168.543 m 100.375 134.082 l S
102.918 168.578 m 102.918 134.203 l S
105.457 168.465 m 105.457 134.168 l S
108 167.953 m 108 134.359 l S
110.543 167.766 m 110.543 134.648 l S
113.082 167.426 m 113.082 134.953 l S
115.625 166.77 m 115.625 135.477 l S
118.164 166.188 m 118.164 136.355 l S
120.707 166.027 m 120.707 136.91 l S
123.246 166.887 m 123.246 135.41 l S
125.789 169.227 m 125.789 133.898 l S
128.328 169.352 m 128.328 133.082 l S
130.871 168.758 m 130.871 133.914 l S
133.41 168.543 m 133.41 134.117 l S
135.953 167.973 m 135.953 134.887 l S
138.492 166.727 m 138.492 135.301 l S
141.035 167.02 m 141.035 135.555 l S
143.578 167.539 m 143.578 135.184 l S
146.117 167.715 m 146.117 134.738 l S
148.66 168.023 m 148.66 134.969 l S
151.199 167.711 m 151.199 134.957 l S
153.742 167.242 m 153.742 135.324 l S
156.281 167.254 m 156.281 135.168 l S
158.824 168.363 m 158.824 134.473 l S
161.363 168.688 m 161.363 134.07 l S
163.906 168.398 m 163.906 134.227 l S
166.445 168.426 m 166.445 134.168 l S
168.988 168.715 m 168.988 134.027 l S
171.531 168.09 m 171.531 134.84 l S
174.07 166.84 m 174.07 135.465 l S
176.613 167.199 m 176.613 135.492 l S
179.152 167.531 m 179.152 134.898 l S
181.695 167.156 m 181.695 135.418 l S
184.234 165.68 m 184.234 136.301 l S
186.777 162.645 m 186.777 140.477 l S
189.316 158.52 m 189.316 143.738 l S
191.859 156.234 m 191.859 146.051 l S
194.398 154.723 m 194.398 147.59 l S
196.941 153.371 m 196.941 148.766 l S
199.48 152.703 m 199.48 149.66 l S
202.023 152.082 m 202.023 150.152 l S
204.566 151.727 m 204.566 150.418 l S
207.105 151.559 m 207.105 150.699 l S
209.648 151.457 m 209.648 150.812 l S
212.188 151.375 m 212.188 150.895 l S
214.73 151.383 m 214.73 150.875 l S
217.27 151.297 m 217.27 150.922 l S
219.812 151.281 m 219.812 151.008 l S
222.352 151.273 m 222.352 150.961 l S
224.895 151.23 m 224.895 151.035 l S
227.434 151.23 m 227.434 151.035 l S
229.977 151.23 m 229.977 151.035 l S
232.52 151.23 m 232.52 151.035 l S
235.059 151.23 m 235.059 151.035 l S
237.602 151.23 m 237.602 151.035 l S
240.141 151.23 m 240.141 151.035 l S
242.684 151.23 m 242.684 151.035 l S
245.223 151.23 m 245.223 151.035 l S
247.766 151.23 m 247.766 151.035 l S
250.305 151.23 m 250.305 151.035 l S
252.848 151.23 m 252.848 151.035 l S
255.387 151.23 m 255.387 151.035 l S
255.387 151.23 m 255.387 151.035 l S
Q Q
showpage
%%Trailer
end
%%EOF
