%!PS-Adobe-3.0 EPSF-3.0
%%Creator: cairo 1.16.0 (https://cairographics.org)
%%CreationDate: Wed May 15 11:57:27 2024
%%Pages: 1
%%DocumentData: Clean7Bit
%%LanguageLevel: 2
%%Creator: Wolfram Mathematica
%%BoundingBox: 2 2 257 169
%%EndComments
%%BeginProlog
50 dict begin
/q { gsave } bind def
/Q { grestore } bind def
/cm { 6 array astore concat } bind def
/w { setlinewidth } bind def
/J { setlinecap } bind def
/j { setlinejoin } bind def
/M { setmiterlimit } bind def
/d { setdash } bind def
/m { moveto } bind def
/l { lineto } bind def
/c { curveto } bind def
/h { closepath } bind def
/re { exch dup neg 3 1 roll 5 3 roll moveto 0 rlineto
      0 exch rlineto 0 rlineto closepath } bind def
/S { stroke } bind def
/f { fill } bind def
/f* { eofill } bind def
/n { newpath } bind def
/W { clip } bind def
/W* { eoclip } bind def
/BT { } bind def
/ET { } bind def
/BDC { mark 3 1 roll /BDC pdfmark } bind def
/EMC { mark /EMC pdfmark } bind def
/cairo_store_point { /cairo_point_y exch def /cairo_point_x exch def } def
/Tj { show currentpoint cairo_store_point } bind def
/TJ {
  {
    dup
    type /stringtype eq
    { show } { -0.001 mul 0 cairo_font_matrix dtransform rmoveto } ifelse
  } forall
  currentpoint cairo_store_point
} bind def
/cairo_selectfont { cairo_font_matrix aload pop pop pop 0 0 6 array astore
    cairo_font exch selectfont cairo_point_x cairo_point_y moveto } bind def
/Tf { pop /cairo_font exch def /cairo_font_matrix where
      { pop cairo_selectfont } if } bind def
/Td { matrix translate cairo_font_matrix matrix concatmatrix dup
      /cairo_font_matrix exch def dup 4 get exch 5 get cairo_store_point
      /cairo_font where { pop cairo_selectfont } if } bind def
/Tm { 2 copy 8 2 roll 6 array astore /cairo_font_matrix exch def
      cairo_store_point /cairo_font where { pop cairo_selectfont } if } bind def
/g { setgray } bind def
/rg { setrgbcolor } bind def
/d1 { setcachedevice } bind def
/cairo_data_source {
  CairoDataIndex CairoData length lt
    { CairoData CairoDataIndex get /CairoDataIndex CairoDataIndex 1 add def }
    { () } ifelse
} def
/cairo_flush_ascii85_file { cairo_ascii85_file status { cairo_ascii85_file flushfile } if } def
/cairo_image { image cairo_flush_ascii85_file } def
/cairo_imagemask { imagemask cairo_flush_ascii85_file } def
%%EndProlog
%%BeginSetup
%%EndSetup
%%Page: 1 1
%%BeginPageSetup
%%PageBoundingBox: 2 2 257 169
%%EndPageSetup
q 2 2 255 167 rectclip
1 0 0 -1 0 173 cm q
0 g
1.796436 w
0 J
0 j
[] 0.0 d
3.25 M 3.812 21.859 m 3.812 21.66 l S
6.352 23.555 m 6.352 19.887 l S
8.895 35.094 m 8.895 8.75 l S
11.434 38.297 m 11.434 5.281 l S
13.977 38.664 m 13.977 4.977 l S
16.52 38.602 m 16.52 5.07 l S
19.059 38.188 m 19.059 5.469 l S
21.602 37.512 m 21.602 6.172 l S
24.141 37.523 m 24.141 6.129 l S
26.684 37.473 m 26.684 6.172 l S
29.223 36.977 m 29.223 6.68 l S
31.766 36.887 m 31.766 6.77 l S
34.305 36.441 m 34.305 7.176 l S
36.848 35.602 m 36.848 8.039 l S
39.387 34.609 m 39.387 8.941 l S
41.93 33.492 m 41.93 10.039 l S
44.469 32.715 m 44.469 10.859 l S
47.012 31.852 m 47.012 11.633 l S
49.555 31.09 m 49.555 12.387 l S
52.094 30.562 m 52.094 12.852 l S
54.637 29.918 m 54.637 13.508 l S
57.176 28.988 m 57.176 14.398 l S
59.719 28.809 m 59.719 14.492 l S
62.258 32.488 m 62.258 10.805 l S
64.801 35.242 m 64.801 8.027 l S
67.34 35.605 m 67.34 7.824 l S
69.883 35.539 m 69.883 7.879 l S
72.422 35.234 m 72.422 8.258 l S
74.965 35.512 m 74.965 7.906 l S
77.508 36.387 m 77.508 7.016 l S
80.047 37.348 m 80.047 6.074 l S
82.59 38.07 m 82.59 5.469 l S
85.129 37.34 m 85.129 6.48 l S
87.672 36.797 m 87.672 6.805 l S
90.211 36.184 m 90.211 7.508 l S
92.754 36.23 m 92.754 7.023 l S
95.293 37.098 m 95.293 6.426 l S
97.836 37.727 m 97.836 6.07 l S
100.375 38.176 m 100.375 5.438 l S
102.918 37.973 m 102.918 5.586 l S
105.457 37.418 m 105.457 6 l S
108 37.168 m 108 6.281 l S
110.543 37.129 m 110.543 6.484 l S
113.082 37.32 m 113.082 6.059 l S
115.625 37.762 m 115.625 5.742 l S
118.164 37.082 m 118.164 6.535 l S
120.707 36.566 m 120.707 7.16 l S
123.246 36.555 m 123.246 7.168 l S
125.789 36.754 m 125.789 6.977 l S
128.328 36.977 m 128.328 6.699 l S
130.871 36.461 m 130.871 7.012 l S
133.41 35.469 m 133.41 8.379 l S
135.953 34.738 m 135.953 8.93 l S
138.492 35.523 m 138.492 7.797 l S
141.035 36.625 m 141.035 6.984 l S
143.578 37.219 m 143.578 6.453 l S
146.117 36.781 m 146.117 6.691 l S
148.66 35.668 m 148.66 7.996 l S
151.199 33.723 m 151.199 9.906 l S
153.742 31.77 m 153.742 11.672 l S
156.281 29.371 m 156.281 14.004 l S
158.824 27.082 m 158.824 16.445 l S
161.363 25.438 m 161.363 18.125 l S
163.906 24.109 m 163.906 19.43 l S
166.445 23.238 m 166.445 20.211 l S
168.988 22.668 m 168.988 20.816 l S
171.531 22.406 m 171.531 21.109 l S
174.07 22.18 m 174.07 21.355 l S
176.613 22.09 m 176.613 21.449 l S
179.152 21.945 m 179.152 21.578 l S
181.695 21.898 m 181.695 21.625 l S
184.234 21.859 m 184.234 21.66 l S
186.777 21.859 m 186.777 21.66 l S
189.316 21.859 m 189.316 21.66 l S
191.859 21.859 m 191.859 21.66 l S
194.398 21.859 m 194.398 21.66 l S
196.941 21.859 m 196.941 21.66 l S
199.48 21.859 m 199.48 21.66 l S
202.023 21.859 m 202.023 21.66 l S
204.566 21.859 m 204.566 21.66 l S
207.105 21.859 m 207.105 21.66 l S
209.648 21.859 m 209.648 21.66 l S
212.188 21.859 m 212.188 21.66 l S
214.73 21.859 m 214.73 21.66 l S
217.27 21.859 m 217.27 21.66 l S
219.812 21.859 m 219.812 21.66 l S
222.352 21.859 m 222.352 21.66 l S
224.895 21.859 m 224.895 21.66 l S
227.434 21.859 m 227.434 21.66 l S
229.977 21.859 m 229.977 21.66 l S
232.52 21.859 m 232.52 21.66 l S
235.059 21.859 m 235.059 21.66 l S
237.602 21.859 m 237.602 21.66 l S
240.141 21.859 m 240.141 21.66 l S
242.684 21.859 m 242.684 21.66 l S
245.223 21.859 m 245.223 21.66 l S
247.766 21.859 m 247.766 21.66 l S
250.305 21.859 m 250.305 21.66 l S
252.848 21.859 m 252.848 21.66 l S
255.387 21.859 m 255.387 21.66 l S
255.387 21.859 m 255.387 21.66 l S
3.812 65.059 m 3.812 64.863 l S
6.352 66.055 m 6.352 63.66 l S
8.895 75.426 m 8.895 54.746 l S
11.434 77.555 m 11.434 52.262 l S
13.977 77.848 m 13.977 51.773 l S
16.52 77.719 m 16.52 52.016 l S
19.059 77.465 m 19.059 52.426 l S
21.602 77.086 m 21.602 52.84 l S
24.141 77.133 m 24.141 52.746 l S
26.684 77.055 m 26.684 52.758 l S
29.223 76.797 m 29.223 53.098 l S
31.766 76.75 m 31.766 53.137 l S
34.305 76.473 m 34.305 53.406 l S
36.848 75.953 m 36.848 53.992 l S
39.387 75.359 m 39.387 54.621 l S
41.93 74.594 m 41.93 55.363 l S
44.469 73.863 m 44.469 55.996 l S
47.012 73.25 m 47.012 56.605 l S
49.555 72.695 m 49.555 57.258 l S
52.094 72.227 m 52.094 57.688 l S
54.637 71.754 m 54.637 58.285 l S
57.176 70.996 m 57.176 59.008 l S
59.719 70.562 m 59.719 59.578 l S
62.258 72.262 m 62.258 58.098 l S
64.801 73.461 m 64.801 56.559 l S
67.34 73.312 m 67.34 56.445 l S
69.883 73.133 m 69.883 56.711 l S
72.422 72.938 m 72.422 56.965 l S
74.965 73.547 m 74.965 56.457 l S
77.508 74.785 m 77.508 55.168 l S
80.047 75.875 m 80.047 53.863 l S
82.59 76.703 m 82.59 53.012 l S
85.129 76.602 m 85.129 53.445 l S
87.672 76.121 m 87.672 53.797 l S
90.211 75.52 m 90.211 54.367 l S
92.754 75.547 m 92.754 54.234 l S
95.293 75.547 m 95.293 54.297 l S
97.836 75.555 m 97.836 53.875 l S
100.375 76.543 m 100.375 53.359 l S
102.918 76.531 m 102.918 53.094 l S
105.457 76.414 m 105.457 53.34 l S
108 76.062 m 108 53.691 l S
110.543 75.887 m 110.543 53.672 l S
113.082 76.309 m 113.082 53.562 l S
115.625 76.586 m 115.625 53.195 l S
118.164 76.332 m 118.164 53.621 l S
120.707 75.797 m 120.707 53.941 l S
123.246 75.816 m 123.246 53.945 l S
125.789 75.953 m 125.789 53.867 l S
128.328 76.332 m 128.328 53.426 l S
130.871 76.355 m 130.871 53.816 l S
133.41 75.172 m 133.41 54.758 l S
135.953 74.707 m 135.953 55.043 l S
138.492 75.465 m 138.492 54.293 l S
141.035 76.07 m 141.035 53.633 l S
143.578 76.645 m 143.578 53.02 l S
146.117 76.57 m 146.117 53.074 l S
148.66 75.809 m 148.66 53.957 l S
151.199 74.422 m 151.199 55.324 l S
153.742 73.102 m 153.742 56.855 l S
156.281 71.133 m 156.281 58.586 l S
158.824 69.457 m 158.824 60.609 l S
161.363 68.035 m 161.363 61.973 l S
163.906 66.984 m 163.906 62.996 l S
166.445 66.25 m 166.445 63.715 l S
168.988 65.781 m 168.988 64.172 l S
171.531 65.422 m 171.531 64.414 l S
174.07 65.293 m 174.07 64.578 l S
176.613 65.219 m 176.613 64.691 l S
179.152 65.133 m 179.152 64.781 l S
181.695 65.078 m 181.695 64.836 l S
184.234 65.082 m 184.234 64.859 l S
186.777 65.059 m 186.777 64.863 l S
189.316 65.059 m 189.316 64.863 l S
191.859 65.059 m 191.859 64.863 l S
194.398 65.059 m 194.398 64.863 l S
196.941 65.059 m 196.941 64.863 l S
199.48 65.059 m 199.48 64.863 l S
202.023 65.059 m 202.023 64.863 l S
204.566 65.059 m 204.566 64.863 l S
207.105 65.059 m 207.105 64.863 l S
209.648 65.059 m 209.648 64.863 l S
212.188 65.059 m 212.188 64.863 l S
214.73 65.059 m 214.73 64.863 l S
217.27 65.059 m 217.27 64.863 l S
219.812 65.059 m 219.812 64.863 l S
222.352 65.059 m 222.352 64.863 l S
224.895 65.059 m 224.895 64.863 l S
227.434 65.059 m 227.434 64.863 l S
229.977 65.059 m 229.977 64.863 l S
232.52 65.059 m 232.52 64.863 l S
235.059 65.059 m 235.059 64.863 l S
237.602 65.059 m 237.602 64.863 l S
240.141 65.059 m 240.141 64.863 l S
242.684 65.059 m 242.684 64.863 l S
245.223 65.059 m 245.223 64.863 l S
247.766 65.059 m 247.766 64.863 l S
250.305 65.059 m 250.305 64.863 l S
252.848 65.059 m 252.848 64.863 l S
255.387 65.059 m 255.387 64.863 l S
255.387 65.059 m 255.387 64.863 l S
3.812 108.258 m 3.812 108.062 l S
6.352 109.824 m 6.352 106.172 l S
8.895 122.289 m 8.895 94.113 l S
11.434 124.539 m 11.434 91.441 l S
13.977 125.035 m 13.977 91.18 l S
16.52 124.793 m 16.52 91.363 l S
19.059 124.398 m 19.059 91.895 l S
21.602 123.727 m 21.602 92.508 l S
24.141 123.832 m 24.141 92.488 l S
26.684 123.719 m 26.684 92.496 l S
29.223 123.316 m 29.223 93.008 l S
31.766 123.223 m 31.766 93.031 l S
34.305 122.766 m 34.305 93.453 l S
36.848 121.961 m 36.848 94.309 l S
39.387 121.141 m 39.387 95.383 l S
41.93 120.062 m 41.93 96.43 l S
44.469 119.066 m 44.469 97.062 l S
47.012 118.375 m 47.012 97.941 l S
49.555 117.715 m 49.555 98.707 l S
52.094 117.125 m 52.094 99.234 l S
54.637 116.367 m 54.637 99.984 l S
57.176 115.504 m 57.176 100.695 l S
59.719 115.965 m 59.719 100.117 l S
62.258 121.766 m 62.258 94.277 l S
64.801 125.27 m 64.801 90.973 l S
67.34 125.711 m 67.34 90.879 l S
69.883 125.438 m 69.883 91.145 l S
72.422 124.719 m 72.422 91.707 l S
74.965 124.645 m 74.965 91.762 l S
77.508 125.359 m 77.508 91.055 l S
80.047 126.18 m 80.047 90.414 l S
82.59 126.285 m 82.59 90.207 l S
85.129 125.344 m 85.129 91.402 l S
87.672 124.414 m 87.672 91.641 l S
90.211 124.52 m 90.211 92.18 l S
92.754 125.215 m 92.754 91.148 l S
95.293 126.465 m 95.293 90.32 l S
97.836 126.648 m 97.836 89.777 l S
100.375 126.754 m 100.375 89.52 l S
102.918 126.812 m 102.918 90.016 l S
105.457 126.086 m 105.457 90.137 l S
108 126.004 m 108 90.543 l S
110.543 125.648 m 110.543 90.617 l S
113.082 125.762 m 113.082 90.582 l S
115.625 125.824 m 115.625 90.371 l S
118.164 124.938 m 118.164 91.582 l S
120.707 124.367 m 120.707 91.785 l S
123.246 124.406 m 123.246 91.891 l S
125.789 124.645 m 125.789 91.633 l S
128.328 124.574 m 128.328 91.914 l S
130.871 123.652 m 130.871 92.16 l S
133.41 122.551 m 133.41 93.512 l S
135.953 122.152 m 135.953 94.277 l S
138.492 123.262 m 138.492 93.027 l S
141.035 123.812 m 141.035 92.301 l S
143.578 124.195 m 143.578 92.188 l S
146.117 123.574 m 146.117 92.777 l S
148.66 121.742 m 148.66 94.066 l S
151.199 120.32 m 151.199 96.062 l S
153.742 118.477 m 153.742 97.711 l S
156.281 115.891 m 156.281 100.457 l S
158.824 113.465 m 158.824 102.621 l S
161.363 111.941 m 161.363 104.316 l S
163.906 110.75 m 163.906 105.711 l S
166.445 109.691 m 166.445 106.57 l S
168.988 109.195 m 168.988 107.184 l S
171.531 108.828 m 171.531 107.434 l S
174.07 108.59 m 174.07 107.723 l S
176.613 108.477 m 176.613 107.812 l S
179.152 108.375 m 179.152 107.934 l S
181.695 108.324 m 181.695 107.996 l S
184.234 108.293 m 184.234 108.059 l S
186.777 108.258 m 186.777 108.062 l S
189.316 108.258 m 189.316 108.062 l S
191.859 108.258 m 191.859 108.062 l S
194.398 108.258 m 194.398 108.062 l S
196.941 108.262 m 196.941 108.062 l S
199.48 108.258 m 199.48 108.062 l S
202.023 108.258 m 202.023 108.062 l S
204.566 108.258 m 204.566 108.062 l S
207.105 108.258 m 207.105 108.062 l S
209.648 108.258 m 209.648 108.062 l S
212.188 108.258 m 212.188 108.062 l S
214.73 108.258 m 214.73 108.062 l S
217.27 108.258 m 217.27 108.062 l S
219.812 108.258 m 219.812 108.062 l S
222.352 108.258 m 222.352 108.062 l S
224.895 108.258 m 224.895 108.062 l S
227.434 108.258 m 227.434 108.062 l S
229.977 108.258 m 229.977 108.062 l S
232.52 108.258 m 232.52 108.062 l S
235.059 108.258 m 235.059 108.062 l S
237.602 108.258 m 237.602 108.062 l S
240.141 108.258 m 240.141 108.062 l S
242.684 108.258 m 242.684 108.062 l S
245.223 108.258 m 245.223 108.062 l S
247.766 108.258 m 247.766 108.062 l S
250.305 108.258 m 250.305 108.062 l S
252.848 108.258 m 252.848 108.062 l S
255.387 108.258 m 255.387 108.062 l S
255.387 108.258 m 255.387 108.062 l S
3.812 151.457 m 3.812 151.262 l S
6.352 153.648 m 6.352 148.633 l S
8.895 168.406 m 8.895 134.613 l S
11.434 170.445 m 11.434 131.906 l S
13.977 170.836 m 13.977 131.562 l S
16.52 170.637 m 16.52 131.914 l S
19.059 170.207 m 19.059 132.461 l S
21.602 169.457 m 21.602 133.168 l S
24.141 169.695 m 24.141 132.977 l S
26.684 169.559 m 26.684 132.98 l S
29.223 169.051 m 29.223 133.609 l S
31.766 169.066 m 31.766 133.574 l S
34.305 168.559 m 34.305 134.043 l S
36.848 167.789 m 36.848 134.754 l S
39.387 166.859 m 39.387 135.738 l S
41.93 165.828 m 41.93 136.961 l S
44.469 164.77 m 44.469 137.902 l S
47.012 163.859 m 47.012 138.781 l S
49.555 162.93 m 49.555 139.781 l S
52.094 162.312 m 52.094 140.359 l S
54.637 161.562 m 54.637 141.332 l S
57.176 160.418 m 57.176 142.398 l S
59.719 160.156 m 59.719 143.039 l S
62.258 163.32 m 62.258 139.996 l S
64.801 166.07 m 64.801 137.047 l S
67.34 166.223 m 67.34 136.781 l S
69.883 165.996 m 69.883 137.051 l S
72.422 165.648 m 72.422 137.57 l S
74.965 166.102 m 74.965 136.918 l S
77.508 167.59 m 77.508 135.516 l S
80.047 168.965 m 80.047 133.465 l S
82.59 169.84 m 82.59 132.785 l S
85.129 168.992 m 85.129 133.535 l S
87.672 168.785 m 87.672 134.023 l S
90.211 168.074 m 90.211 135.215 l S
92.754 167.914 m 92.754 134.957 l S
95.293 168.57 m 95.293 134.766 l S
97.836 168.863 m 97.836 133.512 l S
100.375 169.812 m 100.375 132.918 l S
102.918 169.906 m 102.918 133.191 l S
105.457 169.297 m 105.457 133.875 l S
108 168.656 m 108 134.117 l S
110.543 168.602 m 110.543 134.074 l S
113.082 169.125 m 113.082 133.641 l S
115.625 169.426 m 115.625 133.074 l S
118.164 168.926 m 118.164 133.969 l S
120.707 168.406 m 120.707 134.316 l S
123.246 168.34 m 123.246 134.164 l S
125.789 168.68 m 125.789 134.102 l S
128.328 169.113 m 128.328 133.707 l S
130.871 168.758 m 130.871 134.227 l S
133.41 167.152 m 133.41 135.848 l S
135.953 166.562 m 135.953 136.172 l S
138.492 167.902 m 138.492 134.711 l S
141.035 168.613 m 141.035 134.051 l S
143.578 169.297 m 143.578 133.328 l S
146.117 168.992 m 146.117 133.625 l S
148.66 167.438 m 148.66 134.84 l S
151.199 165.586 m 151.199 136.879 l S
153.742 163.602 m 153.742 139.336 l S
156.281 160.531 m 156.281 142.113 l S
158.824 158.18 m 158.824 144.965 l S
161.363 156.047 m 161.363 146.785 l S
163.906 154.492 m 163.906 148.184 l S
166.445 153.344 m 166.445 149.273 l S
168.988 152.699 m 168.988 149.996 l S
171.531 152.281 m 171.531 150.461 l S
174.07 151.965 m 174.07 150.617 l S
176.613 151.805 m 176.613 150.875 l S
179.152 151.699 m 179.152 151 l S
181.695 151.617 m 181.695 151.121 l S
184.234 151.562 m 184.234 151.184 l S
186.777 151.52 m 186.777 151.207 l S
189.316 151.527 m 189.316 151.199 l S
191.859 151.543 m 191.859 151.191 l S
194.398 151.531 m 194.398 151.176 l S
196.941 151.531 m 196.941 151.188 l S
199.48 151.457 m 199.48 151.262 l S
202.023 151.457 m 202.023 151.262 l S
204.566 151.457 m 204.566 151.262 l S
207.105 151.457 m 207.105 151.262 l S
209.648 151.457 m 209.648 151.262 l S
212.188 151.457 m 212.188 151.262 l S
214.73 151.457 m 214.73 151.262 l S
217.27 151.457 m 217.27 151.262 l S
219.812 151.457 m 219.812 151.262 l S
222.352 151.457 m 222.352 151.262 l S
224.895 151.457 m 224.895 151.262 l S
227.434 151.457 m 227.434 151.262 l S
229.977 151.457 m 229.977 151.262 l S
232.52 151.457 m 232.52 151.262 l S
235.059 151.457 m 235.059 151.262 l S
237.602 151.457 m 237.602 151.262 l S
240.141 151.457 m 240.141 151.262 l S
242.684 151.457 m 242.684 151.262 l S
245.223 151.457 m 245.223 151.262 l S
247.766 151.457 m 247.766 151.262 l S
250.305 151.457 m 250.305 151.262 l S
252.848 151.457 m 252.848 151.262 l S
255.387 151.457 m 255.387 151.262 l S
255.387 151.457 m 255.387 151.262 l S
Q Q
showpage
%%Trailer
end
%%EOF
