%!PS-Adobe-3.0 EPSF-3.0
%%Creator: cairo 1.16.0 (https://cairographics.org)
%%CreationDate: Wed May 15 11:57:27 2024
%%Pages: 1
%%DocumentData: Clean7Bit
%%LanguageLevel: 2
%%Creator: Wolfram Mathematica
%%BoundingBox: 2 4 257 170
%%EndComments
%%BeginProlog
50 dict begin
/q { gsave } bind def
/Q { grestore } bind def
/cm { 6 array astore concat } bind def
/w { setlinewidth } bind def
/J { setlinecap } bind def
/j { setlinejoin } bind def
/M { setmiterlimit } bind def
/d { setdash } bind def
/m { moveto } bind def
/l { lineto } bind def
/c { curveto } bind def
/h { closepath } bind def
/re { exch dup neg 3 1 roll 5 3 roll moveto 0 rlineto
      0 exch rlineto 0 rlineto closepath } bind def
/S { stroke } bind def
/f { fill } bind def
/f* { eofill } bind def
/n { newpath } bind def
/W { clip } bind def
/W* { eoclip } bind def
/BT { } bind def
/ET { } bind def
/BDC { mark 3 1 roll /BDC pdfmark } bind def
/EMC { mark /EMC pdfmark } bind def
/cairo_store_point { /cairo_point_y exch def /cairo_point_x exch def } def
/Tj { show currentpoint cairo_store_point } bind def
/TJ {
  {
    dup
    type /stringtype eq
    { show } { -0.001 mul 0 cairo_font_matrix dtransform rmoveto } ifelse
  } forall
  currentpoint cairo_store_point
} bind def
/cairo_selectfont { cairo_font_matrix aload pop pop pop 0 0 6 array astore
    cairo_font exch selectfont cairo_point_x cairo_point_y moveto } bind def
/Tf { pop /cairo_font exch def /cairo_font_matrix where
      { pop cairo_selectfont } if } bind def
/Td { matrix translate cairo_font_matrix matrix concatmatrix dup
      /cairo_font_matrix exch def dup 4 get exch 5 get cairo_store_point
      /cairo_font where { pop cairo_selectfont } if } bind def
/Tm { 2 copy 8 2 roll 6 array astore /cairo_font_matrix exch def
      cairo_store_point /cairo_font where { pop cairo_selectfont } if } bind def
/g { setgray } bind def
/rg { setrgbcolor } bind def
/d1 { setcachedevice } bind def
/cairo_data_source {
  CairoDataIndex CairoData length lt
    { CairoData CairoDataIndex get /CairoDataIndex CairoDataIndex 1 add def }
    { () } ifelse
} def
/cairo_flush_ascii85_file { cairo_ascii85_file status { cairo_ascii85_file flushfile } if } def
/cairo_image { image cairo_flush_ascii85_file } def
/cairo_imagemask { imagemask cairo_flush_ascii85_file } def
%%EndProlog
%%BeginSetup
%%EndSetup
%%Page: 1 1
%%BeginPageSetup
%%PageBoundingBox: 2 4 257 170
%%EndPageSetup
q 2 4 255 166 rectclip
1 0 0 -1 0 173 cm q
0 g
1.796436 w
0 J
0 j
[] 0.0 d
3.25 M 3.812 21.434 m 3.812 21.234 l S
6.352 34.516 m 6.352 8.625 l S
8.895 36.273 m 8.895 6.523 l S
11.434 36.836 m 11.434 6.066 l S
13.977 37.637 m 13.977 5.281 l S
16.52 37.824 m 16.52 5.023 l S
19.059 38.012 m 19.059 4.797 l S
21.602 38.145 m 21.602 4.746 l S
24.141 38.172 m 24.141 4.719 l S
26.684 38.133 m 26.684 4.707 l S
29.223 38.23 m 29.223 4.625 l S
31.766 38.297 m 31.766 4.559 l S
34.305 38.402 m 34.305 4.43 l S
36.848 38.477 m 36.848 4.371 l S
39.387 38.566 m 39.387 4.273 l S
41.93 38.602 m 41.93 4.227 l S
44.469 38.738 m 44.469 4.113 l S
47.012 38.793 m 47.012 4.066 l S
49.555 38.871 m 49.555 3.977 l S
52.094 38.773 m 52.094 4.047 l S
54.637 38.562 m 54.637 4.297 l S
57.176 38.516 m 57.176 4.328 l S
59.719 38.488 m 59.719 4.324 l S
62.258 38.516 m 62.258 4.363 l S
64.801 38.5 m 64.801 4.344 l S
67.34 38.441 m 67.34 4.406 l S
69.883 38.422 m 69.883 4.414 l S
72.422 38.422 m 72.422 4.41 l S
74.965 38.324 m 74.965 4.523 l S
77.508 38.211 m 77.508 4.613 l S
80.047 38.156 m 80.047 4.695 l S
82.59 38 m 82.59 4.871 l S
85.129 37.848 m 85.129 4.98 l S
87.672 37.809 m 87.672 5.02 l S
90.211 37.816 m 90.211 5.035 l S
92.754 37.797 m 92.754 5.02 l S
95.293 37.781 m 95.293 5.059 l S
97.836 37.863 m 97.836 4.996 l S
100.375 37.871 m 100.375 4.984 l S
102.918 37.879 m 102.918 4.945 l S
105.457 37.859 m 105.457 4.973 l S
108 37.887 m 108 4.926 l S
110.543 37.93 m 110.543 4.91 l S
113.082 37.898 m 113.082 4.938 l S
115.625 37.852 m 115.625 4.977 l S
118.164 37.789 m 118.164 5.016 l S
120.707 37.863 m 120.707 4.992 l S
123.246 37.875 m 123.246 4.961 l S
125.789 37.887 m 125.789 4.953 l S
128.328 37.871 m 128.328 4.945 l S
130.871 37.891 m 130.871 4.961 l S
133.41 37.887 m 133.41 4.938 l S
135.953 37.836 m 135.953 4.992 l S
138.492 37.715 m 138.492 5.105 l S
141.035 37.688 m 141.035 5.148 l S
143.578 37.641 m 143.578 5.211 l S
146.117 37.668 m 146.117 5.176 l S
148.66 37.605 m 148.66 5.207 l S
151.199 37.582 m 151.199 5.234 l S
153.742 37.594 m 153.742 5.199 l S
156.281 37.582 m 156.281 5.234 l S
158.824 37.617 m 158.824 5.168 l S
161.363 37.57 m 161.363 5.27 l S
163.906 37.633 m 163.906 5.168 l S
166.445 37.246 m 166.445 5.586 l S
168.988 31.402 m 168.988 11.441 l S
171.531 24.98 m 171.531 17.75 l S
174.07 22.652 m 174.07 19.973 l S
176.613 21.852 m 176.613 20.766 l S
179.152 21.562 m 179.152 21.133 l S
181.695 21.516 m 181.695 21.184 l S
184.234 21.449 m 184.234 21.219 l S
186.777 21.434 m 186.777 21.234 l S
189.316 21.434 m 189.316 21.234 l S
191.859 21.434 m 191.859 21.234 l S
194.398 21.434 m 194.398 21.234 l S
196.941 21.434 m 196.941 21.234 l S
199.48 21.434 m 199.48 21.234 l S
202.023 21.434 m 202.023 21.234 l S
204.566 21.434 m 204.566 21.234 l S
207.105 21.434 m 207.105 21.234 l S
209.648 21.434 m 209.648 21.234 l S
212.188 21.434 m 212.188 21.234 l S
214.73 21.434 m 214.73 21.234 l S
217.27 21.434 m 217.27 21.234 l S
219.812 21.434 m 219.812 21.234 l S
222.352 21.434 m 222.352 21.234 l S
224.895 21.434 m 224.895 21.234 l S
227.434 21.434 m 227.434 21.234 l S
229.977 21.434 m 229.977 21.234 l S
232.52 21.434 m 232.52 21.234 l S
235.059 21.434 m 235.059 21.234 l S
237.602 21.434 m 237.602 21.234 l S
240.141 21.434 m 240.141 21.234 l S
242.684 21.434 m 242.684 21.234 l S
245.223 21.434 m 245.223 21.234 l S
247.766 21.434 m 247.766 21.234 l S
250.305 21.434 m 250.305 21.234 l S
252.848 21.434 m 252.848 21.234 l S
255.387 21.434 m 255.387 21.234 l S
255.387 21.434 m 255.387 21.234 l S
3.812 64.633 m 3.812 64.438 l S
6.352 70.688 m 6.352 58.355 l S
8.895 73.082 m 8.895 56.277 l S
11.434 73.242 m 11.434 55.945 l S
13.977 73.734 m 13.977 55.43 l S
16.52 73.949 m 16.52 55.336 l S
19.059 74.031 m 19.059 55.238 l S
21.602 74.109 m 21.602 55.164 l S
24.141 74.129 m 24.141 55.113 l S
26.684 74.176 m 26.684 55.102 l S
29.223 74.219 m 29.223 55.051 l S
31.766 74.336 m 31.766 54.977 l S
34.305 74.41 m 34.305 54.859 l S
36.848 74.504 m 36.848 54.875 l S
39.387 74.5 m 39.387 54.789 l S
41.93 74.559 m 41.93 54.785 l S
44.469 74.609 m 44.469 54.719 l S
47.012 74.66 m 47.012 54.676 l S
49.555 74.723 m 49.555 54.629 l S
52.094 74.621 m 52.094 54.668 l S
54.637 74.531 m 54.637 54.742 l S
57.176 74.535 m 57.176 54.766 l S
59.719 74.512 m 59.719 54.789 l S
62.258 74.543 m 62.258 54.777 l S
64.801 74.578 m 64.801 54.746 l S
67.34 74.508 m 67.34 54.777 l S
69.883 74.488 m 69.883 54.82 l S
72.422 74.438 m 72.422 54.816 l S
74.965 74.457 m 74.965 54.883 l S
77.508 74.418 m 77.508 54.934 l S
80.047 74.352 m 80.047 54.926 l S
82.59 74.242 m 82.59 55.105 l S
85.129 74.156 m 85.129 55.129 l S
87.672 74.176 m 87.672 55.117 l S
90.211 74.145 m 90.211 55.141 l S
92.754 74.156 m 92.754 55.117 l S
95.293 74.121 m 95.293 55.129 l S
97.836 74.18 m 97.836 55.07 l S
100.375 74.168 m 100.375 55.074 l S
102.918 74.215 m 102.918 55.082 l S
105.457 74.207 m 105.457 55.07 l S
108 74.254 m 108 55.031 l S
110.543 74.258 m 110.543 55.035 l S
113.082 74.254 m 113.082 55.027 l S
115.625 74.258 m 115.625 55.07 l S
118.164 74.211 m 118.164 55.062 l S
120.707 74.234 m 120.707 55.039 l S
123.246 74.234 m 123.246 55.051 l S
125.789 74.293 m 125.789 55.016 l S
128.328 74.258 m 128.328 55.02 l S
130.871 74.242 m 130.871 55.016 l S
133.41 74.258 m 133.41 55.012 l S
135.953 74.207 m 135.953 55.078 l S
138.492 74.152 m 138.492 55.102 l S
141.035 74.117 m 141.035 55.137 l S
143.578 74.141 m 143.578 55.172 l S
146.117 74.066 m 146.117 55.129 l S
148.66 74.07 m 148.66 55.188 l S
151.199 74.094 m 151.199 55.211 l S
153.742 74.305 m 153.742 55.137 l S
156.281 74.148 m 156.281 55.094 l S
158.824 74.156 m 158.824 55.098 l S
161.363 74.094 m 161.363 55.199 l S
163.906 74.113 m 163.906 55.227 l S
166.445 73.707 m 166.445 55.531 l S
168.988 70.148 m 168.988 59.066 l S
171.531 66.531 m 171.531 62.438 l S
174.07 65.453 m 174.07 63.723 l S
176.613 64.828 m 176.613 64.227 l S
179.152 64.762 m 179.152 64.324 l S
181.695 64.672 m 181.695 64.395 l S
184.234 64.652 m 184.234 64.387 l S
186.777 64.633 m 186.777 64.434 l S
189.316 64.633 m 189.316 64.438 l S
191.859 64.633 m 191.859 64.438 l S
194.398 64.633 m 194.398 64.438 l S
196.941 64.633 m 196.941 64.438 l S
199.48 64.656 m 199.48 64.348 l S
202.023 64.633 m 202.023 64.438 l S
204.566 64.633 m 204.566 64.402 l S
207.105 64.645 m 207.105 64.438 l S
209.648 64.652 m 209.648 64.395 l S
212.188 64.633 m 212.188 64.438 l S
214.73 64.633 m 214.73 64.438 l S
217.27 64.633 m 217.27 64.438 l S
219.812 64.633 m 219.812 64.438 l S
222.352 64.633 m 222.352 64.438 l S
224.895 64.633 m 224.895 64.438 l S
227.434 64.633 m 227.434 64.438 l S
229.977 64.633 m 229.977 64.438 l S
232.52 64.633 m 232.52 64.438 l S
235.059 64.633 m 235.059 64.438 l S
237.602 64.633 m 237.602 64.438 l S
240.141 64.633 m 240.141 64.438 l S
242.684 64.633 m 242.684 64.438 l S
245.223 64.633 m 245.223 64.438 l S
247.766 64.633 m 247.766 64.438 l S
250.305 64.633 m 250.305 64.438 l S
252.848 64.633 m 252.848 64.438 l S
255.387 64.633 m 255.387 64.438 l S
255.387 64.633 m 255.387 64.438 l S
3.812 107.836 m 3.812 107.633 l S
6.352 122.43 m 6.352 93.441 l S
8.895 124.422 m 8.895 91.836 l S
11.434 124.938 m 11.434 90.895 l S
13.977 125.684 m 13.977 90.121 l S
16.52 126.055 m 16.52 89.895 l S
19.059 126.34 m 19.059 89.617 l S
21.602 126.461 m 21.602 89.465 l S
24.141 126.555 m 24.141 89.387 l S
26.684 126.652 m 26.684 89.32 l S
29.223 126.77 m 29.223 89.238 l S
31.766 126.898 m 31.766 89.059 l S
34.305 127.043 m 34.305 88.941 l S
36.848 127.148 m 36.848 88.848 l S
39.387 127.223 m 39.387 88.723 l S
41.93 127.336 m 41.93 88.656 l S
44.469 127.43 m 44.469 88.559 l S
47.012 127.527 m 47.012 88.449 l S
49.555 127.637 m 49.555 88.363 l S
52.094 127.508 m 52.094 88.461 l S
54.637 127.336 m 54.637 88.637 l S
57.176 127.297 m 57.176 88.66 l S
59.719 127.352 m 59.719 88.668 l S
62.258 127.32 m 62.258 88.625 l S
64.801 127.32 m 64.801 88.641 l S
67.34 127.273 m 67.34 88.68 l S
69.883 127.266 m 69.883 88.73 l S
72.422 127.238 m 72.422 88.719 l S
74.965 127.176 m 74.965 88.848 l S
77.508 127.148 m 77.508 88.949 l S
80.047 127.004 m 80.047 88.93 l S
82.59 126.887 m 82.59 89.172 l S
85.129 126.719 m 85.129 89.262 l S
87.672 126.715 m 87.672 89.293 l S
90.211 126.699 m 90.211 89.238 l S
92.754 126.707 m 92.754 89.273 l S
95.293 126.723 m 95.293 89.273 l S
97.836 126.73 m 97.836 89.242 l S
100.375 126.742 m 100.375 89.184 l S
102.918 126.812 m 102.918 89.191 l S
105.457 126.801 m 105.457 89.191 l S
108 126.855 m 108 89.145 l S
110.543 126.824 m 110.543 89.156 l S
113.082 126.875 m 113.082 89.145 l S
115.625 126.789 m 115.625 89.215 l S
118.164 126.734 m 118.164 89.219 l S
120.707 126.816 m 120.707 89.176 l S
123.246 126.84 m 123.246 89.172 l S
125.789 126.809 m 125.789 89.152 l S
128.328 126.844 m 128.328 89.156 l S
130.871 126.812 m 130.871 89.145 l S
133.41 126.816 m 133.41 89.145 l S
135.953 126.734 m 135.953 89.23 l S
138.492 126.664 m 138.492 89.305 l S
141.035 126.605 m 141.035 89.375 l S
143.578 126.637 m 143.578 89.398 l S
146.117 126.559 m 146.117 89.379 l S
148.66 126.57 m 148.66 89.359 l S
151.199 126.566 m 151.199 89.445 l S
153.742 126.594 m 153.742 89.324 l S
156.281 126.668 m 156.281 89.363 l S
158.824 126.688 m 158.824 89.336 l S
161.363 126.59 m 161.363 89.391 l S
163.906 126.598 m 163.906 89.391 l S
166.445 125.859 m 166.445 90 l S
168.988 119.648 m 168.988 95.766 l S
171.531 112.984 m 171.531 102.441 l S
174.07 109.781 m 174.07 105.773 l S
176.613 108.523 m 176.613 106.926 l S
179.152 108.102 m 179.152 107.367 l S
181.695 107.926 m 181.695 107.434 l S
184.234 107.91 m 184.234 107.531 l S
186.777 107.859 m 186.777 107.586 l S
189.316 107.875 m 189.316 107.586 l S
191.859 107.883 m 191.859 107.613 l S
194.398 107.863 m 194.398 107.637 l S
196.941 107.875 m 196.941 107.566 l S
199.48 107.887 m 199.48 107.535 l S
202.023 107.855 m 202.023 107.637 l S
204.566 107.84 m 204.566 107.617 l S
207.105 107.84 m 207.105 107.637 l S
209.648 107.859 m 209.648 107.594 l S
212.188 107.832 m 212.188 107.637 l S
214.73 107.832 m 214.73 107.637 l S
217.27 107.832 m 217.27 107.637 l S
219.812 107.832 m 219.812 107.637 l S
222.352 107.832 m 222.352 107.637 l S
224.895 107.832 m 224.895 107.637 l S
227.434 107.832 m 227.434 107.637 l S
229.977 107.832 m 229.977 107.637 l S
232.52 107.832 m 232.52 107.637 l S
235.059 107.832 m 235.059 107.637 l S
237.602 107.832 m 237.602 107.637 l S
240.141 107.832 m 240.141 107.637 l S
242.684 107.832 m 242.684 107.637 l S
245.223 107.832 m 245.223 107.637 l S
247.766 107.832 m 247.766 107.637 l S
250.305 107.832 m 250.305 107.637 l S
252.848 107.832 m 252.848 107.637 l S
255.387 107.832 m 255.387 107.637 l S
255.387 107.832 m 255.387 107.637 l S
3.812 151.031 m 3.812 150.836 l S
6.352 163.055 m 6.352 139.133 l S
8.895 165.746 m 8.895 136.266 l S
11.434 166.211 m 11.434 135.684 l S
13.977 166.734 m 13.977 135.09 l S
16.52 167.082 m 16.52 134.938 l S
19.059 167.324 m 19.059 134.684 l S
21.602 167.359 m 21.602 134.668 l S
24.141 167.551 m 24.141 134.539 l S
26.684 167.508 m 26.684 134.559 l S
29.223 167.566 m 29.223 134.434 l S
31.766 167.668 m 31.766 134.332 l S
34.305 167.746 m 34.305 134.273 l S
36.848 167.832 m 36.848 134.215 l S
39.387 167.898 m 39.387 134.113 l S
41.93 167.957 m 41.93 134.098 l S
44.469 168.098 m 44.469 133.969 l S
47.012 168.074 m 47.012 134.016 l S
49.555 168.176 m 49.555 133.902 l S
52.094 168.133 m 52.094 133.961 l S
54.637 167.945 m 54.637 134.133 l S
57.176 167.914 m 57.176 134.105 l S
59.719 167.934 m 59.719 134.148 l S
62.258 167.887 m 62.258 134.145 l S
64.801 167.914 m 64.801 134.055 l S
67.34 167.789 m 67.34 134.203 l S
69.883 167.816 m 69.883 134.168 l S
72.422 167.789 m 72.422 134.18 l S
74.965 167.754 m 74.965 134.312 l S
77.508 167.648 m 77.508 134.359 l S
80.047 167.672 m 80.047 134.348 l S
82.59 167.434 m 82.59 134.613 l S
85.129 167.363 m 85.129 134.691 l S
87.672 167.375 m 87.672 134.688 l S
90.211 167.32 m 90.211 134.625 l S
92.754 167.266 m 92.754 134.676 l S
95.293 167.285 m 95.293 134.613 l S
97.836 167.438 m 97.836 134.559 l S
100.375 167.348 m 100.375 134.57 l S
102.918 167.387 m 102.918 134.535 l S
105.457 167.391 m 105.457 134.516 l S
108 167.434 m 108 134.516 l S
110.543 167.41 m 110.543 134.5 l S
113.082 167.484 m 113.082 134.473 l S
115.625 167.379 m 115.625 134.535 l S
118.164 167.367 m 118.164 134.555 l S
120.707 167.391 m 120.707 134.566 l S
123.246 167.438 m 123.246 134.551 l S
125.789 167.422 m 125.789 134.535 l S
128.328 167.445 m 128.328 134.484 l S
130.871 167.465 m 130.871 134.492 l S
133.41 167.402 m 133.41 134.484 l S
135.953 167.32 m 135.953 134.629 l S
138.492 167.281 m 138.492 134.652 l S
141.035 167.25 m 141.035 134.691 l S
143.578 167.344 m 143.578 134.727 l S
146.117 167.258 m 146.117 134.535 l S
148.66 167.215 m 148.66 134.641 l S
151.199 167.176 m 151.199 134.707 l S
153.742 167.477 m 153.742 134.617 l S
156.281 167.379 m 156.281 134.703 l S
158.824 167.387 m 158.824 134.48 l S
161.363 167.238 m 161.363 134.711 l S
163.906 167.305 m 163.906 134.633 l S
166.445 166.656 m 166.445 135.188 l S
168.988 161.254 m 168.988 140.887 l S
171.531 154.984 m 171.531 146.605 l S
174.07 152.656 m 174.07 149.211 l S
176.613 151.594 m 176.613 150.223 l S
179.152 151.316 m 179.152 150.547 l S
181.695 151.23 m 181.695 150.605 l S
184.234 151.223 m 184.234 150.699 l S
186.777 151.117 m 186.777 150.762 l S
189.316 151.133 m 189.316 150.754 l S
191.859 151.113 m 191.859 150.746 l S
194.398 151.152 m 194.398 150.754 l S
196.941 151.133 m 196.941 150.707 l S
199.48 151.199 m 199.48 150.578 l S
202.023 151.109 m 202.023 150.793 l S
204.566 151.086 m 204.566 150.719 l S
207.105 151.141 m 207.105 150.754 l S
209.648 151.23 m 209.648 150.711 l S
212.188 151.074 m 212.188 150.805 l S
214.73 151.051 m 214.73 150.785 l S
217.27 151.07 m 217.27 150.758 l S
219.812 151.074 m 219.812 150.836 l S
222.352 151.031 m 222.352 150.836 l S
224.895 151.031 m 224.895 150.836 l S
227.434 151.031 m 227.434 150.836 l S
229.977 151.031 m 229.977 150.836 l S
232.52 151.031 m 232.52 150.836 l S
235.059 151.031 m 235.059 150.836 l S
237.602 151.031 m 237.602 150.836 l S
240.141 151.031 m 240.141 150.836 l S
242.684 151.031 m 242.684 150.836 l S
245.223 151.031 m 245.223 150.836 l S
247.766 151.031 m 247.766 150.836 l S
250.305 151.031 m 250.305 150.836 l S
252.848 151.031 m 252.848 150.836 l S
255.387 151.031 m 255.387 150.836 l S
255.387 151.031 m 255.387 150.836 l S
Q Q
showpage
%%Trailer
end
%%EOF
