%!PS-Adobe-3.0 EPSF-3.0
%%Creator: cairo 1.16.0 (https://cairographics.org)
%%CreationDate: Wed May 15 11:57:27 2024
%%Pages: 1
%%DocumentData: Clean7Bit
%%LanguageLevel: 2
%%Creator: Wolfram Mathematica
%%BoundingBox: 2 2 257 169
%%EndComments
%%BeginProlog
50 dict begin
/q { gsave } bind def
/Q { grestore } bind def
/cm { 6 array astore concat } bind def
/w { setlinewidth } bind def
/J { setlinecap } bind def
/j { setlinejoin } bind def
/M { setmiterlimit } bind def
/d { setdash } bind def
/m { moveto } bind def
/l { lineto } bind def
/c { curveto } bind def
/h { closepath } bind def
/re { exch dup neg 3 1 roll 5 3 roll moveto 0 rlineto
      0 exch rlineto 0 rlineto closepath } bind def
/S { stroke } bind def
/f { fill } bind def
/f* { eofill } bind def
/n { newpath } bind def
/W { clip } bind def
/W* { eoclip } bind def
/BT { } bind def
/ET { } bind def
/BDC { mark 3 1 roll /BDC pdfmark } bind def
/EMC { mark /EMC pdfmark } bind def
/cairo_store_point { /cairo_point_y exch def /cairo_point_x exch def } def
/Tj { show currentpoint cairo_store_point } bind def
/TJ {
  {
    dup
    type /stringtype eq
    { show } { -0.001 mul 0 cairo_font_matrix dtransform rmoveto } ifelse
  } forall
  currentpoint cairo_store_point
} bind def
/cairo_selectfont { cairo_font_matrix aload pop pop pop 0 0 6 array astore
    cairo_font exch selectfont cairo_point_x cairo_point_y moveto } bind def
/Tf { pop /cairo_font exch def /cairo_font_matrix where
      { pop cairo_selectfont } if } bind def
/Td { matrix translate cairo_font_matrix matrix concatmatrix dup
      /cairo_font_matrix exch def dup 4 get exch 5 get cairo_store_point
      /cairo_font where { pop cairo_selectfont } if } bind def
/Tm { 2 copy 8 2 roll 6 array astore /cairo_font_matrix exch def
      cairo_store_point /cairo_font where { pop cairo_selectfont } if } bind def
/g { setgray } bind def
/rg { setrgbcolor } bind def
/d1 { setcachedevice } bind def
/cairo_data_source {
  CairoDataIndex CairoData length lt
    { CairoData CairoDataIndex get /CairoDataIndex CairoDataIndex 1 add def }
    { () } ifelse
} def
/cairo_flush_ascii85_file { cairo_ascii85_file status { cairo_ascii85_file flushfile } if } def
/cairo_image { image cairo_flush_ascii85_file } def
/cairo_imagemask { imagemask cairo_flush_ascii85_file } def
%%EndProlog
%%BeginSetup
%%EndSetup
%%Page: 1 1
%%BeginPageSetup
%%PageBoundingBox: 2 2 257 169
%%EndPageSetup
q 2 2 255 167 rectclip
1 0 0 -1 0 173 cm q
0 g
1.796436 w
0 J
0 j
[] 0.0 d
3.25 M 3.812 21.715 m 3.812 21.516 l S
6.352 27.766 m 6.352 15.23 l S
8.895 33.777 m 8.895 9.609 l S
11.434 36.148 m 11.434 7.164 l S
13.977 37.406 m 13.977 5.988 l S
16.52 37.914 m 16.52 5.461 l S
19.059 38.129 m 19.059 5.219 l S
21.602 38.402 m 21.602 5.016 l S
24.141 38.621 m 24.141 4.777 l S
26.684 38.875 m 26.684 4.527 l S
29.223 38.906 m 29.223 4.516 l S
31.766 38.836 m 31.766 4.582 l S
34.305 38.805 m 34.305 4.633 l S
36.848 38.793 m 36.848 4.648 l S
39.387 38.781 m 39.387 4.668 l S
41.93 38.887 m 41.93 4.562 l S
44.469 38.836 m 44.469 4.598 l S
47.012 38.801 m 47.012 4.637 l S
49.555 38.781 m 49.555 4.688 l S
52.094 38.719 m 52.094 4.75 l S
54.637 38.801 m 54.637 4.656 l S
57.176 38.859 m 57.176 4.582 l S
59.719 38.867 m 59.719 4.602 l S
62.258 38.852 m 62.258 4.605 l S
64.801 38.777 m 64.801 4.695 l S
67.34 38.609 m 67.34 4.848 l S
69.883 38.562 m 69.883 4.883 l S
72.422 38.535 m 72.422 4.926 l S
74.965 38.586 m 74.965 4.883 l S
77.508 38.562 m 77.508 4.906 l S
80.047 38.539 m 80.047 4.93 l S
82.59 38.484 m 82.59 4.953 l S
85.129 38.473 m 85.129 4.98 l S
87.672 38.516 m 87.672 4.949 l S
90.211 38.586 m 90.211 4.883 l S
92.754 38.613 m 92.754 4.855 l S
95.293 38.574 m 95.293 4.879 l S
97.836 38.59 m 97.836 4.891 l S
100.375 38.621 m 100.375 4.875 l S
102.918 38.684 m 102.918 4.781 l S
105.457 38.668 m 105.457 4.809 l S
108 38.637 m 108 4.836 l S
110.543 38.691 m 110.543 4.781 l S
113.082 38.715 m 113.082 4.754 l S
115.625 38.684 m 115.625 4.793 l S
118.164 38.645 m 118.164 4.848 l S
120.707 38.648 m 120.707 4.859 l S
123.246 38.633 m 123.246 4.84 l S
125.789 38.641 m 125.789 4.84 l S
128.328 38.555 m 128.328 4.934 l S
130.871 38.52 m 130.871 4.945 l S
133.41 38.484 m 133.41 5.004 l S
135.953 38.473 m 135.953 4.996 l S
138.492 38.484 m 138.492 5.004 l S
141.035 38.508 m 141.035 4.984 l S
143.578 38.543 m 143.578 4.953 l S
146.117 38.539 m 146.117 4.961 l S
148.66 38.477 m 148.66 5 l S
151.199 38.613 m 151.199 4.883 l S
153.742 38.645 m 153.742 4.855 l S
156.281 38.602 m 156.281 4.848 l S
158.824 38.578 m 158.824 4.914 l S
161.363 38.523 m 161.363 4.965 l S
163.906 38.582 m 163.906 4.887 l S
166.445 38.66 m 166.445 4.828 l S
168.988 38.684 m 168.988 4.793 l S
171.531 38.703 m 171.531 4.789 l S
174.07 38.703 m 174.07 4.801 l S
176.613 38.742 m 176.613 4.746 l S
179.152 38.75 m 179.152 4.746 l S
181.695 38.727 m 181.695 4.773 l S
184.234 38.711 m 184.234 4.789 l S
186.777 38.656 m 186.777 4.844 l S
189.316 38.703 m 189.316 4.777 l S
191.859 38.805 m 191.859 4.684 l S
194.398 38.875 m 194.398 4.617 l S
196.941 38.867 m 196.941 4.637 l S
199.48 38.324 m 199.48 5.184 l S
202.023 34.512 m 202.023 8.785 l S
204.566 31.016 m 204.566 12.414 l S
207.105 28.07 m 207.105 15.375 l S
209.648 25.832 m 209.648 17.25 l S
212.188 24.457 m 212.188 18.805 l S
214.73 23.391 m 214.73 19.742 l S
217.27 22.766 m 217.27 20.496 l S
219.812 22.289 m 219.812 20.93 l S
222.352 22.027 m 222.352 21.199 l S
224.895 21.867 m 224.895 21.348 l S
227.434 21.785 m 227.434 21.449 l S
229.977 21.715 m 229.977 21.516 l S
232.52 21.715 m 232.52 21.516 l S
235.059 21.715 m 235.059 21.516 l S
237.602 21.715 m 237.602 21.516 l S
240.141 21.715 m 240.141 21.516 l S
242.684 21.715 m 242.684 21.516 l S
245.223 21.715 m 245.223 21.516 l S
247.766 21.715 m 247.766 21.516 l S
250.305 21.715 m 250.305 21.516 l S
252.848 21.715 m 252.848 21.516 l S
255.387 21.715 m 255.387 21.516 l S
255.387 21.715 m 255.387 21.516 l S
3.812 64.914 m 3.812 64.715 l S
6.352 69.434 m 6.352 60.027 l S
8.895 72.523 m 8.895 57.078 l S
11.434 73.938 m 11.434 55.562 l S
13.977 74.645 m 13.977 54.777 l S
16.52 75.008 m 16.52 54.5 l S
19.059 75.184 m 19.059 54.359 l S
21.602 75.328 m 21.602 54.164 l S
24.141 75.398 m 24.141 54.016 l S
26.684 75.504 m 26.684 53.918 l S
29.223 75.586 m 29.223 53.848 l S
31.766 75.535 m 31.766 53.859 l S
34.305 75.531 m 34.305 53.836 l S
36.848 75.57 m 36.848 53.809 l S
39.387 75.543 m 39.387 53.863 l S
41.93 75.48 m 41.93 53.844 l S
44.469 75.535 m 44.469 53.82 l S
47.012 75.504 m 47.012 53.855 l S
49.555 75.469 m 49.555 53.891 l S
52.094 75.406 m 52.094 53.867 l S
54.637 75.449 m 54.637 53.93 l S
57.176 75.512 m 57.176 53.859 l S
59.719 75.527 m 59.719 53.883 l S
62.258 75.465 m 62.258 53.871 l S
64.801 75.441 m 64.801 53.914 l S
67.34 75.414 m 67.34 53.969 l S
69.883 75.316 m 69.883 54.008 l S
72.422 75.285 m 72.422 54.07 l S
74.965 75.309 m 74.965 54.066 l S
77.508 75.285 m 77.508 54.059 l S
80.047 75.277 m 80.047 54.07 l S
82.59 75.246 m 82.59 54.02 l S
85.129 75.238 m 85.129 54.105 l S
87.672 75.234 m 87.672 54.082 l S
90.211 75.258 m 90.211 54.039 l S
92.754 75.266 m 92.754 54.059 l S
95.293 75.246 m 95.293 54.074 l S
97.836 75.258 m 97.836 54.043 l S
100.375 75.262 m 100.375 54.051 l S
102.918 75.297 m 102.918 54.047 l S
105.457 75.332 m 105.457 54.047 l S
108 75.312 m 108 54.051 l S
110.543 75.332 m 110.543 54.047 l S
113.082 75.277 m 113.082 54.008 l S
115.625 75.289 m 115.625 54.035 l S
118.164 75.285 m 118.164 54.051 l S
120.707 75.305 m 120.707 54.082 l S
123.246 75.27 m 123.246 54.051 l S
125.789 75.234 m 125.789 54.082 l S
128.328 75.207 m 128.328 54.117 l S
130.871 75.215 m 130.871 54.172 l S
133.41 75.188 m 133.41 54.184 l S
135.953 75.148 m 135.953 54.184 l S
138.492 75.168 m 138.492 54.168 l S
141.035 75.211 m 141.035 54.148 l S
143.578 75.207 m 143.578 54.141 l S
146.117 75.172 m 146.117 54.176 l S
148.66 75.184 m 148.66 54.148 l S
151.199 75.18 m 151.199 54.098 l S
153.742 75.242 m 153.742 54.145 l S
156.281 75.215 m 156.281 54.137 l S
158.824 75.191 m 158.824 54.125 l S
161.363 75.207 m 161.363 54.164 l S
163.906 75.199 m 163.906 54.117 l S
166.445 75.18 m 166.445 54.137 l S
168.988 75.203 m 168.988 54.082 l S
171.531 75.238 m 171.531 54.094 l S
174.07 75.195 m 174.07 54.09 l S
176.613 75.23 m 176.613 54.102 l S
179.152 75.211 m 179.152 54.066 l S
181.695 75.223 m 181.695 54.102 l S
184.234 75.16 m 184.234 54.09 l S
186.777 75.176 m 186.777 54.137 l S
189.316 75.148 m 189.316 54.121 l S
191.859 75.18 m 191.859 54.086 l S
194.398 75.262 m 194.398 54.078 l S
196.941 75.242 m 196.941 54.109 l S
199.48 74.801 m 199.48 54.426 l S
202.023 71.227 m 202.023 58.336 l S
204.566 68.711 m 204.566 60.938 l S
207.105 67.348 m 207.105 62.301 l S
209.648 66.727 m 209.648 63.008 l S
212.188 66.109 m 212.188 63.68 l S
214.73 65.695 m 214.73 64.121 l S
217.27 65.195 m 217.27 64.375 l S
219.812 65.09 m 219.812 64.551 l S
222.352 65 m 222.352 64.648 l S
224.895 64.957 m 224.895 64.699 l S
227.434 64.914 m 227.434 64.715 l S
229.977 64.914 m 229.977 64.715 l S
232.52 64.914 m 232.52 64.715 l S
235.059 64.914 m 235.059 64.715 l S
237.602 64.914 m 237.602 64.715 l S
240.141 64.914 m 240.141 64.715 l S
242.684 64.914 m 242.684 64.715 l S
245.223 64.914 m 245.223 64.715 l S
247.766 64.914 m 247.766 64.715 l S
250.305 64.914 m 250.305 64.715 l S
252.848 64.914 m 252.848 64.715 l S
255.387 64.914 m 255.387 64.715 l S
255.387 64.914 m 255.387 64.715 l S
3.812 108.113 m 3.812 107.918 l S
6.352 114.852 m 6.352 100.609 l S
8.895 121.09 m 8.895 94.957 l S
11.434 123.379 m 11.434 92.516 l S
13.977 124.625 m 13.977 91.305 l S
16.52 125.242 m 16.52 90.793 l S
19.059 125.566 m 19.059 90.488 l S
21.602 125.777 m 21.602 90.273 l S
24.141 126.055 m 24.141 90.016 l S
26.684 126.312 m 26.684 89.777 l S
29.223 126.344 m 29.223 89.727 l S
31.766 126.305 m 31.766 89.766 l S
34.305 126.27 m 34.305 89.793 l S
36.848 126.254 m 36.848 89.801 l S
39.387 126.23 m 39.387 89.832 l S
41.93 126.305 m 41.93 89.766 l S
44.469 126.305 m 44.469 89.789 l S
47.012 126.258 m 47.012 89.832 l S
49.555 126.207 m 49.555 89.848 l S
52.094 126.176 m 52.094 89.906 l S
54.637 126.199 m 54.637 89.875 l S
57.176 126.266 m 57.176 89.801 l S
59.719 126.316 m 59.719 89.781 l S
62.258 126.273 m 62.258 89.805 l S
64.801 126.195 m 64.801 89.875 l S
67.34 126.066 m 67.34 90.02 l S
69.883 126.012 m 69.883 90.082 l S
72.422 125.977 m 72.422 90.133 l S
74.965 125.988 m 74.965 90.109 l S
77.508 125.973 m 77.508 90.105 l S
80.047 125.945 m 80.047 90.133 l S
82.59 125.93 m 82.59 90.172 l S
85.129 125.895 m 85.129 90.188 l S
87.672 125.93 m 87.672 90.145 l S
90.211 125.953 m 90.211 90.113 l S
92.754 125.992 m 92.754 90.055 l S
95.293 125.961 m 95.293 90.105 l S
97.836 125.957 m 97.836 90.09 l S
100.375 125.961 m 100.375 90.078 l S
102.918 126.02 m 102.918 90.043 l S
105.457 126.043 m 105.457 90.035 l S
108 126.016 m 108 90.055 l S
110.543 126.09 m 110.543 90.012 l S
113.082 126.105 m 113.082 89.977 l S
115.625 126.074 m 115.625 90.016 l S
118.164 126.035 m 118.164 90.055 l S
120.707 126.012 m 120.707 90.066 l S
123.246 125.992 m 123.246 90.051 l S
125.789 126.02 m 125.789 90.086 l S
128.328 125.969 m 128.328 90.141 l S
130.871 125.902 m 130.871 90.203 l S
133.41 125.844 m 133.41 90.246 l S
135.953 125.84 m 135.953 90.23 l S
138.492 125.844 m 138.492 90.23 l S
141.035 125.883 m 141.035 90.199 l S
143.578 125.922 m 143.578 90.172 l S
146.117 125.891 m 146.117 90.188 l S
148.66 125.875 m 148.66 90.207 l S
151.199 125.93 m 151.199 90.082 l S
153.742 125.996 m 153.742 90.066 l S
156.281 125.992 m 156.281 90.102 l S
158.824 125.926 m 158.824 90.141 l S
161.363 125.883 m 161.363 90.211 l S
163.906 125.977 m 163.906 90.109 l S
166.445 126.016 m 166.445 90.043 l S
168.988 126.066 m 168.988 90.016 l S
171.531 126.039 m 171.531 90 l S
174.07 126.062 m 174.07 90 l S
176.613 126.09 m 176.613 89.949 l S
179.152 126.09 m 179.152 89.953 l S
181.695 126.078 m 181.695 89.992 l S
184.234 126.059 m 184.234 89.992 l S
186.777 126.023 m 186.777 90.051 l S
189.316 126.043 m 189.316 89.969 l S
191.859 126.172 m 191.859 89.875 l S
194.398 126.25 m 194.398 89.816 l S
196.941 126.199 m 196.941 89.824 l S
199.48 125.574 m 199.48 90.367 l S
202.023 121.797 m 202.023 94.504 l S
204.566 117.84 m 204.566 98.055 l S
207.105 115.004 m 207.105 101.074 l S
209.648 112.742 m 209.648 103.227 l S
212.188 111.238 m 212.188 104.988 l S
214.73 110.137 m 214.73 106.059 l S
217.27 109.242 m 217.27 106.68 l S
219.812 108.816 m 219.812 107.203 l S
222.352 108.492 m 222.352 107.516 l S
224.895 108.32 m 224.895 107.691 l S
227.434 108.223 m 227.434 107.812 l S
229.977 108.152 m 229.977 107.887 l S
232.52 108.113 m 232.52 107.918 l S
235.059 108.113 m 235.059 107.918 l S
237.602 108.113 m 237.602 107.918 l S
240.141 108.113 m 240.141 107.918 l S
242.684 108.113 m 242.684 107.918 l S
245.223 108.113 m 245.223 107.918 l S
247.766 108.113 m 247.766 107.918 l S
250.305 108.113 m 250.305 107.918 l S
252.848 108.113 m 252.848 107.918 l S
255.387 108.113 m 255.387 107.918 l S
255.387 108.113 m 255.387 107.918 l S
3.812 151.312 m 3.812 151.117 l S
6.352 159.367 m 6.352 142.688 l S
8.895 165.809 m 8.895 136.52 l S
11.434 167.969 m 11.434 134.23 l S
13.977 169.195 m 13.977 133.039 l S
16.52 169.844 m 16.52 132.484 l S
19.059 170.109 m 19.059 132.215 l S
21.602 170.355 m 21.602 132.004 l S
24.141 170.566 m 24.141 131.797 l S
26.684 170.812 m 26.684 131.562 l S
29.223 170.836 m 29.223 131.59 l S
31.766 170.812 m 31.766 131.602 l S
34.305 170.77 m 34.305 131.57 l S
36.848 170.781 m 36.848 131.625 l S
39.387 170.777 m 39.387 131.695 l S
41.93 170.812 m 41.93 131.613 l S
44.469 170.793 m 44.469 131.625 l S
47.012 170.715 m 47.012 131.707 l S
49.555 170.691 m 49.555 131.684 l S
52.094 170.66 m 52.094 131.738 l S
54.637 170.684 m 54.637 131.738 l S
57.176 170.801 m 57.176 131.645 l S
59.719 170.82 m 59.719 131.633 l S
62.258 170.762 m 62.258 131.648 l S
64.801 170.637 m 64.801 131.738 l S
67.34 170.527 m 67.34 131.891 l S
69.883 170.484 m 69.883 131.957 l S
72.422 170.422 m 72.422 131.98 l S
74.965 170.477 m 74.965 131.965 l S
77.508 170.48 m 77.508 131.992 l S
80.047 170.457 m 80.047 132.004 l S
82.59 170.391 m 82.59 132.016 l S
85.129 170.41 m 85.129 132.09 l S
87.672 170.453 m 87.672 132 l S
90.211 170.461 m 90.211 131.988 l S
92.754 170.535 m 92.754 131.922 l S
95.293 170.48 m 95.293 131.965 l S
97.836 170.484 m 97.836 131.961 l S
100.375 170.484 m 100.375 131.93 l S
102.918 170.504 m 102.918 131.906 l S
105.457 170.555 m 105.457 131.887 l S
108 170.516 m 108 131.938 l S
110.543 170.551 m 110.543 131.879 l S
113.082 170.562 m 113.082 131.883 l S
115.625 170.551 m 115.625 131.914 l S
118.164 170.527 m 118.164 131.902 l S
120.707 170.492 m 120.707 131.918 l S
123.246 170.516 m 123.246 131.906 l S
125.789 170.441 m 125.789 131.969 l S
128.328 170.418 m 128.328 132.039 l S
130.871 170.395 m 130.871 132.09 l S
133.41 170.277 m 133.41 132.102 l S
135.953 170.32 m 135.953 132.098 l S
138.492 170.301 m 138.492 132.129 l S
141.035 170.34 m 141.035 132.062 l S
143.578 170.359 m 143.578 132.062 l S
146.117 170.348 m 146.117 132.07 l S
148.66 170.34 m 148.66 132.078 l S
151.199 170.348 m 151.199 131.957 l S
153.742 170.512 m 153.742 131.969 l S
156.281 170.445 m 156.281 132.031 l S
158.824 170.395 m 158.824 132.059 l S
161.363 170.324 m 161.363 132.082 l S
163.906 170.523 m 163.906 131.949 l S
166.445 170.465 m 166.445 132.008 l S
168.988 170.5 m 168.988 131.938 l S
171.531 170.531 m 171.531 131.953 l S
174.07 170.477 m 174.07 131.949 l S
176.613 170.543 m 176.613 131.902 l S
179.152 170.559 m 179.152 131.906 l S
181.695 170.551 m 181.695 131.953 l S
184.234 170.523 m 184.234 131.957 l S
186.777 170.531 m 186.777 131.996 l S
189.316 170.488 m 189.316 131.973 l S
191.859 170.648 m 191.859 131.867 l S
194.398 170.652 m 194.398 131.812 l S
196.941 170.66 m 196.941 131.863 l S
199.48 169.875 m 199.48 132.57 l S
202.023 165.617 m 202.023 137.512 l S
204.566 161.496 m 204.566 140.965 l S
207.105 158.504 m 207.105 144.105 l S
209.648 156.355 m 209.648 146.031 l S
212.188 154.695 m 212.188 147.922 l S
214.73 153.527 m 214.73 149.02 l S
217.27 152.566 m 217.27 149.793 l S
219.812 152.066 m 219.812 150.316 l S
222.352 151.723 m 222.352 150.664 l S
224.895 151.578 m 224.895 150.863 l S
227.434 151.453 m 227.434 150.973 l S
229.977 151.375 m 229.977 151.043 l S
232.52 151.328 m 232.52 151.098 l S
235.059 151.312 m 235.059 151.117 l S
237.602 151.312 m 237.602 151.117 l S
240.141 151.312 m 240.141 151.117 l S
242.684 151.312 m 242.684 151.117 l S
245.223 151.312 m 245.223 151.117 l S
247.766 151.312 m 247.766 151.117 l S
250.305 151.312 m 250.305 151.117 l S
252.848 151.312 m 252.848 151.117 l S
255.387 151.312 m 255.387 151.117 l S
255.387 151.312 m 255.387 151.117 l S
Q Q
showpage
%%Trailer
end
%%EOF
