%!PS-Adobe-3.0 EPSF-3.0
%%Creator: cairo 1.16.0 (https://cairographics.org)
%%CreationDate: Wed May 15 11:57:27 2024
%%Pages: 1
%%DocumentData: Clean7Bit
%%LanguageLevel: 2
%%Creator: Wolfram Mathematica
%%BoundingBox: 2 4 257 169
%%EndComments
%%BeginProlog
50 dict begin
/q { gsave } bind def
/Q { grestore } bind def
/cm { 6 array astore concat } bind def
/w { setlinewidth } bind def
/J { setlinecap } bind def
/j { setlinejoin } bind def
/M { setmiterlimit } bind def
/d { setdash } bind def
/m { moveto } bind def
/l { lineto } bind def
/c { curveto } bind def
/h { closepath } bind def
/re { exch dup neg 3 1 roll 5 3 roll moveto 0 rlineto
      0 exch rlineto 0 rlineto closepath } bind def
/S { stroke } bind def
/f { fill } bind def
/f* { eofill } bind def
/n { newpath } bind def
/W { clip } bind def
/W* { eoclip } bind def
/BT { } bind def
/ET { } bind def
/BDC { mark 3 1 roll /BDC pdfmark } bind def
/EMC { mark /EMC pdfmark } bind def
/cairo_store_point { /cairo_point_y exch def /cairo_point_x exch def } def
/Tj { show currentpoint cairo_store_point } bind def
/TJ {
  {
    dup
    type /stringtype eq
    { show } { -0.001 mul 0 cairo_font_matrix dtransform rmoveto } ifelse
  } forall
  currentpoint cairo_store_point
} bind def
/cairo_selectfont { cairo_font_matrix aload pop pop pop 0 0 6 array astore
    cairo_font exch selectfont cairo_point_x cairo_point_y moveto } bind def
/Tf { pop /cairo_font exch def /cairo_font_matrix where
      { pop cairo_selectfont } if } bind def
/Td { matrix translate cairo_font_matrix matrix concatmatrix dup
      /cairo_font_matrix exch def dup 4 get exch 5 get cairo_store_point
      /cairo_font where { pop cairo_selectfont } if } bind def
/Tm { 2 copy 8 2 roll 6 array astore /cairo_font_matrix exch def
      cairo_store_point /cairo_font where { pop cairo_selectfont } if } bind def
/g { setgray } bind def
/rg { setrgbcolor } bind def
/d1 { setcachedevice } bind def
/cairo_data_source {
  CairoDataIndex CairoData length lt
    { CairoData CairoDataIndex get /CairoDataIndex CairoDataIndex 1 add def }
    { () } ifelse
} def
/cairo_flush_ascii85_file { cairo_ascii85_file status { cairo_ascii85_file flushfile } if } def
/cairo_image { image cairo_flush_ascii85_file } def
/cairo_imagemask { imagemask cairo_flush_ascii85_file } def
%%EndProlog
%%BeginSetup
%%EndSetup
%%Page: 1 1
%%BeginPageSetup
%%PageBoundingBox: 2 4 257 169
%%EndPageSetup
q 2 4 255 165 rectclip
1 0 0 -1 0 173 cm q
0 g
1.796436 w
0 J
0 j
[] 0.0 d
3.25 M 3.812 21.43 m 3.812 21.234 l S
6.352 23.824 m 6.352 18.352 l S
8.895 35.355 m 8.895 7.574 l S
11.434 35.656 m 11.434 7.242 l S
13.977 36.223 m 13.977 6.609 l S
16.52 36.816 m 16.52 5.953 l S
19.059 37.082 m 19.059 5.738 l S
21.602 37.301 m 21.602 5.582 l S
24.141 37.43 m 24.141 5.434 l S
26.684 37.445 m 26.684 5.414 l S
29.223 37.691 m 29.223 5.152 l S
31.766 37.805 m 31.766 5.02 l S
34.305 37.961 m 34.305 4.887 l S
36.848 38.016 m 36.848 4.816 l S
39.387 38.137 m 39.387 4.746 l S
41.93 38.238 m 41.93 4.629 l S
44.469 38.277 m 44.469 4.637 l S
47.012 38.293 m 47.012 4.574 l S
49.555 38.145 m 49.555 4.699 l S
52.094 38.16 m 52.094 4.703 l S
54.637 38.117 m 54.637 4.734 l S
57.176 38.152 m 57.176 4.656 l S
59.719 38.191 m 59.719 4.645 l S
62.258 38.215 m 62.258 4.617 l S
64.801 38.195 m 64.801 4.633 l S
67.34 38.219 m 67.34 4.598 l S
69.883 38.301 m 69.883 4.543 l S
72.422 38.312 m 72.422 4.512 l S
74.965 38.352 m 74.965 4.473 l S
77.508 38.43 m 77.508 4.445 l S
80.047 38.426 m 80.047 4.402 l S
82.59 38.34 m 82.59 4.438 l S
85.129 38.27 m 85.129 4.551 l S
87.672 38.324 m 87.672 4.531 l S
90.211 38.266 m 90.211 4.559 l S
92.754 38.258 m 92.754 4.559 l S
95.293 38.266 m 95.293 4.566 l S
97.836 38.262 m 97.836 4.578 l S
100.375 38.27 m 100.375 4.555 l S
102.918 38.293 m 102.918 4.52 l S
105.457 38.301 m 105.457 4.531 l S
108 38.289 m 108 4.555 l S
110.543 38.238 m 110.543 4.574 l S
113.082 38.258 m 113.082 4.566 l S
115.625 38.254 m 115.625 4.586 l S
118.164 38.238 m 118.164 4.57 l S
120.707 38.25 m 120.707 4.574 l S
123.246 38.258 m 123.246 4.574 l S
125.789 38.281 m 125.789 4.555 l S
128.328 38.312 m 128.328 4.531 l S
130.871 38.305 m 130.871 4.523 l S
133.41 38.359 m 133.41 4.438 l S
135.953 38.469 m 135.953 4.324 l S
138.492 38.504 m 138.492 4.312 l S
141.035 38.539 m 141.035 4.309 l S
143.578 38.543 m 143.578 4.305 l S
146.117 38.547 m 146.117 4.293 l S
148.66 38.551 m 148.66 4.281 l S
151.199 38.52 m 151.199 4.293 l S
153.742 38.562 m 153.742 4.254 l S
156.281 38.566 m 156.281 4.234 l S
158.824 38.594 m 158.824 4.234 l S
161.363 38.609 m 161.363 4.238 l S
163.906 38.586 m 163.906 4.246 l S
166.445 38.609 m 166.445 4.223 l S
168.988 38.57 m 168.988 4.258 l S
171.531 38.547 m 171.531 4.305 l S
174.07 38.531 m 174.07 4.305 l S
176.613 38.488 m 176.613 4.348 l S
179.152 38.461 m 179.152 4.391 l S
181.695 38.555 m 181.695 4.273 l S
184.234 38.496 m 184.234 4.352 l S
186.777 35.512 m 186.777 7.297 l S
189.316 26.969 m 189.316 15.895 l S
191.859 23.535 m 191.859 19.117 l S
194.398 22.336 m 194.398 20.309 l S
196.941 21.844 m 196.941 20.867 l S
199.48 21.633 m 199.48 21.078 l S
202.023 21.473 m 202.023 21.18 l S
204.566 21.43 m 204.566 21.234 l S
207.105 21.43 m 207.105 21.234 l S
209.648 21.43 m 209.648 21.234 l S
212.188 21.43 m 212.188 21.234 l S
214.73 21.43 m 214.73 21.234 l S
217.27 21.43 m 217.27 21.234 l S
219.812 21.43 m 219.812 21.234 l S
222.352 21.43 m 222.352 21.234 l S
224.895 21.43 m 224.895 21.234 l S
227.434 21.43 m 227.434 21.234 l S
229.977 21.43 m 229.977 21.234 l S
232.52 21.43 m 232.52 21.234 l S
235.059 21.43 m 235.059 21.234 l S
237.602 21.43 m 237.602 21.234 l S
240.141 21.43 m 240.141 21.234 l S
242.684 21.43 m 242.684 21.234 l S
245.223 21.43 m 245.223 21.234 l S
247.766 21.43 m 247.766 21.234 l S
250.305 21.43 m 250.305 21.234 l S
252.848 21.43 m 252.848 21.234 l S
255.387 21.43 m 255.387 21.234 l S
255.387 21.43 m 255.387 21.234 l S
3.812 64.633 m 3.812 64.434 l S
6.352 66.082 m 6.352 62.59 l S
8.895 72.5 m 8.895 56.688 l S
11.434 72.691 m 11.434 56.457 l S
13.977 72.973 m 13.977 56.113 l S
16.52 73.57 m 16.52 55.777 l S
19.059 73.703 m 19.059 55.602 l S
21.602 73.734 m 21.602 55.484 l S
24.141 73.801 m 24.141 55.453 l S
26.684 73.945 m 26.684 55.367 l S
29.223 74.074 m 29.223 55.211 l S
31.766 74.188 m 31.766 55.074 l S
34.305 74.234 m 34.305 55.059 l S
36.848 74.316 m 36.848 55.031 l S
39.387 74.387 m 39.387 54.867 l S
41.93 74.484 m 41.93 54.879 l S
44.469 74.469 m 44.469 54.703 l S
47.012 74.5 m 47.012 54.789 l S
49.555 74.469 m 49.555 54.824 l S
52.094 74.422 m 52.094 54.891 l S
54.637 74.434 m 54.637 54.875 l S
57.176 74.52 m 57.176 54.82 l S
59.719 74.461 m 59.719 54.82 l S
62.258 74.523 m 62.258 54.801 l S
64.801 74.531 m 64.801 54.789 l S
67.34 74.582 m 67.34 54.75 l S
69.883 74.539 m 69.883 54.746 l S
72.422 74.566 m 72.422 54.715 l S
74.965 74.633 m 74.965 54.703 l S
77.508 74.699 m 77.508 54.621 l S
80.047 74.715 m 80.047 54.613 l S
82.59 74.66 m 82.59 54.645 l S
85.129 74.633 m 85.129 54.688 l S
87.672 74.648 m 87.672 54.684 l S
90.211 74.66 m 90.211 54.703 l S
92.754 74.613 m 92.754 54.707 l S
95.293 74.66 m 95.293 54.656 l S
97.836 74.602 m 97.836 54.656 l S
100.375 74.672 m 100.375 54.672 l S
102.918 74.68 m 102.918 54.637 l S
105.457 74.648 m 105.457 54.656 l S
108 74.633 m 108 54.688 l S
110.543 74.602 m 110.543 54.691 l S
113.082 74.652 m 113.082 54.66 l S
115.625 74.637 m 115.625 54.668 l S
118.164 74.664 m 118.164 54.668 l S
120.707 74.645 m 120.707 54.594 l S
123.246 74.656 m 123.246 54.645 l S
125.789 74.719 m 125.789 54.609 l S
128.328 74.672 m 128.328 54.641 l S
130.871 74.715 m 130.871 54.598 l S
133.41 74.789 m 133.41 54.602 l S
135.953 74.832 m 135.953 54.539 l S
138.492 74.805 m 138.492 54.5 l S
141.035 74.852 m 141.035 54.484 l S
143.578 74.863 m 143.578 54.477 l S
146.117 74.852 m 146.117 54.461 l S
148.66 74.859 m 148.66 54.48 l S
151.199 74.816 m 151.199 54.477 l S
153.742 74.891 m 153.742 54.469 l S
156.281 74.934 m 156.281 54.43 l S
158.824 74.859 m 158.824 54.434 l S
161.363 74.895 m 161.363 54.41 l S
163.906 74.875 m 163.906 54.402 l S
166.445 74.91 m 166.445 54.406 l S
168.988 74.867 m 168.988 54.441 l S
171.531 74.875 m 171.531 54.402 l S
174.07 74.852 m 174.07 54.438 l S
176.613 74.809 m 176.613 54.477 l S
179.152 74.84 m 179.152 54.5 l S
181.695 74.867 m 181.695 54.441 l S
184.234 74.734 m 184.234 54.539 l S
186.777 72.609 m 186.777 56.762 l S
189.316 67.664 m 189.316 61.391 l S
191.859 65.859 m 191.859 63.082 l S
194.398 65.176 m 194.398 63.957 l S
196.941 64.797 m 196.941 64.273 l S
199.48 64.734 m 199.48 64.383 l S
202.023 64.664 m 202.023 64.395 l S
204.566 64.633 m 204.566 64.434 l S
207.105 64.637 m 207.105 64.434 l S
209.648 64.633 m 209.648 64.418 l S
212.188 64.656 m 212.188 64.406 l S
214.73 64.734 m 214.73 64.359 l S
217.27 64.73 m 217.27 64.379 l S
219.812 64.684 m 219.812 64.426 l S
222.352 64.652 m 222.352 64.387 l S
224.895 64.633 m 224.895 64.434 l S
227.434 64.633 m 227.434 64.434 l S
229.977 64.633 m 229.977 64.434 l S
232.52 64.633 m 232.52 64.434 l S
235.059 64.633 m 235.059 64.434 l S
237.602 64.633 m 237.602 64.434 l S
240.141 64.633 m 240.141 64.434 l S
242.684 64.633 m 242.684 64.434 l S
245.223 64.633 m 245.223 64.434 l S
247.766 64.633 m 247.766 64.434 l S
250.305 64.633 m 250.305 64.434 l S
252.848 64.633 m 252.848 64.434 l S
255.387 64.633 m 255.387 64.434 l S
255.387 64.633 m 255.387 64.434 l S
3.812 107.832 m 3.812 107.637 l S
6.352 112.27 m 6.352 102.023 l S
8.895 123.652 m 8.895 92.574 l S
11.434 123.707 m 11.434 92.012 l S
13.977 124.293 m 13.977 91.418 l S
16.52 125.246 m 16.52 90.719 l S
19.059 125.473 m 19.059 90.398 l S
21.602 125.645 m 21.602 90.199 l S
24.141 125.781 m 24.141 90.078 l S
26.684 125.902 m 26.684 89.961 l S
29.223 126.227 m 29.223 89.656 l S
31.766 126.379 m 31.766 89.465 l S
34.305 126.477 m 34.305 89.355 l S
36.848 126.609 m 36.848 89.219 l S
39.387 126.773 m 39.387 89.066 l S
41.93 126.848 m 41.93 89.043 l S
44.469 126.934 m 44.469 88.84 l S
47.012 126.969 m 47.012 88.953 l S
49.555 126.816 m 49.555 89.039 l S
52.094 126.797 m 52.094 89.055 l S
54.637 126.941 m 54.637 88.957 l S
57.176 126.898 m 57.176 88.977 l S
59.719 126.918 m 59.719 89.004 l S
62.258 127.031 m 62.258 88.93 l S
64.801 126.988 m 64.801 88.93 l S
67.34 127.117 m 67.34 88.934 l S
69.883 127.191 m 69.883 88.746 l S
72.422 127.078 m 72.422 88.832 l S
74.965 127.129 m 74.965 88.793 l S
77.508 127.488 m 77.508 88.574 l S
80.047 127.301 m 80.047 88.738 l S
82.59 127.234 m 82.59 88.664 l S
85.129 127.105 m 85.129 88.855 l S
87.672 127.176 m 87.672 88.844 l S
90.211 127.164 m 90.211 88.84 l S
92.754 127.094 m 92.754 88.848 l S
95.293 127.184 m 95.293 88.832 l S
97.836 127.156 m 97.836 88.836 l S
100.375 127.16 m 100.375 88.805 l S
102.918 127.184 m 102.918 88.848 l S
105.457 127.223 m 105.457 88.812 l S
108 127.18 m 108 88.828 l S
110.543 127.152 m 110.543 88.809 l S
113.082 127.219 m 113.082 88.812 l S
115.625 127.277 m 115.625 88.836 l S
118.164 127.148 m 118.164 88.754 l S
120.707 127.164 m 120.707 88.844 l S
123.246 127.215 m 123.246 88.832 l S
125.789 127.281 m 125.789 88.738 l S
128.328 127.352 m 128.328 88.727 l S
130.871 127.234 m 130.871 88.727 l S
133.41 127.312 m 133.41 88.727 l S
135.953 127.402 m 135.953 88.633 l S
138.492 127.414 m 138.492 88.57 l S
141.035 127.574 m 141.035 88.363 l S
143.578 127.57 m 143.578 88.484 l S
146.117 127.602 m 146.117 88.465 l S
148.66 127.535 m 148.66 88.5 l S
151.199 127.488 m 151.199 88.508 l S
153.742 127.531 m 153.742 88.496 l S
156.281 127.625 m 156.281 88.414 l S
158.824 127.59 m 158.824 88.461 l S
161.363 127.605 m 161.363 88.438 l S
163.906 127.637 m 163.906 88.434 l S
166.445 127.574 m 166.445 88.473 l S
168.988 127.535 m 168.988 88.367 l S
171.531 127.629 m 171.531 88.367 l S
174.07 127.48 m 174.07 88.516 l S
176.613 127.453 m 176.613 88.574 l S
179.152 127.461 m 179.152 88.559 l S
181.695 127.48 m 181.695 88.555 l S
184.234 127.34 m 184.234 88.68 l S
186.777 123.152 m 186.777 92.383 l S
189.316 115.398 m 189.316 100.188 l S
191.859 111.051 m 191.859 104.422 l S
194.398 109.246 m 194.398 106.199 l S
196.941 108.406 m 196.941 106.855 l S
199.48 108.113 m 199.48 107.309 l S
202.023 107.98 m 202.023 107.414 l S
204.566 107.852 m 204.566 107.57 l S
207.105 107.852 m 207.105 107.617 l S
209.648 107.875 m 209.648 107.613 l S
212.188 107.871 m 212.188 107.594 l S
214.73 107.895 m 214.73 107.594 l S
217.27 107.871 m 217.27 107.637 l S
219.812 107.844 m 219.812 107.633 l S
222.352 107.832 m 222.352 107.637 l S
224.895 107.832 m 224.895 107.637 l S
227.434 107.832 m 227.434 107.637 l S
229.977 107.832 m 229.977 107.637 l S
232.52 107.832 m 232.52 107.637 l S
235.059 107.832 m 235.059 107.637 l S
237.602 107.832 m 237.602 107.637 l S
240.141 107.832 m 240.141 107.637 l S
242.684 107.832 m 242.684 107.637 l S
245.223 107.832 m 245.223 107.637 l S
247.766 107.832 m 247.766 107.637 l S
250.305 107.832 m 250.305 107.637 l S
252.848 107.832 m 252.848 107.637 l S
255.387 107.832 m 255.387 107.637 l S
255.387 107.832 m 255.387 107.637 l S
3.812 151.031 m 3.812 150.836 l S
6.352 153.668 m 6.352 147.562 l S
8.895 164.711 m 8.895 137.102 l S
11.434 165.09 m 11.434 136.738 l S
13.977 165.445 m 13.977 136.445 l S
16.52 166.367 m 16.52 135.863 l S
19.059 166.527 m 19.059 135.551 l S
21.602 166.734 m 21.602 135.41 l S
24.141 166.793 m 24.141 135.359 l S
26.684 166.973 m 26.684 135.25 l S
29.223 167.168 m 29.223 135.059 l S
31.766 167.199 m 31.766 134.895 l S
34.305 167.359 m 34.305 134.766 l S
36.848 167.426 m 36.848 134.754 l S
39.387 167.539 m 39.387 134.578 l S
41.93 167.59 m 41.93 134.594 l S
44.469 167.578 m 44.469 133.887 l S
47.012 168.277 m 47.012 134.453 l S
49.555 167.586 m 49.555 134.512 l S
52.094 167.551 m 52.094 134.594 l S
54.637 167.543 m 54.637 134.57 l S
57.176 167.656 m 57.176 134.426 l S
59.719 167.605 m 59.719 134.453 l S
62.258 167.688 m 62.258 134.445 l S
64.801 167.645 m 64.801 134.426 l S
67.34 167.855 m 67.34 134.336 l S
69.883 167.781 m 69.883 134.273 l S
72.422 167.746 m 72.422 134.34 l S
74.965 167.844 m 74.965 134.27 l S
77.508 167.824 m 77.508 134.223 l S
80.047 167.902 m 80.047 134.152 l S
82.59 167.875 m 82.59 134.254 l S
85.129 167.754 m 85.129 134.324 l S
87.672 167.828 m 87.672 134.234 l S
90.211 167.797 m 90.211 134.246 l S
92.754 167.711 m 92.754 134.258 l S
95.293 167.82 m 95.293 134.238 l S
97.836 167.77 m 97.836 134.273 l S
100.375 167.84 m 100.375 134.203 l S
102.918 167.836 m 102.918 134.215 l S
105.457 167.82 m 105.457 134.129 l S
108 167.84 m 108 134.23 l S
110.543 167.742 m 110.543 134.23 l S
113.082 167.797 m 113.082 134.215 l S
115.625 167.793 m 115.625 134.184 l S
118.164 167.832 m 118.164 134.188 l S
120.707 167.777 m 120.707 134.191 l S
123.246 167.812 m 123.246 134.184 l S
125.789 167.855 m 125.789 134.156 l S
128.328 167.859 m 128.328 134.152 l S
130.871 167.867 m 130.871 134.152 l S
133.41 167.926 m 133.41 134.082 l S
135.953 167.973 m 135.953 133.926 l S
138.492 168 m 138.492 133.945 l S
141.035 168.062 m 141.035 133.922 l S
143.578 168.047 m 143.578 133.906 l S
146.117 168.055 m 146.117 133.93 l S
148.66 168.074 m 148.66 133.926 l S
151.199 168.023 m 151.199 133.871 l S
153.742 168.148 m 153.742 133.852 l S
156.281 168.176 m 156.281 133.828 l S
158.824 168.094 m 158.824 133.84 l S
161.363 168.133 m 161.363 133.828 l S
163.906 168.066 m 163.906 133.801 l S
166.445 168.137 m 166.445 133.832 l S
168.988 168.105 m 168.988 133.871 l S
171.531 168.098 m 171.531 133.867 l S
174.07 168.094 m 174.07 133.855 l S
176.613 167.996 m 176.613 133.922 l S
179.152 167.992 m 179.152 133.898 l S
181.695 168.188 m 181.695 133.613 l S
184.234 168.016 m 184.234 133.867 l S
186.777 164.898 m 186.777 137.227 l S
189.316 157.172 m 189.316 144.688 l S
191.859 153.734 m 191.859 148.031 l S
194.398 152.328 m 194.398 149.73 l S
196.941 151.488 m 196.941 150.328 l S
199.48 151.266 m 199.48 150.594 l S
202.023 151.195 m 202.023 150.68 l S
204.566 151.121 m 204.566 150.734 l S
207.105 151.152 m 207.105 150.727 l S
209.648 151.16 m 209.648 150.703 l S
212.188 151.176 m 212.188 150.691 l S
214.73 151.266 m 214.73 150.625 l S
217.27 151.145 m 217.27 150.66 l S
219.812 151.121 m 219.812 150.746 l S
222.352 151.082 m 222.352 150.75 l S
224.895 151.09 m 224.895 150.773 l S
227.434 151.051 m 227.434 150.762 l S
229.977 151.047 m 229.977 150.836 l S
232.52 151.031 m 232.52 150.828 l S
235.059 151.031 m 235.059 150.836 l S
237.602 151.031 m 237.602 150.836 l S
240.141 151.031 m 240.141 150.836 l S
242.684 151.031 m 242.684 150.836 l S
245.223 151.031 m 245.223 150.836 l S
247.766 151.031 m 247.766 150.836 l S
250.305 151.031 m 250.305 150.836 l S
252.848 151.031 m 252.848 150.836 l S
255.387 151.031 m 255.387 150.836 l S
255.387 151.031 m 255.387 150.836 l S
Q Q
showpage
%%Trailer
end
%%EOF
