%!PS-Adobe-3.0 EPSF-3.0
%%Creator: cairo 1.16.0 (https://cairographics.org)
%%CreationDate: Wed May 15 11:57:28 2024
%%Pages: 1
%%DocumentData: Clean7Bit
%%LanguageLevel: 2
%%Creator: Wolfram Mathematica
%%BoundingBox: 2 2 257 170
%%EndComments
%%BeginProlog
50 dict begin
/q { gsave } bind def
/Q { grestore } bind def
/cm { 6 array astore concat } bind def
/w { setlinewidth } bind def
/J { setlinecap } bind def
/j { setlinejoin } bind def
/M { setmiterlimit } bind def
/d { setdash } bind def
/m { moveto } bind def
/l { lineto } bind def
/c { curveto } bind def
/h { closepath } bind def
/re { exch dup neg 3 1 roll 5 3 roll moveto 0 rlineto
      0 exch rlineto 0 rlineto closepath } bind def
/S { stroke } bind def
/f { fill } bind def
/f* { eofill } bind def
/n { newpath } bind def
/W { clip } bind def
/W* { eoclip } bind def
/BT { } bind def
/ET { } bind def
/BDC { mark 3 1 roll /BDC pdfmark } bind def
/EMC { mark /EMC pdfmark } bind def
/cairo_store_point { /cairo_point_y exch def /cairo_point_x exch def } def
/Tj { show currentpoint cairo_store_point } bind def
/TJ {
  {
    dup
    type /stringtype eq
    { show } { -0.001 mul 0 cairo_font_matrix dtransform rmoveto } ifelse
  } forall
  currentpoint cairo_store_point
} bind def
/cairo_selectfont { cairo_font_matrix aload pop pop pop 0 0 6 array astore
    cairo_font exch selectfont cairo_point_x cairo_point_y moveto } bind def
/Tf { pop /cairo_font exch def /cairo_font_matrix where
      { pop cairo_selectfont } if } bind def
/Td { matrix translate cairo_font_matrix matrix concatmatrix dup
      /cairo_font_matrix exch def dup 4 get exch 5 get cairo_store_point
      /cairo_font where { pop cairo_selectfont } if } bind def
/Tm { 2 copy 8 2 roll 6 array astore /cairo_font_matrix exch def
      cairo_store_point /cairo_font where { pop cairo_selectfont } if } bind def
/g { setgray } bind def
/rg { setrgbcolor } bind def
/d1 { setcachedevice } bind def
/cairo_data_source {
  CairoDataIndex CairoData length lt
    { CairoData CairoDataIndex get /CairoDataIndex CairoDataIndex 1 add def }
    { () } ifelse
} def
/cairo_flush_ascii85_file { cairo_ascii85_file status { cairo_ascii85_file flushfile } if } def
/cairo_image { image cairo_flush_ascii85_file } def
/cairo_imagemask { imagemask cairo_flush_ascii85_file } def
%%EndProlog
%%BeginSetup
%%EndSetup
%%Page: 1 1
%%BeginPageSetup
%%PageBoundingBox: 2 2 257 170
%%EndPageSetup
q 2 2 255 168 rectclip
1 0 0 -1 0 173 cm q
0 g
1.796436 w
0 J
0 j
[] 0.0 d
3.25 M 3.812 21.574 m 3.812 21.379 l S
6.352 29.902 m 6.352 13.434 l S
8.895 34.336 m 8.895 8.672 l S
11.434 36.574 m 11.434 6.613 l S
13.977 37.562 m 13.977 5.562 l S
16.52 38.043 m 16.52 5.176 l S
19.059 38.27 m 19.059 4.918 l S
21.602 38.352 m 21.602 4.836 l S
24.141 38.371 m 24.141 4.816 l S
26.684 38.383 m 26.684 4.82 l S
29.223 38.379 m 29.223 4.809 l S
31.766 38.391 m 31.766 4.801 l S
34.305 38.422 m 34.305 4.758 l S
36.848 38.48 m 36.848 4.746 l S
39.387 38.617 m 39.387 4.555 l S
41.93 38.738 m 41.93 4.465 l S
44.469 38.793 m 44.469 4.387 l S
47.012 38.84 m 47.012 4.328 l S
49.555 38.922 m 49.555 4.266 l S
52.094 38.949 m 52.094 4.23 l S
54.637 39.023 m 54.637 4.133 l S
57.176 39.07 m 57.176 4.094 l S
59.719 39.121 m 59.719 4.074 l S
62.258 39.117 m 62.258 4.039 l S
64.801 39.148 m 64.801 4.023 l S
67.34 39.164 m 67.34 4.012 l S
69.883 39.195 m 69.883 3.961 l S
72.422 39.199 m 72.422 3.957 l S
74.965 39.238 m 74.965 3.918 l S
77.508 39.27 m 77.508 3.891 l S
80.047 39.328 m 80.047 3.816 l S
82.59 39.332 m 82.59 3.797 l S
85.129 39.359 m 85.129 3.801 l S
87.672 39.375 m 87.672 3.789 l S
90.211 39.363 m 90.211 3.773 l S
92.754 39.367 m 92.754 3.781 l S
95.293 39.395 m 95.293 3.738 l S
97.836 39.383 m 97.836 3.766 l S
100.375 39.387 m 100.375 3.762 l S
102.918 39.375 m 102.918 3.773 l S
105.457 39.41 m 105.457 3.738 l S
108 39.457 m 108 3.664 l S
110.543 39.523 m 110.543 3.582 l S
113.082 39.543 m 113.082 3.582 l S
115.625 39.484 m 115.625 3.652 l S
118.164 39.387 m 118.164 3.766 l S
120.707 39.328 m 120.707 3.836 l S
123.246 39.227 m 123.246 3.918 l S
125.789 39.223 m 125.789 3.918 l S
128.328 39.223 m 128.328 3.938 l S
130.871 39.195 m 130.871 3.953 l S
133.41 39.18 m 133.41 3.941 l S
135.953 39.234 m 135.953 3.891 l S
138.492 39.238 m 138.492 3.891 l S
141.035 39.273 m 141.035 3.859 l S
143.578 39.27 m 143.578 3.883 l S
146.117 39.238 m 146.117 3.895 l S
148.66 39.199 m 148.66 3.93 l S
151.199 39.184 m 151.199 3.949 l S
153.742 39.176 m 153.742 3.969 l S
156.281 39.168 m 156.281 3.973 l S
158.824 39.164 m 158.824 3.992 l S
161.363 39.16 m 161.363 3.969 l S
163.906 39.164 m 163.906 3.988 l S
166.445 39.176 m 166.445 3.973 l S
168.988 39.172 m 168.988 3.996 l S
171.531 39.117 m 171.531 4.012 l S
174.07 39.09 m 174.07 4.055 l S
176.613 37.793 m 176.613 5.16 l S
179.152 33.707 m 179.152 9.523 l S
181.695 29.996 m 181.695 13.133 l S
184.234 27.492 m 184.234 15.523 l S
186.777 25.695 m 186.777 17.242 l S
189.316 24.473 m 189.316 18.496 l S
191.859 23.41 m 191.859 19.508 l S
194.398 22.77 m 194.398 20.207 l S
196.941 22.281 m 196.941 20.656 l S
199.48 22.031 m 199.48 20.93 l S
202.023 21.84 m 202.023 21.121 l S
204.566 21.723 m 204.566 21.223 l S
207.105 21.645 m 207.105 21.32 l S
209.648 21.598 m 209.648 21.359 l S
212.188 21.574 m 212.188 21.379 l S
214.73 21.574 m 214.73 21.379 l S
217.27 21.574 m 217.27 21.379 l S
219.812 21.574 m 219.812 21.379 l S
222.352 21.574 m 222.352 21.379 l S
224.895 21.574 m 224.895 21.379 l S
227.434 21.574 m 227.434 21.379 l S
229.977 21.574 m 229.977 21.379 l S
232.52 21.574 m 232.52 21.379 l S
235.059 21.574 m 235.059 21.379 l S
237.602 21.574 m 237.602 21.379 l S
240.141 21.574 m 240.141 21.379 l S
242.684 21.574 m 242.684 21.379 l S
245.223 21.574 m 245.223 21.379 l S
247.766 21.574 m 247.766 21.379 l S
250.305 21.574 m 250.305 21.379 l S
252.848 21.574 m 252.848 21.379 l S
255.387 21.574 m 255.387 21.379 l S
255.387 21.574 m 255.387 21.379 l S
3.812 64.773 m 3.812 64.578 l S
6.352 70.793 m 6.352 58.637 l S
8.895 72.535 m 8.895 56.672 l S
11.434 73.383 m 11.434 55.891 l S
13.977 73.84 m 13.977 55.496 l S
16.52 74.016 m 16.52 55.25 l S
19.059 74.098 m 19.059 55.074 l S
21.602 74.117 m 21.602 54.953 l S
24.141 74.137 m 24.141 54.953 l S
26.684 74.113 m 26.684 54.906 l S
29.223 74.188 m 29.223 54.926 l S
31.766 74.195 m 31.766 54.887 l S
34.305 74.129 m 34.305 54.879 l S
36.848 74.137 m 36.848 54.91 l S
39.387 74.211 m 39.387 54.828 l S
41.93 74.246 m 41.93 54.777 l S
44.469 74.309 m 44.469 54.688 l S
47.012 74.305 m 47.012 54.676 l S
49.555 74.34 m 49.555 54.648 l S
52.094 74.375 m 52.094 54.641 l S
54.637 74.406 m 54.637 54.582 l S
57.176 74.395 m 57.176 54.609 l S
59.719 74.426 m 59.719 54.555 l S
62.258 74.457 m 62.258 54.543 l S
64.801 74.461 m 64.801 54.527 l S
67.34 74.477 m 67.34 54.5 l S
69.883 74.465 m 69.883 54.547 l S
72.422 74.488 m 72.422 54.535 l S
74.965 74.512 m 74.965 54.52 l S
77.508 74.512 m 77.508 54.52 l S
80.047 74.527 m 80.047 54.516 l S
82.59 74.531 m 82.59 54.434 l S
85.129 74.547 m 85.129 54.457 l S
87.672 74.523 m 87.672 54.438 l S
90.211 74.512 m 90.211 54.465 l S
92.754 74.562 m 92.754 54.496 l S
95.293 74.551 m 95.293 54.477 l S
97.836 74.504 m 97.836 54.488 l S
100.375 74.531 m 100.375 54.488 l S
102.918 74.539 m 102.918 54.488 l S
105.457 74.496 m 105.457 54.527 l S
108 74.52 m 108 54.504 l S
110.543 74.574 m 110.543 54.488 l S
113.082 74.539 m 113.082 54.449 l S
115.625 74.539 m 115.625 54.434 l S
118.164 74.523 m 118.164 54.523 l S
120.707 74.477 m 120.707 54.531 l S
123.246 74.453 m 123.246 54.621 l S
125.789 74.438 m 125.789 54.605 l S
128.328 74.41 m 128.328 54.633 l S
130.871 74.406 m 130.871 54.641 l S
133.41 74.434 m 133.41 54.617 l S
135.953 74.422 m 135.953 54.602 l S
138.492 74.504 m 138.492 54.594 l S
141.035 74.449 m 141.035 54.602 l S
143.578 74.449 m 143.578 54.625 l S
146.117 74.453 m 146.117 54.586 l S
148.66 74.398 m 148.66 54.609 l S
151.199 74.402 m 151.199 54.633 l S
153.742 74.414 m 153.742 54.645 l S
156.281 74.441 m 156.281 54.633 l S
158.824 74.391 m 158.824 54.68 l S
161.363 74.391 m 161.363 54.648 l S
163.906 74.391 m 163.906 54.676 l S
166.445 74.398 m 166.445 54.652 l S
168.988 74.422 m 168.988 54.652 l S
171.531 74.398 m 171.531 54.668 l S
174.07 74.379 m 174.07 54.715 l S
176.613 73.348 m 176.613 55.691 l S
179.152 70.082 m 179.152 59.164 l S
181.695 68.078 m 181.695 61.227 l S
184.234 67.168 m 184.234 62.27 l S
186.777 66.398 m 186.777 63 l S
189.316 65.883 m 189.316 63.574 l S
191.859 65.398 m 191.859 63.969 l S
194.398 65.156 m 194.398 64.227 l S
196.941 65.039 m 196.941 64.375 l S
199.48 64.895 m 199.48 64.465 l S
202.023 64.859 m 202.023 64.504 l S
204.566 64.797 m 204.566 64.555 l S
207.105 64.773 m 207.105 64.578 l S
209.648 64.773 m 209.648 64.578 l S
212.188 64.773 m 212.188 64.578 l S
214.73 64.773 m 214.73 64.578 l S
217.27 64.773 m 217.27 64.578 l S
219.812 64.773 m 219.812 64.578 l S
222.352 64.773 m 222.352 64.578 l S
224.895 64.773 m 224.895 64.578 l S
227.434 64.773 m 227.434 64.578 l S
229.977 64.773 m 229.977 64.578 l S
232.52 64.773 m 232.52 64.578 l S
235.059 64.773 m 235.059 64.578 l S
237.602 64.773 m 237.602 64.578 l S
240.141 64.773 m 240.141 64.578 l S
242.684 64.773 m 242.684 64.578 l S
245.223 64.773 m 245.223 64.578 l S
247.766 64.773 m 247.766 64.578 l S
250.305 64.773 m 250.305 64.578 l S
252.848 64.773 m 252.848 64.578 l S
255.387 64.773 m 255.387 64.578 l S
255.387 64.773 m 255.387 64.578 l S
3.812 107.973 m 3.812 107.777 l S
6.352 116.688 m 6.352 98.672 l S
8.895 121.367 m 8.895 94.23 l S
11.434 123.531 m 11.434 92.098 l S
13.977 124.59 m 13.977 91.062 l S
16.52 125.039 m 16.52 90.637 l S
19.059 125.277 m 19.059 90.41 l S
21.602 125.41 m 21.602 90.32 l S
24.141 125.449 m 24.141 90.277 l S
26.684 125.477 m 26.684 90.246 l S
29.223 125.504 m 29.223 90.238 l S
31.766 125.52 m 31.766 90.203 l S
34.305 125.562 m 34.305 90.172 l S
36.848 125.613 m 36.848 90.117 l S
39.387 125.738 m 39.387 89.949 l S
41.93 125.855 m 41.93 89.836 l S
44.469 125.961 m 44.469 89.758 l S
47.012 126.016 m 47.012 89.688 l S
49.555 126.074 m 49.555 89.633 l S
52.094 126.117 m 52.094 89.609 l S
54.637 126.168 m 54.637 89.52 l S
57.176 126.238 m 57.176 89.457 l S
59.719 126.289 m 59.719 89.414 l S
62.258 126.305 m 62.258 89.41 l S
64.801 126.328 m 64.801 89.383 l S
67.34 126.344 m 67.34 89.375 l S
69.883 126.371 m 69.883 89.32 l S
72.422 126.383 m 72.422 89.332 l S
74.965 126.41 m 74.965 89.289 l S
77.508 126.445 m 77.508 89.234 l S
80.047 126.508 m 80.047 89.172 l S
82.59 126.543 m 82.59 89.16 l S
85.129 126.547 m 85.129 89.148 l S
87.672 126.555 m 87.672 89.094 l S
90.211 126.582 m 90.211 89.102 l S
92.754 126.613 m 92.754 89.113 l S
95.293 126.613 m 95.293 89.094 l S
97.836 126.602 m 97.836 89.078 l S
100.375 126.625 m 100.375 89.066 l S
102.918 126.605 m 102.918 89.109 l S
105.457 126.609 m 105.457 89.082 l S
108 126.629 m 108 88.988 l S
110.543 126.711 m 110.543 88.969 l S
113.082 126.707 m 113.082 88.945 l S
115.625 126.668 m 115.625 89.043 l S
118.164 126.559 m 118.164 89.148 l S
120.707 126.5 m 120.707 89.18 l S
123.246 126.398 m 123.246 89.266 l S
125.789 126.414 m 125.789 89.266 l S
128.328 126.41 m 128.328 89.281 l S
130.871 126.375 m 130.871 89.277 l S
133.41 126.402 m 133.41 89.312 l S
135.953 126.418 m 135.953 89.25 l S
138.492 126.449 m 138.492 89.238 l S
141.035 126.473 m 141.035 89.203 l S
143.578 126.438 m 143.578 89.223 l S
146.117 126.426 m 146.117 89.25 l S
148.66 126.402 m 148.66 89.277 l S
151.199 126.379 m 151.199 89.297 l S
153.742 126.352 m 153.742 89.32 l S
156.281 126.352 m 156.281 89.344 l S
158.824 126.363 m 158.824 89.348 l S
161.363 126.344 m 161.363 89.328 l S
163.906 126.332 m 163.906 89.324 l S
166.445 126.363 m 166.445 89.32 l S
168.988 126.336 m 168.988 89.336 l S
171.531 126.305 m 171.531 89.379 l S
174.07 126.258 m 174.07 89.438 l S
176.613 124.953 m 176.613 90.762 l S
179.152 120.543 m 179.152 95.133 l S
181.695 116.84 m 181.695 98.641 l S
184.234 114.441 m 184.234 101.301 l S
186.777 112.559 m 186.777 103.121 l S
189.316 111.145 m 189.316 104.496 l S
191.859 110.082 m 191.859 105.703 l S
194.398 109.309 m 194.398 106.395 l S
196.941 108.801 m 196.941 106.93 l S
199.48 108.535 m 199.48 107.266 l S
202.023 108.305 m 202.023 107.438 l S
204.566 108.164 m 204.566 107.59 l S
207.105 108.07 m 207.105 107.684 l S
209.648 108.035 m 209.648 107.738 l S
212.188 107.98 m 212.188 107.746 l S
214.73 107.973 m 214.73 107.777 l S
217.27 107.973 m 217.27 107.777 l S
219.812 107.973 m 219.812 107.777 l S
222.352 107.973 m 222.352 107.777 l S
224.895 107.973 m 224.895 107.777 l S
227.434 107.973 m 227.434 107.777 l S
229.977 107.973 m 229.977 107.777 l S
232.52 107.973 m 232.52 107.777 l S
235.059 107.973 m 235.059 107.777 l S
237.602 107.973 m 237.602 107.777 l S
240.141 107.973 m 240.141 107.777 l S
242.684 107.973 m 242.684 107.777 l S
245.223 107.973 m 245.223 107.777 l S
247.766 107.973 m 247.766 107.777 l S
250.305 107.973 m 250.305 107.777 l S
252.848 107.973 m 252.848 107.777 l S
255.387 107.973 m 255.387 107.777 l S
255.387 107.973 m 255.387 107.777 l S
3.812 151.172 m 3.812 150.977 l S
6.352 161.508 m 6.352 140.527 l S
8.895 166.066 m 8.895 135.828 l S
11.434 167.863 m 11.434 134.125 l S
13.977 168.738 m 13.977 133.332 l S
16.52 169.199 m 16.52 133.008 l S
19.059 169.469 m 19.059 132.82 l S
21.602 169.492 m 21.602 132.816 l S
24.141 169.562 m 24.141 132.828 l S
26.684 169.551 m 26.684 132.789 l S
29.223 169.602 m 29.223 132.809 l S
31.766 169.582 m 31.766 132.82 l S
34.305 169.609 m 34.305 132.785 l S
36.848 169.656 m 36.848 132.727 l S
39.387 169.789 m 39.387 132.535 l S
41.93 169.906 m 41.93 132.426 l S
44.469 170.02 m 44.469 132.34 l S
47.012 170.098 m 47.012 132.32 l S
49.555 170.102 m 49.555 132.258 l S
52.094 170.188 m 52.094 132.207 l S
54.637 170.309 m 54.637 132.086 l S
57.176 170.312 m 57.176 132.066 l S
59.719 170.398 m 59.719 132.039 l S
62.258 170.371 m 62.258 132 l S
64.801 170.383 m 64.801 132.008 l S
67.34 170.426 m 67.34 132.004 l S
69.883 170.48 m 69.883 131.953 l S
72.422 170.449 m 72.422 131.969 l S
74.965 170.492 m 74.965 131.922 l S
77.508 170.547 m 77.508 131.875 l S
80.047 170.605 m 80.047 131.805 l S
82.59 170.68 m 82.59 131.746 l S
85.129 170.637 m 85.129 131.746 l S
87.672 170.648 m 87.672 131.574 l S
90.211 170.652 m 90.211 131.742 l S
92.754 170.691 m 92.754 131.758 l S
95.293 170.656 m 95.293 131.754 l S
97.836 170.668 m 97.836 131.691 l S
100.375 170.707 m 100.375 131.727 l S
102.918 170.68 m 102.918 131.758 l S
105.457 170.656 m 105.457 131.762 l S
108 170.719 m 108 131.707 l S
110.543 170.758 m 110.543 131.602 l S
113.082 170.836 m 113.082 131.562 l S
115.625 170.727 m 115.625 131.738 l S
118.164 170.598 m 118.164 131.793 l S
120.707 170.516 m 120.707 131.836 l S
123.246 170.441 m 123.246 131.926 l S
125.789 170.457 m 125.789 131.906 l S
128.328 170.434 m 128.328 131.93 l S
130.871 170.426 m 130.871 131.938 l S
133.41 170.484 m 133.41 131.926 l S
135.953 170.461 m 135.953 131.867 l S
138.492 170.512 m 138.492 131.879 l S
141.035 170.562 m 141.035 131.805 l S
143.578 170.531 m 143.578 131.863 l S
146.117 170.512 m 146.117 131.84 l S
148.66 170.48 m 148.66 131.871 l S
151.199 170.398 m 151.199 131.973 l S
153.742 170.398 m 153.742 131.957 l S
156.281 170.395 m 156.281 131.949 l S
158.824 170.418 m 158.824 131.98 l S
161.363 170.398 m 161.363 131.992 l S
163.906 170.395 m 163.906 131.984 l S
166.445 170.434 m 166.445 131.941 l S
168.988 170.527 m 168.988 131.953 l S
171.531 170.383 m 171.531 131.992 l S
174.07 170.289 m 174.07 132.055 l S
176.613 168.93 m 176.613 133.523 l S
179.152 164.141 m 179.152 138.105 l S
181.695 160.477 m 181.695 141.547 l S
184.234 157.902 m 184.234 144.285 l S
186.777 155.883 m 186.777 146.145 l S
189.316 154.406 m 189.316 147.684 l S
191.859 153.363 m 191.859 148.73 l S
194.398 152.512 m 194.398 149.477 l S
196.941 152.113 m 196.941 150.078 l S
199.48 151.82 m 199.48 150.457 l S
202.023 151.555 m 202.023 150.629 l S
204.566 151.402 m 204.566 150.734 l S
207.105 151.301 m 207.105 150.832 l S
209.648 151.297 m 209.648 150.922 l S
212.188 151.199 m 212.188 150.949 l S
214.73 151.172 m 214.73 150.977 l S
217.27 151.172 m 217.27 150.977 l S
219.812 151.172 m 219.812 150.977 l S
222.352 151.172 m 222.352 150.977 l S
224.895 151.172 m 224.895 150.977 l S
227.434 151.172 m 227.434 150.977 l S
229.977 151.172 m 229.977 150.977 l S
232.52 151.172 m 232.52 150.977 l S
235.059 151.172 m 235.059 150.977 l S
237.602 151.172 m 237.602 150.977 l S
240.141 151.172 m 240.141 150.977 l S
242.684 151.172 m 242.684 150.977 l S
245.223 151.172 m 245.223 150.977 l S
247.766 151.172 m 247.766 150.977 l S
250.305 151.172 m 250.305 150.977 l S
252.848 151.172 m 252.848 150.977 l S
255.387 151.172 m 255.387 150.977 l S
255.387 151.172 m 255.387 150.977 l S
Q Q
showpage
%%Trailer
end
%%EOF
