%!PS-Adobe-3.0 EPSF-3.0
%%Creator: cairo 1.16.0 (https://cairographics.org)
%%CreationDate: Wed May 15 11:57:28 2024
%%Pages: 1
%%DocumentData: Clean7Bit
%%LanguageLevel: 2
%%Creator: Wolfram Mathematica
%%BoundingBox: 2 2 257 170
%%EndComments
%%BeginProlog
50 dict begin
/q { gsave } bind def
/Q { grestore } bind def
/cm { 6 array astore concat } bind def
/w { setlinewidth } bind def
/J { setlinecap } bind def
/j { setlinejoin } bind def
/M { setmiterlimit } bind def
/d { setdash } bind def
/m { moveto } bind def
/l { lineto } bind def
/c { curveto } bind def
/h { closepath } bind def
/re { exch dup neg 3 1 roll 5 3 roll moveto 0 rlineto
      0 exch rlineto 0 rlineto closepath } bind def
/S { stroke } bind def
/f { fill } bind def
/f* { eofill } bind def
/n { newpath } bind def
/W { clip } bind def
/W* { eoclip } bind def
/BT { } bind def
/ET { } bind def
/BDC { mark 3 1 roll /BDC pdfmark } bind def
/EMC { mark /EMC pdfmark } bind def
/cairo_store_point { /cairo_point_y exch def /cairo_point_x exch def } def
/Tj { show currentpoint cairo_store_point } bind def
/TJ {
  {
    dup
    type /stringtype eq
    { show } { -0.001 mul 0 cairo_font_matrix dtransform rmoveto } ifelse
  } forall
  currentpoint cairo_store_point
} bind def
/cairo_selectfont { cairo_font_matrix aload pop pop pop 0 0 6 array astore
    cairo_font exch selectfont cairo_point_x cairo_point_y moveto } bind def
/Tf { pop /cairo_font exch def /cairo_font_matrix where
      { pop cairo_selectfont } if } bind def
/Td { matrix translate cairo_font_matrix matrix concatmatrix dup
      /cairo_font_matrix exch def dup 4 get exch 5 get cairo_store_point
      /cairo_font where { pop cairo_selectfont } if } bind def
/Tm { 2 copy 8 2 roll 6 array astore /cairo_font_matrix exch def
      cairo_store_point /cairo_font where { pop cairo_selectfont } if } bind def
/g { setgray } bind def
/rg { setrgbcolor } bind def
/d1 { setcachedevice } bind def
/cairo_data_source {
  CairoDataIndex CairoData length lt
    { CairoData CairoDataIndex get /CairoDataIndex CairoDataIndex 1 add def }
    { () } ifelse
} def
/cairo_flush_ascii85_file { cairo_ascii85_file status { cairo_ascii85_file flushfile } if } def
/cairo_image { image cairo_flush_ascii85_file } def
/cairo_imagemask { imagemask cairo_flush_ascii85_file } def
%%EndProlog
%%BeginSetup
%%EndSetup
%%Page: 1 1
%%BeginPageSetup
%%PageBoundingBox: 2 2 257 170
%%EndPageSetup
q 2 2 255 168 rectclip
1 0 0 -1 0 173 cm q
0 g
1.796436 w
0 J
0 j
[] 0.0 d
3.25 M 3.812 21.738 m 3.812 21.543 l S
6.352 21.738 m 6.352 21.543 l S
8.895 23.051 m 8.895 20.496 l S
11.434 30.324 m 11.434 12.465 l S
13.977 34.25 m 13.977 9.336 l S
16.52 36.02 m 16.52 7.48 l S
19.059 37.277 m 19.059 6.359 l S
21.602 38.184 m 21.602 5.379 l S
24.141 38.953 m 24.141 4.535 l S
26.684 39.18 m 26.684 4.312 l S
29.223 39.203 m 29.223 4.352 l S
31.766 39.066 m 31.766 4.461 l S
34.305 38.785 m 34.305 4.773 l S
36.848 38.43 m 36.848 5.102 l S
39.387 37.828 m 39.387 5.742 l S
41.93 37.223 m 41.93 6.324 l S
44.469 36.277 m 44.469 7.328 l S
47.012 35.566 m 47.012 8.027 l S
49.555 34.754 m 49.555 8.93 l S
52.094 34.16 m 52.094 9.488 l S
54.637 33.406 m 54.637 10.25 l S
57.176 32.707 m 57.176 10.938 l S
59.719 32.035 m 59.719 11.57 l S
62.258 31.512 m 62.258 12.062 l S
64.801 30.961 m 64.801 12.5 l S
67.34 30.625 m 67.34 12.734 l S
69.883 33.191 m 69.883 10.098 l S
72.422 37.203 m 72.422 6.102 l S
74.965 39.871 m 74.965 3.793 l S
77.508 38.051 m 77.508 4.762 l S
80.047 38.078 m 80.047 5.934 l S
82.59 37.133 m 82.59 6.461 l S
85.129 37.012 m 85.129 6.875 l S
87.672 36.887 m 87.672 6.52 l S
90.211 36.988 m 90.211 6.262 l S
92.754 36.934 m 92.754 6.215 l S
95.293 36.797 m 95.293 6.582 l S
97.836 36.938 m 97.836 6.57 l S
100.375 37.262 m 100.375 6.367 l S
102.918 37.363 m 102.918 6.145 l S
105.457 37.137 m 105.457 6.164 l S
108 37.277 m 108 5.945 l S
110.543 37.371 m 110.543 5.938 l S
113.082 36.938 m 113.082 6.645 l S
115.625 36.379 m 115.625 7.035 l S
118.164 35.531 m 118.164 7.895 l S
120.707 34.945 m 120.707 8.754 l S
123.246 34.117 m 123.246 9.359 l S
125.789 33.945 m 125.789 9.543 l S
128.328 34.297 m 128.328 9.043 l S
130.871 35.055 m 130.871 8.344 l S
133.41 36.617 m 133.41 7.25 l S
135.953 37.504 m 135.953 5.676 l S
138.492 38.383 m 138.492 5.078 l S
141.035 37.973 m 141.035 5.613 l S
143.578 37.836 m 143.578 5.75 l S
146.117 37.953 m 146.117 5.453 l S
148.66 38.02 m 148.66 5.52 l S
151.199 37.945 m 151.199 5.492 l S
153.742 37.77 m 153.742 5.688 l S
156.281 37.789 m 156.281 5.801 l S
158.824 37.586 m 158.824 5.98 l S
161.363 37.352 m 161.363 6.254 l S
163.906 36.977 m 163.906 6.355 l S
166.445 36.766 m 166.445 6.719 l S
168.988 36.535 m 168.988 6.871 l S
171.531 36.371 m 171.531 7.125 l S
174.07 36.516 m 174.07 6.953 l S
176.613 36.691 m 176.613 6.672 l S
179.152 36.789 m 179.152 6.711 l S
181.695 36.578 m 181.695 6.785 l S
184.234 36.098 m 184.234 7.258 l S
186.777 35.738 m 186.777 7.91 l S
189.316 35.07 m 189.316 8.535 l S
191.859 34.48 m 191.859 9.18 l S
194.398 33.887 m 194.398 9.715 l S
196.941 33.527 m 196.941 10.117 l S
199.48 33.086 m 199.48 10.461 l S
202.023 33.043 m 202.023 10.566 l S
204.566 33.043 m 204.566 10.504 l S
207.105 33.141 m 207.105 10.215 l S
209.648 34.953 m 209.648 8.938 l S
212.188 36.867 m 212.188 6.184 l S
214.73 39.363 m 214.73 4.25 l S
217.27 38.793 m 217.27 4.172 l S
219.812 38.621 m 219.812 4.797 l S
222.352 36.523 m 222.352 7.598 l S
224.895 31.594 m 224.895 12.039 l S
227.434 26.68 m 227.434 16.695 l S
229.977 24.418 m 229.977 18.758 l S
232.52 23.152 m 232.52 20.176 l S
235.059 22.492 m 235.059 20.832 l S
237.602 22.066 m 237.602 21.184 l S
240.141 21.918 m 240.141 21.391 l S
242.684 21.781 m 242.684 21.504 l S
245.223 21.738 m 245.223 21.543 l S
247.766 21.738 m 247.766 21.543 l S
250.305 21.738 m 250.305 21.543 l S
252.848 21.738 m 252.848 21.543 l S
255.387 21.738 m 255.387 21.543 l S
255.387 21.738 m 255.387 21.543 l S
3.812 64.941 m 3.812 64.742 l S
6.352 64.941 m 6.352 64.742 l S
8.895 65.801 m 8.895 63.98 l S
11.434 70.336 m 11.434 58.992 l S
13.977 72.594 m 13.977 57.363 l S
16.52 73.098 m 16.52 56.648 l S
19.059 73.789 m 19.059 56.098 l S
21.602 74.316 m 21.602 55.574 l S
24.141 74.613 m 24.141 54.934 l S
26.684 74.832 m 26.684 54.988 l S
29.223 74.711 m 29.223 54.988 l S
31.766 74.648 m 31.766 55.199 l S
34.305 74.379 m 34.305 55.383 l S
36.848 74.062 m 36.848 55.566 l S
39.387 73.672 m 39.387 56.109 l S
41.93 73.266 m 41.93 56.48 l S
44.469 72.582 m 44.469 57.176 l S
47.012 72.117 m 47.012 57.574 l S
49.555 71.574 m 49.555 58.137 l S
52.094 71.258 m 52.094 58.48 l S
54.637 70.824 m 54.637 58.992 l S
57.176 70.363 m 57.176 59.449 l S
59.719 70.008 m 59.719 59.836 l S
62.258 69.66 m 62.258 59.902 l S
64.801 69.359 m 64.801 60.301 l S
67.34 69.184 m 67.34 60.57 l S
69.883 70.859 m 69.883 58.973 l S
72.422 74.203 m 72.422 55.711 l S
74.965 75.23 m 74.965 54.781 l S
77.508 74.434 m 77.508 55.492 l S
80.047 73.699 m 80.047 56.082 l S
82.59 73.605 m 82.59 56.227 l S
85.129 73.688 m 85.129 56.016 l S
87.672 73.688 m 87.672 56.18 l S
90.211 73.914 m 90.211 56.008 l S
92.754 73.984 m 92.754 55.996 l S
95.293 73.695 m 95.293 56.395 l S
97.836 73.461 m 97.836 56.449 l S
100.375 73.746 m 100.375 56.176 l S
102.918 73.863 m 102.918 56.117 l S
105.457 73.879 m 105.457 56.074 l S
108 73.73 m 108 56.02 l S
110.543 73.672 m 110.543 56.137 l S
113.082 73.398 m 113.082 56.574 l S
115.625 72.746 m 115.625 56.891 l S
118.164 72.09 m 118.164 57.531 l S
120.707 71.695 m 120.707 58.039 l S
123.246 71.25 m 123.246 58.48 l S
125.789 71.191 m 125.789 58.531 l S
128.328 71.562 m 128.328 58.137 l S
130.871 72.047 m 130.871 57.648 l S
133.41 73.105 m 133.41 56.848 l S
135.953 73.879 m 135.953 55.789 l S
138.492 74.281 m 138.492 55.562 l S
141.035 74.258 m 141.035 55.77 l S
143.578 74.176 m 143.578 55.828 l S
146.117 74.273 m 146.117 55.703 l S
148.66 74.207 m 148.66 55.691 l S
151.199 74.266 m 151.199 55.648 l S
153.742 74.148 m 153.742 55.738 l S
156.281 74.082 m 156.281 55.898 l S
158.824 73.941 m 158.824 56.117 l S
161.363 73.762 m 161.363 56.309 l S
163.906 73.762 m 163.906 55.98 l S
166.445 73.367 m 166.445 56.418 l S
168.988 73.301 m 168.988 56.652 l S
171.531 73.039 m 171.531 56.887 l S
174.07 73.121 m 174.07 56.664 l S
176.613 73.184 m 176.613 56.539 l S
179.152 73.102 m 179.152 56.613 l S
181.695 72.961 m 181.695 56.82 l S
184.234 72.543 m 184.234 57.148 l S
186.777 72.289 m 186.777 57.457 l S
189.316 71.887 m 189.316 57.879 l S
191.859 71.504 m 191.859 58.266 l S
194.398 71.238 m 194.398 58.609 l S
196.941 70.965 m 196.941 58.84 l S
199.48 70.91 m 199.48 58.922 l S
202.023 70.809 m 202.023 58.992 l S
204.566 70.855 m 204.566 59.051 l S
207.105 70.859 m 207.105 59.023 l S
209.648 72.082 m 209.648 57.977 l S
212.188 73.93 m 212.188 56.191 l S
214.73 74.844 m 214.73 54.988 l S
217.27 74.891 m 217.27 55.02 l S
219.812 74.645 m 219.812 55.441 l S
222.352 73.035 m 222.352 57.105 l S
224.895 70.094 m 224.895 60.074 l S
227.434 67.258 m 227.434 62.281 l S
229.977 66.207 m 229.977 63.594 l S
232.52 65.469 m 232.52 64.184 l S
235.059 65.145 m 235.059 64.465 l S
237.602 65.066 m 237.602 64.641 l S
240.141 64.973 m 240.141 64.727 l S
242.684 64.941 m 242.684 64.742 l S
245.223 64.941 m 245.223 64.742 l S
247.766 64.941 m 247.766 64.742 l S
250.305 64.941 m 250.305 64.742 l S
252.848 64.941 m 252.848 64.742 l S
255.387 64.941 m 255.387 64.742 l S
255.387 64.941 m 255.387 64.742 l S
3.812 108.141 m 3.812 107.941 l S
6.352 108.141 m 6.352 107.941 l S
8.895 109.406 m 8.895 107.035 l S
11.434 118.672 m 11.434 97.469 l S
13.977 121.188 m 13.977 94.73 l S
16.52 123.184 m 16.52 92.621 l S
19.059 124.523 m 19.059 91.406 l S
21.602 125.504 m 21.602 90.449 l S
24.141 126.227 m 24.141 89.762 l S
26.684 126.504 m 26.684 89.523 l S
29.223 126.477 m 29.223 89.613 l S
31.766 126.422 m 31.766 89.805 l S
34.305 125.934 m 34.305 90.094 l S
36.848 125.613 m 36.848 90.426 l S
39.387 124.844 m 39.387 91.113 l S
41.93 124.367 m 41.93 91.758 l S
44.469 123.363 m 44.469 92.719 l S
47.012 122.691 m 47.012 93.398 l S
49.555 121.75 m 49.555 94.391 l S
52.094 121.148 m 52.094 94.906 l S
54.637 120.461 m 54.637 95.766 l S
57.176 119.727 m 57.176 96.516 l S
59.719 119.094 m 59.719 97.234 l S
62.258 118.434 m 62.258 97.578 l S
64.801 117.902 m 64.801 98.285 l S
67.34 118.008 m 67.34 98.383 l S
69.883 120.715 m 69.883 94.703 l S
72.422 126.059 m 72.422 90.16 l S
74.965 127.617 m 74.965 88.855 l S
77.508 126.77 m 77.508 88.871 l S
80.047 125.652 m 80.047 90.453 l S
82.59 125.137 m 82.59 91.16 l S
85.129 124.84 m 85.129 91.508 l S
87.672 125.23 m 87.672 91.492 l S
90.211 125.277 m 90.211 91.277 l S
92.754 125.121 m 92.754 91.367 l S
95.293 124.602 m 95.293 91.516 l S
97.836 124.504 m 97.836 91.867 l S
100.375 124.832 m 100.375 91.691 l S
102.918 125.145 m 102.918 91.48 l S
105.457 124.996 m 105.457 91.32 l S
108 125.004 m 108 91.188 l S
110.543 125.004 m 110.543 91.191 l S
113.082 124.562 m 113.082 91.621 l S
115.625 123.844 m 115.625 92.246 l S
118.164 122.824 m 118.164 93.211 l S
120.707 121.973 m 120.707 93.996 l S
123.246 121.281 m 123.246 94.895 l S
125.789 121.02 m 125.789 95.055 l S
128.328 121.336 m 128.328 94.785 l S
130.871 122.516 m 130.871 94.035 l S
133.41 123.934 m 133.41 92.41 l S
135.953 125.34 m 135.953 91.254 l S
138.492 125.945 m 138.492 90.52 l S
141.035 125.594 m 141.035 90.633 l S
143.578 125.512 m 143.578 90.867 l S
146.117 125.723 m 146.117 90.777 l S
148.66 125.723 m 148.66 90.68 l S
151.199 125.828 m 151.199 90.637 l S
153.742 125.59 m 153.742 91.008 l S
156.281 125.504 m 156.281 91.082 l S
158.824 125.211 m 158.824 91.254 l S
161.363 125.113 m 161.363 91.43 l S
163.906 124.824 m 163.906 91.516 l S
166.445 124.5 m 166.445 91.754 l S
168.988 124.258 m 168.988 92.059 l S
171.531 124.082 m 171.531 92.297 l S
174.07 124.008 m 174.07 92.188 l S
176.613 124.219 m 176.613 91.949 l S
179.152 124.227 m 179.152 92.039 l S
181.695 123.945 m 181.695 92.195 l S
184.234 123.406 m 184.234 92.664 l S
186.777 122.695 m 186.777 93.066 l S
189.316 122.129 m 189.316 93.812 l S
191.859 121.52 m 191.859 94.449 l S
194.398 121.023 m 194.398 95.125 l S
196.941 120.434 m 196.941 95.516 l S
199.48 120.367 m 199.48 95.949 l S
202.023 120.27 m 202.023 95.977 l S
204.566 120.332 m 204.566 95.863 l S
207.105 120.699 m 207.105 95.746 l S
209.648 122.09 m 209.648 93.586 l S
212.188 125.137 m 212.188 90.844 l S
214.73 127.344 m 214.73 89.359 l S
217.27 127.605 m 217.27 88.742 l S
219.812 126.207 m 219.812 90.129 l S
222.352 123.656 m 222.352 91.93 l S
224.895 119.355 m 224.895 96.848 l S
227.434 114.348 m 227.434 102.227 l S
229.977 111.855 m 229.977 104.832 l S
232.52 110.008 m 232.52 106.152 l S
235.059 108.992 m 235.059 106.93 l S
237.602 108.59 m 237.602 107.562 l S
240.141 108.32 m 240.141 107.715 l S
242.684 108.203 m 242.684 107.887 l S
245.223 108.141 m 245.223 107.941 l S
247.766 108.141 m 247.766 107.941 l S
250.305 108.141 m 250.305 107.941 l S
252.848 108.141 m 252.848 107.941 l S
255.387 108.141 m 255.387 107.941 l S
255.387 108.141 m 255.387 107.941 l S
3.812 151.34 m 3.812 151.145 l S
6.352 151.422 m 6.352 151.066 l S
8.895 153.539 m 8.895 149.742 l S
11.434 161.445 m 11.434 140.113 l S
13.977 166.133 m 13.977 136.629 l S
16.52 167.656 m 16.52 134.75 l S
19.059 169.066 m 19.059 133.574 l S
21.602 170.195 m 21.602 132.594 l S
24.141 170.656 m 24.141 131.562 l S
26.684 170.832 m 26.684 131.664 l S
29.223 170.801 m 29.223 131.707 l S
31.766 170.836 m 31.766 131.977 l S
34.305 170.211 m 34.305 132.207 l S
36.848 169.852 m 36.848 132.59 l S
39.387 169.125 m 39.387 133.41 l S
41.93 168.395 m 41.93 134.086 l S
44.469 167.574 m 44.469 135.105 l S
47.012 166.73 m 47.012 135.789 l S
49.555 165.871 m 49.555 136.613 l S
52.094 165.223 m 52.094 137.172 l S
54.637 164.496 m 54.637 138.078 l S
57.176 163.762 m 57.176 138.824 l S
59.719 162.992 m 59.719 139.578 l S
62.258 162.395 m 62.258 139.785 l S
64.801 161.797 m 64.801 140.625 l S
67.34 161.406 m 67.34 141.074 l S
69.883 163.496 m 69.883 139.172 l S
72.422 167.215 m 72.422 134.688 l S
74.965 169.426 m 74.965 133.348 l S
77.508 168.664 m 77.508 134.891 l S
80.047 168.078 m 80.047 135.27 l S
82.59 167.641 m 82.59 135.66 l S
85.129 167.301 m 85.129 135.574 l S
87.672 167.336 m 87.672 135.336 l S
90.211 167.93 m 90.211 134.68 l S
92.754 167.969 m 92.754 134.52 l S
95.293 167.793 m 95.293 134.727 l S
97.836 167.75 m 97.836 134.922 l S
100.375 168.133 m 100.375 134.434 l S
102.918 168.375 m 102.918 134.121 l S
105.457 168.676 m 105.457 133.965 l S
108 168.648 m 108 133.875 l S
110.543 168.965 m 110.543 133.977 l S
113.082 168.355 m 113.082 134.461 l S
115.625 167.809 m 115.625 134.887 l S
118.164 166.738 m 118.164 135.758 l S
120.707 166.012 m 120.707 136.66 l S
123.246 164.934 m 123.246 137.297 l S
125.789 164.828 m 125.789 137.578 l S
128.328 165.113 m 128.328 137.289 l S
130.871 165.832 m 130.871 136.574 l S
133.41 167.137 m 133.41 135.336 l S
135.953 168.301 m 135.953 133.715 l S
138.492 168.719 m 138.492 133.535 l S
141.035 168.477 m 141.035 134.109 l S
143.578 168.465 m 143.578 134.02 l S
146.117 168.727 m 146.117 133.734 l S
148.66 168.637 m 148.66 133.855 l S
151.199 168.664 m 151.199 133.746 l S
153.742 168.5 m 153.742 133.836 l S
156.281 168.555 m 156.281 133.988 l S
158.824 168.309 m 158.824 134.305 l S
161.363 168.324 m 161.363 134.535 l S
163.906 168.352 m 163.906 134.168 l S
166.445 167.98 m 166.445 134.641 l S
168.988 167.738 m 168.988 134.875 l S
171.531 167.312 m 171.531 135.18 l S
174.07 167.934 m 174.07 134.637 l S
176.613 168.152 m 176.613 134.383 l S
179.152 168.16 m 179.152 134.504 l S
181.695 168.039 m 181.695 134.574 l S
184.234 167.375 m 184.234 135.156 l S
186.777 166.883 m 186.777 135.621 l S
189.316 166.055 m 189.316 136.254 l S
191.859 165.605 m 191.859 137.012 l S
194.398 164.98 m 194.398 137.496 l S
196.941 164.547 m 196.941 137.855 l S
199.48 164.398 m 199.48 138.164 l S
202.023 164.129 m 202.023 138.34 l S
204.566 164.246 m 204.566 138.426 l S
207.105 164.273 m 207.105 138.312 l S
209.648 165.242 m 209.648 137.426 l S
212.188 167.395 m 212.188 134.852 l S
214.73 169.223 m 214.73 133.422 l S
217.27 169.32 m 217.27 133.816 l S
219.812 168.414 m 219.812 134.18 l S
222.352 166.262 m 222.352 137.039 l S
224.895 161.578 m 224.895 140.91 l S
227.434 156.758 m 227.434 145.016 l S
229.977 154.508 m 229.977 148.066 l S
232.52 153.07 m 232.52 149.426 l S
235.059 152.254 m 235.059 150.301 l S
237.602 151.934 m 237.602 150.602 l S
240.141 151.57 m 240.141 150.855 l S
242.684 151.449 m 242.684 151.047 l S
245.223 151.359 m 245.223 151.137 l S
247.766 151.34 m 247.766 151.145 l S
250.305 151.34 m 250.305 151.145 l S
252.848 151.34 m 252.848 151.145 l S
255.387 151.34 m 255.387 151.145 l S
255.387 151.34 m 255.387 151.145 l S
Q Q
showpage
%%Trailer
end
%%EOF
