%!PS-Adobe-3.0 EPSF-3.0
%%Creator: cairo 1.16.0 (https://cairographics.org)
%%CreationDate: Wed May 15 11:57:28 2024
%%Pages: 1
%%DocumentData: Clean7Bit
%%LanguageLevel: 2
%%Creator: Wolfram Mathematica
%%BoundingBox: 2 2 257 169
%%EndComments
%%BeginProlog
50 dict begin
/q { gsave } bind def
/Q { grestore } bind def
/cm { 6 array astore concat } bind def
/w { setlinewidth } bind def
/J { setlinecap } bind def
/j { setlinejoin } bind def
/M { setmiterlimit } bind def
/d { setdash } bind def
/m { moveto } bind def
/l { lineto } bind def
/c { curveto } bind def
/h { closepath } bind def
/re { exch dup neg 3 1 roll 5 3 roll moveto 0 rlineto
      0 exch rlineto 0 rlineto closepath } bind def
/S { stroke } bind def
/f { fill } bind def
/f* { eofill } bind def
/n { newpath } bind def
/W { clip } bind def
/W* { eoclip } bind def
/BT { } bind def
/ET { } bind def
/BDC { mark 3 1 roll /BDC pdfmark } bind def
/EMC { mark /EMC pdfmark } bind def
/cairo_store_point { /cairo_point_y exch def /cairo_point_x exch def } def
/Tj { show currentpoint cairo_store_point } bind def
/TJ {
  {
    dup
    type /stringtype eq
    { show } { -0.001 mul 0 cairo_font_matrix dtransform rmoveto } ifelse
  } forall
  currentpoint cairo_store_point
} bind def
/cairo_selectfont { cairo_font_matrix aload pop pop pop 0 0 6 array astore
    cairo_font exch selectfont cairo_point_x cairo_point_y moveto } bind def
/Tf { pop /cairo_font exch def /cairo_font_matrix where
      { pop cairo_selectfont } if } bind def
/Td { matrix translate cairo_font_matrix matrix concatmatrix dup
      /cairo_font_matrix exch def dup 4 get exch 5 get cairo_store_point
      /cairo_font where { pop cairo_selectfont } if } bind def
/Tm { 2 copy 8 2 roll 6 array astore /cairo_font_matrix exch def
      cairo_store_point /cairo_font where { pop cairo_selectfont } if } bind def
/g { setgray } bind def
/rg { setrgbcolor } bind def
/d1 { setcachedevice } bind def
/cairo_data_source {
  CairoDataIndex CairoData length lt
    { CairoData CairoDataIndex get /CairoDataIndex CairoDataIndex 1 add def }
    { () } ifelse
} def
/cairo_flush_ascii85_file { cairo_ascii85_file status { cairo_ascii85_file flushfile } if } def
/cairo_image { image cairo_flush_ascii85_file } def
/cairo_imagemask { imagemask cairo_flush_ascii85_file } def
%%EndProlog
%%BeginSetup
%%EndSetup
%%Page: 1 1
%%BeginPageSetup
%%PageBoundingBox: 2 2 257 169
%%EndPageSetup
q 2 2 255 167 rectclip
1 0 0 -1 0 173 cm q
0 g
1.796436 w
0 J
0 j
[] 0.0 d
3.25 M 3.812 21.66 m 3.812 21.461 l S
6.352 21.855 m 6.352 21.164 l S
8.895 34.996 m 8.895 7.852 l S
11.434 38.383 m 11.434 4.945 l S
13.977 39.023 m 13.977 4.398 l S
16.52 39.012 m 16.52 4.406 l S
19.059 38.625 m 19.059 4.746 l S
21.602 37.539 m 21.602 5.922 l S
24.141 35.633 m 24.141 7.938 l S
26.684 33.398 m 26.684 10.117 l S
29.223 31.414 m 29.223 12.004 l S
31.766 29.523 m 31.766 13.848 l S
34.305 28.379 m 34.305 14.984 l S
36.848 27.688 m 36.848 15.66 l S
39.387 31.82 m 39.387 11.727 l S
41.93 33.496 m 41.93 9.926 l S
44.469 33.348 m 44.469 10.062 l S
47.012 33.746 m 47.012 9.48 l S
49.555 34.305 m 49.555 8.926 l S
52.094 34.91 m 52.094 8.559 l S
54.637 35.547 m 54.637 7.855 l S
57.176 35.957 m 57.176 7.43 l S
59.719 35.844 m 59.719 7.449 l S
62.258 36.164 m 62.258 7.113 l S
64.801 36.66 m 64.801 6.699 l S
67.34 36.371 m 67.34 7.152 l S
69.883 34.965 m 69.883 8.605 l S
72.422 33.191 m 72.422 10.047 l S
74.965 32.141 m 74.965 11.191 l S
77.508 31.25 m 77.508 12.277 l S
80.047 30.281 m 80.047 13.082 l S
82.59 29.836 m 82.59 13.574 l S
85.129 30.473 m 85.129 12.465 l S
87.672 32.945 m 87.672 10.191 l S
90.211 33.23 m 90.211 10.094 l S
92.754 32.297 m 92.754 10.957 l S
95.293 31.383 m 95.293 12.023 l S
97.836 30.539 m 97.836 12.863 l S
100.375 29.672 m 100.375 13.754 l S
102.918 28.824 m 102.918 14.629 l S
105.457 28.062 m 105.457 15.387 l S
108 28.004 m 108 15.398 l S
110.543 29.199 m 110.543 14.359 l S
113.082 30.262 m 113.082 12.816 l S
115.625 31.215 m 115.625 12.207 l S
118.164 31.246 m 118.164 12.102 l S
120.707 31.254 m 120.707 12.148 l S
123.246 31.082 m 123.246 12.336 l S
125.789 30.781 m 125.789 12.574 l S
128.328 31.273 m 128.328 12.117 l S
130.871 31.312 m 130.871 12.055 l S
133.41 31.188 m 133.41 12.359 l S
135.953 30.16 m 135.953 13.105 l S
138.492 29.59 m 138.492 13.688 l S
141.035 30.145 m 141.035 13.418 l S
143.578 30.711 m 143.578 12.586 l S
146.117 30.988 m 146.117 12.328 l S
148.66 30.992 m 148.66 12.344 l S
151.199 30.867 m 151.199 12.516 l S
153.742 30.84 m 153.742 12.586 l S
156.281 30.77 m 156.281 12.621 l S
158.824 30.828 m 158.824 12.531 l S
161.363 31.055 m 161.363 12.332 l S
163.906 31.066 m 163.906 12.266 l S
166.445 30.945 m 166.445 12.578 l S
168.988 30.734 m 168.988 12.789 l S
171.531 31.184 m 171.531 12.137 l S
174.07 31.5 m 174.07 11.941 l S
176.613 31.445 m 176.613 11.957 l S
179.152 31.199 m 179.152 12.129 l S
181.695 31.121 m 181.695 12.262 l S
184.234 30.926 m 184.234 12.516 l S
186.777 30.773 m 186.777 12.574 l S
189.316 30.828 m 189.316 12.508 l S
191.859 31.133 m 191.859 12.188 l S
194.398 31.473 m 194.398 11.887 l S
196.941 31.691 m 196.941 11.715 l S
199.48 31.801 m 199.48 11.5 l S
202.023 32.074 m 202.023 11.309 l S
204.566 32.082 m 204.566 11.367 l S
207.105 31.566 m 207.105 11.668 l S
209.648 31.219 m 209.648 12.301 l S
212.188 30.133 m 212.188 13.355 l S
214.73 29.27 m 214.73 13.965 l S
217.27 27.453 m 217.27 16.082 l S
219.812 24.941 m 219.812 18.156 l S
222.352 23.43 m 222.352 19.691 l S
224.895 22.551 m 224.895 20.559 l S
227.434 22.055 m 227.434 21.043 l S
229.977 21.828 m 229.977 21.289 l S
232.52 21.715 m 232.52 21.398 l S
235.059 21.66 m 235.059 21.461 l S
237.602 21.66 m 237.602 21.461 l S
240.141 21.66 m 240.141 21.461 l S
242.684 21.66 m 242.684 21.461 l S
245.223 21.66 m 245.223 21.461 l S
247.766 21.66 m 247.766 21.461 l S
250.305 21.66 m 250.305 21.461 l S
252.848 21.66 m 252.848 21.461 l S
255.387 21.66 m 255.387 21.461 l S
255.387 21.66 m 255.387 21.461 l S
3.812 64.859 m 3.812 64.66 l S
6.352 65.047 m 6.352 64.531 l S
8.895 73.363 m 8.895 55.914 l S
11.434 74.77 m 11.434 54.547 l S
13.977 75.254 m 13.977 54.035 l S
16.52 75.277 m 16.52 54 l S
19.059 75.129 m 19.059 54.16 l S
21.602 74.469 m 21.602 54.926 l S
24.141 72.918 m 24.141 56.422 l S
26.684 71.297 m 26.684 58.156 l S
29.223 69.953 m 29.223 59.535 l S
31.766 68.637 m 31.766 60.766 l S
34.305 68.094 m 34.305 61.348 l S
36.848 67.758 m 36.848 61.746 l S
39.387 70.145 m 39.387 59.43 l S
41.93 71.605 m 41.93 57.965 l S
44.469 71.547 m 44.469 58.012 l S
47.012 71.887 m 47.012 57.625 l S
49.555 72.375 m 49.555 57.266 l S
52.094 72.801 m 52.094 56.906 l S
54.637 73.16 m 54.637 56.387 l S
57.176 73.438 m 57.176 56.191 l S
59.719 73.281 m 59.719 56.242 l S
62.258 73.617 m 62.258 56 l S
64.801 73.984 m 64.801 55.551 l S
67.34 74.074 m 67.34 55.625 l S
69.883 72.562 m 69.883 56.906 l S
72.422 71.277 m 72.422 57.867 l S
74.965 70.469 m 74.965 58.836 l S
77.508 69.977 m 77.508 59.531 l S
80.047 69.273 m 80.047 60.172 l S
82.59 69.172 m 82.59 60.312 l S
85.129 69.895 m 85.129 59.555 l S
87.672 71.898 m 87.672 57.699 l S
90.211 71.641 m 90.211 57.754 l S
92.754 70.895 m 92.754 58.598 l S
95.293 70.238 m 95.293 59.309 l S
97.836 69.602 m 97.836 59.828 l S
100.375 68.953 m 100.375 60.441 l S
102.918 68.414 m 102.918 61.105 l S
105.457 67.891 m 105.457 61.496 l S
108 67.984 m 108 61.488 l S
110.543 68.762 m 110.543 60.824 l S
113.082 69.707 m 113.082 59.801 l S
115.625 70.078 m 115.625 59.477 l S
118.164 70.176 m 118.164 59.344 l S
120.707 70.086 m 120.707 59.48 l S
123.246 70.062 m 123.246 59.473 l S
125.789 69.875 m 125.789 59.59 l S
128.328 70.164 m 128.328 59.273 l S
130.871 70.258 m 130.871 59.199 l S
133.41 69.898 m 133.41 59.621 l S
135.953 69.219 m 135.953 60.227 l S
138.492 68.875 m 138.492 60.52 l S
141.035 69.145 m 141.035 60.203 l S
143.578 69.691 m 143.578 59.785 l S
146.117 69.773 m 146.117 59.699 l S
148.66 69.824 m 148.66 59.703 l S
151.199 69.969 m 151.199 59.664 l S
153.742 70.023 m 153.742 59.664 l S
156.281 69.918 m 156.281 59.602 l S
158.824 69.879 m 158.824 59.535 l S
161.363 70.004 m 161.363 59.488 l S
163.906 70.094 m 163.906 59.547 l S
166.445 70.086 m 166.445 59.605 l S
168.988 69.832 m 168.988 59.723 l S
171.531 70.066 m 171.531 59.344 l S
174.07 70.148 m 174.07 59.219 l S
176.613 70.066 m 176.613 59.254 l S
179.152 69.973 m 179.152 59.492 l S
181.695 69.844 m 181.695 59.617 l S
184.234 69.852 m 184.234 59.672 l S
186.777 69.828 m 186.777 59.652 l S
189.316 70.051 m 189.316 59.621 l S
191.859 70.312 m 191.859 59.367 l S
194.398 70.48 m 194.398 59.023 l S
196.941 70.605 m 196.941 58.902 l S
199.48 70.695 m 199.48 58.668 l S
202.023 70.738 m 202.023 58.762 l S
204.566 70.676 m 204.566 58.793 l S
207.105 70.461 m 207.105 59.008 l S
209.648 70.109 m 209.648 59.527 l S
212.188 69.242 m 212.188 60.273 l S
214.73 68.684 m 214.73 60.855 l S
217.27 67.379 m 217.27 62.117 l S
219.812 66.137 m 219.812 63.488 l S
222.352 65.441 m 222.352 64.109 l S
224.895 65.168 m 224.895 64.379 l S
227.434 64.98 m 227.434 64.531 l S
229.977 64.945 m 229.977 64.613 l S
232.52 64.859 m 232.52 64.66 l S
235.059 64.859 m 235.059 64.66 l S
237.602 64.859 m 237.602 64.66 l S
240.141 64.859 m 240.141 64.66 l S
242.684 64.859 m 242.684 64.66 l S
245.223 64.859 m 245.223 64.66 l S
247.766 64.859 m 247.766 64.66 l S
250.305 64.859 m 250.305 64.66 l S
252.848 64.859 m 252.848 64.66 l S
255.387 64.859 m 255.387 64.66 l S
255.387 64.859 m 255.387 64.66 l S
3.812 108.059 m 3.812 107.863 l S
6.352 108.43 m 6.352 107.574 l S
8.895 121.984 m 8.895 93.848 l S
11.434 125.113 m 11.434 90.719 l S
13.977 125.895 m 13.977 89.957 l S
16.52 125.93 m 16.52 89.984 l S
19.059 125.617 m 19.059 90.359 l S
21.602 124.641 m 21.602 91.473 l S
24.141 122.316 m 24.141 93.652 l S
26.684 120.125 m 26.684 95.66 l S
29.223 118.27 m 29.223 97.664 l S
31.766 116.465 m 31.766 99.531 l S
34.305 115.27 m 34.305 100.695 l S
36.848 114.453 m 36.848 101.391 l S
39.387 119.383 m 39.387 96.125 l S
41.93 121.434 m 41.93 94.816 l S
44.469 121.223 m 44.469 95.047 l S
47.012 121.754 m 47.012 94.488 l S
49.555 122.074 m 49.555 94.105 l S
52.094 122.496 m 52.094 93.605 l S
54.637 123.215 m 54.637 92.859 l S
57.176 123.281 m 57.176 92.594 l S
59.719 123.32 m 59.719 92.727 l S
62.258 123.395 m 62.258 92.762 l S
64.801 123.871 m 64.801 91.996 l S
67.34 123.359 m 67.34 92.086 l S
69.883 121.969 m 69.883 93.828 l S
72.422 120.105 m 72.422 95.586 l S
74.965 119.141 m 74.965 96.73 l S
77.508 118.113 m 77.508 97.754 l S
80.047 117.238 m 80.047 98.746 l S
82.59 116.941 m 82.59 99.031 l S
85.129 117.895 m 85.129 98.199 l S
87.672 120.492 m 87.672 95.438 l S
90.211 120.492 m 90.211 95.621 l S
92.754 119.605 m 92.754 96.68 l S
95.293 118.266 m 95.293 97.645 l S
97.836 117.535 m 97.836 98.445 l S
100.375 116.586 m 100.375 99.316 l S
102.918 115.633 m 102.918 100.457 l S
105.457 114.992 m 105.457 100.973 l S
108 115.129 m 108 100.793 l S
110.543 116.352 m 110.543 99.395 l S
113.082 117.941 m 113.082 98.07 l S
115.625 118.656 m 115.625 97.305 l S
118.164 118.598 m 118.164 97.387 l S
120.707 118.664 m 120.707 97.445 l S
123.246 118.293 m 123.246 97.645 l S
125.789 118.074 m 125.789 97.977 l S
128.328 118.191 m 128.328 97.57 l S
130.871 118.602 m 130.871 97.473 l S
133.41 118.148 m 133.41 97.785 l S
135.953 117.344 m 135.953 98.742 l S
138.492 116.883 m 138.492 99.172 l S
141.035 117.41 m 141.035 98.379 l S
143.578 118.395 m 143.578 97.625 l S
146.117 118.492 m 146.117 97.469 l S
148.66 118.621 m 148.66 97.418 l S
151.199 118.477 m 151.199 97.598 l S
153.742 118.496 m 153.742 97.637 l S
156.281 118.406 m 156.281 97.703 l S
158.824 118.441 m 158.824 97.691 l S
161.363 118.41 m 161.363 97.477 l S
163.906 118.707 m 163.906 97.371 l S
166.445 118.461 m 166.445 97.703 l S
168.988 118.039 m 168.988 97.883 l S
171.531 118.844 m 171.531 97.309 l S
174.07 118.941 m 174.07 96.977 l S
176.613 119.039 m 176.613 96.926 l S
179.152 118.73 m 179.152 97.152 l S
181.695 118.719 m 181.695 97.312 l S
184.234 118.664 m 184.234 97.422 l S
186.777 118.629 m 186.777 97.457 l S
189.316 118.582 m 189.316 97.668 l S
191.859 118.902 m 191.859 97.363 l S
194.398 119.113 m 194.398 96.91 l S
196.941 119.305 m 196.941 96.711 l S
199.48 119.371 m 199.48 96.703 l S
202.023 119.324 m 202.023 96.688 l S
204.566 119.328 m 204.566 96.816 l S
207.105 118.891 m 207.105 97.211 l S
209.648 118.152 m 209.648 97.852 l S
212.188 117.109 m 212.188 98.832 l S
214.73 116.551 m 214.73 99.566 l S
217.27 114.621 m 217.27 101.477 l S
219.812 111.879 m 219.812 104.234 l S
222.352 110.066 m 222.352 105.902 l S
224.895 109.078 m 224.895 106.773 l S
227.434 108.555 m 227.434 107.348 l S
229.977 108.336 m 229.977 107.633 l S
232.52 108.148 m 232.52 107.758 l S
235.059 108.062 m 235.059 107.84 l S
237.602 108.059 m 237.602 107.863 l S
240.141 108.059 m 240.141 107.863 l S
242.684 108.059 m 242.684 107.863 l S
245.223 108.059 m 245.223 107.863 l S
247.766 108.059 m 247.766 107.863 l S
250.305 108.059 m 250.305 107.863 l S
252.848 108.059 m 252.848 107.863 l S
255.387 108.059 m 255.387 107.863 l S
255.387 108.059 m 255.387 107.863 l S
3.812 151.258 m 3.812 151.059 l S
6.352 151.73 m 6.352 150.688 l S
8.895 167.379 m 8.895 134.273 l S
11.434 169.883 m 11.434 132.113 l S
13.977 170.832 m 13.977 131.578 l S
16.52 170.836 m 16.52 131.562 l S
19.059 170.352 m 19.059 131.957 l S
21.602 169.191 m 21.602 133.223 l S
24.141 166.746 m 24.141 135.738 l S
26.684 163.973 m 26.684 138.359 l S
29.223 161.977 m 29.223 140.285 l S
31.766 159.891 m 31.766 142.168 l S
34.305 158.809 m 34.305 143.543 l S
36.848 158.055 m 36.848 144.094 l S
39.387 161.656 m 39.387 140.789 l S
41.93 163.34 m 41.93 139.047 l S
44.469 163.27 m 44.469 139.277 l S
47.012 163.488 m 47.012 138.742 l S
49.555 164.223 m 49.555 138.316 l S
52.094 164.852 m 52.094 137.613 l S
54.637 165.762 m 54.637 136.543 l S
57.176 166.562 m 57.176 135.555 l S
59.719 166.578 m 59.719 135.836 l S
62.258 167.156 m 62.258 135.297 l S
64.801 167.906 m 64.801 134.328 l S
67.34 168.016 m 67.34 134.477 l S
69.883 165.852 m 69.883 136.602 l S
72.422 163.891 m 72.422 138.047 l S
74.965 162.723 m 74.965 139.391 l S
77.508 161.891 m 77.508 140.508 l S
80.047 160.848 m 80.047 141.367 l S
82.59 160.348 m 82.59 141.867 l S
85.129 161.453 m 85.129 140.859 l S
87.672 164.617 m 87.672 137.598 l S
90.211 164.766 m 90.211 137.512 l S
92.754 163.305 m 92.754 139.09 l S
95.293 162.383 m 95.293 140.078 l S
97.836 161.469 m 97.836 140.801 l S
100.375 160.398 m 100.375 141.727 l S
102.918 159.426 m 102.918 142.918 l S
105.457 158.473 m 105.457 143.688 l S
108 158.332 m 108 143.844 l S
110.543 159.273 m 110.543 142.891 l S
113.082 160.984 m 113.082 141.383 l S
115.625 161.82 m 115.625 140.5 l S
118.164 161.684 m 118.164 140.539 l S
120.707 161.941 m 120.707 140.418 l S
123.246 161.668 m 123.246 140.625 l S
125.789 161.789 m 125.789 140.656 l S
128.328 162.16 m 128.328 140.102 l S
130.871 162.344 m 130.871 140.008 l S
133.41 161.941 m 133.41 140.488 l S
135.953 160.941 m 135.953 141.41 l S
138.492 160.266 m 138.492 141.945 l S
141.035 160.465 m 141.035 141.898 l S
143.578 161.016 m 143.578 141.25 l S
146.117 161.117 m 146.117 141.164 l S
148.66 160.922 m 148.66 141.25 l S
151.199 161.156 m 151.199 141.273 l S
153.742 161.316 m 153.742 141.07 l S
156.281 160.934 m 156.281 141.266 l S
158.824 160.926 m 158.824 141.102 l S
161.363 161.133 m 161.363 140.926 l S
163.906 161.531 m 163.906 140.953 l S
166.445 161.246 m 166.445 140.977 l S
168.988 160.988 m 168.988 141.383 l S
171.531 161.527 m 171.531 140.543 l S
174.07 161.594 m 174.07 140.234 l S
176.613 161.648 m 176.613 140.355 l S
179.152 161.328 m 179.152 140.953 l S
181.695 161.031 m 181.695 140.973 l S
184.234 160.98 m 184.234 141.176 l S
186.777 160.852 m 186.777 141.375 l S
189.316 160.965 m 189.316 141.418 l S
191.859 161.367 m 191.859 140.969 l S
194.398 161.75 m 194.398 140.375 l S
196.941 162.102 m 196.941 139.945 l S
199.48 162.473 m 199.48 139.938 l S
202.023 162.605 m 202.023 139.711 l S
204.566 162.684 m 204.566 139.539 l S
207.105 162.324 m 207.105 139.777 l S
209.648 161.891 m 209.648 140.477 l S
212.188 160.691 m 212.188 141.488 l S
214.73 159.98 m 214.73 142.305 l S
217.27 157.625 m 217.27 144.477 l S
219.812 155.074 m 219.812 147.277 l S
222.352 153.312 m 222.352 149.008 l S
224.895 152.406 m 224.895 150.102 l S
227.434 151.816 m 227.434 150.535 l S
229.977 151.625 m 229.977 150.715 l S
232.52 151.395 m 232.52 150.859 l S
235.059 151.289 m 235.059 151.027 l S
237.602 151.273 m 237.602 151.047 l S
240.141 151.258 m 240.141 151.062 l S
242.684 151.258 m 242.684 151.062 l S
245.223 151.258 m 245.223 151.062 l S
247.766 151.258 m 247.766 151.062 l S
250.305 151.258 m 250.305 151.062 l S
252.848 151.258 m 252.848 151.062 l S
255.387 151.258 m 255.387 151.062 l S
255.387 151.258 m 255.387 151.062 l S
Q Q
showpage
%%Trailer
end
%%EOF
