%!PS-Adobe-3.0 EPSF-3.0
%%Creator: cairo 1.16.0 (https://cairographics.org)
%%CreationDate: Wed May 15 11:57:28 2024
%%Pages: 1
%%DocumentData: Clean7Bit
%%LanguageLevel: 2
%%Creator: Wolfram Mathematica
%%BoundingBox: 2 6 257 170
%%EndComments
%%BeginProlog
50 dict begin
/q { gsave } bind def
/Q { grestore } bind def
/cm { 6 array astore concat } bind def
/w { setlinewidth } bind def
/J { setlinecap } bind def
/j { setlinejoin } bind def
/M { setmiterlimit } bind def
/d { setdash } bind def
/m { moveto } bind def
/l { lineto } bind def
/c { curveto } bind def
/h { closepath } bind def
/re { exch dup neg 3 1 roll 5 3 roll moveto 0 rlineto
      0 exch rlineto 0 rlineto closepath } bind def
/S { stroke } bind def
/f { fill } bind def
/f* { eofill } bind def
/n { newpath } bind def
/W { clip } bind def
/W* { eoclip } bind def
/BT { } bind def
/ET { } bind def
/BDC { mark 3 1 roll /BDC pdfmark } bind def
/EMC { mark /EMC pdfmark } bind def
/cairo_store_point { /cairo_point_y exch def /cairo_point_x exch def } def
/Tj { show currentpoint cairo_store_point } bind def
/TJ {
  {
    dup
    type /stringtype eq
    { show } { -0.001 mul 0 cairo_font_matrix dtransform rmoveto } ifelse
  } forall
  currentpoint cairo_store_point
} bind def
/cairo_selectfont { cairo_font_matrix aload pop pop pop 0 0 6 array astore
    cairo_font exch selectfont cairo_point_x cairo_point_y moveto } bind def
/Tf { pop /cairo_font exch def /cairo_font_matrix where
      { pop cairo_selectfont } if } bind def
/Td { matrix translate cairo_font_matrix matrix concatmatrix dup
      /cairo_font_matrix exch def dup 4 get exch 5 get cairo_store_point
      /cairo_font where { pop cairo_selectfont } if } bind def
/Tm { 2 copy 8 2 roll 6 array astore /cairo_font_matrix exch def
      cairo_store_point /cairo_font where { pop cairo_selectfont } if } bind def
/g { setgray } bind def
/rg { setrgbcolor } bind def
/d1 { setcachedevice } bind def
/cairo_data_source {
  CairoDataIndex CairoData length lt
    { CairoData CairoDataIndex get /CairoDataIndex CairoDataIndex 1 add def }
    { () } ifelse
} def
/cairo_flush_ascii85_file { cairo_ascii85_file status { cairo_ascii85_file flushfile } if } def
/cairo_image { image cairo_flush_ascii85_file } def
/cairo_imagemask { imagemask cairo_flush_ascii85_file } def
%%EndProlog
%%BeginSetup
%%EndSetup
%%Page: 1 1
%%BeginPageSetup
%%PageBoundingBox: 2 6 257 170
%%EndPageSetup
q 2 6 255 164 rectclip
1 0 0 -1 0 173 cm q
0 g
1.796436 w
0 J
0 j
[] 0.0 d
3.25 M 3.812 21.516 m 3.812 21.32 l S
6.352 22.031 m 6.352 20.797 l S
8.895 34.273 m 8.895 8.789 l S
11.434 37.984 m 11.434 5.215 l S
13.977 39.07 m 13.977 4.113 l S
16.52 39.465 m 16.52 3.777 l S
19.059 39.66 m 19.059 3.609 l S
21.602 39.664 m 21.602 3.598 l S
24.141 39.59 m 24.141 3.676 l S
26.684 39.641 m 26.684 3.574 l S
29.223 39.613 m 29.223 3.625 l S
31.766 39.555 m 31.766 3.711 l S
34.305 39.395 m 34.305 3.793 l S
36.848 39.469 m 36.848 3.742 l S
39.387 39.773 m 39.387 3.449 l S
41.93 39.82 m 41.93 3.41 l S
44.469 40.008 m 44.469 3.246 l S
47.012 40.039 m 47.012 3.238 l S
49.555 40.004 m 49.555 3.254 l S
52.094 39.898 m 52.094 3.312 l S
54.637 39.906 m 54.637 3.32 l S
57.176 39.93 m 57.176 3.309 l S
59.719 39.988 m 59.719 3.25 l S
62.258 40.023 m 62.258 3.184 l S
64.801 40.125 m 64.801 3.109 l S
67.34 39.961 m 67.34 3.246 l S
69.883 39.93 m 69.883 3.25 l S
72.422 39.84 m 72.422 3.355 l S
74.965 39.793 m 74.965 3.426 l S
77.508 39.777 m 77.508 3.457 l S
80.047 39.82 m 80.047 3.363 l S
82.59 39.859 m 82.59 3.355 l S
85.129 39.848 m 85.129 3.375 l S
87.672 39.809 m 87.672 3.473 l S
90.211 39.746 m 90.211 3.492 l S
92.754 39.602 m 92.754 3.609 l S
95.293 39.535 m 95.293 3.648 l S
97.836 39.512 m 97.836 3.699 l S
100.375 39.449 m 100.375 3.727 l S
102.918 39.219 m 102.918 3.98 l S
105.457 39.203 m 105.457 3.984 l S
108 39.25 m 108 3.984 l S
110.543 39.402 m 110.543 3.828 l S
113.082 39.43 m 113.082 3.762 l S
115.625 39.43 m 115.625 3.746 l S
118.164 39.508 m 118.164 3.695 l S
120.707 39.512 m 120.707 3.676 l S
123.246 39.566 m 123.246 3.641 l S
125.789 39.582 m 125.789 3.594 l S
128.328 39.66 m 128.328 3.52 l S
130.871 39.586 m 130.871 3.633 l S
133.41 39.668 m 133.41 3.523 l S
135.953 39.68 m 135.953 3.516 l S
138.492 39.641 m 138.492 3.562 l S
141.035 39.742 m 141.035 3.449 l S
143.578 39.82 m 143.578 3.445 l S
146.117 39.863 m 146.117 3.344 l S
148.66 39.875 m 148.66 3.332 l S
151.199 39.875 m 151.199 3.352 l S
153.742 39.832 m 153.742 3.367 l S
156.281 39.762 m 156.281 3.469 l S
158.824 39.66 m 158.824 3.527 l S
161.363 39.652 m 161.363 3.555 l S
163.906 39.707 m 163.906 3.52 l S
166.445 39.641 m 166.445 3.523 l S
168.988 37.719 m 168.988 5.621 l S
171.531 27.711 m 171.531 14.836 l S
174.07 22.812 m 174.07 19.84 l S
176.613 21.836 m 176.613 20.965 l S
179.152 21.555 m 179.152 21.234 l S
181.695 21.562 m 181.695 21.285 l S
184.234 21.562 m 184.234 21.312 l S
186.777 21.539 m 186.777 21.285 l S
189.316 21.531 m 189.316 21.285 l S
191.859 21.523 m 191.859 21.32 l S
194.398 21.523 m 194.398 21.305 l S
196.941 21.516 m 196.941 21.32 l S
199.48 21.527 m 199.48 21.309 l S
202.023 21.52 m 202.023 21.316 l S
204.566 21.516 m 204.566 21.32 l S
207.105 21.516 m 207.105 21.32 l S
209.648 21.516 m 209.648 21.32 l S
212.188 21.516 m 212.188 21.32 l S
214.73 21.516 m 214.73 21.32 l S
217.27 21.516 m 217.27 21.32 l S
219.812 21.516 m 219.812 21.32 l S
222.352 21.516 m 222.352 21.32 l S
224.895 21.516 m 224.895 21.32 l S
227.434 21.516 m 227.434 21.32 l S
229.977 21.516 m 229.977 21.32 l S
232.52 21.516 m 232.52 21.32 l S
235.059 21.516 m 235.059 21.32 l S
237.602 21.516 m 237.602 21.32 l S
240.141 21.516 m 240.141 21.32 l S
242.684 21.516 m 242.684 21.32 l S
245.223 21.516 m 245.223 21.32 l S
247.766 21.516 m 247.766 21.32 l S
250.305 21.516 m 250.305 21.32 l S
252.848 21.516 m 252.848 21.32 l S
255.387 21.516 m 255.387 21.32 l S
255.387 21.516 m 255.387 21.32 l S
3.812 64.715 m 3.812 64.52 l S
6.352 65.18 m 6.352 64.125 l S
8.895 70.566 m 8.895 58.746 l S
11.434 72.852 m 11.434 56.77 l S
13.977 73.215 m 13.977 56.059 l S
16.52 73.512 m 16.52 55.84 l S
19.059 73.531 m 19.059 55.848 l S
21.602 73.668 m 21.602 55.758 l S
24.141 73.473 m 24.141 55.832 l S
26.684 73.562 m 26.684 55.746 l S
29.223 73.527 m 29.223 55.789 l S
31.766 73.477 m 31.766 55.824 l S
34.305 73.438 m 34.305 55.898 l S
36.848 73.371 m 36.848 55.809 l S
39.387 73.586 m 39.387 55.766 l S
41.93 73.641 m 41.93 55.668 l S
44.469 73.809 m 44.469 55.574 l S
47.012 73.883 m 47.012 55.512 l S
49.555 73.754 m 49.555 55.547 l S
52.094 73.84 m 52.094 55.582 l S
54.637 73.84 m 54.637 55.562 l S
57.176 73.812 m 57.176 55.465 l S
59.719 73.754 m 59.719 55.457 l S
62.258 73.871 m 62.258 55.512 l S
64.801 73.844 m 64.801 55.52 l S
67.34 73.719 m 67.34 55.57 l S
69.883 73.719 m 69.883 55.586 l S
72.422 73.691 m 72.422 55.59 l S
74.965 73.656 m 74.965 55.68 l S
77.508 73.594 m 77.508 55.652 l S
80.047 73.766 m 80.047 55.488 l S
82.59 73.812 m 82.59 55.48 l S
85.129 73.852 m 85.129 55.402 l S
87.672 73.781 m 87.672 55.512 l S
90.211 73.656 m 90.211 55.625 l S
92.754 73.5 m 92.754 55.82 l S
95.293 73.48 m 95.293 55.773 l S
97.836 73.648 m 97.836 55.824 l S
100.375 73.477 m 100.375 55.832 l S
102.918 73.316 m 102.918 55.91 l S
105.457 73.402 m 105.457 55.906 l S
108 73.309 m 108 55.898 l S
110.543 73.441 m 110.543 55.867 l S
113.082 73.551 m 113.082 55.75 l S
115.625 73.449 m 115.625 55.781 l S
118.164 73.527 m 118.164 55.75 l S
120.707 73.492 m 120.707 55.746 l S
123.246 73.562 m 123.246 55.805 l S
125.789 73.629 m 125.789 55.734 l S
128.328 73.648 m 128.328 55.641 l S
130.871 73.566 m 130.871 55.789 l S
133.41 73.688 m 133.41 55.488 l S
135.953 73.664 m 135.953 55.324 l S
138.492 73.809 m 138.492 55.555 l S
141.035 73.836 m 141.035 55.363 l S
143.578 73.746 m 143.578 55.617 l S
146.117 73.906 m 146.117 55.57 l S
148.66 73.773 m 148.66 55.531 l S
151.199 73.734 m 151.199 55.516 l S
153.742 73.727 m 153.742 55.582 l S
156.281 73.625 m 156.281 55.652 l S
158.824 73.609 m 158.824 55.645 l S
161.363 73.566 m 161.363 55.742 l S
163.906 73.621 m 163.906 55.648 l S
166.445 73.676 m 166.445 55.578 l S
168.988 72.215 m 168.988 57.121 l S
171.531 67.488 m 171.531 61.57 l S
174.07 65.375 m 174.07 63.887 l S
176.613 64.965 m 176.613 64.207 l S
179.152 64.93 m 179.152 64.371 l S
181.695 64.883 m 181.695 64.297 l S
184.234 64.895 m 184.234 64.422 l S
186.777 64.793 m 186.777 64.387 l S
189.316 64.785 m 189.316 64.457 l S
191.859 64.762 m 191.859 64.477 l S
194.398 64.746 m 194.398 64.492 l S
196.941 64.793 m 196.941 64.391 l S
199.48 64.758 m 199.48 64.465 l S
202.023 64.785 m 202.023 64.5 l S
204.566 64.758 m 204.566 64.488 l S
207.105 64.809 m 207.105 64.492 l S
209.648 64.719 m 209.648 64.5 l S
212.188 64.742 m 212.188 64.488 l S
214.73 64.715 m 214.73 64.52 l S
217.27 64.715 m 217.27 64.52 l S
219.812 64.715 m 219.812 64.52 l S
222.352 64.715 m 222.352 64.52 l S
224.895 64.715 m 224.895 64.52 l S
227.434 64.715 m 227.434 64.52 l S
229.977 64.715 m 229.977 64.52 l S
232.52 64.715 m 232.52 64.52 l S
235.059 64.715 m 235.059 64.52 l S
237.602 64.715 m 237.602 64.52 l S
240.141 64.715 m 240.141 64.52 l S
242.684 64.715 m 242.684 64.52 l S
245.223 64.715 m 245.223 64.52 l S
247.766 64.715 m 247.766 64.52 l S
250.305 64.715 m 250.305 64.52 l S
252.848 64.715 m 252.848 64.52 l S
255.387 64.715 m 255.387 64.52 l S
255.387 64.715 m 255.387 64.52 l S
3.812 107.914 m 3.812 107.719 l S
6.352 109.129 m 6.352 107.02 l S
8.895 121.77 m 8.895 94.293 l S
11.434 125.547 m 11.434 91.055 l S
13.977 126.207 m 13.977 89.711 l S
16.52 126.762 m 16.52 89.105 l S
19.059 126.863 m 19.059 89 l S
21.602 126.977 m 21.602 89.062 l S
24.141 126.73 m 24.141 89.047 l S
26.684 126.902 m 26.684 88.98 l S
29.223 126.879 m 29.223 89.004 l S
31.766 126.863 m 31.766 89.086 l S
34.305 126.777 m 34.305 89.125 l S
36.848 126.77 m 36.848 89.125 l S
39.387 127.078 m 39.387 88.816 l S
41.93 127.23 m 41.93 88.719 l S
44.469 127.316 m 44.469 88.578 l S
47.012 127.41 m 47.012 88.527 l S
49.555 127.352 m 49.555 88.57 l S
52.094 127.48 m 52.094 88.566 l S
54.637 127.391 m 54.637 88.602 l S
57.176 127.398 m 57.176 88.438 l S
59.719 127.43 m 59.719 88.477 l S
62.258 127.633 m 62.258 88.434 l S
64.801 127.637 m 64.801 88.363 l S
67.34 127.367 m 67.34 88.473 l S
69.883 127.445 m 69.883 88.535 l S
72.422 127.285 m 72.422 88.551 l S
74.965 127.184 m 74.965 88.691 l S
77.508 127.203 m 77.508 88.629 l S
80.047 127.355 m 80.047 88.473 l S
82.59 127.355 m 82.59 88.621 l S
85.129 127.328 m 85.129 88.398 l S
87.672 127.281 m 87.672 88.656 l S
90.211 127.168 m 90.211 88.672 l S
92.754 127.027 m 92.754 88.871 l S
95.293 126.969 m 95.293 88.879 l S
97.836 127.07 m 97.836 88.961 l S
100.375 126.867 m 100.375 89.047 l S
102.918 126.684 m 102.918 89.18 l S
105.457 126.773 m 105.457 89.156 l S
108 126.77 m 108 89.109 l S
110.543 126.812 m 110.543 89.023 l S
113.082 127.02 m 113.082 88.895 l S
115.625 126.969 m 115.625 88.965 l S
118.164 127.035 m 118.164 88.844 l S
120.707 127.078 m 120.707 88.785 l S
123.246 126.98 m 123.246 88.914 l S
125.789 127.145 m 125.789 88.797 l S
128.328 127.262 m 128.328 88.766 l S
130.871 127.098 m 130.871 88.832 l S
133.41 127.195 m 133.41 88.66 l S
135.953 127.215 m 135.953 88.625 l S
138.492 127.18 m 138.492 88.695 l S
141.035 127.316 m 141.035 88.555 l S
143.578 127.246 m 143.578 88.578 l S
146.117 127.539 m 146.117 88.484 l S
148.66 127.402 m 148.66 88.531 l S
151.199 127.355 m 151.199 88.57 l S
153.742 127.281 m 153.742 88.594 l S
156.281 127.18 m 156.281 88.637 l S
158.824 127.137 m 158.824 88.734 l S
161.363 127.094 m 161.363 88.77 l S
163.906 127.172 m 163.906 88.672 l S
166.445 127.203 m 166.445 88.75 l S
168.988 124.328 m 168.988 91.504 l S
171.531 114.164 m 171.531 101.535 l S
174.07 109.336 m 174.07 106.668 l S
176.613 108.309 m 176.613 107.414 l S
179.152 108.145 m 179.152 107.562 l S
181.695 108.082 m 181.695 107.492 l S
184.234 108.141 m 184.234 107.539 l S
186.777 108.129 m 186.777 107.484 l S
189.316 108.043 m 189.316 107.613 l S
191.859 107.996 m 191.859 107.629 l S
194.398 107.996 m 194.398 107.617 l S
196.941 108.074 m 196.941 107.598 l S
199.48 107.977 m 199.48 107.641 l S
202.023 107.992 m 202.023 107.68 l S
204.566 108.016 m 204.566 107.656 l S
207.105 107.992 m 207.105 107.676 l S
209.648 107.945 m 209.648 107.684 l S
212.188 107.934 m 212.188 107.66 l S
214.73 107.914 m 214.73 107.719 l S
217.27 107.914 m 217.27 107.719 l S
219.812 107.914 m 219.812 107.719 l S
222.352 107.914 m 222.352 107.719 l S
224.895 107.914 m 224.895 107.719 l S
227.434 107.914 m 227.434 107.719 l S
229.977 107.914 m 229.977 107.719 l S
232.52 107.914 m 232.52 107.719 l S
235.059 107.914 m 235.059 107.719 l S
237.602 107.914 m 237.602 107.719 l S
240.141 107.914 m 240.141 107.719 l S
242.684 107.914 m 242.684 107.719 l S
245.223 107.914 m 245.223 107.719 l S
247.766 107.914 m 247.766 107.719 l S
250.305 107.914 m 250.305 107.719 l S
252.848 107.914 m 252.848 107.719 l S
255.387 107.914 m 255.387 107.719 l S
255.387 107.914 m 255.387 107.719 l S
3.812 151.117 m 3.812 150.918 l S
6.352 151.84 m 6.352 150.016 l S
8.895 162.066 m 8.895 139.809 l S
11.434 165.266 m 11.434 136.918 l S
13.977 165.809 m 13.977 136.117 l S
16.52 166.164 m 16.52 135.992 l S
19.059 166.207 m 19.059 135.883 l S
21.602 166.359 m 21.602 135.973 l S
24.141 166.117 m 24.141 135.84 l S
26.684 166.18 m 26.684 135.809 l S
29.223 166.164 m 29.223 135.984 l S
31.766 166.105 m 31.766 135.992 l S
34.305 166.047 m 34.305 135.961 l S
36.848 165.973 m 36.848 136.117 l S
39.387 166.27 m 39.387 135.82 l S
41.93 166.441 m 41.93 135.68 l S
44.469 166.551 m 44.469 135.668 l S
47.012 166.633 m 47.012 135.461 l S
49.555 166.559 m 49.555 135.633 l S
52.094 166.762 m 52.094 135.594 l S
54.637 166.629 m 54.637 135.633 l S
57.176 166.715 m 57.176 135.242 l S
59.719 166.543 m 59.719 135.484 l S
62.258 166.809 m 62.258 135.316 l S
64.801 166.906 m 64.801 135.344 l S
67.34 166.609 m 67.34 135.543 l S
69.883 166.594 m 69.883 135.633 l S
72.422 166.344 m 72.422 135.684 l S
74.965 166.32 m 74.965 135.828 l S
77.508 166.367 m 77.508 135.727 l S
80.047 166.578 m 80.047 135.371 l S
82.59 166.609 m 82.59 135.586 l S
85.129 166.641 m 85.129 135.184 l S
87.672 166.512 m 87.672 135.637 l S
90.211 166.301 m 90.211 135.676 l S
92.754 166.203 m 92.754 135.988 l S
95.293 166.176 m 95.293 135.941 l S
97.836 166.316 m 97.836 135.988 l S
100.375 166.055 m 100.375 135.914 l S
102.918 165.863 m 102.918 136.074 l S
105.457 166.027 m 105.457 136.074 l S
108 165.891 m 108 136.117 l S
110.543 166.141 m 110.543 136.004 l S
113.082 166.312 m 113.082 135.805 l S
115.625 166.082 m 115.625 136.027 l S
118.164 166.281 m 118.164 135.859 l S
120.707 166.191 m 120.707 135.828 l S
123.246 166.227 m 123.246 135.977 l S
125.789 166.383 m 125.789 135.887 l S
128.328 166.383 m 128.328 135.867 l S
130.871 166.23 m 130.871 135.953 l S
133.41 166.395 m 133.41 135.684 l S
135.953 166.434 m 135.953 135.305 l S
138.492 166.27 m 138.492 135.676 l S
141.035 166.688 m 141.035 135.367 l S
143.578 166.484 m 143.578 135.559 l S
146.117 166.785 m 146.117 135.605 l S
148.66 166.523 m 148.66 135.637 l S
151.199 166.484 m 151.199 135.684 l S
153.742 166.527 m 153.742 135.762 l S
156.281 166.234 m 156.281 135.723 l S
158.824 166.27 m 158.824 135.805 l S
161.363 166.23 m 161.363 135.914 l S
163.906 166.371 m 163.906 135.703 l S
166.445 166.422 m 166.445 135.82 l S
168.988 163.734 m 168.988 138.332 l S
171.531 155.316 m 171.531 146.305 l S
174.07 152.332 m 174.07 149.898 l S
176.613 151.613 m 176.613 150.43 l S
179.152 151.629 m 179.152 150.641 l S
181.695 151.449 m 181.695 150.387 l S
184.234 151.418 m 184.234 150.609 l S
186.777 151.391 m 186.777 150.617 l S
189.316 151.387 m 189.316 150.684 l S
191.859 151.32 m 191.859 150.75 l S
194.398 151.273 m 194.398 150.777 l S
196.941 151.359 m 196.941 150.523 l S
199.48 151.379 m 199.48 150.672 l S
202.023 151.246 m 202.023 150.758 l S
204.566 151.273 m 204.566 150.785 l S
207.105 151.293 m 207.105 150.781 l S
209.648 151.207 m 209.648 150.828 l S
212.188 151.215 m 212.188 150.82 l S
214.73 151.16 m 214.73 150.875 l S
217.27 151.145 m 217.27 150.883 l S
219.812 151.121 m 219.812 150.906 l S
222.352 151.117 m 222.352 150.918 l S
224.895 151.117 m 224.895 150.906 l S
227.434 151.117 m 227.434 150.918 l S
229.977 151.117 m 229.977 150.918 l S
232.52 151.117 m 232.52 150.918 l S
235.059 151.176 m 235.059 150.902 l S
237.602 151.117 m 237.602 150.918 l S
240.141 151.117 m 240.141 150.918 l S
242.684 151.117 m 242.684 150.918 l S
245.223 151.117 m 245.223 150.918 l S
247.766 151.117 m 247.766 150.918 l S
250.305 151.117 m 250.305 150.918 l S
252.848 151.117 m 252.848 150.918 l S
255.387 151.117 m 255.387 150.918 l S
255.387 151.117 m 255.387 150.918 l S
Q Q
showpage
%%Trailer
end
%%EOF
