%!PS-Adobe-3.0 EPSF-3.0
%%Creator: cairo 1.16.0 (https://cairographics.org)
%%CreationDate: Wed May 15 11:57:29 2024
%%Pages: 1
%%DocumentData: Clean7Bit
%%LanguageLevel: 2
%%Creator: Wolfram Mathematica
%%BoundingBox: 2 2 257 168
%%EndComments
%%BeginProlog
50 dict begin
/q { gsave } bind def
/Q { grestore } bind def
/cm { 6 array astore concat } bind def
/w { setlinewidth } bind def
/J { setlinecap } bind def
/j { setlinejoin } bind def
/M { setmiterlimit } bind def
/d { setdash } bind def
/m { moveto } bind def
/l { lineto } bind def
/c { curveto } bind def
/h { closepath } bind def
/re { exch dup neg 3 1 roll 5 3 roll moveto 0 rlineto
      0 exch rlineto 0 rlineto closepath } bind def
/S { stroke } bind def
/f { fill } bind def
/f* { eofill } bind def
/n { newpath } bind def
/W { clip } bind def
/W* { eoclip } bind def
/BT { } bind def
/ET { } bind def
/BDC { mark 3 1 roll /BDC pdfmark } bind def
/EMC { mark /EMC pdfmark } bind def
/cairo_store_point { /cairo_point_y exch def /cairo_point_x exch def } def
/Tj { show currentpoint cairo_store_point } bind def
/TJ {
  {
    dup
    type /stringtype eq
    { show } { -0.001 mul 0 cairo_font_matrix dtransform rmoveto } ifelse
  } forall
  currentpoint cairo_store_point
} bind def
/cairo_selectfont { cairo_font_matrix aload pop pop pop 0 0 6 array astore
    cairo_font exch selectfont cairo_point_x cairo_point_y moveto } bind def
/Tf { pop /cairo_font exch def /cairo_font_matrix where
      { pop cairo_selectfont } if } bind def
/Td { matrix translate cairo_font_matrix matrix concatmatrix dup
      /cairo_font_matrix exch def dup 4 get exch 5 get cairo_store_point
      /cairo_font where { pop cairo_selectfont } if } bind def
/Tm { 2 copy 8 2 roll 6 array astore /cairo_font_matrix exch def
      cairo_store_point /cairo_font where { pop cairo_selectfont } if } bind def
/g { setgray } bind def
/rg { setrgbcolor } bind def
/d1 { setcachedevice } bind def
/cairo_data_source {
  CairoDataIndex CairoData length lt
    { CairoData CairoDataIndex get /CairoDataIndex CairoDataIndex 1 add def }
    { () } ifelse
} def
/cairo_flush_ascii85_file { cairo_ascii85_file status { cairo_ascii85_file flushfile } if } def
/cairo_image { image cairo_flush_ascii85_file } def
/cairo_imagemask { imagemask cairo_flush_ascii85_file } def
%%EndProlog
%%BeginSetup
%%EndSetup
%%Page: 1 1
%%BeginPageSetup
%%PageBoundingBox: 2 2 257 168
%%EndPageSetup
q 2 2 255 166 rectclip
1 0 0 -1 0 173 cm q
0 g
1.796436 w
0 J
0 j
[] 0.0 d
3.25 M 3.812 21.875 m 3.812 21.676 l S
6.352 22.621 m 6.352 20.891 l S
8.895 30.656 m 8.895 13.234 l S
11.434 33.98 m 11.434 9.867 l S
13.977 35.758 m 13.977 7.887 l S
16.52 36.832 m 16.52 6.797 l S
19.059 37.277 m 19.059 6.285 l S
21.602 37.465 m 21.602 6.129 l S
24.141 37.578 m 24.141 5.965 l S
26.684 37.859 m 26.684 5.727 l S
29.223 38.035 m 29.223 5.523 l S
31.766 38.07 m 31.766 5.508 l S
34.305 38.156 m 34.305 5.422 l S
36.848 38.227 m 36.848 5.344 l S
39.387 38.121 m 39.387 5.445 l S
41.93 38.09 m 41.93 5.438 l S
44.469 38.121 m 44.469 5.422 l S
47.012 38.109 m 47.012 5.441 l S
49.555 38.023 m 49.555 5.566 l S
52.094 38.008 m 52.094 5.531 l S
54.637 38.031 m 54.637 5.535 l S
57.176 37.977 m 57.176 5.598 l S
59.719 37.875 m 59.719 5.68 l S
62.258 37.871 m 62.258 5.711 l S
64.801 37.883 m 64.801 5.695 l S
67.34 37.828 m 67.34 5.742 l S
69.883 37.793 m 69.883 5.809 l S
72.422 37.891 m 72.422 5.723 l S
74.965 37.898 m 74.965 5.672 l S
77.508 37.941 m 77.508 5.641 l S
80.047 37.961 m 80.047 5.637 l S
82.59 37.93 m 82.59 5.66 l S
85.129 37.883 m 85.129 5.695 l S
87.672 37.801 m 87.672 5.781 l S
90.211 37.781 m 90.211 5.809 l S
92.754 37.754 m 92.754 5.801 l S
95.293 37.648 m 95.293 5.938 l S
97.836 37.633 m 97.836 5.953 l S
100.375 37.695 m 100.375 5.914 l S
102.918 37.707 m 102.918 5.898 l S
105.457 37.684 m 105.457 5.883 l S
108 37.609 m 108 5.996 l S
110.543 37.285 m 110.543 6.305 l S
113.082 37.125 m 113.082 6.473 l S
115.625 37.039 m 115.625 6.605 l S
118.164 37.008 m 118.164 6.617 l S
120.707 36.996 m 120.707 6.633 l S
123.246 37.016 m 123.246 6.633 l S
125.789 37.031 m 125.789 6.59 l S
128.328 37.09 m 128.328 6.555 l S
130.871 37.125 m 130.871 6.527 l S
133.41 37.074 m 133.41 6.543 l S
135.953 37.156 m 135.953 6.508 l S
138.492 37.145 m 138.492 6.512 l S
141.035 37.145 m 141.035 6.488 l S
143.578 37.141 m 143.578 6.457 l S
146.117 37.184 m 146.117 6.422 l S
148.66 37.215 m 148.66 6.398 l S
151.199 37.246 m 151.199 6.387 l S
153.742 37.254 m 153.742 6.375 l S
156.281 37.25 m 156.281 6.375 l S
158.824 37.203 m 158.824 6.418 l S
161.363 37.184 m 161.363 6.434 l S
163.906 37.191 m 163.906 6.426 l S
166.445 37.195 m 166.445 6.418 l S
168.988 37.215 m 168.988 6.406 l S
171.531 37.188 m 171.531 6.422 l S
174.07 37.18 m 174.07 6.449 l S
176.613 37.16 m 176.613 6.453 l S
179.152 37.156 m 179.152 6.473 l S
181.695 37.168 m 181.695 6.461 l S
184.234 37.223 m 184.234 6.426 l S
186.777 37.215 m 186.777 6.402 l S
189.316 37.281 m 189.316 6.316 l S
191.859 37.281 m 191.859 6.363 l S
194.398 36.406 m 194.398 7.32 l S
196.941 32.68 m 196.941 11.039 l S
199.48 29.68 m 199.48 14.195 l S
202.023 27.465 m 202.023 16.508 l S
204.566 25.609 m 204.566 18.176 l S
207.105 24.211 m 207.105 19.398 l S
209.648 23.359 m 209.648 20.18 l S
212.188 22.805 m 212.188 20.742 l S
214.73 22.398 m 214.73 21.129 l S
217.27 22.238 m 217.27 21.305 l S
219.812 22.117 m 219.812 21.457 l S
222.352 21.977 m 222.352 21.57 l S
224.895 21.934 m 224.895 21.609 l S
227.434 21.879 m 227.434 21.676 l S
229.977 21.875 m 229.977 21.676 l S
232.52 21.875 m 232.52 21.676 l S
235.059 21.875 m 235.059 21.676 l S
237.602 21.875 m 237.602 21.676 l S
240.141 21.875 m 240.141 21.676 l S
242.684 21.875 m 242.684 21.676 l S
245.223 21.875 m 245.223 21.676 l S
247.766 21.875 m 247.766 21.676 l S
250.305 21.875 m 250.305 21.676 l S
252.848 21.875 m 252.848 21.676 l S
255.387 21.875 m 255.387 21.676 l S
255.387 21.875 m 255.387 21.676 l S
3.812 65.074 m 3.812 64.875 l S
6.352 65.531 m 6.352 64.25 l S
8.895 72.07 m 8.895 58.059 l S
11.434 74.211 m 11.434 55.684 l S
13.977 75.684 m 13.977 54.234 l S
16.52 76.738 m 16.52 53.355 l S
19.059 77.176 m 19.059 52.938 l S
21.602 77.352 m 21.602 52.684 l S
24.141 77.484 m 24.141 52.578 l S
26.684 77.719 m 26.684 52.426 l S
29.223 77.781 m 29.223 52.254 l S
31.766 77.887 m 31.766 52.16 l S
34.305 77.875 m 34.305 52.137 l S
36.848 77.93 m 36.848 52.148 l S
39.387 77.934 m 39.387 52.141 l S
41.93 77.941 m 41.93 52.148 l S
44.469 77.883 m 44.469 52.172 l S
47.012 77.91 m 47.012 52.133 l S
49.555 77.848 m 49.555 52.176 l S
52.094 77.84 m 52.094 52.238 l S
54.637 77.824 m 54.637 52.234 l S
57.176 77.82 m 57.176 52.254 l S
59.719 77.766 m 59.719 52.266 l S
62.258 77.746 m 62.258 52.258 l S
64.801 77.73 m 64.801 52.238 l S
67.34 77.711 m 67.34 52.297 l S
69.883 77.707 m 69.883 52.344 l S
72.422 77.684 m 72.422 52.332 l S
74.965 77.707 m 74.965 52.344 l S
77.508 77.75 m 77.508 52.254 l S
80.047 77.762 m 80.047 52.289 l S
82.59 77.773 m 82.59 52.277 l S
85.129 77.75 m 85.129 52.277 l S
87.672 77.684 m 87.672 52.387 l S
90.211 77.711 m 90.211 52.336 l S
92.754 77.645 m 92.754 52.367 l S
95.293 77.672 m 95.293 52.426 l S
97.836 77.625 m 97.836 52.426 l S
100.375 77.609 m 100.375 52.438 l S
102.918 77.609 m 102.918 52.418 l S
105.457 77.664 m 105.457 52.406 l S
108 77.578 m 108 52.41 l S
110.543 77.359 m 110.543 52.672 l S
113.082 77.258 m 113.082 52.781 l S
115.625 77.156 m 115.625 52.848 l S
118.164 77.184 m 118.164 52.875 l S
120.707 77.117 m 120.707 52.93 l S
123.246 77.102 m 123.246 52.84 l S
125.789 77.168 m 125.789 52.922 l S
128.328 77.246 m 128.328 52.855 l S
130.871 77.199 m 130.871 52.805 l S
133.41 77.406 m 133.41 52.844 l S
135.953 77.227 m 135.953 52.797 l S
138.492 77.254 m 138.492 52.758 l S
141.035 77.25 m 141.035 52.762 l S
143.578 77.305 m 143.578 52.828 l S
146.117 77.234 m 146.117 52.836 l S
148.66 77.25 m 148.66 52.82 l S
151.199 77.293 m 151.199 52.773 l S
153.742 77.285 m 153.742 52.719 l S
156.281 77.336 m 156.281 52.754 l S
158.824 77.277 m 158.824 52.742 l S
161.363 77.324 m 161.363 52.809 l S
163.906 77.281 m 163.906 52.758 l S
166.445 77.34 m 166.445 52.773 l S
168.988 77.293 m 168.988 52.711 l S
171.531 77.336 m 171.531 52.711 l S
174.07 77.234 m 174.07 52.777 l S
176.613 77.207 m 176.613 52.777 l S
179.152 77.238 m 179.152 52.805 l S
181.695 77.23 m 181.695 52.824 l S
184.234 77.293 m 184.234 52.77 l S
186.777 77.234 m 186.777 52.805 l S
189.316 77.27 m 189.316 52.789 l S
191.859 77.215 m 191.859 52.84 l S
194.398 76.383 m 194.398 53.691 l S
196.941 73.41 m 196.941 56.555 l S
199.48 70.785 m 199.48 58.82 l S
202.023 68.961 m 202.023 61.055 l S
204.566 67.648 m 204.566 62.406 l S
207.105 66.609 m 207.105 63.176 l S
209.648 66.172 m 209.648 63.613 l S
212.188 65.699 m 212.188 64.242 l S
214.73 65.605 m 214.73 64.422 l S
217.27 65.387 m 217.27 64.512 l S
219.812 65.348 m 219.812 64.738 l S
222.352 65.145 m 222.352 64.805 l S
224.895 65.121 m 224.895 64.836 l S
227.434 65.086 m 227.434 64.848 l S
229.977 65.074 m 229.977 64.875 l S
232.52 65.074 m 232.52 64.875 l S
235.059 65.074 m 235.059 64.875 l S
237.602 65.074 m 237.602 64.875 l S
240.141 65.074 m 240.141 64.875 l S
242.684 65.074 m 242.684 64.875 l S
245.223 65.074 m 245.223 64.875 l S
247.766 65.074 m 247.766 64.875 l S
250.305 65.074 m 250.305 64.875 l S
252.848 65.074 m 252.848 64.875 l S
255.387 65.074 m 255.387 64.875 l S
255.387 65.074 m 255.387 64.875 l S
3.812 108.297 m 3.812 108.074 l S
6.352 109.246 m 6.352 107.438 l S
8.895 118.594 m 8.895 97.859 l S
11.434 121.762 m 11.434 94.5 l S
13.977 123.836 m 13.977 92.543 l S
16.52 124.992 m 16.52 91.352 l S
19.059 125.594 m 19.059 90.871 l S
21.602 125.793 m 21.602 90.582 l S
24.141 125.969 m 24.141 90.508 l S
26.684 126.195 m 26.684 90.242 l S
29.223 126.402 m 29.223 90.031 l S
31.766 126.457 m 31.766 89.883 l S
34.305 126.555 m 34.305 89.812 l S
36.848 126.594 m 36.848 89.754 l S
39.387 126.527 m 39.387 89.879 l S
41.93 126.555 m 41.93 89.898 l S
44.469 126.539 m 44.469 89.863 l S
47.012 126.602 m 47.012 89.801 l S
49.555 126.488 m 49.555 89.855 l S
52.094 126.477 m 52.094 89.961 l S
54.637 126.43 m 54.637 89.914 l S
57.176 126.371 m 57.176 90 l S
59.719 126.336 m 59.719 90.09 l S
62.258 126.281 m 62.258 90.074 l S
64.801 126.305 m 64.801 90.09 l S
67.34 126.254 m 67.34 90.109 l S
69.883 126.254 m 69.883 90.176 l S
72.422 126.27 m 72.422 90.09 l S
74.965 126.301 m 74.965 90.07 l S
77.508 126.363 m 77.508 90.047 l S
80.047 126.348 m 80.047 90.023 l S
82.59 126.332 m 82.59 90.082 l S
85.129 126.309 m 85.129 90.094 l S
87.672 126.23 m 87.672 90.184 l S
90.211 126.266 m 90.211 90.199 l S
92.754 126.195 m 92.754 90.199 l S
95.293 126.145 m 95.293 90.262 l S
97.836 126.078 m 97.836 90.312 l S
100.375 126.117 m 100.375 90.262 l S
102.918 126.125 m 102.918 90.285 l S
105.457 126.164 m 105.457 90.234 l S
108 126.055 m 108 90.367 l S
110.543 125.699 m 110.543 90.688 l S
113.082 125.582 m 113.082 90.828 l S
115.625 125.445 m 115.625 90.91 l S
118.164 125.406 m 118.164 90.934 l S
120.707 125.383 m 120.707 90.984 l S
123.246 125.395 m 123.246 90.957 l S
125.789 125.492 m 125.789 90.98 l S
128.328 125.535 m 128.328 90.895 l S
130.871 125.527 m 130.871 90.875 l S
133.41 125.613 m 133.41 90.879 l S
135.953 125.512 m 135.953 90.859 l S
138.492 125.598 m 138.492 90.824 l S
141.035 125.641 m 141.035 90.793 l S
143.578 125.645 m 143.578 90.812 l S
146.117 125.574 m 146.117 90.848 l S
148.66 125.664 m 148.66 90.82 l S
151.199 125.676 m 151.199 90.777 l S
153.742 125.625 m 153.742 90.75 l S
156.281 125.617 m 156.281 90.77 l S
158.824 125.594 m 158.824 90.793 l S
161.363 125.613 m 161.363 90.809 l S
163.906 125.668 m 163.906 90.777 l S
166.445 125.66 m 166.445 90.797 l S
168.988 125.656 m 168.988 90.73 l S
171.531 125.598 m 171.531 90.77 l S
174.07 125.562 m 174.07 90.828 l S
176.613 125.551 m 176.613 90.812 l S
179.152 125.602 m 179.152 90.766 l S
181.695 125.57 m 181.695 90.832 l S
184.234 125.633 m 184.234 90.812 l S
186.777 125.602 m 186.777 90.777 l S
189.316 125.742 m 189.316 90.703 l S
191.859 125.672 m 191.859 90.77 l S
194.398 124.539 m 194.398 92.035 l S
196.941 120.586 m 196.941 95.699 l S
199.48 116.969 m 199.48 99.074 l S
202.023 114.645 m 202.023 101.879 l S
204.566 112.629 m 204.566 103.754 l S
207.105 110.953 m 207.105 105.133 l S
209.648 110.16 m 209.648 106.027 l S
212.188 109.43 m 212.188 106.828 l S
214.73 109.102 m 214.73 107.285 l S
217.27 108.832 m 217.27 107.496 l S
219.812 108.723 m 219.812 107.812 l S
222.352 108.469 m 222.352 107.883 l S
224.895 108.418 m 224.895 107.934 l S
227.434 108.332 m 227.434 108.02 l S
229.977 108.293 m 229.977 108.078 l S
232.52 108.273 m 232.52 108.078 l S
235.059 108.273 m 235.059 108.078 l S
237.602 108.273 m 237.602 108.078 l S
240.141 108.273 m 240.141 108.078 l S
242.684 108.273 m 242.684 108.078 l S
245.223 108.273 m 245.223 108.078 l S
247.766 108.273 m 247.766 108.078 l S
250.305 108.273 m 250.305 108.078 l S
252.848 108.273 m 252.848 108.078 l S
255.387 108.273 m 255.387 108.078 l S
255.387 108.273 m 255.387 108.078 l S
3.812 151.5 m 3.812 151.246 l S
6.352 152.48 m 6.352 149.766 l S
8.895 162.652 m 8.895 139.941 l S
11.434 166.105 m 11.434 136.848 l S
13.977 167.934 m 13.977 134.5 l S
16.52 169.176 m 16.52 133.238 l S
19.059 169.816 m 19.059 132.773 l S
21.602 170.043 m 21.602 132.34 l S
24.141 170.211 m 24.141 132.34 l S
26.684 170.449 m 26.684 132.059 l S
29.223 170.672 m 29.223 131.848 l S
31.766 170.707 m 31.766 131.688 l S
34.305 170.773 m 34.305 131.562 l S
36.848 170.836 m 36.848 131.625 l S
39.387 170.762 m 39.387 131.66 l S
41.93 170.809 m 41.93 131.633 l S
44.469 170.73 m 44.469 131.707 l S
47.012 170.766 m 47.012 131.691 l S
49.555 170.707 m 49.555 131.727 l S
52.094 170.688 m 52.094 131.859 l S
54.637 170.633 m 54.637 131.812 l S
57.176 170.586 m 57.176 131.887 l S
59.719 170.559 m 59.719 131.988 l S
62.258 170.508 m 62.258 131.957 l S
64.801 170.508 m 64.801 131.961 l S
67.34 170.465 m 67.34 131.98 l S
69.883 170.426 m 69.883 132.055 l S
72.422 170.422 m 72.422 131.992 l S
74.965 170.457 m 74.965 131.953 l S
77.508 170.566 m 77.508 131.922 l S
80.047 170.5 m 80.047 131.891 l S
82.59 170.57 m 82.59 131.992 l S
85.129 170.512 m 85.129 131.926 l S
87.672 170.406 m 87.672 132.066 l S
90.211 170.445 m 90.211 132.184 l S
92.754 170.414 m 92.754 132.125 l S
95.293 170.375 m 95.293 132.211 l S
97.836 170.191 m 97.836 132.191 l S
100.375 170.309 m 100.375 132.188 l S
102.918 170.285 m 102.918 132.105 l S
105.457 170.262 m 105.457 132.102 l S
108 170.215 m 108 132.238 l S
110.543 169.949 m 110.543 132.613 l S
113.082 169.641 m 113.082 132.746 l S
115.625 169.57 m 115.625 132.859 l S
118.164 169.629 m 118.164 132.871 l S
120.707 169.523 m 120.707 132.988 l S
123.246 169.492 m 123.246 132.883 l S
125.789 169.559 m 125.789 132.906 l S
128.328 169.68 m 128.328 132.992 l S
130.871 169.633 m 130.871 132.641 l S
133.41 169.773 m 133.41 132.805 l S
135.953 169.688 m 135.953 132.645 l S
138.492 169.77 m 138.492 132.758 l S
141.035 169.816 m 141.035 132.586 l S
143.578 169.801 m 143.578 132.754 l S
146.117 169.727 m 146.117 132.789 l S
148.66 169.723 m 148.66 132.738 l S
151.199 169.867 m 151.199 132.664 l S
153.742 169.734 m 153.742 132.602 l S
156.281 169.73 m 156.281 132.695 l S
158.824 169.691 m 158.824 132.727 l S
161.363 169.703 m 161.363 132.781 l S
163.906 169.836 m 163.906 132.746 l S
166.445 169.793 m 166.445 132.668 l S
168.988 169.75 m 168.988 132.77 l S
171.531 169.703 m 171.531 132.648 l S
174.07 169.762 m 174.07 132.727 l S
176.613 169.707 m 176.613 132.793 l S
179.152 169.762 m 179.152 132.664 l S
181.695 169.773 m 181.695 132.664 l S
184.234 169.73 m 184.234 132.719 l S
186.777 169.801 m 186.777 132.574 l S
189.316 169.891 m 189.316 132.637 l S
191.859 169.801 m 191.859 132.844 l S
194.398 168.223 m 194.398 134.172 l S
196.941 163.598 m 196.941 138.746 l S
199.48 160.105 m 199.48 141.988 l S
202.023 157.844 m 202.023 145.07 l S
204.566 155.852 m 204.566 147.023 l S
207.105 154.383 m 207.105 148.07 l S
209.648 153.379 m 209.648 148.809 l S
212.188 152.785 m 212.188 149.891 l S
214.73 152.586 m 214.73 150.203 l S
217.27 152.254 m 217.27 150.41 l S
219.812 152.062 m 219.812 150.867 l S
222.352 151.719 m 222.352 151.051 l S
224.895 151.617 m 224.895 151.102 l S
227.434 151.562 m 227.434 151.156 l S
229.977 151.555 m 229.977 151.215 l S
232.52 151.477 m 232.52 151.27 l S
235.059 151.473 m 235.059 151.266 l S
237.602 151.473 m 237.602 151.277 l S
240.141 151.473 m 240.141 151.277 l S
242.684 151.473 m 242.684 151.277 l S
245.223 151.473 m 245.223 151.277 l S
247.766 151.473 m 247.766 151.277 l S
250.305 151.473 m 250.305 151.277 l S
252.848 151.473 m 252.848 151.277 l S
255.387 151.473 m 255.387 151.277 l S
255.387 151.473 m 255.387 151.277 l S
Q Q
showpage
%%Trailer
end
%%EOF
