%!PS-Adobe-3.0 EPSF-3.0
%%Creator: cairo 1.16.0 (https://cairographics.org)
%%CreationDate: Wed May 15 11:57:29 2024
%%Pages: 1
%%DocumentData: Clean7Bit
%%LanguageLevel: 2
%%Creator: Wolfram Mathematica
%%BoundingBox: 2 5 257 170
%%EndComments
%%BeginProlog
50 dict begin
/q { gsave } bind def
/Q { grestore } bind def
/cm { 6 array astore concat } bind def
/w { setlinewidth } bind def
/J { setlinecap } bind def
/j { setlinejoin } bind def
/M { setmiterlimit } bind def
/d { setdash } bind def
/m { moveto } bind def
/l { lineto } bind def
/c { curveto } bind def
/h { closepath } bind def
/re { exch dup neg 3 1 roll 5 3 roll moveto 0 rlineto
      0 exch rlineto 0 rlineto closepath } bind def
/S { stroke } bind def
/f { fill } bind def
/f* { eofill } bind def
/n { newpath } bind def
/W { clip } bind def
/W* { eoclip } bind def
/BT { } bind def
/ET { } bind def
/BDC { mark 3 1 roll /BDC pdfmark } bind def
/EMC { mark /EMC pdfmark } bind def
/cairo_store_point { /cairo_point_y exch def /cairo_point_x exch def } def
/Tj { show currentpoint cairo_store_point } bind def
/TJ {
  {
    dup
    type /stringtype eq
    { show } { -0.001 mul 0 cairo_font_matrix dtransform rmoveto } ifelse
  } forall
  currentpoint cairo_store_point
} bind def
/cairo_selectfont { cairo_font_matrix aload pop pop pop 0 0 6 array astore
    cairo_font exch selectfont cairo_point_x cairo_point_y moveto } bind def
/Tf { pop /cairo_font exch def /cairo_font_matrix where
      { pop cairo_selectfont } if } bind def
/Td { matrix translate cairo_font_matrix matrix concatmatrix dup
      /cairo_font_matrix exch def dup 4 get exch 5 get cairo_store_point
      /cairo_font where { pop cairo_selectfont } if } bind def
/Tm { 2 copy 8 2 roll 6 array astore /cairo_font_matrix exch def
      cairo_store_point /cairo_font where { pop cairo_selectfont } if } bind def
/g { setgray } bind def
/rg { setrgbcolor } bind def
/d1 { setcachedevice } bind def
/cairo_data_source {
  CairoDataIndex CairoData length lt
    { CairoData CairoDataIndex get /CairoDataIndex CairoDataIndex 1 add def }
    { () } ifelse
} def
/cairo_flush_ascii85_file { cairo_ascii85_file status { cairo_ascii85_file flushfile } if } def
/cairo_image { image cairo_flush_ascii85_file } def
/cairo_imagemask { imagemask cairo_flush_ascii85_file } def
%%EndProlog
%%BeginSetup
%%EndSetup
%%Page: 1 1
%%BeginPageSetup
%%PageBoundingBox: 2 5 257 170
%%EndPageSetup
q 2 5 255 165 rectclip
1 0 0 -1 0 173 cm q
0 g
1.796436 w
0 J
0 j
[] 0.0 d
3.25 M 3.812 21.535 m 3.812 21.336 l S
6.352 22.078 m 6.352 20.902 l S
8.895 35.582 m 8.895 7.574 l S
11.434 37.828 m 11.434 5.391 l S
13.977 38.191 m 13.977 5.035 l S
16.52 38.301 m 16.52 4.871 l S
19.059 38.617 m 19.059 4.602 l S
21.602 38.816 m 21.602 4.391 l S
24.141 38.914 m 24.141 4.273 l S
26.684 38.984 m 26.684 4.18 l S
29.223 39.195 m 29.223 3.984 l S
31.766 39.301 m 31.766 3.875 l S
34.305 39.398 m 34.305 3.793 l S
36.848 39.375 m 36.848 3.84 l S
39.387 39.445 m 39.387 3.715 l S
41.93 39.48 m 41.93 3.723 l S
44.469 39.434 m 44.469 3.707 l S
47.012 39.469 m 47.012 3.703 l S
49.555 39.438 m 49.555 3.719 l S
52.094 39.613 m 52.094 3.594 l S
54.637 39.629 m 54.637 3.543 l S
57.176 39.68 m 57.176 3.484 l S
59.719 39.68 m 59.719 3.488 l S
62.258 39.602 m 62.258 3.574 l S
64.801 39.543 m 64.801 3.637 l S
67.34 39.508 m 67.34 3.68 l S
69.883 39.5 m 69.883 3.684 l S
72.422 39.488 m 72.422 3.668 l S
74.965 39.461 m 74.965 3.707 l S
77.508 39.441 m 77.508 3.746 l S
80.047 39.664 m 80.047 3.484 l S
82.59 39.699 m 82.59 3.445 l S
85.129 39.676 m 85.129 3.5 l S
87.672 39.652 m 87.672 3.523 l S
90.211 39.711 m 90.211 3.441 l S
92.754 39.758 m 92.754 3.414 l S
95.293 39.719 m 95.293 3.441 l S
97.836 39.555 m 97.836 3.641 l S
100.375 39.207 m 100.375 3.906 l S
102.918 39.238 m 102.918 3.914 l S
105.457 39.199 m 105.457 3.957 l S
108 39.219 m 108 3.922 l S
110.543 39.203 m 110.543 3.953 l S
113.082 39.266 m 113.082 3.902 l S
115.625 39.312 m 115.625 3.848 l S
118.164 39.344 m 118.164 3.805 l S
120.707 39.438 m 120.707 3.715 l S
123.246 39.414 m 123.246 3.699 l S
125.789 39.48 m 125.789 3.652 l S
128.328 39.461 m 128.328 3.652 l S
130.871 39.555 m 130.871 3.598 l S
133.41 39.559 m 133.41 3.574 l S
135.953 39.66 m 135.953 3.477 l S
138.492 39.734 m 138.492 3.52 l S
141.035 39.461 m 141.035 3.695 l S
143.578 39.461 m 143.578 3.703 l S
146.117 39.41 m 146.117 3.746 l S
148.66 39.402 m 148.66 3.758 l S
151.199 39.32 m 151.199 3.816 l S
153.742 39.281 m 153.742 3.855 l S
156.281 39.25 m 156.281 3.953 l S
158.824 39.211 m 158.824 3.957 l S
161.363 39.191 m 161.363 3.949 l S
163.906 39.129 m 163.906 4.039 l S
166.445 39.129 m 166.445 4.031 l S
168.988 39.059 m 168.988 4.117 l S
171.531 39.051 m 171.531 4.07 l S
174.07 39.012 m 174.07 4.125 l S
176.613 39.07 m 176.613 4.082 l S
179.152 38.891 m 179.152 4.246 l S
181.695 32.414 m 181.695 10.062 l S
184.234 24.504 m 184.234 18.223 l S
186.777 22.16 m 186.777 20.594 l S
189.316 21.715 m 189.316 21.23 l S
191.859 21.566 m 191.859 21.309 l S
194.398 21.543 m 194.398 21.336 l S
196.941 21.551 m 196.941 21.336 l S
199.48 21.555 m 199.48 21.332 l S
202.023 21.57 m 202.023 21.285 l S
204.566 21.543 m 204.566 21.293 l S
207.105 21.551 m 207.105 21.297 l S
209.648 21.555 m 209.648 21.336 l S
212.188 21.535 m 212.188 21.336 l S
214.73 21.535 m 214.73 21.332 l S
217.27 21.535 m 217.27 21.336 l S
219.812 21.535 m 219.812 21.336 l S
222.352 21.535 m 222.352 21.336 l S
224.895 21.535 m 224.895 21.336 l S
227.434 21.535 m 227.434 21.336 l S
229.977 21.535 m 229.977 21.336 l S
232.52 21.535 m 232.52 21.336 l S
235.059 21.535 m 235.059 21.336 l S
237.602 21.535 m 237.602 21.336 l S
240.141 21.535 m 240.141 21.336 l S
242.684 21.535 m 242.684 21.336 l S
245.223 21.535 m 245.223 21.336 l S
247.766 21.535 m 247.766 21.336 l S
250.305 21.535 m 250.305 21.336 l S
252.848 21.535 m 252.848 21.336 l S
255.387 21.535 m 255.387 21.336 l S
255.387 21.535 m 255.387 21.336 l S
3.812 64.734 m 3.812 64.539 l S
6.352 65.176 m 6.352 64.352 l S
8.895 71.711 m 8.895 57.852 l S
11.434 72.887 m 11.434 56.617 l S
13.977 72.992 m 13.977 56.324 l S
16.52 73.031 m 16.52 56.258 l S
19.059 73.152 m 19.059 56.168 l S
21.602 73.316 m 21.602 55.988 l S
24.141 73.496 m 24.141 55.926 l S
26.684 73.527 m 26.684 55.836 l S
29.223 73.578 m 29.223 55.707 l S
31.766 73.656 m 31.766 55.711 l S
34.305 73.723 m 34.305 55.625 l S
36.848 73.719 m 36.848 55.625 l S
39.387 73.844 m 39.387 55.578 l S
41.93 73.75 m 41.93 55.625 l S
44.469 73.742 m 44.469 55.582 l S
47.012 73.77 m 47.012 55.508 l S
49.555 73.793 m 49.555 55.539 l S
52.094 73.871 m 52.094 55.461 l S
54.637 73.902 m 54.637 55.445 l S
57.176 73.938 m 57.176 55.406 l S
59.719 73.93 m 59.719 55.453 l S
62.258 73.871 m 62.258 55.434 l S
64.801 73.844 m 64.801 55.5 l S
67.34 73.859 m 67.34 55.469 l S
69.883 73.848 m 69.883 55.492 l S
72.422 73.852 m 72.422 55.516 l S
74.965 73.781 m 74.965 55.555 l S
77.508 73.797 m 77.508 55.531 l S
80.047 73.891 m 80.047 55.402 l S
82.59 74.004 m 82.59 55.422 l S
85.129 73.969 m 85.129 55.309 l S
87.672 73.949 m 87.672 55.391 l S
90.211 74.004 m 90.211 55.352 l S
92.754 74.027 m 92.754 55.258 l S
95.293 74.027 m 95.293 55.375 l S
97.836 73.828 m 97.836 55.527 l S
100.375 73.652 m 100.375 55.613 l S
102.918 73.668 m 102.918 55.629 l S
105.457 73.656 m 105.457 55.656 l S
108 73.691 m 108 55.629 l S
110.543 73.723 m 110.543 55.648 l S
113.082 73.707 m 113.082 55.535 l S
115.625 73.766 m 115.625 55.527 l S
118.164 73.73 m 118.164 55.57 l S
120.707 73.797 m 120.707 55.531 l S
123.246 73.82 m 123.246 55.527 l S
125.789 73.898 m 125.789 55.453 l S
128.328 73.926 m 128.328 55.387 l S
130.871 73.887 m 130.871 55.461 l S
133.41 73.941 m 133.41 55.395 l S
135.953 74.426 m 135.953 55.086 l S
138.492 74.184 m 138.492 55.129 l S
141.035 74.082 m 141.035 55.281 l S
143.578 73.926 m 143.578 55.41 l S
146.117 73.988 m 146.117 55.395 l S
148.66 73.957 m 148.66 55.488 l S
151.199 73.922 m 151.199 55.469 l S
153.742 73.809 m 153.742 55.578 l S
156.281 73.793 m 156.281 55.602 l S
158.824 73.715 m 158.824 55.59 l S
161.363 73.688 m 161.363 55.617 l S
163.906 73.664 m 163.906 55.699 l S
166.445 73.695 m 166.445 55.691 l S
168.988 73.633 m 168.988 55.672 l S
171.531 73.562 m 171.531 55.75 l S
174.07 73.621 m 174.07 55.723 l S
176.613 73.613 m 176.613 55.703 l S
179.152 73.395 m 179.152 55.98 l S
181.695 69.547 m 181.695 59.223 l S
184.234 66.066 m 184.234 62.789 l S
186.777 65.016 m 186.777 64.094 l S
189.316 64.887 m 189.316 64.465 l S
191.859 64.773 m 191.859 64.508 l S
194.398 64.789 m 194.398 64.469 l S
196.941 64.832 m 196.941 64.441 l S
199.48 64.848 m 199.48 64.434 l S
202.023 64.988 m 202.023 64.312 l S
204.566 65.023 m 204.566 64.273 l S
207.105 65.035 m 207.105 64.242 l S
209.648 64.855 m 209.648 64.387 l S
212.188 64.738 m 212.188 64.441 l S
214.73 64.785 m 214.73 64.508 l S
217.27 64.766 m 217.27 64.512 l S
219.812 64.746 m 219.812 64.523 l S
222.352 64.734 m 222.352 64.539 l S
224.895 64.734 m 224.895 64.539 l S
227.434 64.734 m 227.434 64.539 l S
229.977 64.734 m 229.977 64.539 l S
232.52 64.734 m 232.52 64.539 l S
235.059 64.734 m 235.059 64.539 l S
237.602 64.734 m 237.602 64.539 l S
240.141 64.734 m 240.141 64.539 l S
242.684 64.734 m 242.684 64.539 l S
245.223 64.734 m 245.223 64.539 l S
247.766 64.734 m 247.766 64.539 l S
250.305 64.734 m 250.305 64.539 l S
252.848 64.734 m 252.848 64.539 l S
255.387 64.734 m 255.387 64.539 l S
255.387 64.734 m 255.387 64.539 l S
3.812 107.934 m 3.812 107.738 l S
6.352 109.34 m 6.352 107.02 l S
8.895 123.324 m 8.895 93.086 l S
11.434 125.207 m 11.434 90.746 l S
13.977 125.477 m 13.977 90.324 l S
16.52 125.695 m 16.52 90.168 l S
19.059 126.211 m 19.059 89.898 l S
21.602 126.258 m 21.602 89.68 l S
24.141 126.336 m 24.141 89.527 l S
26.684 126.484 m 26.684 89.422 l S
29.223 126.785 m 29.223 89.312 l S
31.766 126.77 m 31.766 89.129 l S
34.305 126.812 m 34.305 89.043 l S
36.848 126.82 m 36.848 89.07 l S
39.387 126.973 m 39.387 88.871 l S
41.93 126.969 m 41.93 88.969 l S
44.469 126.957 m 44.469 88.926 l S
47.012 127.137 m 47.012 88.848 l S
49.555 127.027 m 49.555 88.805 l S
52.094 127.195 m 52.094 88.789 l S
54.637 127.18 m 54.637 88.633 l S
57.176 127.32 m 57.176 88.59 l S
59.719 127.246 m 59.719 88.73 l S
62.258 127.125 m 62.258 88.691 l S
64.801 127.16 m 64.801 88.766 l S
67.34 127.176 m 67.34 88.828 l S
69.883 127.07 m 69.883 88.777 l S
72.422 127.086 m 72.422 88.859 l S
74.965 127.121 m 74.965 88.852 l S
77.508 127.223 m 77.508 88.809 l S
80.047 127.316 m 80.047 88.641 l S
82.59 127.414 m 82.59 88.492 l S
85.129 127.285 m 85.129 88.582 l S
87.672 127.273 m 87.672 88.645 l S
90.211 127.379 m 90.211 88.621 l S
92.754 127.465 m 92.754 88.449 l S
95.293 127.441 m 95.293 88.574 l S
97.836 127.062 m 97.836 88.793 l S
100.375 126.906 m 100.375 89.047 l S
102.918 126.922 m 102.918 88.965 l S
105.457 126.984 m 105.457 88.977 l S
108 126.984 m 108 88.965 l S
110.543 126.992 m 110.543 88.953 l S
113.082 126.926 m 113.082 88.906 l S
115.625 127.082 m 115.625 88.891 l S
118.164 127.016 m 118.164 88.875 l S
120.707 127.246 m 120.707 88.715 l S
123.246 127.117 m 123.246 88.789 l S
125.789 127.215 m 125.789 88.73 l S
128.328 127.227 m 128.328 88.688 l S
130.871 127.219 m 130.871 88.684 l S
133.41 127.227 m 133.41 88.68 l S
135.953 127.637 m 135.953 88.363 l S
138.492 127.453 m 138.492 88.375 l S
141.035 127.305 m 141.035 88.711 l S
143.578 127.16 m 143.578 88.754 l S
146.117 127.227 m 146.117 88.77 l S
148.66 127.164 m 148.66 88.785 l S
151.199 127.176 m 151.199 88.758 l S
153.742 127.039 m 153.742 88.93 l S
156.281 127.023 m 156.281 88.973 l S
158.824 126.902 m 158.824 88.93 l S
161.363 126.902 m 161.363 89.062 l S
163.906 126.832 m 163.906 89.055 l S
166.445 126.816 m 166.445 89.137 l S
168.988 126.789 m 168.988 89.148 l S
171.531 126.766 m 171.531 89.191 l S
174.07 126.746 m 174.07 89.184 l S
176.613 126.773 m 176.613 89.078 l S
179.152 126.262 m 179.152 89.723 l S
181.695 118.637 m 181.695 97.062 l S
184.234 110.723 m 184.234 104.508 l S
186.777 108.613 m 186.777 107.242 l S
189.316 108.18 m 189.316 107.66 l S
191.859 108.039 m 191.859 107.586 l S
194.398 108.039 m 194.398 107.656 l S
196.941 107.992 m 196.941 107.648 l S
199.48 108.137 m 199.48 107.539 l S
202.023 108.234 m 202.023 107.426 l S
204.566 108.328 m 204.566 107.496 l S
207.105 108.246 m 207.105 107.359 l S
209.648 108.129 m 209.648 107.609 l S
212.188 107.992 m 212.188 107.672 l S
214.73 107.969 m 214.73 107.684 l S
217.27 107.984 m 217.27 107.676 l S
219.812 107.973 m 219.812 107.703 l S
222.352 107.941 m 222.352 107.727 l S
224.895 107.934 m 224.895 107.738 l S
227.434 107.934 m 227.434 107.738 l S
229.977 107.934 m 229.977 107.738 l S
232.52 107.934 m 232.52 107.738 l S
235.059 107.934 m 235.059 107.738 l S
237.602 107.934 m 237.602 107.738 l S
240.141 107.934 m 240.141 107.738 l S
242.684 107.934 m 242.684 107.738 l S
245.223 107.934 m 245.223 107.738 l S
247.766 107.934 m 247.766 107.738 l S
250.305 107.934 m 250.305 107.738 l S
252.848 107.934 m 252.848 107.738 l S
255.387 107.934 m 255.387 107.738 l S
255.387 107.934 m 255.387 107.738 l S
3.812 151.133 m 3.812 150.938 l S
6.352 152.156 m 6.352 150.484 l S
8.895 163.629 m 8.895 138.902 l S
11.434 165.156 m 11.434 137.039 l S
13.977 165.223 m 13.977 136.938 l S
16.52 165.336 m 16.52 136.844 l S
19.059 165.516 m 19.059 136.551 l S
21.602 165.723 m 21.602 136.305 l S
24.141 165.957 m 24.141 136.254 l S
26.684 166 m 26.684 136.168 l S
29.223 166.145 m 29.223 135.988 l S
31.766 166.215 m 31.766 135.906 l S
34.305 166.266 m 34.305 135.863 l S
36.848 166.234 m 36.848 135.801 l S
39.387 166.504 m 39.387 135.727 l S
41.93 166.246 m 41.93 135.844 l S
44.469 166.34 m 44.469 135.77 l S
47.012 166.328 m 47.012 135.742 l S
49.555 166.293 m 49.555 135.773 l S
52.094 166.453 m 52.094 135.555 l S
54.637 166.477 m 54.637 135.602 l S
57.176 166.691 m 57.176 135.508 l S
59.719 166.578 m 59.719 135.652 l S
62.258 166.422 m 62.258 135.613 l S
64.801 166.461 m 64.801 135.699 l S
67.34 166.371 m 67.34 135.699 l S
69.883 166.441 m 69.883 135.73 l S
72.422 166.414 m 72.422 135.746 l S
74.965 166.395 m 74.965 135.703 l S
77.508 166.449 m 77.508 135.762 l S
80.047 166.523 m 80.047 135.5 l S
82.59 166.617 m 82.59 135.543 l S
85.129 166.551 m 85.129 135.391 l S
87.672 166.57 m 87.672 135.473 l S
90.211 166.684 m 90.211 135.348 l S
92.754 166.648 m 92.754 135.348 l S
95.293 166.805 m 95.293 135.496 l S
97.836 166.441 m 97.836 135.762 l S
100.375 166.176 m 100.375 135.895 l S
102.918 166.316 m 102.918 135.824 l S
105.457 166.191 m 105.457 135.875 l S
108 166.383 m 108 135.867 l S
110.543 166.27 m 110.543 135.812 l S
113.082 166.305 m 113.082 135.668 l S
115.625 166.449 m 115.625 135.75 l S
118.164 166.312 m 118.164 135.777 l S
120.707 166.473 m 120.707 135.668 l S
123.246 166.434 m 123.246 135.68 l S
125.789 166.512 m 125.789 135.57 l S
128.328 166.59 m 128.328 135.445 l S
130.871 166.566 m 130.871 135.574 l S
133.41 166.645 m 133.41 135.477 l S
135.953 167.25 m 135.953 134.969 l S
138.492 166.91 m 138.492 134.973 l S
141.035 166.812 m 141.035 135.527 l S
143.578 166.527 m 143.578 135.543 l S
146.117 166.691 m 146.117 135.426 l S
148.66 166.656 m 148.66 135.645 l S
151.199 166.535 m 151.199 135.57 l S
153.742 166.43 m 153.742 135.707 l S
156.281 166.348 m 156.281 135.809 l S
158.824 166.348 m 158.824 135.832 l S
161.363 166.332 m 161.363 135.848 l S
163.906 166.289 m 163.906 135.895 l S
166.445 166.238 m 166.445 135.934 l S
168.988 166.223 m 168.988 135.812 l S
171.531 166.164 m 171.531 136.023 l S
174.07 166.141 m 174.07 135.965 l S
176.613 166.125 m 176.613 135.992 l S
179.152 165.711 m 179.152 136.531 l S
181.695 159.215 m 181.695 142.645 l S
184.234 153.477 m 184.234 148.379 l S
186.777 151.762 m 186.777 150.191 l S
189.316 151.488 m 189.316 150.707 l S
191.859 151.309 m 191.859 150.758 l S
194.398 151.316 m 194.398 150.73 l S
196.941 151.332 m 196.941 150.73 l S
199.48 151.523 m 199.48 150.578 l S
202.023 151.855 m 202.023 150.461 l S
204.566 151.762 m 204.566 150.516 l S
207.105 151.824 m 207.105 150.371 l S
209.648 151.461 m 209.648 150.652 l S
212.188 151.301 m 212.188 150.77 l S
214.73 151.27 m 214.73 150.75 l S
217.27 151.312 m 217.27 150.746 l S
219.812 151.293 m 219.812 150.781 l S
222.352 151.246 m 222.352 150.812 l S
224.895 151.215 m 224.895 150.863 l S
227.434 151.184 m 227.434 150.891 l S
229.977 151.141 m 229.977 150.93 l S
232.52 151.133 m 232.52 150.938 l S
235.059 151.133 m 235.059 150.938 l S
237.602 151.133 m 237.602 150.938 l S
240.141 151.133 m 240.141 150.938 l S
242.684 151.133 m 242.684 150.938 l S
245.223 151.133 m 245.223 150.938 l S
247.766 151.133 m 247.766 150.938 l S
250.305 151.133 m 250.305 150.938 l S
252.848 151.133 m 252.848 150.938 l S
255.387 151.133 m 255.387 150.938 l S
255.387 151.133 m 255.387 150.938 l S
Q Q
showpage
%%Trailer
end
%%EOF
