%!PS-Adobe-3.0 EPSF-3.0
%%Creator: cairo 1.16.0 (https://cairographics.org)
%%CreationDate: Wed May 15 11:57:29 2024
%%Pages: 1
%%DocumentData: Clean7Bit
%%LanguageLevel: 2
%%Creator: Wolfram Mathematica
%%BoundingBox: 2 2 257 168
%%EndComments
%%BeginProlog
50 dict begin
/q { gsave } bind def
/Q { grestore } bind def
/cm { 6 array astore concat } bind def
/w { setlinewidth } bind def
/J { setlinecap } bind def
/j { setlinejoin } bind def
/M { setmiterlimit } bind def
/d { setdash } bind def
/m { moveto } bind def
/l { lineto } bind def
/c { curveto } bind def
/h { closepath } bind def
/re { exch dup neg 3 1 roll 5 3 roll moveto 0 rlineto
      0 exch rlineto 0 rlineto closepath } bind def
/S { stroke } bind def
/f { fill } bind def
/f* { eofill } bind def
/n { newpath } bind def
/W { clip } bind def
/W* { eoclip } bind def
/BT { } bind def
/ET { } bind def
/BDC { mark 3 1 roll /BDC pdfmark } bind def
/EMC { mark /EMC pdfmark } bind def
/cairo_store_point { /cairo_point_y exch def /cairo_point_x exch def } def
/Tj { show currentpoint cairo_store_point } bind def
/TJ {
  {
    dup
    type /stringtype eq
    { show } { -0.001 mul 0 cairo_font_matrix dtransform rmoveto } ifelse
  } forall
  currentpoint cairo_store_point
} bind def
/cairo_selectfont { cairo_font_matrix aload pop pop pop 0 0 6 array astore
    cairo_font exch selectfont cairo_point_x cairo_point_y moveto } bind def
/Tf { pop /cairo_font exch def /cairo_font_matrix where
      { pop cairo_selectfont } if } bind def
/Td { matrix translate cairo_font_matrix matrix concatmatrix dup
      /cairo_font_matrix exch def dup 4 get exch 5 get cairo_store_point
      /cairo_font where { pop cairo_selectfont } if } bind def
/Tm { 2 copy 8 2 roll 6 array astore /cairo_font_matrix exch def
      cairo_store_point /cairo_font where { pop cairo_selectfont } if } bind def
/g { setgray } bind def
/rg { setrgbcolor } bind def
/d1 { setcachedevice } bind def
/cairo_data_source {
  CairoDataIndex CairoData length lt
    { CairoData CairoDataIndex get /CairoDataIndex CairoDataIndex 1 add def }
    { () } ifelse
} def
/cairo_flush_ascii85_file { cairo_ascii85_file status { cairo_ascii85_file flushfile } if } def
/cairo_image { image cairo_flush_ascii85_file } def
/cairo_imagemask { imagemask cairo_flush_ascii85_file } def
%%EndProlog
%%BeginSetup
%%EndSetup
%%Page: 1 1
%%BeginPageSetup
%%PageBoundingBox: 2 2 257 168
%%EndPageSetup
q 2 2 255 166 rectclip
1 0 0 -1 0 173 cm q
0 g
1.796436 w
0 J
0 j
[] 0.0 d
3.25 M 3.812 21.879 m 3.812 21.68 l S
6.352 24.488 m 6.352 19.191 l S
8.895 31.648 m 8.895 12.066 l S
11.434 34.277 m 11.434 9.418 l S
13.977 35.559 m 13.977 8.016 l S
16.52 36.113 m 16.52 7.391 l S
19.059 36.426 m 19.059 7.004 l S
21.602 36.707 m 21.602 6.723 l S
24.141 36.914 m 24.141 6.477 l S
26.684 37.141 m 26.684 6.242 l S
29.223 37.27 m 29.223 6.102 l S
31.766 37.414 m 31.766 5.961 l S
34.305 37.504 m 34.305 5.852 l S
36.848 37.566 m 36.848 5.793 l S
39.387 37.637 m 39.387 5.746 l S
41.93 37.656 m 41.93 5.711 l S
44.469 37.652 m 44.469 5.715 l S
47.012 37.664 m 47.012 5.715 l S
49.555 37.641 m 49.555 5.723 l S
52.094 37.582 m 52.094 5.793 l S
54.637 37.629 m 54.637 5.77 l S
57.176 37.621 m 57.176 5.766 l S
59.719 37.59 m 59.719 5.797 l S
62.258 37.578 m 62.258 5.805 l S
64.801 37.492 m 64.801 5.902 l S
67.34 37.555 m 67.34 5.816 l S
69.883 37.602 m 69.883 5.781 l S
72.422 37.676 m 72.422 5.695 l S
74.965 37.762 m 74.965 5.613 l S
77.508 37.789 m 77.508 5.574 l S
80.047 37.875 m 80.047 5.527 l S
82.59 37.945 m 82.59 5.438 l S
85.129 37.988 m 85.129 5.402 l S
87.672 37.973 m 87.672 5.418 l S
90.211 38.016 m 90.211 5.367 l S
92.754 38.07 m 92.754 5.312 l S
95.293 38.016 m 95.293 5.367 l S
97.836 37.977 m 97.836 5.395 l S
100.375 37.965 m 100.375 5.43 l S
102.918 37.969 m 102.918 5.402 l S
105.457 37.98 m 105.457 5.41 l S
108 37.977 m 108 5.426 l S
110.543 37.941 m 110.543 5.453 l S
113.082 37.91 m 113.082 5.484 l S
115.625 37.852 m 115.625 5.527 l S
118.164 37.859 m 118.164 5.551 l S
120.707 37.863 m 120.707 5.555 l S
123.246 37.848 m 123.246 5.555 l S
125.789 37.867 m 125.789 5.527 l S
128.328 37.914 m 128.328 5.465 l S
130.871 37.941 m 130.871 5.457 l S
133.41 38 m 133.41 5.383 l S
135.953 38.078 m 135.953 5.336 l S
138.492 38.156 m 138.492 5.223 l S
141.035 38.184 m 141.035 5.207 l S
143.578 38.191 m 143.578 5.203 l S
146.117 38.168 m 146.117 5.211 l S
148.66 38.164 m 148.66 5.238 l S
151.199 38.16 m 151.199 5.227 l S
153.742 38.18 m 153.742 5.23 l S
156.281 38.211 m 156.281 5.215 l S
158.824 38.219 m 158.824 5.176 l S
161.363 38.219 m 161.363 5.184 l S
163.906 38.273 m 163.906 5.137 l S
166.445 38.258 m 166.445 5.141 l S
168.988 38.262 m 168.988 5.137 l S
171.531 38.238 m 171.531 5.141 l S
174.07 38.219 m 174.07 5.188 l S
176.613 37.762 m 176.613 5.652 l S
179.152 34.367 m 179.152 8.969 l S
181.695 31.172 m 181.695 12.445 l S
184.234 28.676 m 184.234 15.07 l S
186.777 26.762 m 186.777 17.062 l S
189.316 25.289 m 189.316 18.398 l S
191.859 24.289 m 191.859 19.387 l S
194.398 23.434 m 194.398 20.137 l S
196.941 22.863 m 196.941 20.672 l S
199.48 22.52 m 199.48 21.047 l S
202.023 22.23 m 202.023 21.301 l S
204.566 22.113 m 204.566 21.449 l S
207.105 22.031 m 207.105 21.527 l S
209.648 21.949 m 209.648 21.613 l S
212.188 21.895 m 212.188 21.664 l S
214.73 21.879 m 214.73 21.68 l S
217.27 21.879 m 217.27 21.68 l S
219.812 21.879 m 219.812 21.68 l S
222.352 21.879 m 222.352 21.68 l S
224.895 21.879 m 224.895 21.68 l S
227.434 21.879 m 227.434 21.68 l S
229.977 21.879 m 229.977 21.68 l S
232.52 21.879 m 232.52 21.68 l S
235.059 21.879 m 235.059 21.68 l S
237.602 21.879 m 237.602 21.68 l S
240.141 21.879 m 240.141 21.68 l S
242.684 21.879 m 242.684 21.68 l S
245.223 21.879 m 245.223 21.68 l S
247.766 21.879 m 247.766 21.68 l S
250.305 21.879 m 250.305 21.68 l S
252.848 21.879 m 252.848 21.68 l S
255.387 21.879 m 255.387 21.68 l S
255.387 21.879 m 255.387 21.68 l S
3.812 65.078 m 3.812 64.883 l S
6.352 66.461 m 6.352 63.355 l S
8.895 71.867 m 8.895 57.875 l S
11.434 74.191 m 11.434 55.965 l S
13.977 75.332 m 13.977 54.617 l S
16.52 76.016 m 16.52 53.938 l S
19.059 76.422 m 19.059 53.547 l S
21.602 76.617 m 21.602 53.324 l S
24.141 76.887 m 24.141 53.105 l S
26.684 77.066 m 26.684 52.941 l S
29.223 77.168 m 29.223 52.793 l S
31.766 77.324 m 31.766 52.715 l S
34.305 77.371 m 34.305 52.617 l S
36.848 77.434 m 36.848 52.57 l S
39.387 77.504 m 39.387 52.52 l S
41.93 77.477 m 41.93 52.457 l S
44.469 77.527 m 44.469 52.453 l S
47.012 77.516 m 47.012 52.465 l S
49.555 77.52 m 49.555 52.508 l S
52.094 77.535 m 52.094 52.531 l S
54.637 77.535 m 54.637 52.52 l S
57.176 77.484 m 57.176 52.516 l S
59.719 77.484 m 59.719 52.523 l S
62.258 77.488 m 62.258 52.559 l S
64.801 77.43 m 64.801 52.602 l S
67.34 77.465 m 67.34 52.508 l S
69.883 77.488 m 69.883 52.523 l S
72.422 77.492 m 72.422 52.5 l S
74.965 77.527 m 74.965 52.434 l S
77.508 77.637 m 77.508 52.363 l S
80.047 77.656 m 80.047 52.367 l S
82.59 77.719 m 82.59 52.281 l S
85.129 77.746 m 85.129 52.246 l S
87.672 77.734 m 87.672 52.266 l S
90.211 77.785 m 90.211 52.211 l S
92.754 77.801 m 92.754 52.188 l S
95.293 77.805 m 95.293 52.191 l S
97.836 77.855 m 97.836 52.227 l S
100.375 77.77 m 100.375 52.293 l S
102.918 77.746 m 102.918 52.289 l S
105.457 77.691 m 105.457 52.305 l S
108 77.766 m 108 52.305 l S
110.543 77.699 m 110.543 52.312 l S
113.082 77.723 m 113.082 52.332 l S
115.625 77.656 m 115.625 52.355 l S
118.164 77.664 m 118.164 52.371 l S
120.707 77.73 m 120.707 52.305 l S
123.246 77.598 m 123.246 52.418 l S
125.789 77.637 m 125.789 52.414 l S
128.328 77.633 m 128.328 52.352 l S
130.871 77.699 m 130.871 52.332 l S
133.41 77.66 m 133.41 52.328 l S
135.953 77.699 m 135.953 52.273 l S
138.492 77.793 m 138.492 52.211 l S
141.035 77.836 m 141.035 52.18 l S
143.578 77.797 m 143.578 52.234 l S
146.117 77.816 m 146.117 52.168 l S
148.66 77.758 m 148.66 52.191 l S
151.199 77.773 m 151.199 52.211 l S
153.742 77.758 m 153.742 52.227 l S
156.281 77.773 m 156.281 52.176 l S
158.824 77.789 m 158.824 52.191 l S
161.363 77.777 m 161.363 52.199 l S
163.906 77.945 m 163.906 52.051 l S
166.445 77.855 m 166.445 52.102 l S
168.988 77.91 m 168.988 52.078 l S
171.531 77.875 m 171.531 52.105 l S
174.07 77.805 m 174.07 52.125 l S
176.613 77.504 m 176.613 52.488 l S
179.152 75.117 m 179.152 54.984 l S
181.695 72.477 m 181.695 57.68 l S
184.234 70.316 m 184.234 59.637 l S
186.777 68.684 m 186.777 61.145 l S
189.316 67.598 m 189.316 62.184 l S
191.859 66.879 m 191.859 63.129 l S
194.398 66.234 m 194.398 63.766 l S
196.941 65.711 m 196.941 64.121 l S
199.48 65.539 m 199.48 64.453 l S
202.023 65.336 m 202.023 64.629 l S
204.566 65.25 m 204.566 64.719 l S
207.105 65.172 m 207.105 64.789 l S
209.648 65.152 m 209.648 64.816 l S
212.188 65.121 m 212.188 64.832 l S
214.73 65.102 m 214.73 64.875 l S
217.27 65.078 m 217.27 64.883 l S
219.812 65.078 m 219.812 64.883 l S
222.352 65.078 m 222.352 64.883 l S
224.895 65.078 m 224.895 64.883 l S
227.434 65.078 m 227.434 64.883 l S
229.977 65.078 m 229.977 64.883 l S
232.52 65.078 m 232.52 64.883 l S
235.059 65.078 m 235.059 64.883 l S
237.602 65.078 m 237.602 64.883 l S
240.141 65.078 m 240.141 64.883 l S
242.684 65.078 m 242.684 64.883 l S
245.223 65.078 m 245.223 64.883 l S
247.766 65.078 m 247.766 64.883 l S
250.305 65.078 m 250.305 64.883 l S
252.848 65.078 m 252.848 64.883 l S
255.387 65.078 m 255.387 64.883 l S
255.387 65.078 m 255.387 64.883 l S
3.812 108.277 m 3.812 108.082 l S
6.352 110.902 m 6.352 104.984 l S
8.895 119 m 8.895 97.082 l S
11.434 121.992 m 11.434 94.543 l S
13.977 123.344 m 13.977 93.02 l S
16.52 123.992 m 16.52 92.285 l S
19.059 124.508 m 19.059 91.844 l S
21.602 124.797 m 21.602 91.523 l S
24.141 125.109 m 24.141 91.277 l S
26.684 125.352 m 26.684 90.984 l S
29.223 125.465 m 29.223 90.879 l S
31.766 125.66 m 31.766 90.699 l S
34.305 125.75 m 34.305 90.559 l S
36.848 125.848 m 36.848 90.5 l S
39.387 125.887 m 39.387 90.445 l S
41.93 125.934 m 41.93 90.406 l S
44.469 125.977 m 44.469 90.379 l S
47.012 125.953 m 47.012 90.379 l S
49.555 125.938 m 49.555 90.379 l S
52.094 125.926 m 52.094 90.461 l S
54.637 125.906 m 54.637 90.438 l S
57.176 125.906 m 57.176 90.402 l S
59.719 125.902 m 59.719 90.461 l S
62.258 125.867 m 62.258 90.496 l S
64.801 125.785 m 64.801 90.562 l S
67.34 125.91 m 67.34 90.492 l S
69.883 125.945 m 69.883 90.438 l S
72.422 125.961 m 72.422 90.383 l S
74.965 126.023 m 74.965 90.293 l S
77.508 126.109 m 77.508 90.219 l S
80.047 126.168 m 80.047 90.164 l S
82.59 126.281 m 82.59 90.094 l S
85.129 126.348 m 85.129 90.02 l S
87.672 126.324 m 87.672 90.039 l S
90.211 126.391 m 90.211 89.996 l S
92.754 126.438 m 92.754 89.922 l S
95.293 126.375 m 95.293 89.984 l S
97.836 126.34 m 97.836 90.035 l S
100.375 126.305 m 100.375 90.07 l S
102.918 126.289 m 102.918 90.086 l S
105.457 126.273 m 105.457 90.062 l S
108 126.305 m 108 90.082 l S
110.543 126.238 m 110.543 90.113 l S
113.082 126.234 m 113.082 90.121 l S
115.625 126.18 m 115.625 90.188 l S
118.164 126.199 m 118.164 90.168 l S
120.707 126.215 m 120.707 90.18 l S
123.246 126.137 m 123.246 90.227 l S
125.789 126.195 m 125.789 90.215 l S
128.328 126.207 m 128.328 90.141 l S
130.871 126.262 m 130.871 90.121 l S
133.41 126.289 m 133.41 90.078 l S
135.953 126.363 m 135.953 90.004 l S
138.492 126.422 m 138.492 89.891 l S
141.035 126.461 m 141.035 89.887 l S
143.578 126.465 m 143.578 89.871 l S
146.117 126.473 m 146.117 89.887 l S
148.66 126.445 m 148.66 89.875 l S
151.199 126.445 m 151.199 89.922 l S
153.742 126.438 m 153.742 89.887 l S
156.281 126.477 m 156.281 89.852 l S
158.824 126.484 m 158.824 89.844 l S
161.363 126.516 m 161.363 89.824 l S
163.906 126.602 m 163.906 89.742 l S
166.445 126.555 m 166.445 89.746 l S
168.988 126.645 m 168.988 89.758 l S
171.531 126.574 m 171.531 89.758 l S
174.07 126.527 m 174.07 89.773 l S
176.613 126.066 m 176.613 90.328 l S
179.152 122.332 m 179.152 94.137 l S
181.695 118.863 m 181.695 97.77 l S
184.234 115.996 m 184.234 100.328 l S
186.777 113.824 m 186.777 102.445 l S
189.316 112.34 m 189.316 104 l S
191.859 111.266 m 191.859 105.309 l S
194.398 110.258 m 194.398 106.125 l S
196.941 109.523 m 196.941 106.781 l S
199.48 109.141 m 199.48 107.25 l S
202.023 108.816 m 202.023 107.562 l S
204.566 108.641 m 204.566 107.746 l S
207.105 108.516 m 207.105 107.793 l S
209.648 108.5 m 209.648 107.938 l S
212.188 108.395 m 212.188 107.949 l S
214.73 108.312 m 214.73 108.039 l S
217.27 108.277 m 217.27 108.059 l S
219.812 108.277 m 219.812 108.082 l S
222.352 108.277 m 222.352 108.082 l S
224.895 108.277 m 224.895 108.082 l S
227.434 108.277 m 227.434 108.082 l S
229.977 108.277 m 229.977 108.082 l S
232.52 108.277 m 232.52 108.082 l S
235.059 108.277 m 235.059 108.082 l S
237.602 108.277 m 237.602 108.082 l S
240.141 108.277 m 240.141 108.082 l S
242.684 108.277 m 242.684 108.082 l S
245.223 108.277 m 245.223 108.082 l S
247.766 108.277 m 247.766 108.082 l S
250.305 108.277 m 250.305 108.082 l S
252.848 108.277 m 252.848 108.082 l S
255.387 108.277 m 255.387 108.082 l S
255.387 108.277 m 255.387 108.082 l S
3.812 151.477 m 3.812 151.281 l S
6.352 154.957 m 6.352 147.816 l S
8.895 162.988 m 8.895 139.414 l S
11.434 165.73 m 11.434 136.91 l S
13.977 167.281 m 13.977 135.207 l S
16.52 168.07 m 16.52 134.324 l S
19.059 168.637 m 19.059 133.809 l S
21.602 168.996 m 21.602 133.5 l S
24.141 169.277 m 24.141 133.262 l S
26.684 169.504 m 26.684 132.953 l S
29.223 169.609 m 29.223 132.863 l S
31.766 169.84 m 31.766 132.668 l S
34.305 169.926 m 34.305 132.461 l S
36.848 170 m 36.848 132.453 l S
39.387 170.047 m 39.387 132.352 l S
41.93 170.086 m 41.93 132.305 l S
44.469 170.184 m 44.469 132.246 l S
47.012 170.148 m 47.012 132.312 l S
49.555 170.125 m 49.555 132.289 l S
52.094 170.176 m 52.094 132.379 l S
54.637 170.109 m 54.637 132.344 l S
57.176 170.047 m 57.176 132.34 l S
59.719 170.125 m 59.719 132.383 l S
62.258 170.055 m 62.258 132.414 l S
64.801 169.996 m 64.801 132.5 l S
67.34 170.109 m 67.34 132.422 l S
69.883 170.109 m 69.883 132.379 l S
72.422 170.125 m 72.422 132.301 l S
74.965 170.164 m 74.965 132.227 l S
77.508 170.297 m 77.508 132.145 l S
80.047 170.355 m 80.047 132.07 l S
82.59 170.406 m 82.59 131.992 l S
85.129 170.496 m 85.129 131.93 l S
87.672 170.465 m 87.672 131.969 l S
90.211 170.531 m 90.211 131.891 l S
92.754 170.688 m 92.754 131.828 l S
95.293 170.566 m 95.293 131.906 l S
97.836 170.539 m 97.836 131.926 l S
100.375 170.465 m 100.375 131.969 l S
102.918 170.426 m 102.918 132.027 l S
105.457 170.383 m 105.457 131.941 l S
108 170.434 m 108 132 l S
110.543 170.359 m 110.543 132.031 l S
113.082 170.395 m 113.082 132.035 l S
115.625 170.309 m 115.625 132.129 l S
118.164 170.359 m 118.164 132.148 l S
120.707 170.355 m 120.707 132.055 l S
123.246 170.219 m 123.246 132.172 l S
125.789 170.418 m 125.789 132.133 l S
128.328 170.379 m 128.328 132.094 l S
130.871 170.391 m 130.871 132.027 l S
133.41 170.473 m 133.41 132.008 l S
135.953 170.512 m 135.953 131.961 l S
138.492 170.559 m 138.492 131.816 l S
141.035 170.637 m 141.035 131.758 l S
143.578 170.633 m 143.578 131.789 l S
146.117 170.621 m 146.117 131.773 l S
148.66 170.586 m 148.66 131.812 l S
151.199 170.566 m 151.199 131.859 l S
153.742 170.613 m 153.742 131.758 l S
156.281 170.625 m 156.281 131.699 l S
158.824 170.59 m 158.824 131.754 l S
161.363 170.598 m 161.363 131.797 l S
163.906 170.793 m 163.906 131.562 l S
166.445 170.836 m 166.445 131.566 l S
168.988 170.758 m 168.988 131.652 l S
171.531 170.734 m 171.531 131.676 l S
174.07 170.59 m 174.07 131.738 l S
176.613 170.18 m 176.613 132.387 l S
179.152 165.777 m 179.152 136.715 l S
181.695 162.289 m 181.695 140.531 l S
184.234 159.312 m 184.234 143.387 l S
186.777 157.113 m 186.777 145.309 l S
189.316 155.688 m 189.316 146.848 l S
191.859 154.594 m 191.859 148.219 l S
194.398 153.469 m 194.398 149.23 l S
196.941 152.758 m 196.941 149.879 l S
199.48 152.363 m 199.48 150.406 l S
202.023 152.039 m 202.023 150.727 l S
204.566 151.875 m 204.566 150.883 l S
207.105 151.754 m 207.105 150.949 l S
209.648 151.73 m 209.648 151.082 l S
212.188 151.648 m 212.188 151.082 l S
214.73 151.598 m 214.73 151.195 l S
217.27 151.488 m 217.27 151.246 l S
219.812 151.496 m 219.812 151.266 l S
222.352 151.477 m 222.352 151.281 l S
224.895 151.477 m 224.895 151.281 l S
227.434 151.477 m 227.434 151.281 l S
229.977 151.477 m 229.977 151.281 l S
232.52 151.477 m 232.52 151.281 l S
235.059 151.477 m 235.059 151.281 l S
237.602 151.477 m 237.602 151.281 l S
240.141 151.477 m 240.141 151.281 l S
242.684 151.477 m 242.684 151.281 l S
245.223 151.477 m 245.223 151.281 l S
247.766 151.477 m 247.766 151.281 l S
250.305 151.477 m 250.305 151.281 l S
252.848 151.477 m 252.848 151.281 l S
255.387 151.477 m 255.387 151.281 l S
255.387 151.477 m 255.387 151.281 l S
Q Q
showpage
%%Trailer
end
%%EOF
