%!PS-Adobe-3.0 EPSF-3.0
%%Creator: cairo 1.16.0 (https://cairographics.org)
%%CreationDate: Wed May 15 11:57:29 2024
%%Pages: 1
%%DocumentData: Clean7Bit
%%LanguageLevel: 2
%%Creator: Wolfram Mathematica
%%BoundingBox: 2 2 257 168
%%EndComments
%%BeginProlog
50 dict begin
/q { gsave } bind def
/Q { grestore } bind def
/cm { 6 array astore concat } bind def
/w { setlinewidth } bind def
/J { setlinecap } bind def
/j { setlinejoin } bind def
/M { setmiterlimit } bind def
/d { setdash } bind def
/m { moveto } bind def
/l { lineto } bind def
/c { curveto } bind def
/h { closepath } bind def
/re { exch dup neg 3 1 roll 5 3 roll moveto 0 rlineto
      0 exch rlineto 0 rlineto closepath } bind def
/S { stroke } bind def
/f { fill } bind def
/f* { eofill } bind def
/n { newpath } bind def
/W { clip } bind def
/W* { eoclip } bind def
/BT { } bind def
/ET { } bind def
/BDC { mark 3 1 roll /BDC pdfmark } bind def
/EMC { mark /EMC pdfmark } bind def
/cairo_store_point { /cairo_point_y exch def /cairo_point_x exch def } def
/Tj { show currentpoint cairo_store_point } bind def
/TJ {
  {
    dup
    type /stringtype eq
    { show } { -0.001 mul 0 cairo_font_matrix dtransform rmoveto } ifelse
  } forall
  currentpoint cairo_store_point
} bind def
/cairo_selectfont { cairo_font_matrix aload pop pop pop 0 0 6 array astore
    cairo_font exch selectfont cairo_point_x cairo_point_y moveto } bind def
/Tf { pop /cairo_font exch def /cairo_font_matrix where
      { pop cairo_selectfont } if } bind def
/Td { matrix translate cairo_font_matrix matrix concatmatrix dup
      /cairo_font_matrix exch def dup 4 get exch 5 get cairo_store_point
      /cairo_font where { pop cairo_selectfont } if } bind def
/Tm { 2 copy 8 2 roll 6 array astore /cairo_font_matrix exch def
      cairo_store_point /cairo_font where { pop cairo_selectfont } if } bind def
/g { setgray } bind def
/rg { setrgbcolor } bind def
/d1 { setcachedevice } bind def
/cairo_data_source {
  CairoDataIndex CairoData length lt
    { CairoData CairoDataIndex get /CairoDataIndex CairoDataIndex 1 add def }
    { () } ifelse
} def
/cairo_flush_ascii85_file { cairo_ascii85_file status { cairo_ascii85_file flushfile } if } def
/cairo_image { image cairo_flush_ascii85_file } def
/cairo_imagemask { imagemask cairo_flush_ascii85_file } def
%%EndProlog
%%BeginSetup
%%EndSetup
%%Page: 1 1
%%BeginPageSetup
%%PageBoundingBox: 2 2 257 168
%%EndPageSetup
q 2 2 255 166 rectclip
1 0 0 -1 0 173 cm q
0 g
1.796436 w
0 J
0 j
[] 0.0 d
3.25 M 3.812 21.875 m 3.812 21.676 l S
6.352 22.266 m 6.352 21.316 l S
8.895 28.797 m 8.895 14.973 l S
11.434 31.469 m 11.434 12.305 l S
13.977 32.086 m 13.977 11.754 l S
16.52 32.02 m 16.52 11.793 l S
19.059 31.719 m 19.059 12.07 l S
21.602 31.246 m 21.602 12.535 l S
24.141 32.109 m 24.141 11.887 l S
26.684 33.266 m 26.684 10.621 l S
29.223 33.445 m 29.223 10.328 l S
31.766 33.152 m 31.766 10.602 l S
34.305 33.195 m 34.305 10.695 l S
36.848 33.59 m 36.848 10.473 l S
39.387 35.293 m 39.387 8.824 l S
41.93 37.23 m 41.93 6.641 l S
44.469 38.387 m 44.469 5.355 l S
47.012 38.469 m 47.012 5.305 l S
49.555 37.32 m 49.555 6.488 l S
52.094 34.863 m 52.094 9.074 l S
54.637 32.844 m 54.637 11.199 l S
57.176 31.242 m 57.176 12.723 l S
59.719 30.023 m 59.719 13.969 l S
62.258 29.031 m 62.258 14.965 l S
64.801 28.105 m 64.801 15.852 l S
67.34 27.465 m 67.34 16.395 l S
69.883 26.93 m 69.883 16.816 l S
72.422 26.469 m 72.422 17.254 l S
74.965 26.219 m 74.965 17.555 l S
77.508 25.91 m 77.508 17.816 l S
80.047 25.672 m 80.047 17.996 l S
82.59 25.508 m 82.59 18.145 l S
85.129 25.477 m 85.129 18.141 l S
87.672 25.598 m 87.672 18.039 l S
90.211 25.812 m 90.211 17.719 l S
92.754 26.559 m 92.754 17.23 l S
95.293 27.383 m 95.293 16.082 l S
97.836 28.918 m 97.836 15.094 l S
100.375 29.688 m 100.375 13.977 l S
102.918 30.098 m 102.918 13.598 l S
105.457 30.117 m 105.457 13.59 l S
108 30.16 m 108 13.633 l S
110.543 29.961 m 110.543 13.871 l S
113.082 28.965 m 113.082 14.648 l S
115.625 28.73 m 115.625 14.875 l S
118.164 28.613 m 118.164 14.992 l S
120.707 28.582 m 120.707 15.031 l S
123.246 28.602 m 123.246 15.094 l S
125.789 28.605 m 125.789 15.027 l S
128.328 28.668 m 128.328 15.047 l S
130.871 28.668 m 130.871 15.004 l S
133.41 28.703 m 133.41 14.949 l S
135.953 28.656 m 135.953 14.969 l S
138.492 28.652 m 138.492 14.945 l S
141.035 28.742 m 141.035 15.004 l S
143.578 28.605 m 143.578 15.035 l S
146.117 28.629 m 146.117 15.008 l S
148.66 28.621 m 148.66 15.059 l S
151.199 28.543 m 151.199 15.055 l S
153.742 28.457 m 153.742 15.121 l S
156.281 28.516 m 156.281 15.215 l S
158.824 28.41 m 158.824 15.203 l S
161.363 28.453 m 161.363 15.238 l S
163.906 28.391 m 163.906 15.242 l S
166.445 28.402 m 166.445 15.262 l S
168.988 28.344 m 168.988 15.297 l S
171.531 28.312 m 171.531 15.324 l S
174.07 28.246 m 174.07 15.391 l S
176.613 28.199 m 176.613 15.465 l S
179.152 28.125 m 179.152 15.5 l S
181.695 28.168 m 181.695 15.48 l S
184.234 28.176 m 184.234 15.484 l S
186.777 28.145 m 186.777 15.492 l S
189.316 28.109 m 189.316 15.535 l S
191.859 27.152 m 191.859 16.422 l S
194.398 23.316 m 194.398 20.141 l S
196.941 22.113 m 196.941 21.41 l S
199.48 21.992 m 199.48 21.559 l S
202.023 21.938 m 202.023 21.594 l S
204.566 21.898 m 204.566 21.664 l S
207.105 21.875 m 207.105 21.676 l S
209.648 21.875 m 209.648 21.676 l S
212.188 21.875 m 212.188 21.676 l S
214.73 21.875 m 214.73 21.676 l S
217.27 21.875 m 217.27 21.676 l S
219.812 21.875 m 219.812 21.676 l S
222.352 21.875 m 222.352 21.676 l S
224.895 21.875 m 224.895 21.676 l S
227.434 21.875 m 227.434 21.676 l S
229.977 21.875 m 229.977 21.676 l S
232.52 21.875 m 232.52 21.676 l S
235.059 21.875 m 235.059 21.676 l S
237.602 21.875 m 237.602 21.676 l S
240.141 21.875 m 240.141 21.676 l S
242.684 21.875 m 242.684 21.676 l S
245.223 21.875 m 245.223 21.676 l S
247.766 21.875 m 247.766 21.676 l S
250.305 21.875 m 250.305 21.676 l S
252.848 21.875 m 252.848 21.676 l S
255.387 21.875 m 255.387 21.676 l S
255.387 21.875 m 255.387 21.676 l S
3.812 65.074 m 3.812 64.879 l S
6.352 65.414 m 6.352 64.488 l S
8.895 68.078 m 8.895 61.508 l S
11.434 69.453 m 11.434 60.465 l S
13.977 69.82 m 13.977 60.191 l S
16.52 69.824 m 16.52 60.184 l S
19.059 69.512 m 19.059 60.324 l S
21.602 69.398 m 21.602 60.594 l S
24.141 70.191 m 24.141 59.992 l S
26.684 71.52 m 26.684 58.656 l S
29.223 71.941 m 29.223 58.07 l S
31.766 72.371 m 31.766 57.781 l S
34.305 72.934 m 34.305 57.203 l S
36.848 73.613 m 36.848 56.473 l S
39.387 74.988 m 39.387 54.992 l S
41.93 76.789 m 41.93 53.414 l S
44.469 77.875 m 44.469 52.172 l S
47.012 78.047 m 47.012 52.051 l S
49.555 77.672 m 49.555 52.527 l S
52.094 75.898 m 52.094 54.312 l S
54.637 73.945 m 54.637 56.195 l S
57.176 72.547 m 57.176 57.543 l S
59.719 71.375 m 59.719 58.566 l S
62.258 70.414 m 62.258 59.422 l S
64.801 69.668 m 64.801 60.203 l S
67.34 69.023 m 67.34 60.852 l S
69.883 68.586 m 69.883 61.336 l S
72.422 68.238 m 72.422 61.609 l S
74.965 68.09 m 74.965 61.867 l S
77.508 67.75 m 77.508 62.117 l S
80.047 67.594 m 80.047 62.262 l S
82.59 67.387 m 82.59 62.5 l S
85.129 67.293 m 85.129 62.559 l S
87.672 67.43 m 87.672 62.617 l S
90.211 67.355 m 90.211 62.613 l S
92.754 67.777 m 92.754 62.469 l S
95.293 67.949 m 95.293 62 l S
97.836 68.496 m 97.836 61.578 l S
100.375 68.938 m 100.375 61.129 l S
102.918 69.176 m 102.918 60.828 l S
105.457 69.117 m 105.457 60.855 l S
108 69.148 m 108 60.859 l S
110.543 69.18 m 110.543 61.082 l S
113.082 68.508 m 113.082 61.215 l S
115.625 68.523 m 115.625 61.539 l S
118.164 68.422 m 118.164 61.32 l S
120.707 68.41 m 120.707 61.617 l S
123.246 68.289 m 123.246 61.375 l S
125.789 68.359 m 125.789 61.734 l S
128.328 68.301 m 128.328 61.57 l S
130.871 68.641 m 130.871 61.387 l S
133.41 68.645 m 133.41 61.555 l S
135.953 68.52 m 135.953 61.574 l S
138.492 68.543 m 138.492 61.691 l S
141.035 68.43 m 141.035 61.484 l S
143.578 68.285 m 143.578 61.559 l S
146.117 68.301 m 146.117 61.707 l S
148.66 68.363 m 148.66 61.648 l S
151.199 68.465 m 151.199 61.621 l S
153.742 68.305 m 153.742 61.691 l S
156.281 68.23 m 156.281 61.703 l S
158.824 68.207 m 158.824 61.871 l S
161.363 68.121 m 161.363 61.746 l S
163.906 68.125 m 163.906 61.832 l S
166.445 68.094 m 166.445 61.891 l S
168.988 68.043 m 168.988 61.914 l S
171.531 67.988 m 171.531 61.984 l S
174.07 67.949 m 174.07 61.934 l S
176.613 67.969 m 176.613 62.043 l S
179.152 67.922 m 179.152 61.984 l S
181.695 67.879 m 181.695 62.031 l S
184.234 67.93 m 184.234 62.082 l S
186.777 67.863 m 186.777 62.066 l S
189.316 67.812 m 189.316 62.031 l S
191.859 67.238 m 191.859 62.656 l S
194.398 65.73 m 194.398 64.176 l S
196.941 65.254 m 196.941 64.625 l S
199.48 65.25 m 199.48 64.742 l S
202.023 65.141 m 202.023 64.801 l S
204.566 65.117 m 204.566 64.828 l S
207.105 65.09 m 207.105 64.863 l S
209.648 65.074 m 209.648 64.875 l S
212.188 65.074 m 212.188 64.879 l S
214.73 65.074 m 214.73 64.879 l S
217.27 65.074 m 217.27 64.879 l S
219.812 65.074 m 219.812 64.879 l S
222.352 65.074 m 222.352 64.879 l S
224.895 65.074 m 224.895 64.879 l S
227.434 65.074 m 227.434 64.879 l S
229.977 65.074 m 229.977 64.879 l S
232.52 65.074 m 232.52 64.879 l S
235.059 65.074 m 235.059 64.879 l S
237.602 65.074 m 237.602 64.879 l S
240.141 65.074 m 240.141 64.879 l S
242.684 65.074 m 242.684 64.879 l S
245.223 65.074 m 245.223 64.879 l S
247.766 65.074 m 247.766 64.879 l S
250.305 65.074 m 250.305 64.879 l S
252.848 65.074 m 252.848 64.879 l S
255.387 65.074 m 255.387 64.879 l S
255.387 65.074 m 255.387 64.879 l S
3.812 108.273 m 3.812 108.078 l S
6.352 108.836 m 6.352 107.527 l S
8.895 115.953 m 8.895 100.391 l S
11.434 118.754 m 11.434 97.68 l S
13.977 119.234 m 13.977 97.246 l S
16.52 119.102 m 16.52 97.316 l S
19.059 118.84 m 19.059 97.754 l S
21.602 118.223 m 21.602 98.098 l S
24.141 119.152 m 24.141 97.34 l S
26.684 120.758 m 26.684 96.223 l S
29.223 121.164 m 29.223 95.617 l S
31.766 120.734 m 31.766 95.867 l S
34.305 120.84 m 34.305 95.789 l S
36.848 121.145 m 36.848 95.137 l S
39.387 123.016 m 39.387 93.387 l S
41.93 125.141 m 41.93 91.355 l S
44.469 126.371 m 44.469 89.934 l S
47.012 126.531 m 47.012 89.801 l S
49.555 125.504 m 49.555 91.043 l S
52.094 122.945 m 52.094 93.602 l S
54.637 120.648 m 54.637 95.898 l S
57.176 119 m 57.176 97.516 l S
59.719 117.602 m 59.719 98.84 l S
62.258 116.398 m 62.258 99.91 l S
64.801 115.535 m 64.801 100.922 l S
67.34 114.762 m 67.34 101.641 l S
69.883 114.227 m 69.883 102.266 l S
72.422 113.723 m 72.422 102.508 l S
74.965 113.43 m 74.965 103.012 l S
77.508 113.105 m 77.508 103.387 l S
80.047 112.812 m 80.047 103.648 l S
82.59 112.602 m 82.59 103.828 l S
85.129 112.523 m 85.129 103.828 l S
87.672 112.789 m 87.672 103.75 l S
90.211 112.902 m 90.211 103.418 l S
92.754 113.641 m 92.754 102.648 l S
95.293 115.039 m 95.293 101.676 l S
97.836 116.262 m 97.836 99.926 l S
100.375 117.066 m 100.375 99.43 l S
102.918 117.41 m 102.918 98.992 l S
105.457 117.598 m 105.457 98.809 l S
108 117.516 m 108 98.902 l S
110.543 117.043 m 110.543 99.32 l S
113.082 116.492 m 113.082 100.367 l S
115.625 115.957 m 115.625 100.492 l S
118.164 116.105 m 118.164 100.359 l S
120.707 116.023 m 120.707 100.508 l S
123.246 116.062 m 123.246 100.484 l S
125.789 115.836 m 125.789 100.426 l S
128.328 115.938 m 128.328 100.328 l S
130.871 116.078 m 130.871 100.41 l S
133.41 115.98 m 133.41 100.258 l S
135.953 116.027 m 135.953 100.375 l S
138.492 116.078 m 138.492 100.445 l S
141.035 116.027 m 141.035 100.391 l S
143.578 116 m 143.578 100.527 l S
146.117 115.938 m 146.117 100.543 l S
148.66 116.035 m 148.66 100.484 l S
151.199 115.949 m 151.199 100.496 l S
153.742 115.945 m 153.742 100.844 l S
156.281 115.746 m 156.281 100.48 l S
158.824 115.781 m 158.824 100.738 l S
161.363 115.664 m 161.363 100.688 l S
163.906 115.699 m 163.906 100.77 l S
166.445 115.652 m 166.445 100.816 l S
168.988 115.695 m 168.988 100.789 l S
171.531 115.562 m 171.531 100.855 l S
174.07 115.531 m 174.07 100.891 l S
176.613 115.414 m 176.613 100.992 l S
179.152 115.387 m 179.152 101.043 l S
181.695 115.496 m 181.695 101 l S
184.234 115.383 m 184.234 101.023 l S
186.777 115.406 m 186.777 101.098 l S
189.316 115.367 m 189.316 101.02 l S
191.859 114.043 m 191.859 102.395 l S
194.398 109.645 m 194.398 106.637 l S
196.941 108.551 m 196.941 107.762 l S
199.48 108.547 m 199.48 107.832 l S
202.023 108.398 m 202.023 107.934 l S
204.566 108.324 m 204.566 107.992 l S
207.105 108.312 m 207.105 108.039 l S
209.648 108.305 m 209.648 108.047 l S
212.188 108.301 m 212.188 108.055 l S
214.73 108.281 m 214.73 108.066 l S
217.27 108.273 m 217.27 108.074 l S
219.812 108.273 m 219.812 108.078 l S
222.352 108.273 m 222.352 108.078 l S
224.895 108.273 m 224.895 108.078 l S
227.434 108.273 m 227.434 108.078 l S
229.977 108.273 m 229.977 108.078 l S
232.52 108.273 m 232.52 108.078 l S
235.059 108.273 m 235.059 108.078 l S
237.602 108.273 m 237.602 108.078 l S
240.141 108.273 m 240.141 108.078 l S
242.684 108.273 m 242.684 108.078 l S
245.223 108.273 m 245.223 108.078 l S
247.766 108.273 m 247.766 108.078 l S
250.305 108.273 m 250.305 108.078 l S
252.848 108.273 m 252.848 108.078 l S
255.387 108.273 m 255.387 108.078 l S
255.387 108.273 m 255.387 108.078 l S
3.812 151.473 m 3.812 151.277 l S
6.352 152.082 m 6.352 150.469 l S
8.895 157.301 m 8.895 144.703 l S
11.434 159.578 m 11.434 143.27 l S
13.977 159.938 m 13.977 142.883 l S
16.52 160.012 m 16.52 142.832 l S
19.059 159.52 m 19.059 143.203 l S
21.602 159.465 m 21.602 143.539 l S
24.141 161.004 m 24.141 142.328 l S
26.684 162.789 m 26.684 140.477 l S
29.223 162.977 m 29.223 139.723 l S
31.766 163.297 m 31.766 139.496 l S
34.305 164.094 m 34.305 138.672 l S
36.848 164.867 m 36.848 137.75 l S
39.387 166.715 m 39.387 135.57 l S
41.93 169.145 m 41.93 133.277 l S
44.469 170.562 m 44.469 131.738 l S
47.012 170.836 m 47.012 131.562 l S
49.555 170.043 m 49.555 132.715 l S
52.094 167.141 m 52.094 135.293 l S
54.637 164.766 m 54.637 137.906 l S
57.176 162.883 m 57.176 139.719 l S
59.719 161.336 m 59.719 141.105 l S
62.258 160.078 m 62.258 142.203 l S
64.801 159.164 m 64.801 143.426 l S
67.34 158.441 m 67.34 144.258 l S
69.883 157.902 m 69.883 144.801 l S
72.422 157.336 m 72.422 145.195 l S
74.965 157.051 m 74.965 145.711 l S
77.508 156.613 m 77.508 145.895 l S
80.047 156.34 m 80.047 146.363 l S
82.59 155.988 m 82.59 146.5 l S
85.129 155.969 m 85.129 146.773 l S
87.672 156.152 m 87.672 146.711 l S
90.211 156.098 m 90.211 146.762 l S
92.754 156.773 m 92.754 146.48 l S
95.293 157.25 m 95.293 145.602 l S
97.836 158.141 m 97.836 144.824 l S
100.375 158.703 m 100.375 144.082 l S
102.918 158.977 m 102.918 143.742 l S
105.457 159.086 m 105.457 143.73 l S
108 159.098 m 108 143.578 l S
110.543 158.914 m 110.543 144.121 l S
113.082 157.816 m 113.082 144.734 l S
115.625 158.277 m 115.625 144.906 l S
118.164 157.91 m 118.164 144.672 l S
120.707 157.578 m 120.707 145.066 l S
123.246 157.484 m 123.246 144.922 l S
125.789 157.715 m 125.789 145.152 l S
128.328 157.387 m 128.328 144.945 l S
130.871 158.047 m 130.871 144.699 l S
133.41 158.234 m 133.41 145.117 l S
135.953 157.793 m 135.953 145.145 l S
138.492 158.059 m 138.492 145.219 l S
141.035 157.762 m 141.035 144.859 l S
143.578 157.531 m 143.578 145.188 l S
146.117 157.559 m 146.117 145.277 l S
148.66 157.535 m 148.66 145.285 l S
151.199 157.906 m 151.199 145.309 l S
153.742 157.418 m 153.742 145.332 l S
156.281 157.496 m 156.281 145.336 l S
158.824 157.41 m 158.824 145.523 l S
161.363 157.223 m 161.363 145.305 l S
163.906 157.188 m 163.906 145.477 l S
166.445 157.238 m 166.445 145.652 l S
168.988 157.074 m 168.988 145.551 l S
171.531 157 m 171.531 145.773 l S
174.07 156.84 m 174.07 145.746 l S
176.613 157.039 m 176.613 145.801 l S
179.152 156.926 m 179.152 145.684 l S
181.695 156.746 m 181.695 145.883 l S
184.234 156.793 m 184.234 145.965 l S
186.777 156.75 m 186.777 145.844 l S
189.316 156.684 m 189.316 145.957 l S
191.859 155.582 m 191.859 147.207 l S
194.398 152.906 m 194.398 149.504 l S
196.941 152.008 m 196.941 150.727 l S
199.48 151.793 m 199.48 150.859 l S
202.023 151.82 m 202.023 150.891 l S
204.566 151.668 m 204.566 151.074 l S
207.105 151.629 m 207.105 151.133 l S
209.648 151.652 m 209.648 151.09 l S
212.188 151.652 m 212.188 151.07 l S
214.73 151.578 m 214.73 151.105 l S
217.27 151.52 m 217.27 151.203 l S
219.812 151.496 m 219.812 151.262 l S
222.352 151.477 m 222.352 151.273 l S
224.895 151.473 m 224.895 151.277 l S
227.434 151.473 m 227.434 151.277 l S
229.977 151.473 m 229.977 151.277 l S
232.52 151.473 m 232.52 151.277 l S
235.059 151.473 m 235.059 151.277 l S
237.602 151.473 m 237.602 151.277 l S
240.141 151.473 m 240.141 151.277 l S
242.684 151.473 m 242.684 151.277 l S
245.223 151.473 m 245.223 151.277 l S
247.766 151.473 m 247.766 151.277 l S
250.305 151.473 m 250.305 151.277 l S
252.848 151.473 m 252.848 151.277 l S
255.387 151.473 m 255.387 151.277 l S
255.387 151.473 m 255.387 151.277 l S
Q Q
showpage
%%Trailer
end
%%EOF
