%!PS-Adobe-3.0 EPSF-3.0
%%Creator: cairo 1.16.0 (https://cairographics.org)
%%CreationDate: Wed May 15 11:57:29 2024
%%Pages: 1
%%DocumentData: Clean7Bit
%%LanguageLevel: 2
%%Creator: Wolfram Mathematica
%%BoundingBox: 2 4 254 171
%%EndComments
%%BeginProlog
50 dict begin
/q { gsave } bind def
/Q { grestore } bind def
/cm { 6 array astore concat } bind def
/w { setlinewidth } bind def
/J { setlinecap } bind def
/j { setlinejoin } bind def
/M { setmiterlimit } bind def
/d { setdash } bind def
/m { moveto } bind def
/l { lineto } bind def
/c { curveto } bind def
/h { closepath } bind def
/re { exch dup neg 3 1 roll 5 3 roll moveto 0 rlineto
      0 exch rlineto 0 rlineto closepath } bind def
/S { stroke } bind def
/f { fill } bind def
/f* { eofill } bind def
/n { newpath } bind def
/W { clip } bind def
/W* { eoclip } bind def
/BT { } bind def
/ET { } bind def
/BDC { mark 3 1 roll /BDC pdfmark } bind def
/EMC { mark /EMC pdfmark } bind def
/cairo_store_point { /cairo_point_y exch def /cairo_point_x exch def } def
/Tj { show currentpoint cairo_store_point } bind def
/TJ {
  {
    dup
    type /stringtype eq
    { show } { -0.001 mul 0 cairo_font_matrix dtransform rmoveto } ifelse
  } forall
  currentpoint cairo_store_point
} bind def
/cairo_selectfont { cairo_font_matrix aload pop pop pop 0 0 6 array astore
    cairo_font exch selectfont cairo_point_x cairo_point_y moveto } bind def
/Tf { pop /cairo_font exch def /cairo_font_matrix where
      { pop cairo_selectfont } if } bind def
/Td { matrix translate cairo_font_matrix matrix concatmatrix dup
      /cairo_font_matrix exch def dup 4 get exch 5 get cairo_store_point
      /cairo_font where { pop cairo_selectfont } if } bind def
/Tm { 2 copy 8 2 roll 6 array astore /cairo_font_matrix exch def
      cairo_store_point /cairo_font where { pop cairo_selectfont } if } bind def
/g { setgray } bind def
/rg { setrgbcolor } bind def
/d1 { setcachedevice } bind def
/cairo_data_source {
  CairoDataIndex CairoData length lt
    { CairoData CairoDataIndex get /CairoDataIndex CairoDataIndex 1 add def }
    { () } ifelse
} def
/cairo_flush_ascii85_file { cairo_ascii85_file status { cairo_ascii85_file flushfile } if } def
/cairo_image { image cairo_flush_ascii85_file } def
/cairo_imagemask { imagemask cairo_flush_ascii85_file } def
%%EndProlog
%%BeginSetup
%%EndSetup
%%Page: 1 1
%%BeginPageSetup
%%PageBoundingBox: 2 4 254 171
%%EndPageSetup
q 2 4 252 167 rectclip
1 0 0 -1 0 173 cm q
0 g
1.8144 w
0 J
0 j
[] 0.0 d
3.25 M 3.812 21.711 m 3.812 21.516 l S
6.352 24.031 m 6.352 19.301 l S
8.895 35.625 m 8.895 7.672 l S
11.434 39.008 m 11.434 3.844 l S
13.977 40.438 m 13.977 3.031 l S
16.52 40.559 m 16.52 2.938 l S
19.059 40.547 m 19.059 2.84 l S
21.602 40.406 m 21.602 3.16 l S
24.141 39.914 m 24.141 3.672 l S
26.684 39.605 m 26.684 3.855 l S
29.223 38.031 m 29.223 5.52 l S
31.766 35.938 m 31.766 7.758 l S
34.305 34.824 m 34.305 8.59 l S
36.848 34.723 m 36.848 8.738 l S
39.387 34.625 m 39.387 8.82 l S
41.93 34.664 m 41.93 8.82 l S
44.469 34.621 m 44.469 8.848 l S
47.012 34.367 m 47.012 9.121 l S
49.555 33.887 m 49.555 9.57 l S
52.094 33.445 m 52.094 10.023 l S
54.637 33.582 m 54.637 9.883 l S
57.176 33.637 m 57.176 9.832 l S
59.719 33.344 m 59.719 10.07 l S
62.258 33.324 m 62.258 10.168 l S
64.801 33.398 m 64.801 10.039 l S
67.34 33.289 m 67.34 10.156 l S
69.883 32.891 m 69.883 10.461 l S
72.422 32.496 m 72.422 10.898 l S
74.965 32.383 m 74.965 11.102 l S
77.508 32.488 m 77.508 10.965 l S
80.047 32.371 m 80.047 11.133 l S
82.59 32.75 m 82.59 10.781 l S
85.129 33.617 m 85.129 9.926 l S
87.672 34.684 m 87.672 8.484 l S
90.211 35.332 m 90.211 7.977 l S
92.754 35.594 m 92.754 7.926 l S
95.293 35.438 m 95.293 8.031 l S
97.836 35.281 m 97.836 8.109 l S
100.375 35.051 m 100.375 8.363 l S
102.918 35.117 m 102.918 8.336 l S
105.461 35.477 m 105.461 7.844 l S
108 35.93 m 108 7.68 l S
110.543 36.094 m 110.543 7.203 l S
113.082 36.43 m 113.082 7.043 l S
115.625 36.602 m 115.625 6.914 l S
118.164 36.5 m 118.164 6.906 l S
120.707 36.562 m 120.707 6.898 l S
123.246 36.441 m 123.246 6.949 l S
125.789 36.406 m 125.789 7.051 l S
128.328 36.383 m 128.328 7.059 l S
130.871 36.402 m 130.871 7.074 l S
133.41 36.383 m 133.41 7.047 l S
135.953 36.402 m 135.953 7.078 l S
138.496 36.336 m 138.496 7.043 l S
141.035 36.387 m 141.035 7.113 l S
143.578 36.312 m 143.578 7.066 l S
146.117 36.23 m 146.117 7.172 l S
148.66 36.086 m 148.66 7.266 l S
151.199 35.863 m 151.199 7.477 l S
153.742 35.848 m 153.742 7.688 l S
156.281 35.574 m 156.281 7.699 l S
158.824 35.32 m 158.824 8.199 l S
161.363 34.781 m 161.363 8.414 l S
163.906 34.633 m 163.906 8.691 l S
166.449 34.07 m 166.449 9.395 l S
168.988 32.949 m 168.988 10.242 l S
171.531 32.207 m 171.531 11.258 l S
174.07 31.57 m 174.07 12.004 l S
176.613 31.012 m 176.613 12.551 l S
179.152 30.656 m 179.152 12.918 l S
181.695 30.875 m 181.695 12.48 l S
184.234 32.277 m 184.234 11.598 l S
186.777 33.785 m 186.777 9.48 l S
189.316 35.422 m 189.316 8.062 l S
191.859 36.02 m 191.859 7.492 l S
194.402 36.062 m 194.402 7.508 l S
196.941 35.758 m 196.941 7.855 l S
199.484 33.48 m 199.484 10.227 l S
202.023 25.996 m 202.023 17 l S
204.566 22.926 m 204.566 20.324 l S
207.105 22.148 m 207.105 21.051 l S
209.648 21.918 m 209.648 21.301 l S
212.188 21.824 m 212.188 21.41 l S
214.73 21.773 m 214.73 21.465 l S
217.27 21.75 m 217.27 21.504 l S
219.812 21.715 m 219.812 21.504 l S
222.352 21.711 m 222.352 21.516 l S
224.895 21.711 m 224.895 21.516 l S
227.438 21.711 m 227.438 21.516 l S
229.977 21.711 m 229.977 21.516 l S
232.52 21.711 m 232.52 21.516 l S
235.059 21.711 m 235.059 21.516 l S
237.602 21.711 m 237.602 21.516 l S
240.141 21.711 m 240.141 21.516 l S
242.684 21.711 m 242.684 21.516 l S
245.223 21.711 m 245.223 21.516 l S
247.766 21.711 m 247.766 21.516 l S
250.305 21.711 m 250.305 21.516 l S
252.848 21.711 m 252.848 21.516 l S
252.848 21.711 m 252.848 21.516 l S
3.812 64.91 m 3.812 64.715 l S
6.352 67.211 m 6.352 62.555 l S
8.895 73.348 m 8.895 55.809 l S
11.434 75.742 m 11.434 54.363 l S
13.977 75.664 m 13.977 53.855 l S
16.52 75.566 m 16.52 53.973 l S
19.059 75.461 m 19.059 54.07 l S
21.602 75.145 m 21.602 54.32 l S
24.141 74.754 m 24.141 54.836 l S
26.684 74.406 m 26.684 55.047 l S
29.223 73.359 m 29.223 56.266 l S
31.766 72.094 m 31.766 57.668 l S
34.305 71.527 m 34.305 58.152 l S
36.848 71.504 m 36.848 58.207 l S
39.387 71.41 m 39.387 58.277 l S
41.93 71.398 m 41.93 58.328 l S
44.469 71.387 m 44.469 58.277 l S
47.012 71.215 m 47.012 58.469 l S
49.555 70.934 m 49.555 58.77 l S
52.094 70.66 m 52.094 59.051 l S
54.637 70.773 m 54.637 58.871 l S
57.176 70.727 m 57.176 58.953 l S
59.719 70.648 m 59.719 59.094 l S
62.258 70.633 m 62.258 59.02 l S
64.801 70.676 m 64.801 59.031 l S
67.34 70.621 m 67.34 59.09 l S
69.883 70.41 m 69.883 59.223 l S
72.422 70.242 m 72.422 59.512 l S
74.965 70.25 m 74.965 59.344 l S
77.508 70.273 m 77.508 59.41 l S
80.047 70.402 m 80.047 59.215 l S
82.59 71.129 m 82.59 58.617 l S
85.129 71.785 m 85.129 57.801 l S
87.672 72.555 m 87.672 56.922 l S
90.211 73.086 m 90.211 56.516 l S
92.754 73.59 m 92.754 56.285 l S
95.293 73.574 m 95.293 55.883 l S
97.836 73.828 m 97.836 55.758 l S
100.375 73.879 m 100.375 55.695 l S
102.918 74.055 m 102.918 55.598 l S
105.461 74.227 m 105.461 55.449 l S
108 74.352 m 108 55.297 l S
110.543 74.496 m 110.543 55.102 l S
113.082 74.621 m 113.082 54.949 l S
115.625 74.695 m 115.625 54.961 l S
118.164 74.699 m 118.164 54.957 l S
120.707 74.801 m 120.707 54.887 l S
123.246 74.641 m 123.246 55.023 l S
125.789 74.664 m 125.789 54.984 l S
128.328 74.637 m 128.328 54.992 l S
130.871 74.688 m 130.871 55.062 l S
133.41 74.562 m 133.41 55.039 l S
135.953 74.695 m 135.953 54.984 l S
138.496 74.699 m 138.496 54.98 l S
141.035 74.668 m 141.035 54.988 l S
143.578 74.727 m 143.578 54.906 l S
146.117 74.766 m 146.117 54.996 l S
148.66 74.645 m 148.66 54.906 l S
151.199 74.609 m 151.199 55.039 l S
153.742 74.613 m 153.742 54.996 l S
156.281 74.582 m 156.281 55.008 l S
158.824 74.492 m 158.824 55.16 l S
161.363 74.461 m 161.363 55.117 l S
163.906 74.523 m 163.906 55.188 l S
166.449 74.293 m 166.449 55.305 l S
168.988 73.664 m 168.988 55.883 l S
171.531 73.066 m 171.531 56.34 l S
174.07 72.562 m 174.07 57.059 l S
176.613 72.051 m 176.613 57.387 l S
179.152 71.527 m 179.152 57.891 l S
181.695 71.312 m 181.695 58.203 l S
184.234 71.781 m 184.234 57.898 l S
186.777 72.57 m 186.777 57.195 l S
189.316 73.074 m 189.316 56.684 l S
191.859 73.152 m 191.859 56.637 l S
194.402 73.121 m 194.402 56.668 l S
196.941 72.574 m 196.941 57.297 l S
199.484 70.688 m 199.484 59.027 l S
202.023 67.031 m 202.023 62.605 l S
204.566 65.555 m 204.566 63.91 l S
207.105 65.207 m 207.105 64.422 l S
209.648 65.059 m 209.648 64.543 l S
212.188 65.051 m 212.188 64.598 l S
214.73 64.984 m 214.73 64.652 l S
217.27 64.93 m 217.27 64.691 l S
219.812 64.949 m 219.812 64.699 l S
222.352 64.938 m 222.352 64.707 l S
224.895 64.91 m 224.895 64.715 l S
227.438 64.91 m 227.438 64.715 l S
229.977 64.91 m 229.977 64.715 l S
232.52 64.91 m 232.52 64.715 l S
235.059 64.91 m 235.059 64.715 l S
237.602 64.91 m 237.602 64.715 l S
240.141 64.91 m 240.141 64.715 l S
242.684 64.91 m 242.684 64.715 l S
245.223 64.91 m 245.223 64.715 l S
247.766 64.91 m 247.766 64.715 l S
250.305 64.91 m 250.305 64.715 l S
252.848 64.91 m 252.848 64.715 l S
252.848 64.91 m 252.848 64.715 l S
3.812 108.109 m 3.812 107.914 l S
6.352 111.984 m 6.352 104.266 l S
8.895 124.031 m 8.895 92.156 l S
11.434 126.957 m 11.434 89.188 l S
13.977 127.477 m 13.977 88.629 l S
16.52 127.637 m 16.52 88.363 l S
19.059 127.637 m 19.059 88.383 l S
21.602 127.488 m 21.602 88.445 l S
24.141 127.031 m 24.141 88.938 l S
26.684 126.762 m 26.684 89.469 l S
29.223 124.809 m 29.223 91.301 l S
31.766 122.887 m 31.766 93.281 l S
34.305 121.992 m 34.305 94.238 l S
36.848 122.039 m 36.848 94.301 l S
39.387 121.82 m 39.387 94.387 l S
41.93 121.957 m 41.93 94.367 l S
44.469 121.832 m 44.469 94.398 l S
47.012 121.582 m 47.012 94.715 l S
49.555 121.031 m 49.555 95.105 l S
52.094 120.594 m 52.094 95.57 l S
54.637 120.801 m 54.637 95.422 l S
57.176 120.77 m 57.176 95.223 l S
59.719 120.488 m 59.719 95.641 l S
62.258 120.469 m 62.258 95.586 l S
64.801 120.668 m 64.801 95.555 l S
67.34 120.453 m 67.34 95.676 l S
69.883 120.031 m 69.883 96.02 l S
72.422 119.746 m 72.422 96.496 l S
74.965 119.559 m 74.965 96.473 l S
77.508 119.73 m 77.508 96.512 l S
80.047 119.629 m 80.047 96.559 l S
82.59 120.18 m 82.59 96.176 l S
85.129 121.191 m 85.129 94.859 l S
87.672 122.594 m 87.672 93.758 l S
90.211 123.059 m 90.211 93.184 l S
92.754 123.316 m 92.754 93.059 l S
95.293 123.031 m 95.293 93.168 l S
97.836 122.988 m 97.836 93.207 l S
100.375 122.723 m 100.375 93.297 l S
102.918 122.953 m 102.918 93.391 l S
105.461 123.488 m 105.461 93.023 l S
108 123.617 m 108 92.473 l S
110.543 124.141 m 110.543 92.301 l S
113.082 124.172 m 113.082 91.984 l S
115.625 124.32 m 115.625 91.984 l S
118.164 124.293 m 118.164 91.977 l S
120.707 124.242 m 120.707 91.875 l S
123.246 124.246 m 123.246 92.082 l S
125.789 124.273 m 125.789 92.016 l S
128.328 124.18 m 128.328 92.145 l S
130.871 124.18 m 130.871 92.074 l S
133.41 124.16 m 133.41 92.109 l S
135.953 124.168 m 135.953 92 l S
138.496 124.184 m 138.496 92.141 l S
141.035 124.156 m 141.035 92.109 l S
143.578 124.141 m 143.578 92.059 l S
146.117 124.117 m 146.117 92.113 l S
148.66 124.031 m 148.66 92.254 l S
151.199 123.852 m 151.199 92.41 l S
153.742 123.73 m 153.742 92.559 l S
156.281 123.52 m 156.281 92.875 l S
158.824 123.02 m 158.824 93.176 l S
161.363 122.832 m 161.363 93.402 l S
163.906 122.633 m 163.906 93.582 l S
166.449 121.922 m 166.449 94.059 l S
168.988 120.949 m 168.988 95.219 l S
171.531 119.996 m 171.531 96.102 l S
174.07 119.297 m 174.07 96.723 l S
176.613 118.727 m 176.613 97.496 l S
179.152 118.426 m 179.152 97.75 l S
181.695 118.805 m 181.695 97.59 l S
184.234 120.457 m 184.234 96.141 l S
186.777 122.008 m 186.777 94.648 l S
189.316 122.98 m 189.316 93.148 l S
191.859 123.836 m 191.859 92.422 l S
194.402 123.633 m 194.402 92.441 l S
196.941 123.027 m 196.941 92.844 l S
199.484 120.09 m 199.484 95.652 l S
202.023 112.703 m 202.023 103.32 l S
204.566 109.309 m 204.566 106.637 l S
207.105 108.629 m 207.105 107.367 l S
209.648 108.379 m 209.648 107.527 l S
212.188 108.301 m 212.188 107.672 l S
214.73 108.238 m 214.73 107.777 l S
217.27 108.191 m 217.27 107.84 l S
219.812 108.156 m 219.812 107.855 l S
222.352 108.145 m 222.352 107.879 l S
224.895 108.109 m 224.895 107.914 l S
227.438 108.109 m 227.438 107.914 l S
229.977 108.109 m 229.977 107.914 l S
232.52 108.109 m 232.52 107.914 l S
235.059 108.109 m 235.059 107.914 l S
237.602 108.109 m 237.602 107.914 l S
240.141 108.109 m 240.141 107.914 l S
242.684 108.109 m 242.684 107.914 l S
245.223 108.109 m 245.223 107.914 l S
247.766 108.109 m 247.766 107.914 l S
250.305 108.109 m 250.305 107.914 l S
252.848 108.109 m 252.848 107.914 l S
252.848 108.109 m 252.848 107.914 l S
3.812 151.348 m 3.812 151.066 l S
6.352 156.535 m 6.352 146.426 l S
8.895 165.348 m 8.895 136.922 l S
11.434 167.594 m 11.434 134.852 l S
13.977 168.871 m 13.977 133.852 l S
16.52 168.414 m 16.52 134.125 l S
19.059 168.203 m 19.059 134.305 l S
21.602 167.75 m 21.602 134.652 l S
24.141 167.328 m 24.141 135.199 l S
26.684 166.648 m 26.684 135.238 l S
29.223 164.973 m 29.223 137.18 l S
31.766 163.188 m 31.766 139.117 l S
34.305 162.516 m 34.305 139.926 l S
36.848 162.543 m 36.848 139.918 l S
39.387 162.387 m 39.387 140.156 l S
41.93 162.395 m 41.93 140.086 l S
44.469 162.371 m 44.469 140.121 l S
47.012 162.121 m 47.012 140.434 l S
49.555 161.762 m 49.555 140.816 l S
52.094 161.348 m 52.094 141.18 l S
54.637 161.5 m 54.637 140.789 l S
57.176 161.457 m 57.176 140.977 l S
59.719 161.281 m 59.719 141.227 l S
62.258 161.379 m 62.258 141.078 l S
64.801 161.477 m 64.801 141.16 l S
67.34 161.227 m 67.34 141.309 l S
69.883 161.023 m 69.883 141.469 l S
72.422 160.711 m 72.422 141.832 l S
74.965 160.766 m 74.965 141.613 l S
77.508 160.789 m 77.508 141.68 l S
80.047 161.016 m 80.047 141.57 l S
82.59 162.129 m 82.59 140.781 l S
85.129 162.816 m 85.129 139.43 l S
87.672 163.895 m 87.672 138.191 l S
90.211 164.547 m 90.211 137.727 l S
92.754 165.062 m 92.754 137.449 l S
95.293 165.008 m 95.293 137.207 l S
97.836 165.23 m 97.836 136.926 l S
100.375 165.238 m 100.375 137.105 l S
102.918 165.391 m 102.918 136.812 l S
105.461 165.645 m 105.461 136.555 l S
108 165.914 m 108 136.387 l S
110.543 166.086 m 110.543 135.945 l S
113.082 166.332 m 113.082 135.746 l S
115.625 166.375 m 115.625 135.852 l S
118.164 166.363 m 118.164 135.805 l S
120.707 166.508 m 120.707 135.703 l S
123.246 166.367 m 123.246 135.941 l S
125.789 166.273 m 125.789 135.832 l S
128.328 166.352 m 128.328 135.855 l S
130.871 166.426 m 130.871 136.027 l S
133.41 166.211 m 133.41 135.969 l S
135.953 166.27 m 135.953 135.77 l S
138.496 166.434 m 138.496 135.844 l S
141.035 166.52 m 141.035 135.875 l S
143.578 166.355 m 143.578 135.754 l S
146.117 166.355 m 146.117 135.828 l S
148.66 166.461 m 148.66 135.805 l S
151.199 166.203 m 151.199 136.066 l S
153.742 166.125 m 153.742 135.977 l S
156.281 166.152 m 156.281 136.137 l S
158.824 165.852 m 158.824 136.426 l S
161.363 165.914 m 161.363 136.348 l S
163.906 165.879 m 163.906 136.52 l S
166.449 165.426 m 166.449 136.793 l S
168.988 164.527 m 168.988 137.863 l S
171.531 163.742 m 171.531 138.402 l S
174.07 162.914 m 174.07 139.488 l S
176.613 162.332 m 176.613 139.859 l S
179.152 161.531 m 179.152 140.625 l S
181.695 161.496 m 181.695 140.859 l S
184.234 162.371 m 184.234 140.324 l S
186.777 163.934 m 186.777 138.723 l S
189.316 164.637 m 189.316 137.672 l S
191.859 164.738 m 191.859 137.691 l S
194.402 164.543 m 194.402 137.977 l S
196.941 163.82 m 196.941 138.863 l S
199.484 161.035 m 199.484 141.414 l S
202.023 154.988 m 202.023 147.637 l S
204.566 152.441 m 204.566 149.668 l S
207.105 151.938 m 207.105 150.484 l S
209.648 151.652 m 209.648 150.688 l S
212.188 151.668 m 212.188 150.703 l S
214.73 151.582 m 214.73 150.91 l S
217.27 151.469 m 217.27 150.969 l S
219.812 151.426 m 219.812 150.938 l S
222.352 151.387 m 222.352 151.031 l S
224.895 151.352 m 224.895 151.078 l S
227.438 151.32 m 227.438 151.09 l S
229.977 151.32 m 229.977 151.113 l S
232.52 151.312 m 232.52 151.113 l S
235.059 151.312 m 235.059 151.113 l S
237.602 151.312 m 237.602 151.113 l S
240.141 151.312 m 240.141 151.113 l S
242.684 151.312 m 242.684 151.113 l S
245.223 151.312 m 245.223 151.113 l S
247.766 151.312 m 247.766 151.113 l S
250.305 151.312 m 250.305 151.113 l S
252.848 151.312 m 252.848 151.113 l S
252.848 151.312 m 252.848 151.113 l S
Q Q
showpage
%%Trailer
end
%%EOF
