%!PS-Adobe-3.0 EPSF-3.0
%%Creator: cairo 1.16.0 (https://cairographics.org)
%%CreationDate: Wed May 15 11:57:30 2024
%%Pages: 1
%%DocumentData: Clean7Bit
%%LanguageLevel: 2
%%Creator: Wolfram Mathematica
%%BoundingBox: 2 9 257 172
%%EndComments
%%BeginProlog
50 dict begin
/q { gsave } bind def
/Q { grestore } bind def
/cm { 6 array astore concat } bind def
/w { setlinewidth } bind def
/J { setlinecap } bind def
/j { setlinejoin } bind def
/M { setmiterlimit } bind def
/d { setdash } bind def
/m { moveto } bind def
/l { lineto } bind def
/c { curveto } bind def
/h { closepath } bind def
/re { exch dup neg 3 1 roll 5 3 roll moveto 0 rlineto
      0 exch rlineto 0 rlineto closepath } bind def
/S { stroke } bind def
/f { fill } bind def
/f* { eofill } bind def
/n { newpath } bind def
/W { clip } bind def
/W* { eoclip } bind def
/BT { } bind def
/ET { } bind def
/BDC { mark 3 1 roll /BDC pdfmark } bind def
/EMC { mark /EMC pdfmark } bind def
/cairo_store_point { /cairo_point_y exch def /cairo_point_x exch def } def
/Tj { show currentpoint cairo_store_point } bind def
/TJ {
  {
    dup
    type /stringtype eq
    { show } { -0.001 mul 0 cairo_font_matrix dtransform rmoveto } ifelse
  } forall
  currentpoint cairo_store_point
} bind def
/cairo_selectfont { cairo_font_matrix aload pop pop pop 0 0 6 array astore
    cairo_font exch selectfont cairo_point_x cairo_point_y moveto } bind def
/Tf { pop /cairo_font exch def /cairo_font_matrix where
      { pop cairo_selectfont } if } bind def
/Td { matrix translate cairo_font_matrix matrix concatmatrix dup
      /cairo_font_matrix exch def dup 4 get exch 5 get cairo_store_point
      /cairo_font where { pop cairo_selectfont } if } bind def
/Tm { 2 copy 8 2 roll 6 array astore /cairo_font_matrix exch def
      cairo_store_point /cairo_font where { pop cairo_selectfont } if } bind def
/g { setgray } bind def
/rg { setrgbcolor } bind def
/d1 { setcachedevice } bind def
/cairo_data_source {
  CairoDataIndex CairoData length lt
    { CairoData CairoDataIndex get /CairoDataIndex CairoDataIndex 1 add def }
    { () } ifelse
} def
/cairo_flush_ascii85_file { cairo_ascii85_file status { cairo_ascii85_file flushfile } if } def
/cairo_image { image cairo_flush_ascii85_file } def
/cairo_imagemask { imagemask cairo_flush_ascii85_file } def
%%EndProlog
%%BeginSetup
%%EndSetup
%%Page: 1 1
%%BeginPageSetup
%%PageBoundingBox: 2 9 257 172
%%EndPageSetup
q 2 9 255 163 rectclip
1 0 0 -1 0 173 cm q
0 g
1.796436 w
0 J
0 j
[] 0.0 d
3.25 M 3.812 21.629 m 3.812 21.434 l S
6.352 21.914 m 6.352 21.195 l S
8.895 31.621 m 8.895 10.949 l S
11.434 41.184 m 11.434 1.969 l S
13.977 41.238 m 13.977 1.965 l S
16.52 40.691 m 16.52 2.52 l S
19.059 40.219 m 19.059 3.016 l S
21.602 40.168 m 21.602 3.051 l S
24.141 40.145 m 24.141 3.062 l S
26.684 40.055 m 26.684 3.133 l S
29.223 40.141 m 29.223 3.082 l S
31.766 40.227 m 31.766 2.98 l S
34.305 40.293 m 34.305 2.926 l S
36.848 40.336 m 36.848 2.922 l S
39.387 40.453 m 39.387 2.793 l S
41.93 40.535 m 41.93 2.695 l S
44.469 40.539 m 44.469 2.645 l S
47.012 40.547 m 47.012 2.68 l S
49.555 40.637 m 49.555 2.621 l S
52.094 40.594 m 52.094 2.66 l S
54.637 40.629 m 54.637 2.582 l S
57.176 40.59 m 57.176 2.617 l S
59.719 40.629 m 59.719 2.641 l S
62.258 40.602 m 62.258 2.602 l S
64.801 40.586 m 64.801 2.719 l S
67.34 40.367 m 67.34 2.789 l S
69.883 40.262 m 69.883 2.945 l S
72.422 40.352 m 72.422 2.832 l S
74.965 40.418 m 74.965 2.781 l S
77.508 40.496 m 77.508 2.676 l S
80.047 40.559 m 80.047 2.668 l S
82.59 40.512 m 82.59 2.672 l S
85.129 40.371 m 85.129 2.785 l S
87.672 40.438 m 87.672 2.793 l S
90.211 40.395 m 90.211 2.836 l S
92.754 40.262 m 92.754 2.949 l S
95.293 40.199 m 95.293 3.035 l S
97.836 40.141 m 97.836 3.125 l S
100.375 40.086 m 100.375 3.168 l S
102.918 39.961 m 102.918 3.242 l S
105.457 39.922 m 105.457 3.238 l S
108 39.926 m 108 3.258 l S
110.543 39.895 m 110.543 3.285 l S
113.082 39.859 m 113.082 3.344 l S
115.625 39.844 m 115.625 3.367 l S
118.164 39.887 m 118.164 3.398 l S
120.707 40.035 m 120.707 3.238 l S
123.246 39.977 m 123.246 3.191 l S
125.789 39.992 m 125.789 3.219 l S
128.328 39.98 m 128.328 3.215 l S
130.871 40.066 m 130.871 3.156 l S
133.41 40.07 m 133.41 3.113 l S
135.953 40.086 m 135.953 3.141 l S
138.492 40.051 m 138.492 3.191 l S
141.035 39.941 m 141.035 3.277 l S
143.578 39.953 m 143.578 3.262 l S
146.117 39.953 m 146.117 3.266 l S
148.66 39.906 m 148.66 3.312 l S
151.199 39.805 m 151.199 3.406 l S
153.742 39.914 m 153.742 3.316 l S
156.281 39.918 m 156.281 3.281 l S
158.824 39.898 m 158.824 3.312 l S
161.363 39.945 m 161.363 3.312 l S
163.906 39.891 m 163.906 3.324 l S
166.445 39.98 m 166.445 3.254 l S
168.988 40.016 m 168.988 3.227 l S
171.531 40.09 m 171.531 3.078 l S
174.07 40.254 m 174.07 2.941 l S
176.613 40.172 m 176.613 3.07 l S
179.152 36.219 m 179.152 6.727 l S
181.695 27.391 m 181.695 15.625 l S
184.234 23.488 m 184.234 19.727 l S
186.777 21.906 m 186.777 21.16 l S
189.316 21.848 m 189.316 21.246 l S
191.859 21.805 m 191.859 21.352 l S
194.398 21.68 m 194.398 21.379 l S
196.941 21.645 m 196.941 21.41 l S
199.48 21.676 m 199.48 21.414 l S
202.023 21.676 m 202.023 21.367 l S
204.566 21.641 m 204.566 21.418 l S
207.105 21.66 m 207.105 21.406 l S
209.648 21.656 m 209.648 21.406 l S
212.188 21.66 m 212.188 21.418 l S
214.73 21.629 m 214.73 21.434 l S
217.27 21.652 m 217.27 21.426 l S
219.812 21.637 m 219.812 21.418 l S
222.352 21.633 m 222.352 21.402 l S
224.895 21.629 m 224.895 21.434 l S
227.434 21.629 m 227.434 21.434 l S
229.977 21.629 m 229.977 21.434 l S
232.52 21.629 m 232.52 21.434 l S
235.059 21.629 m 235.059 21.434 l S
237.602 21.629 m 237.602 21.434 l S
240.141 21.629 m 240.141 21.434 l S
242.684 21.629 m 242.684 21.434 l S
245.223 21.629 m 245.223 21.434 l S
247.766 21.629 m 247.766 21.434 l S
250.305 21.629 m 250.305 21.434 l S
252.848 21.629 m 252.848 21.434 l S
255.387 21.629 m 255.387 21.434 l S
255.387 21.629 m 255.387 21.434 l S
3.812 64.828 m 3.812 64.633 l S
6.352 64.898 m 6.352 64.555 l S
8.895 68.785 m 8.895 60.328 l S
11.434 71.566 m 11.434 57.875 l S
13.977 71.445 m 13.977 57.762 l S
16.52 70.91 m 16.52 58.48 l S
19.059 70.996 m 19.059 58.48 l S
21.602 71.105 m 21.602 58.398 l S
24.141 71.027 m 24.141 58.328 l S
26.684 71.008 m 26.684 58.461 l S
29.223 70.953 m 29.223 58.426 l S
31.766 71.02 m 31.766 58.426 l S
34.305 71.105 m 34.305 58.254 l S
36.848 70.973 m 36.848 58.48 l S
39.387 71.016 m 39.387 58.461 l S
41.93 71.098 m 41.93 58.387 l S
44.469 71.109 m 44.469 58.363 l S
47.012 71.156 m 47.012 58.332 l S
49.555 71.219 m 49.555 58.324 l S
52.094 71.164 m 52.094 58.246 l S
54.637 71.195 m 54.637 58.223 l S
57.176 71.195 m 57.176 58.172 l S
59.719 71.293 m 59.719 58.18 l S
62.258 71.273 m 62.258 58.254 l S
64.801 71.18 m 64.801 58.355 l S
67.34 71.016 m 67.34 58.363 l S
69.883 71.043 m 69.883 58.438 l S
72.422 71.098 m 72.422 58.391 l S
74.965 71.145 m 74.965 58.34 l S
77.508 71.188 m 77.508 58.219 l S
80.047 71.238 m 80.047 58.227 l S
82.59 71.336 m 82.59 58.242 l S
85.129 71.266 m 85.129 58.211 l S
87.672 71.285 m 87.672 58.168 l S
90.211 71.297 m 90.211 58.262 l S
92.754 71.129 m 92.754 58.363 l S
95.293 71.082 m 95.293 58.355 l S
97.836 70.977 m 97.836 58.531 l S
100.375 71.027 m 100.375 58.441 l S
102.918 70.992 m 102.918 58.512 l S
105.457 70.926 m 105.457 58.375 l S
108 70.91 m 108 58.539 l S
110.543 70.906 m 110.543 58.566 l S
113.082 70.816 m 113.082 58.594 l S
115.625 70.828 m 115.625 58.645 l S
118.164 70.934 m 118.164 58.578 l S
120.707 70.938 m 120.707 58.379 l S
123.246 70.891 m 123.246 58.555 l S
125.789 70.938 m 125.789 58.441 l S
128.328 70.914 m 128.328 58.484 l S
130.871 71.094 m 130.871 58.465 l S
133.41 71.023 m 133.41 58.449 l S
135.953 71.004 m 135.953 58.469 l S
138.492 70.953 m 138.492 58.52 l S
141.035 70.875 m 141.035 58.492 l S
143.578 70.879 m 143.578 58.574 l S
146.117 70.969 m 146.117 58.465 l S
148.66 71.031 m 148.66 58.559 l S
151.199 71.133 m 151.199 58.34 l S
153.742 71.074 m 153.742 58.398 l S
156.281 71.066 m 156.281 58.449 l S
158.824 71.043 m 158.824 58.402 l S
161.363 71.102 m 161.363 58.332 l S
163.906 70.996 m 163.906 58.41 l S
166.445 71.129 m 166.445 58.336 l S
168.988 71.117 m 168.988 58.215 l S
171.531 71.027 m 171.531 58.352 l S
174.07 71.074 m 174.07 58.254 l S
176.613 70.914 m 176.613 58.637 l S
179.152 68.652 m 179.152 61.285 l S
181.695 66.039 m 181.695 63.152 l S
184.234 65.414 m 184.234 64.035 l S
186.777 65.059 m 186.777 64.445 l S
189.316 65.031 m 189.316 64.434 l S
191.859 64.969 m 191.859 64.332 l S
194.398 64.984 m 194.398 64.461 l S
196.941 64.918 m 196.941 64.516 l S
199.48 65.004 m 199.48 64.445 l S
202.023 64.941 m 202.023 64.461 l S
204.566 64.957 m 204.566 64.523 l S
207.105 64.945 m 207.105 64.523 l S
209.648 64.918 m 209.648 64.539 l S
212.188 64.902 m 212.188 64.562 l S
214.73 64.887 m 214.73 64.594 l S
217.27 64.867 m 217.27 64.59 l S
219.812 64.965 m 219.812 64.582 l S
222.352 64.938 m 222.352 64.258 l S
224.895 65.004 m 224.895 64.414 l S
227.434 65.047 m 227.434 64.406 l S
229.977 64.973 m 229.977 64.5 l S
232.52 64.926 m 232.52 64.547 l S
235.059 64.871 m 235.059 64.594 l S
237.602 64.828 m 237.602 64.633 l S
240.141 64.828 m 240.141 64.633 l S
242.684 64.828 m 242.684 64.633 l S
245.223 64.828 m 245.223 64.633 l S
247.766 64.828 m 247.766 64.633 l S
250.305 64.828 m 250.305 64.633 l S
252.848 64.828 m 252.848 64.633 l S
255.387 64.828 m 255.387 64.633 l S
255.387 64.828 m 255.387 64.633 l S
3.812 108.031 m 3.812 107.832 l S
6.352 108.316 m 6.352 107.453 l S
8.895 119.609 m 8.895 95.73 l S
11.434 125.969 m 11.434 90.371 l S
13.977 125.473 m 13.977 90.465 l S
16.52 124.961 m 16.52 90.996 l S
19.059 124.734 m 19.059 91.344 l S
21.602 124.754 m 21.602 91.289 l S
24.141 124.785 m 24.141 91.238 l S
26.684 124.746 m 26.684 91.344 l S
29.223 124.734 m 29.223 91.297 l S
31.766 124.852 m 31.766 91.234 l S
34.305 124.824 m 34.305 91.211 l S
36.848 124.926 m 36.848 91.121 l S
39.387 124.992 m 39.387 91.059 l S
41.93 125.121 m 41.93 90.98 l S
44.469 125.16 m 44.469 90.965 l S
47.012 125.141 m 47.012 90.949 l S
49.555 125.25 m 49.555 90.844 l S
52.094 125.152 m 52.094 90.902 l S
54.637 125.207 m 54.637 90.812 l S
57.176 125.203 m 57.176 90.879 l S
59.719 125.191 m 59.719 90.75 l S
62.258 125.219 m 62.258 90.879 l S
64.801 125.125 m 64.801 90.895 l S
67.34 124.859 m 67.34 91.148 l S
69.883 124.918 m 69.883 91.195 l S
72.422 124.98 m 72.422 91.066 l S
74.965 125.051 m 74.965 91.004 l S
77.508 125.125 m 77.508 90.875 l S
80.047 125.172 m 80.047 90.859 l S
82.59 125.211 m 82.59 90.836 l S
85.129 125.176 m 85.129 90.941 l S
87.672 125.152 m 87.672 91.008 l S
90.211 125.113 m 90.211 91.027 l S
92.754 124.992 m 92.754 91.059 l S
95.293 124.883 m 95.293 91.152 l S
97.836 124.797 m 97.836 91.312 l S
100.375 124.727 m 100.375 91.297 l S
102.918 124.715 m 102.918 91.355 l S
105.457 124.602 m 105.457 91.418 l S
108 124.598 m 108 91.453 l S
110.543 124.559 m 110.543 91.449 l S
113.082 124.512 m 113.082 91.531 l S
115.625 124.531 m 115.625 91.594 l S
118.164 124.594 m 118.164 91.41 l S
120.707 124.59 m 120.707 91.387 l S
123.246 124.691 m 123.246 91.426 l S
125.789 124.664 m 125.789 91.355 l S
128.328 124.672 m 128.328 91.402 l S
130.871 124.797 m 130.871 91.324 l S
133.41 124.766 m 133.41 91.34 l S
135.953 124.719 m 135.953 91.316 l S
138.492 124.688 m 138.492 91.398 l S
141.035 124.617 m 141.035 91.43 l S
143.578 124.648 m 143.578 91.363 l S
146.117 124.66 m 146.117 91.379 l S
148.66 124.672 m 148.66 91.441 l S
151.199 124.918 m 151.199 91.266 l S
153.742 124.801 m 153.742 91.398 l S
156.281 124.695 m 156.281 91.375 l S
158.824 124.734 m 158.824 91.34 l S
161.363 124.855 m 161.363 91.281 l S
163.906 124.707 m 163.906 91.348 l S
166.445 124.895 m 166.445 91.367 l S
168.988 125.004 m 168.988 91.215 l S
171.531 124.855 m 171.531 91.215 l S
174.07 124.977 m 174.07 90.934 l S
176.613 124.648 m 176.613 91.344 l S
179.152 119.914 m 179.152 96.402 l S
181.695 112.055 m 181.695 104.043 l S
184.234 108.902 m 184.234 106.844 l S
186.777 108.457 m 186.777 107.43 l S
189.316 108.305 m 189.316 107.578 l S
191.859 108.332 m 191.859 107.617 l S
194.398 108.371 m 194.398 107.609 l S
196.941 108.129 m 196.941 107.723 l S
199.48 108.168 m 199.48 107.668 l S
202.023 108.164 m 202.023 107.672 l S
204.566 108.117 m 204.566 107.73 l S
207.105 108.145 m 207.105 107.727 l S
209.648 108.148 m 209.648 107.727 l S
212.188 108.137 m 212.188 107.734 l S
214.73 108.141 m 214.73 107.719 l S
217.27 108.129 m 217.27 107.723 l S
219.812 108.113 m 219.812 107.707 l S
222.352 108.141 m 222.352 107.438 l S
224.895 108.277 m 224.895 107.594 l S
227.434 108.27 m 227.434 107.602 l S
229.977 108.176 m 229.977 107.695 l S
232.52 108.129 m 232.52 107.738 l S
235.059 108.078 m 235.059 107.785 l S
237.602 108.035 m 237.602 107.828 l S
240.141 108.031 m 240.141 107.832 l S
242.684 108.031 m 242.684 107.832 l S
245.223 108.031 m 245.223 107.832 l S
247.766 108.031 m 247.766 107.832 l S
250.305 108.031 m 250.305 107.832 l S
252.848 108.031 m 252.848 107.832 l S
255.387 108.031 m 255.387 107.832 l S
255.387 108.031 m 255.387 107.832 l S
3.812 151.23 m 3.812 151.031 l S
6.352 151.562 m 6.352 150.77 l S
8.895 159.105 m 8.895 142.484 l S
11.434 163.547 m 11.434 138.496 l S
13.977 162.973 m 13.977 138.629 l S
16.52 162.516 m 16.52 139.434 l S
19.059 162.355 m 19.059 139.758 l S
21.602 162.484 m 21.602 139.621 l S
24.141 162.406 m 24.141 139.488 l S
26.684 162.348 m 26.684 139.727 l S
29.223 162.305 m 29.223 139.652 l S
31.766 162.328 m 31.766 139.586 l S
34.305 162.449 m 34.305 139.516 l S
36.848 162.43 m 36.848 139.617 l S
39.387 162.398 m 39.387 139.633 l S
41.93 162.594 m 41.93 139.539 l S
44.469 162.512 m 44.469 139.496 l S
47.012 162.707 m 47.012 139.418 l S
49.555 162.797 m 49.555 139.406 l S
52.094 162.699 m 52.094 139.164 l S
54.637 162.73 m 54.637 139.25 l S
57.176 162.664 m 57.176 139.324 l S
59.719 162.73 m 59.719 139.074 l S
62.258 162.801 m 62.258 139.18 l S
64.801 162.719 m 64.801 139.441 l S
67.34 162.438 m 67.34 139.672 l S
69.883 162.441 m 69.883 139.598 l S
72.422 162.52 m 72.422 139.551 l S
74.965 162.559 m 74.965 139.434 l S
77.508 162.676 m 77.508 139.121 l S
80.047 162.754 m 80.047 139.344 l S
82.59 162.945 m 82.59 139.234 l S
85.129 162.844 m 85.129 139.344 l S
87.672 162.617 m 87.672 139.375 l S
90.211 162.832 m 90.211 139.41 l S
92.754 162.719 m 92.754 139.449 l S
95.293 162.5 m 95.293 139.535 l S
97.836 162.367 m 97.836 139.777 l S
100.375 162.285 m 100.375 139.605 l S
102.918 162.312 m 102.918 139.777 l S
105.457 162.289 m 105.457 139.719 l S
108 162.297 m 108 139.832 l S
110.543 162.246 m 110.543 139.875 l S
113.082 162.176 m 113.082 139.949 l S
115.625 162.094 m 115.625 139.953 l S
118.164 162.309 m 118.164 139.863 l S
120.707 162.277 m 120.707 139.809 l S
123.246 162.27 m 123.246 139.848 l S
125.789 162.188 m 125.789 139.805 l S
128.328 162.297 m 128.328 139.723 l S
130.871 162.543 m 130.871 139.695 l S
133.41 162.316 m 133.41 139.734 l S
135.953 162.289 m 135.953 139.727 l S
138.492 162.375 m 138.492 139.812 l S
141.035 162.223 m 141.035 139.762 l S
143.578 162.223 m 143.578 139.715 l S
146.117 162.27 m 146.117 139.742 l S
148.66 162.41 m 148.66 139.801 l S
151.199 162.641 m 151.199 139.598 l S
153.742 162.508 m 153.742 139.582 l S
156.281 162.434 m 156.281 139.66 l S
158.824 162.34 m 158.824 139.734 l S
161.363 162.52 m 161.363 139.449 l S
163.906 162.375 m 163.906 139.699 l S
166.445 162.582 m 166.445 139.543 l S
168.988 162.52 m 168.988 139.445 l S
171.531 162.406 m 171.531 139.629 l S
174.07 162.562 m 174.07 139.184 l S
176.613 162.227 m 176.613 139.855 l S
179.152 158.328 m 179.152 144.48 l S
181.695 154.23 m 181.695 148.559 l S
184.234 152.238 m 184.234 149.906 l S
186.777 151.844 m 186.777 150.598 l S
189.316 151.641 m 189.316 150.52 l S
191.859 151.82 m 191.859 150.574 l S
194.398 151.758 m 194.398 150.711 l S
196.941 151.465 m 196.941 150.758 l S
199.48 151.621 m 199.48 150.621 l S
202.023 151.594 m 202.023 150.594 l S
204.566 151.508 m 204.566 150.762 l S
207.105 151.535 m 207.105 150.742 l S
209.648 151.551 m 209.648 150.703 l S
212.188 151.574 m 212.188 150.738 l S
214.73 151.566 m 214.73 150.715 l S
217.27 151.566 m 217.27 150.699 l S
219.812 151.547 m 219.812 150.688 l S
222.352 151.633 m 222.352 150.188 l S
224.895 151.758 m 224.895 150.508 l S
227.434 151.66 m 227.434 150.543 l S
229.977 151.566 m 229.977 150.715 l S
232.52 151.465 m 232.52 150.812 l S
235.059 151.375 m 235.059 150.887 l S
237.602 151.309 m 237.602 150.953 l S
240.141 151.25 m 240.141 151.012 l S
242.684 151.23 m 242.684 151.031 l S
245.223 151.23 m 245.223 151.031 l S
247.766 151.23 m 247.766 151.031 l S
250.305 151.23 m 250.305 151.031 l S
252.848 151.23 m 252.848 151.031 l S
255.387 151.23 m 255.387 151.031 l S
255.387 151.23 m 255.387 151.031 l S
Q Q
showpage
%%Trailer
end
%%EOF
