%!PS-Adobe-3.0 EPSF-3.0
%%Creator: cairo 1.16.0 (https://cairographics.org)
%%CreationDate: Wed May 15 11:57:30 2024
%%Pages: 1
%%DocumentData: Clean7Bit
%%LanguageLevel: 2
%%Creator: Wolfram Mathematica
%%BoundingBox: 2 2 257 166
%%EndComments
%%BeginProlog
50 dict begin
/q { gsave } bind def
/Q { grestore } bind def
/cm { 6 array astore concat } bind def
/w { setlinewidth } bind def
/J { setlinecap } bind def
/j { setlinejoin } bind def
/M { setmiterlimit } bind def
/d { setdash } bind def
/m { moveto } bind def
/l { lineto } bind def
/c { curveto } bind def
/h { closepath } bind def
/re { exch dup neg 3 1 roll 5 3 roll moveto 0 rlineto
      0 exch rlineto 0 rlineto closepath } bind def
/S { stroke } bind def
/f { fill } bind def
/f* { eofill } bind def
/n { newpath } bind def
/W { clip } bind def
/W* { eoclip } bind def
/BT { } bind def
/ET { } bind def
/BDC { mark 3 1 roll /BDC pdfmark } bind def
/EMC { mark /EMC pdfmark } bind def
/cairo_store_point { /cairo_point_y exch def /cairo_point_x exch def } def
/Tj { show currentpoint cairo_store_point } bind def
/TJ {
  {
    dup
    type /stringtype eq
    { show } { -0.001 mul 0 cairo_font_matrix dtransform rmoveto } ifelse
  } forall
  currentpoint cairo_store_point
} bind def
/cairo_selectfont { cairo_font_matrix aload pop pop pop 0 0 6 array astore
    cairo_font exch selectfont cairo_point_x cairo_point_y moveto } bind def
/Tf { pop /cairo_font exch def /cairo_font_matrix where
      { pop cairo_selectfont } if } bind def
/Td { matrix translate cairo_font_matrix matrix concatmatrix dup
      /cairo_font_matrix exch def dup 4 get exch 5 get cairo_store_point
      /cairo_font where { pop cairo_selectfont } if } bind def
/Tm { 2 copy 8 2 roll 6 array astore /cairo_font_matrix exch def
      cairo_store_point /cairo_font where { pop cairo_selectfont } if } bind def
/g { setgray } bind def
/rg { setrgbcolor } bind def
/d1 { setcachedevice } bind def
/cairo_data_source {
  CairoDataIndex CairoData length lt
    { CairoData CairoDataIndex get /CairoDataIndex CairoDataIndex 1 add def }
    { () } ifelse
} def
/cairo_flush_ascii85_file { cairo_ascii85_file status { cairo_ascii85_file flushfile } if } def
/cairo_image { image cairo_flush_ascii85_file } def
/cairo_imagemask { imagemask cairo_flush_ascii85_file } def
%%EndProlog
%%BeginSetup
%%EndSetup
%%Page: 1 1
%%BeginPageSetup
%%PageBoundingBox: 2 2 257 166
%%EndPageSetup
q 2 2 255 164 rectclip
1 0 0 -1 0 173 cm q
0 g
1.796436 w
0 J
0 j
[] 0.0 d
3.25 M 3.812 21.797 m 3.812 21.602 l S
6.352 27.035 m 6.352 15.371 l S
8.895 30.734 m 8.895 12.516 l S
11.434 32.84 m 11.434 10.539 l S
13.977 34.043 m 13.977 9.391 l S
16.52 34.621 m 16.52 8.758 l S
19.059 35.016 m 19.059 8.371 l S
21.602 35.305 m 21.602 8.031 l S
24.141 35.492 m 24.141 7.809 l S
26.684 35.629 m 26.684 7.652 l S
29.223 35.73 m 29.223 7.59 l S
31.766 35.891 m 31.766 7.344 l S
34.305 35.926 m 34.305 7.371 l S
36.848 35.961 m 36.848 7.332 l S
39.387 36.023 m 39.387 7.27 l S
41.93 36.062 m 41.93 7.223 l S
44.469 36.031 m 44.469 7.258 l S
47.012 35.973 m 47.012 7.297 l S
49.555 35.945 m 49.555 7.387 l S
52.094 35.938 m 52.094 7.375 l S
54.637 35.836 m 54.637 7.504 l S
57.176 35.883 m 57.176 7.418 l S
59.719 35.922 m 59.719 7.398 l S
62.258 35.871 m 62.258 7.449 l S
64.801 35.812 m 64.801 7.516 l S
67.34 35.688 m 67.34 7.664 l S
69.883 35.734 m 69.883 7.59 l S
72.422 35.773 m 72.422 7.539 l S
74.965 35.805 m 74.965 7.488 l S
77.508 35.891 m 77.508 7.395 l S
80.047 35.934 m 80.047 7.414 l S
82.59 35.828 m 82.59 7.516 l S
85.129 35.785 m 85.129 7.555 l S
87.672 35.777 m 87.672 7.566 l S
90.211 35.73 m 90.211 7.605 l S
92.754 35.754 m 92.754 7.59 l S
95.293 35.781 m 95.293 7.562 l S
97.836 35.785 m 97.836 7.559 l S
100.375 35.812 m 100.375 7.555 l S
102.918 35.754 m 102.918 7.594 l S
105.457 35.77 m 105.457 7.586 l S
108 35.734 m 108 7.586 l S
110.543 35.695 m 110.543 7.629 l S
113.082 35.668 m 113.082 7.715 l S
115.625 35.574 m 115.625 7.801 l S
118.164 35.555 m 118.164 7.816 l S
120.707 35.57 m 120.707 7.781 l S
123.246 35.57 m 123.246 7.789 l S
125.789 35.586 m 125.789 7.781 l S
128.328 35.66 m 128.328 7.688 l S
130.871 35.688 m 130.871 7.691 l S
133.41 35.664 m 133.41 7.699 l S
135.953 35.676 m 135.953 7.668 l S
138.492 35.66 m 138.492 7.723 l S
141.035 35.625 m 141.035 7.719 l S
143.578 35.602 m 143.578 7.77 l S
146.117 35.555 m 146.117 7.809 l S
148.66 35.535 m 148.66 7.848 l S
151.199 35.512 m 151.199 7.863 l S
153.742 35.523 m 153.742 7.863 l S
156.281 35.57 m 156.281 7.809 l S
158.824 35.562 m 158.824 7.809 l S
161.363 35.551 m 161.363 7.828 l S
163.906 35.504 m 163.906 7.859 l S
166.445 35.469 m 166.445 7.922 l S
168.988 35.504 m 168.988 7.875 l S
171.531 35.523 m 171.531 7.848 l S
174.07 35.535 m 174.07 7.844 l S
176.613 35.488 m 176.613 7.895 l S
179.152 35.262 m 179.152 8.27 l S
181.695 32.953 m 181.695 10.75 l S
184.234 29.891 m 184.234 13.957 l S
186.777 27.598 m 186.777 16.238 l S
189.316 25.73 m 189.316 17.941 l S
191.859 24.461 m 191.859 19.062 l S
194.398 23.516 m 194.398 19.895 l S
196.941 22.922 m 196.941 20.488 l S
199.48 22.523 m 199.48 20.848 l S
202.023 22.25 m 202.023 21.16 l S
204.566 22.066 m 204.566 21.336 l S
207.105 22.031 m 207.105 21.348 l S
209.648 21.879 m 209.648 21.516 l S
212.188 21.844 m 212.188 21.566 l S
214.73 21.797 m 214.73 21.602 l S
217.27 21.797 m 217.27 21.602 l S
219.812 21.797 m 219.812 21.602 l S
222.352 21.797 m 222.352 21.602 l S
224.895 21.797 m 224.895 21.602 l S
227.434 21.797 m 227.434 21.602 l S
229.977 21.797 m 229.977 21.602 l S
232.52 21.797 m 232.52 21.602 l S
235.059 21.797 m 235.059 21.602 l S
237.602 21.797 m 237.602 21.602 l S
240.141 21.797 m 240.141 21.602 l S
242.684 21.797 m 242.684 21.602 l S
245.223 21.797 m 245.223 21.602 l S
247.766 21.797 m 247.766 21.602 l S
250.305 21.797 m 250.305 21.602 l S
252.848 21.797 m 252.848 21.602 l S
255.387 21.797 m 255.387 21.602 l S
255.387 21.797 m 255.387 21.602 l S
3.812 65.066 m 3.812 64.742 l S
6.352 68.625 m 6.352 61.695 l S
8.895 73.23 m 8.895 56.484 l S
11.434 74.945 m 11.434 54.566 l S
13.977 75.832 m 13.977 53.828 l S
16.52 76.32 m 16.52 53.418 l S
19.059 76.668 m 19.059 53.273 l S
21.602 76.93 m 21.602 53.074 l S
24.141 76.961 m 24.141 52.805 l S
26.684 77.004 m 26.684 52.734 l S
29.223 77.191 m 29.223 52.699 l S
31.766 77.234 m 31.766 52.586 l S
34.305 77.324 m 34.305 52.527 l S
36.848 77.34 m 36.848 52.5 l S
39.387 77.359 m 39.387 52.441 l S
41.93 77.406 m 41.93 52.422 l S
44.469 77.547 m 44.469 52.363 l S
47.012 77.34 m 47.012 52.449 l S
49.555 77.34 m 49.555 52.461 l S
52.094 77.332 m 52.094 52.469 l S
54.637 77.262 m 54.637 52.488 l S
57.176 77.242 m 57.176 52.527 l S
59.719 77.27 m 59.719 52.496 l S
62.258 77.25 m 62.258 52.484 l S
64.801 77.215 m 64.801 52.562 l S
67.34 77.117 m 67.34 52.625 l S
69.883 77.141 m 69.883 52.676 l S
72.422 77.293 m 72.422 52.523 l S
74.965 77.25 m 74.965 52.523 l S
77.508 77.32 m 77.508 52.48 l S
80.047 77.359 m 80.047 52.492 l S
82.59 77.262 m 82.59 52.496 l S
85.129 77.227 m 85.129 52.602 l S
87.672 77.203 m 87.672 52.629 l S
90.211 77.211 m 90.211 52.59 l S
92.754 77.195 m 92.754 52.582 l S
95.293 77.234 m 95.293 52.59 l S
97.836 77.207 m 97.836 52.594 l S
100.375 77.219 m 100.375 52.586 l S
102.918 77.172 m 102.918 52.613 l S
105.457 77.172 m 105.457 52.602 l S
108 77.266 m 108 52.52 l S
110.543 77.184 m 110.543 52.645 l S
113.082 77.121 m 113.082 52.715 l S
115.625 77.047 m 115.625 52.746 l S
118.164 77.051 m 118.164 52.754 l S
120.707 77.062 m 120.707 52.758 l S
123.246 77.047 m 123.246 52.727 l S
125.789 77.074 m 125.789 52.742 l S
128.328 77.07 m 128.328 52.719 l S
130.871 77.094 m 130.871 52.711 l S
133.41 77.113 m 133.41 52.676 l S
135.953 77.152 m 135.953 52.695 l S
138.492 77.113 m 138.492 52.648 l S
141.035 77.113 m 141.035 52.688 l S
143.578 77.094 m 143.578 52.746 l S
146.117 77.031 m 146.117 52.758 l S
148.66 77.047 m 148.66 52.77 l S
151.199 77.047 m 151.199 52.793 l S
153.742 77.133 m 153.742 52.77 l S
156.281 77 m 156.281 52.758 l S
158.824 77.059 m 158.824 52.703 l S
161.363 77.051 m 161.363 52.758 l S
163.906 77.008 m 163.906 52.82 l S
166.445 77.062 m 166.445 52.832 l S
168.988 77.016 m 168.988 52.82 l S
171.531 77.078 m 171.531 52.824 l S
174.07 77.047 m 174.07 52.758 l S
176.613 77.004 m 176.613 52.832 l S
179.152 76.73 m 179.152 52.949 l S
181.695 75.273 m 181.695 54.309 l S
184.234 72.844 m 184.234 56.758 l S
186.777 70.422 m 186.777 59.141 l S
189.316 68.809 m 189.316 60.812 l S
191.859 67.562 m 191.859 62.078 l S
194.398 66.629 m 194.398 63.066 l S
196.941 66.188 m 196.941 63.676 l S
199.48 65.84 m 199.48 63.984 l S
202.023 65.543 m 202.023 64.266 l S
204.566 65.301 m 204.566 64.516 l S
207.105 65.227 m 207.105 64.609 l S
209.648 65.105 m 209.648 64.699 l S
212.188 65.07 m 212.188 64.688 l S
214.73 64.996 m 214.73 64.797 l S
217.27 65.023 m 217.27 64.785 l S
219.812 64.996 m 219.812 64.777 l S
222.352 64.996 m 222.352 64.801 l S
224.895 64.996 m 224.895 64.801 l S
227.434 64.996 m 227.434 64.801 l S
229.977 64.996 m 229.977 64.801 l S
232.52 64.996 m 232.52 64.801 l S
235.059 64.996 m 235.059 64.801 l S
237.602 64.996 m 237.602 64.801 l S
240.141 64.996 m 240.141 64.801 l S
242.684 64.996 m 242.684 64.801 l S
245.223 64.996 m 245.223 64.801 l S
247.766 64.996 m 247.766 64.801 l S
250.305 64.996 m 250.305 64.801 l S
252.848 64.996 m 252.848 64.801 l S
255.387 64.996 m 255.387 64.801 l S
255.387 64.996 m 255.387 64.801 l S
3.812 108.312 m 3.812 107.93 l S
6.352 114.953 m 6.352 101.648 l S
8.895 118.848 m 8.895 97.113 l S
11.434 121.227 m 11.434 94.641 l S
13.977 122.586 m 13.977 93.422 l S
16.52 123.461 m 16.52 92.699 l S
19.059 124.02 m 19.059 92.359 l S
21.602 124.426 m 21.602 91.984 l S
24.141 124.68 m 24.141 91.676 l S
26.684 124.82 m 26.684 91.48 l S
29.223 124.926 m 29.223 91.371 l S
31.766 125.055 m 31.766 91.215 l S
34.305 125.141 m 34.305 91.156 l S
36.848 125.137 m 36.848 91.105 l S
39.387 125.133 m 39.387 91.051 l S
41.93 125.188 m 41.93 91.051 l S
44.469 125.305 m 44.469 91.023 l S
47.012 125.133 m 47.012 91.113 l S
49.555 125.129 m 49.555 91.137 l S
52.094 125.156 m 52.094 91.121 l S
54.637 125 m 54.637 91.145 l S
57.176 125.09 m 57.176 91.191 l S
59.719 125.078 m 59.719 91.121 l S
62.258 125.043 m 62.258 91.148 l S
64.801 124.988 m 64.801 91.254 l S
67.34 124.871 m 67.34 91.352 l S
69.883 124.914 m 69.883 91.359 l S
72.422 125.051 m 72.422 91.203 l S
74.965 125.02 m 74.965 91.168 l S
77.508 125.098 m 77.508 91.191 l S
80.047 125.148 m 80.047 91.137 l S
82.59 125.043 m 82.59 91.18 l S
85.129 125.004 m 85.129 91.293 l S
87.672 124.922 m 87.672 91.324 l S
90.211 124.922 m 90.211 91.262 l S
92.754 124.926 m 92.754 91.242 l S
95.293 124.965 m 95.293 91.289 l S
97.836 124.93 m 97.836 91.277 l S
100.375 124.973 m 100.375 91.277 l S
102.918 124.93 m 102.918 91.324 l S
105.457 124.906 m 105.457 91.324 l S
108 124.965 m 108 91.227 l S
110.543 124.918 m 110.543 91.336 l S
113.082 124.789 m 113.082 91.426 l S
115.625 124.727 m 115.625 91.445 l S
118.164 124.715 m 118.164 91.496 l S
120.707 124.738 m 120.707 91.492 l S
123.246 124.75 m 123.246 91.48 l S
125.789 124.773 m 125.789 91.441 l S
128.328 124.82 m 128.328 91.438 l S
130.871 124.797 m 130.871 91.441 l S
133.41 124.812 m 133.41 91.41 l S
135.953 124.82 m 135.953 91.395 l S
138.492 124.805 m 138.492 91.418 l S
141.035 124.781 m 141.035 91.41 l S
143.578 124.723 m 143.578 91.508 l S
146.117 124.688 m 146.117 91.496 l S
148.66 124.703 m 148.66 91.523 l S
151.199 124.672 m 151.199 91.527 l S
153.742 124.785 m 153.742 91.586 l S
156.281 124.699 m 156.281 91.477 l S
158.824 124.75 m 158.824 91.453 l S
161.363 124.676 m 161.363 91.523 l S
163.906 124.715 m 163.906 91.574 l S
166.445 124.621 m 166.445 91.598 l S
168.988 124.703 m 168.988 91.602 l S
171.531 124.773 m 171.531 91.547 l S
174.07 124.723 m 174.07 91.512 l S
176.613 124.621 m 176.613 91.602 l S
179.152 124.219 m 179.152 91.766 l S
181.695 121.609 m 181.695 94.34 l S
184.234 118.098 m 184.234 97.711 l S
186.777 115.555 m 186.777 100.656 l S
189.316 113.492 m 189.316 102.75 l S
191.859 111.91 m 191.859 104.109 l S
194.398 110.695 m 194.398 105.336 l S
196.941 109.969 m 196.941 106.195 l S
199.48 109.406 m 199.48 106.867 l S
202.023 109.023 m 202.023 107.211 l S
204.566 108.688 m 204.566 107.539 l S
207.105 108.637 m 207.105 107.605 l S
209.648 108.395 m 209.648 107.809 l S
212.188 108.379 m 212.188 107.805 l S
214.73 108.242 m 214.73 107.965 l S
217.27 108.234 m 217.27 107.965 l S
219.812 108.199 m 219.812 107.969 l S
222.352 108.199 m 222.352 108 l S
224.895 108.199 m 224.895 108 l S
227.434 108.199 m 227.434 108 l S
229.977 108.199 m 229.977 108 l S
232.52 108.199 m 232.52 108 l S
235.059 108.199 m 235.059 108 l S
237.602 108.199 m 237.602 108 l S
240.141 108.199 m 240.141 108 l S
242.684 108.199 m 242.684 108 l S
245.223 108.199 m 245.223 108 l S
247.766 108.199 m 247.766 108 l S
250.305 108.199 m 250.305 108 l S
252.848 108.199 m 252.848 108 l S
255.387 108.199 m 255.387 108 l S
255.387 108.199 m 255.387 108 l S
3.812 151.738 m 3.812 150.996 l S
6.352 159.887 m 6.352 143.645 l S
8.895 164.254 m 8.895 138.266 l S
11.434 166.617 m 11.434 135.574 l S
13.977 168.113 m 13.977 134.406 l S
16.52 169.074 m 16.52 133.312 l S
19.059 169.57 m 19.059 132.891 l S
21.602 169.965 m 21.602 132.715 l S
24.141 170.203 m 24.141 132.234 l S
26.684 170.383 m 26.684 132.078 l S
29.223 170.539 m 29.223 131.93 l S
31.766 170.594 m 31.766 131.852 l S
34.305 170.703 m 34.305 131.754 l S
36.848 170.684 m 36.848 131.695 l S
39.387 170.656 m 39.387 131.629 l S
41.93 170.699 m 41.93 131.688 l S
44.469 170.836 m 44.469 131.562 l S
47.012 170.648 m 47.012 131.676 l S
49.555 170.719 m 49.555 131.672 l S
52.094 170.664 m 52.094 131.656 l S
54.637 170.562 m 54.637 131.77 l S
57.176 170.559 m 57.176 131.832 l S
59.719 170.496 m 59.719 131.762 l S
62.258 170.508 m 62.258 131.789 l S
64.801 170.516 m 64.801 131.859 l S
67.34 170.445 m 67.34 131.945 l S
69.883 170.34 m 69.883 132 l S
72.422 170.469 m 72.422 131.926 l S
74.965 170.539 m 74.965 131.809 l S
77.508 170.512 m 77.508 131.793 l S
80.047 170.676 m 80.047 131.785 l S
82.59 170.586 m 82.59 131.887 l S
85.129 170.527 m 85.129 131.984 l S
87.672 170.5 m 87.672 132.008 l S
90.211 170.422 m 90.211 131.965 l S
92.754 170.426 m 92.754 131.965 l S
95.293 170.48 m 95.293 131.996 l S
97.836 170.422 m 97.836 131.98 l S
100.375 170.547 m 100.375 132.02 l S
102.918 170.504 m 102.918 132.059 l S
105.457 170.398 m 105.457 131.926 l S
108 170.387 m 108 131.918 l S
110.543 170.43 m 110.543 132.051 l S
113.082 170.281 m 113.082 132.082 l S
115.625 170.227 m 115.625 132.172 l S
118.164 170.223 m 118.164 132.188 l S
120.707 170.238 m 120.707 132.215 l S
123.246 170.223 m 123.246 132.109 l S
125.789 170.32 m 125.789 132.148 l S
128.328 170.285 m 128.328 132.094 l S
130.871 170.258 m 130.871 132.172 l S
133.41 170.316 m 133.41 132.109 l S
135.953 170.43 m 135.953 132.117 l S
138.492 170.301 m 138.492 132.125 l S
141.035 170.305 m 141.035 132.141 l S
143.578 170.195 m 143.578 132.191 l S
146.117 170.234 m 146.117 132.184 l S
148.66 170.148 m 148.66 132.285 l S
151.199 170.152 m 151.199 132.168 l S
153.742 170.324 m 153.742 132.145 l S
156.281 170.254 m 156.281 132.246 l S
158.824 170.219 m 158.824 132.113 l S
161.363 170.18 m 161.363 132.152 l S
163.906 170.168 m 163.906 132.32 l S
166.445 170.156 m 166.445 132.246 l S
168.988 170.145 m 168.988 132.305 l S
171.531 170.273 m 171.531 132.324 l S
174.07 170.141 m 174.07 132.168 l S
176.613 170.246 m 176.613 132.281 l S
179.152 169.715 m 179.152 132.363 l S
181.695 166.793 m 181.695 136.074 l S
184.234 163.391 m 184.234 139.562 l S
186.777 160.195 m 186.777 142.523 l S
189.316 158.113 m 189.316 145.035 l S
191.859 156.074 m 191.859 146.426 l S
194.398 154.496 m 194.398 148.059 l S
196.941 153.637 m 196.941 149.098 l S
199.48 152.875 m 199.48 149.84 l S
202.023 152.543 m 202.023 150.223 l S
204.566 152 m 204.566 150.559 l S
207.105 151.949 m 207.105 150.75 l S
209.648 151.691 m 209.648 150.938 l S
212.188 151.758 m 212.188 150.809 l S
214.73 151.555 m 214.73 151.109 l S
217.27 151.57 m 217.27 151.043 l S
219.812 151.535 m 219.812 151.035 l S
222.352 151.5 m 222.352 151.094 l S
224.895 151.418 m 224.895 151.18 l S
227.434 151.414 m 227.434 151.18 l S
229.977 151.398 m 229.977 151.203 l S
232.52 151.41 m 232.52 151.203 l S
235.059 151.414 m 235.059 151.203 l S
237.602 151.398 m 237.602 151.203 l S
240.141 151.398 m 240.141 151.203 l S
242.684 151.398 m 242.684 151.203 l S
245.223 151.398 m 245.223 151.203 l S
247.766 151.398 m 247.766 151.203 l S
250.305 151.398 m 250.305 151.203 l S
252.848 151.398 m 252.848 151.203 l S
255.387 151.398 m 255.387 151.203 l S
255.387 151.398 m 255.387 151.203 l S
Q Q
showpage
%%Trailer
end
%%EOF
