%!PS-Adobe-3.0 EPSF-3.0
%%Creator: cairo 1.16.0 (https://cairographics.org)
%%CreationDate: Wed May 15 11:57:30 2024
%%Pages: 1
%%DocumentData: Clean7Bit
%%LanguageLevel: 2
%%Creator: Wolfram Mathematica
%%BoundingBox: 2 8 257 172
%%EndComments
%%BeginProlog
50 dict begin
/q { gsave } bind def
/Q { grestore } bind def
/cm { 6 array astore concat } bind def
/w { setlinewidth } bind def
/J { setlinecap } bind def
/j { setlinejoin } bind def
/M { setmiterlimit } bind def
/d { setdash } bind def
/m { moveto } bind def
/l { lineto } bind def
/c { curveto } bind def
/h { closepath } bind def
/re { exch dup neg 3 1 roll 5 3 roll moveto 0 rlineto
      0 exch rlineto 0 rlineto closepath } bind def
/S { stroke } bind def
/f { fill } bind def
/f* { eofill } bind def
/n { newpath } bind def
/W { clip } bind def
/W* { eoclip } bind def
/BT { } bind def
/ET { } bind def
/BDC { mark 3 1 roll /BDC pdfmark } bind def
/EMC { mark /EMC pdfmark } bind def
/cairo_store_point { /cairo_point_y exch def /cairo_point_x exch def } def
/Tj { show currentpoint cairo_store_point } bind def
/TJ {
  {
    dup
    type /stringtype eq
    { show } { -0.001 mul 0 cairo_font_matrix dtransform rmoveto } ifelse
  } forall
  currentpoint cairo_store_point
} bind def
/cairo_selectfont { cairo_font_matrix aload pop pop pop 0 0 6 array astore
    cairo_font exch selectfont cairo_point_x cairo_point_y moveto } bind def
/Tf { pop /cairo_font exch def /cairo_font_matrix where
      { pop cairo_selectfont } if } bind def
/Td { matrix translate cairo_font_matrix matrix concatmatrix dup
      /cairo_font_matrix exch def dup 4 get exch 5 get cairo_store_point
      /cairo_font where { pop cairo_selectfont } if } bind def
/Tm { 2 copy 8 2 roll 6 array astore /cairo_font_matrix exch def
      cairo_store_point /cairo_font where { pop cairo_selectfont } if } bind def
/g { setgray } bind def
/rg { setrgbcolor } bind def
/d1 { setcachedevice } bind def
/cairo_data_source {
  CairoDataIndex CairoData length lt
    { CairoData CairoDataIndex get /CairoDataIndex CairoDataIndex 1 add def }
    { () } ifelse
} def
/cairo_flush_ascii85_file { cairo_ascii85_file status { cairo_ascii85_file flushfile } if } def
/cairo_image { image cairo_flush_ascii85_file } def
/cairo_imagemask { imagemask cairo_flush_ascii85_file } def
%%EndProlog
%%BeginSetup
%%EndSetup
%%Page: 1 1
%%BeginPageSetup
%%PageBoundingBox: 2 8 257 172
%%EndPageSetup
q 2 8 255 164 rectclip
1 0 0 -1 0 173 cm q
0 g
1.796436 w
0 J
0 j
[] 0.0 d
3.25 M 3.812 21.559 m 3.812 21.363 l S
6.352 21.914 m 6.352 21.172 l S
8.895 37.215 m 8.895 5.461 l S
11.434 41.238 m 11.434 1.965 l S
13.977 39.367 m 13.977 3.719 l S
16.52 36.734 m 16.52 6.387 l S
19.059 36.371 m 19.059 6.738 l S
21.602 36.305 m 21.602 6.777 l S
24.141 36.18 m 24.141 6.953 l S
26.684 36.379 m 26.684 6.648 l S
29.223 36.871 m 29.223 6.262 l S
31.766 36.898 m 31.766 6.211 l S
34.305 37.059 m 34.305 6.016 l S
36.848 37.367 m 36.848 5.629 l S
39.387 37.801 m 39.387 5.254 l S
41.93 37.992 m 41.93 5.078 l S
44.469 37.98 m 44.469 5.191 l S
47.012 37.973 m 47.012 5.172 l S
49.555 37.941 m 49.555 5.168 l S
52.094 37.863 m 52.094 5.137 l S
54.637 37.805 m 54.637 5.199 l S
57.176 37.922 m 57.176 5.16 l S
59.719 37.82 m 59.719 5.211 l S
62.258 38.113 m 62.258 4.957 l S
64.801 38.07 m 64.801 4.961 l S
67.34 37.852 m 67.34 5.227 l S
69.883 37.641 m 69.883 5.395 l S
72.422 37.488 m 72.422 5.547 l S
74.965 37.402 m 74.965 5.633 l S
77.508 37.277 m 77.508 5.75 l S
80.047 37.203 m 80.047 5.801 l S
82.59 37.207 m 82.59 5.84 l S
85.129 37.312 m 85.129 5.738 l S
87.672 37.402 m 87.672 5.629 l S
90.211 37.617 m 90.211 5.367 l S
92.754 37.641 m 92.754 5.406 l S
95.293 37.57 m 95.293 5.527 l S
97.836 37.645 m 97.836 5.441 l S
100.375 37.566 m 100.375 5.465 l S
102.918 37.629 m 102.918 5.445 l S
105.457 37.535 m 105.457 5.523 l S
108 37.547 m 108 5.41 l S
110.543 37.621 m 110.543 5.426 l S
113.082 37.566 m 113.082 5.496 l S
115.625 37.535 m 115.625 5.5 l S
118.164 37.586 m 118.164 5.461 l S
120.707 37.629 m 120.707 5.457 l S
123.246 37.668 m 123.246 5.383 l S
125.789 37.688 m 125.789 5.422 l S
128.328 37.668 m 128.328 5.379 l S
130.871 37.66 m 130.871 5.324 l S
133.41 37.719 m 133.41 5.371 l S
135.953 37.797 m 135.953 5.305 l S
138.492 37.836 m 138.492 5.246 l S
141.035 37.938 m 141.035 5.137 l S
143.578 37.949 m 143.578 5.098 l S
146.117 38.023 m 146.117 5.051 l S
148.66 38.168 m 148.66 4.977 l S
151.199 38.152 m 151.199 4.926 l S
153.742 38.199 m 153.742 4.902 l S
156.281 38.211 m 156.281 4.852 l S
158.824 38.129 m 158.824 4.926 l S
161.363 38.145 m 161.363 4.969 l S
163.906 38.152 m 163.906 4.906 l S
166.445 38.113 m 166.445 4.891 l S
168.988 38.215 m 168.988 4.852 l S
171.531 38.164 m 171.531 4.945 l S
174.07 38.266 m 174.07 4.855 l S
176.613 38.281 m 176.613 4.766 l S
179.152 38.316 m 179.152 4.793 l S
181.695 38.453 m 181.695 4.672 l S
184.234 36.977 m 184.234 6.164 l S
186.777 26.688 m 186.777 16.418 l S
189.316 23.215 m 189.316 19.586 l S
191.859 21.91 m 191.859 21.02 l S
194.398 21.68 m 194.398 21.168 l S
196.941 21.605 m 196.941 21.289 l S
199.48 21.59 m 199.48 21.328 l S
202.023 21.598 m 202.023 21.324 l S
204.566 21.59 m 204.566 21.332 l S
207.105 21.578 m 207.105 21.336 l S
209.648 21.574 m 209.648 21.328 l S
212.188 21.566 m 212.188 21.359 l S
214.73 21.57 m 214.73 21.355 l S
217.27 21.562 m 217.27 21.352 l S
219.812 21.559 m 219.812 21.363 l S
222.352 21.559 m 222.352 21.363 l S
224.895 21.559 m 224.895 21.363 l S
227.434 21.559 m 227.434 21.363 l S
229.977 21.559 m 229.977 21.363 l S
232.52 21.559 m 232.52 21.363 l S
235.059 21.559 m 235.059 21.363 l S
237.602 21.559 m 237.602 21.363 l S
240.141 21.559 m 240.141 21.363 l S
242.684 21.559 m 242.684 21.363 l S
245.223 21.559 m 245.223 21.363 l S
247.766 21.559 m 247.766 21.363 l S
250.305 21.559 m 250.305 21.363 l S
252.848 21.559 m 252.848 21.363 l S
255.387 21.559 m 255.387 21.363 l S
255.387 21.559 m 255.387 21.363 l S
3.812 64.77 m 3.812 64.562 l S
6.352 65.309 m 6.352 63.121 l S
8.895 70.488 m 8.895 58.695 l S
11.434 71.73 m 11.434 57.656 l S
13.977 70.117 m 13.977 59.16 l S
16.52 69.945 m 16.52 59.566 l S
19.059 70.457 m 19.059 58.84 l S
21.602 70.508 m 21.602 58.898 l S
24.141 70.102 m 24.141 59.176 l S
26.684 69.68 m 26.684 59.59 l S
29.223 70.227 m 29.223 59.055 l S
31.766 70.406 m 31.766 59.113 l S
34.305 70.195 m 34.305 59.164 l S
36.848 70.312 m 36.848 58.949 l S
39.387 70.43 m 39.387 58.695 l S
41.93 70.645 m 41.93 58.773 l S
44.469 70.555 m 44.469 58.406 l S
47.012 70.684 m 47.012 58.258 l S
49.555 70.75 m 49.555 58.594 l S
52.094 70.77 m 52.094 58.512 l S
54.637 70.504 m 54.637 58.699 l S
57.176 70.648 m 57.176 58.641 l S
59.719 70.387 m 59.719 58.883 l S
62.258 70.609 m 62.258 58.723 l S
64.801 70.555 m 64.801 58.852 l S
67.34 70.371 m 67.34 58.938 l S
69.883 70.312 m 69.883 59.027 l S
72.422 70.348 m 72.422 58.812 l S
74.965 70.332 m 74.965 59.043 l S
77.508 70.277 m 77.508 59.047 l S
80.047 70.18 m 80.047 59.113 l S
82.59 70.176 m 82.59 58.965 l S
85.129 70.234 m 85.129 59.039 l S
87.672 70.41 m 87.672 58.973 l S
90.211 70.422 m 90.211 58.957 l S
92.754 70.398 m 92.754 58.742 l S
95.293 70.25 m 95.293 58.871 l S
97.836 70.434 m 97.836 58.828 l S
100.375 70.312 m 100.375 58.895 l S
102.918 70.441 m 102.918 58.977 l S
105.457 70.418 m 105.457 59 l S
108 70.488 m 108 58.828 l S
110.543 70.496 m 110.543 58.945 l S
113.082 70.551 m 113.082 58.938 l S
115.625 70.301 m 115.625 58.996 l S
118.164 70.371 m 118.164 58.812 l S
120.707 70.305 m 120.707 58.91 l S
123.246 70.355 m 123.246 58.949 l S
125.789 70.418 m 125.789 58.879 l S
128.328 70.371 m 128.328 58.832 l S
130.871 70.406 m 130.871 58.816 l S
133.41 70.5 m 133.41 58.758 l S
135.953 70.531 m 135.953 58.75 l S
138.492 70.379 m 138.492 58.793 l S
141.035 70.578 m 141.035 58.641 l S
143.578 70.5 m 143.578 58.781 l S
146.117 70.52 m 146.117 58.762 l S
148.66 70.645 m 148.66 58.602 l S
151.199 70.598 m 151.199 58.633 l S
153.742 70.555 m 153.742 58.684 l S
156.281 70.562 m 156.281 58.586 l S
158.824 70.609 m 158.824 58.668 l S
161.363 70.59 m 161.363 58.66 l S
163.906 70.664 m 163.906 58.562 l S
166.445 70.691 m 166.445 58.527 l S
168.988 70.82 m 168.988 58.492 l S
171.531 70.613 m 171.531 58.645 l S
174.07 70.691 m 174.07 58.605 l S
176.613 70.875 m 176.613 58.469 l S
179.152 70.621 m 179.152 58.543 l S
181.695 70.793 m 181.695 58.508 l S
184.234 69.18 m 184.234 60.227 l S
186.777 66.125 m 186.777 63.535 l S
189.316 65.09 m 189.316 64.055 l S
191.859 64.926 m 191.859 64.406 l S
194.398 64.926 m 194.398 64.422 l S
196.941 64.879 m 196.941 64.457 l S
199.48 64.859 m 199.48 64.445 l S
202.023 64.824 m 202.023 64.477 l S
204.566 64.82 m 204.566 64.504 l S
207.105 64.797 m 207.105 64.531 l S
209.648 64.785 m 209.648 64.543 l S
212.188 64.762 m 212.188 64.555 l S
214.73 64.781 m 214.73 64.516 l S
217.27 64.918 m 217.27 64.504 l S
219.812 64.801 m 219.812 64.52 l S
222.352 64.793 m 222.352 64.531 l S
224.895 64.762 m 224.895 64.559 l S
227.434 64.762 m 227.434 64.562 l S
229.977 64.762 m 229.977 64.562 l S
232.52 64.762 m 232.52 64.562 l S
235.059 64.762 m 235.059 64.562 l S
237.602 64.762 m 237.602 64.562 l S
240.141 64.762 m 240.141 64.562 l S
242.684 64.762 m 242.684 64.562 l S
245.223 64.762 m 245.223 64.562 l S
247.766 64.762 m 247.766 64.562 l S
250.305 64.762 m 250.305 64.562 l S
252.848 64.762 m 252.848 64.562 l S
255.387 64.762 m 255.387 64.562 l S
255.387 64.762 m 255.387 64.562 l S
3.812 107.98 m 3.812 107.762 l S
6.352 108.363 m 6.352 106.723 l S
8.895 123.961 m 8.895 91.305 l S
11.434 126.289 m 11.434 90.281 l S
13.977 123.543 m 13.977 92.496 l S
16.52 121.879 m 16.52 94.191 l S
19.059 122.59 m 19.059 93.742 l S
21.602 122.773 m 21.602 93.461 l S
24.141 122 m 24.141 93.785 l S
26.684 122.059 m 26.684 94.105 l S
29.223 122.453 m 29.223 93.719 l S
31.766 122.797 m 31.766 93.465 l S
34.305 122.473 m 34.305 93.539 l S
36.848 122.777 m 36.848 93.145 l S
39.387 123.32 m 39.387 92.77 l S
41.93 123.527 m 41.93 92.668 l S
44.469 123.371 m 44.469 92.25 l S
47.012 123.523 m 47.012 92.254 l S
49.555 123.48 m 49.555 92.508 l S
52.094 123.875 m 52.094 92.426 l S
54.637 123.652 m 54.637 92.578 l S
57.176 123.469 m 57.176 92.324 l S
59.719 123.238 m 59.719 92.809 l S
62.258 123.48 m 62.258 92.453 l S
64.801 123.555 m 64.801 92.621 l S
67.34 123.141 m 67.34 92.762 l S
69.883 123.098 m 69.883 92.988 l S
72.422 123.148 m 72.422 92.723 l S
74.965 122.914 m 74.965 92.844 l S
77.508 122.746 m 77.508 93.266 l S
80.047 122.727 m 80.047 93.281 l S
82.59 122.605 m 82.59 93.086 l S
85.129 122.945 m 85.129 93.082 l S
87.672 122.973 m 87.672 93.039 l S
90.211 122.996 m 90.211 92.922 l S
92.754 123.172 m 92.754 92.648 l S
95.293 123.078 m 95.293 92.961 l S
97.836 123.082 m 97.836 92.812 l S
100.375 123.145 m 100.375 92.961 l S
102.918 123.172 m 102.918 92.961 l S
105.457 122.898 m 105.457 93.035 l S
108 123.168 m 108 92.922 l S
110.543 123.09 m 110.543 92.871 l S
113.082 122.965 m 113.082 93.008 l S
115.625 122.934 m 115.625 92.941 l S
118.164 123.059 m 118.164 92.816 l S
120.707 123.16 m 120.707 92.902 l S
123.246 123.031 m 123.246 92.875 l S
125.789 123.129 m 125.789 92.746 l S
128.328 123.254 m 128.328 92.566 l S
130.871 123.23 m 130.871 92.582 l S
133.41 123.207 m 133.41 92.816 l S
135.953 123.449 m 135.953 92.598 l S
138.492 123.367 m 138.492 92.59 l S
141.035 123.566 m 141.035 92.359 l S
143.578 123.367 m 143.578 92.602 l S
146.117 123.551 m 146.117 92.512 l S
148.66 123.535 m 148.66 92.43 l S
151.199 123.656 m 151.199 92.32 l S
153.742 123.594 m 153.742 92.379 l S
156.281 123.629 m 156.281 92.34 l S
158.824 123.68 m 158.824 92.43 l S
161.363 123.617 m 161.363 92.312 l S
163.906 123.609 m 163.906 92.383 l S
166.445 123.695 m 166.445 92.289 l S
168.988 123.785 m 168.988 92.168 l S
171.531 123.586 m 171.531 92.355 l S
174.07 123.738 m 174.07 92.254 l S
176.613 123.859 m 176.613 92.16 l S
179.152 123.832 m 179.152 92.141 l S
181.695 123.969 m 181.695 92.098 l S
184.234 121.004 m 184.234 95.688 l S
186.777 111.633 m 186.777 104.449 l S
189.316 108.906 m 189.316 106.664 l S
191.859 108.453 m 191.859 107.242 l S
194.398 108.312 m 194.398 107.461 l S
196.941 108.117 m 196.941 107.613 l S
199.48 108.125 m 199.48 107.609 l S
202.023 108.09 m 202.023 107.633 l S
204.566 108.066 m 204.566 107.664 l S
207.105 108.062 m 207.105 107.656 l S
209.648 108.043 m 209.648 107.676 l S
212.188 108.074 m 212.188 107.707 l S
214.73 108.082 m 214.73 107.691 l S
217.27 108.121 m 217.27 107.648 l S
219.812 108.016 m 219.812 107.723 l S
222.352 108.004 m 222.352 107.723 l S
224.895 107.98 m 224.895 107.75 l S
227.434 107.961 m 227.434 107.766 l S
229.977 107.961 m 229.977 107.766 l S
232.52 107.961 m 232.52 107.766 l S
235.059 107.961 m 235.059 107.766 l S
237.602 107.961 m 237.602 107.766 l S
240.141 107.961 m 240.141 107.766 l S
242.684 107.961 m 242.684 107.766 l S
245.223 107.961 m 245.223 107.766 l S
247.766 107.961 m 247.766 107.766 l S
250.305 107.961 m 250.305 107.766 l S
252.848 107.961 m 252.848 107.766 l S
255.387 107.961 m 255.387 107.766 l S
255.387 107.961 m 255.387 107.766 l S
3.812 151.195 m 3.812 150.84 l S
6.352 151.801 m 6.352 148.793 l S
8.895 162.125 m 8.895 139.621 l S
11.434 164.281 m 11.434 137.934 l S
13.977 161.305 m 13.977 140.566 l S
16.52 160.902 m 16.52 141.465 l S
19.059 161.383 m 19.059 141.094 l S
21.602 161.727 m 21.602 140.266 l S
24.141 160.938 m 24.141 141.082 l S
26.684 160.453 m 26.684 141.52 l S
29.223 161.316 m 29.223 141.211 l S
31.766 161.629 m 31.766 140.863 l S
34.305 161.219 m 34.305 140.969 l S
36.848 161.258 m 36.848 140.473 l S
39.387 161.559 m 39.387 140.312 l S
41.93 162.125 m 41.93 140.199 l S
44.469 161.742 m 44.469 139.676 l S
47.012 161.902 m 47.012 139.414 l S
49.555 161.809 m 49.555 140.18 l S
52.094 162.223 m 52.094 139.793 l S
54.637 161.785 m 54.637 140.324 l S
57.176 161.941 m 57.176 140.082 l S
59.719 161.645 m 59.719 140.516 l S
62.258 161.977 m 62.258 140.238 l S
64.801 161.707 m 64.801 140.445 l S
67.34 161.496 m 67.34 140.617 l S
69.883 161.395 m 69.883 140.734 l S
72.422 161.426 m 72.422 140.523 l S
74.965 161.234 m 74.965 140.77 l S
77.508 161.527 m 77.508 140.824 l S
80.047 161.254 m 80.047 140.809 l S
82.59 161.125 m 82.59 140.82 l S
85.129 161.172 m 85.129 140.805 l S
87.672 161.496 m 87.672 140.586 l S
90.211 161.543 m 90.211 140.672 l S
92.754 161.527 m 92.754 140.27 l S
95.293 161.309 m 95.293 140.473 l S
97.836 161.402 m 97.836 140.352 l S
100.375 161.352 m 100.375 140.48 l S
102.918 161.648 m 102.918 140.637 l S
105.457 161.312 m 105.457 140.75 l S
108 161.523 m 108 140.699 l S
110.543 161.52 m 110.543 140.562 l S
113.082 161.781 m 113.082 140.508 l S
115.625 161.363 m 115.625 140.641 l S
118.164 161.422 m 118.164 140.473 l S
120.707 161.613 m 120.707 140.562 l S
123.246 161.453 m 123.246 140.586 l S
125.789 161.691 m 125.789 140.414 l S
128.328 161.551 m 128.328 140.527 l S
130.871 161.543 m 130.871 140.352 l S
133.41 161.668 m 133.41 140.289 l S
135.953 161.668 m 135.953 140.383 l S
138.492 161.586 m 138.492 140.234 l S
141.035 161.836 m 141.035 140.164 l S
143.578 161.812 m 143.578 140.309 l S
146.117 161.762 m 146.117 140.18 l S
148.66 161.938 m 148.66 139.988 l S
151.199 162 m 151.199 140.039 l S
153.742 161.789 m 153.742 140.195 l S
156.281 161.906 m 156.281 140.062 l S
158.824 161.938 m 158.824 140.281 l S
161.363 161.781 m 161.363 140.117 l S
163.906 162.012 m 163.906 140.133 l S
166.445 162.047 m 166.445 140.004 l S
168.988 162.129 m 168.988 140.145 l S
171.531 161.871 m 171.531 140.105 l S
174.07 162.113 m 174.07 139.941 l S
176.613 162.301 m 176.613 139.977 l S
179.152 161.934 m 179.152 139.996 l S
181.695 162.297 m 181.695 139.879 l S
184.234 159.617 m 184.234 142.879 l S
186.777 153.562 m 186.777 148.43 l S
189.316 152.148 m 189.316 150.16 l S
191.859 151.633 m 191.859 150.453 l S
194.398 151.582 m 194.398 150.504 l S
196.941 151.523 m 196.941 150.648 l S
199.48 151.473 m 199.48 150.66 l S
202.023 151.434 m 202.023 150.707 l S
204.566 151.371 m 204.566 150.754 l S
207.105 151.348 m 207.105 150.789 l S
209.648 151.34 m 209.648 150.789 l S
212.188 151.301 m 212.188 150.82 l S
214.73 151.352 m 214.73 150.773 l S
217.27 151.473 m 217.27 150.75 l S
219.812 151.324 m 219.812 150.801 l S
222.352 151.301 m 222.352 150.824 l S
224.895 151.254 m 224.895 150.863 l S
227.434 151.223 m 227.434 150.906 l S
229.977 151.188 m 229.977 150.926 l S
232.52 151.164 m 232.52 150.961 l S
235.059 151.16 m 235.059 150.965 l S
237.602 151.16 m 237.602 150.965 l S
240.141 151.16 m 240.141 150.965 l S
242.684 151.16 m 242.684 150.965 l S
245.223 151.16 m 245.223 150.965 l S
247.766 151.16 m 247.766 150.965 l S
250.305 151.16 m 250.305 150.965 l S
252.848 151.16 m 252.848 150.965 l S
255.387 151.16 m 255.387 150.965 l S
255.387 151.16 m 255.387 150.965 l S
Q Q
showpage
%%Trailer
end
%%EOF
