%!PS-Adobe-3.0 EPSF-3.0
%%Creator: cairo 1.16.0 (https://cairographics.org)
%%CreationDate: Wed May 15 11:57:30 2024
%%Pages: 1
%%DocumentData: Clean7Bit
%%LanguageLevel: 2
%%Creator: Wolfram Mathematica
%%BoundingBox: 2 2 257 166
%%EndComments
%%BeginProlog
50 dict begin
/q { gsave } bind def
/Q { grestore } bind def
/cm { 6 array astore concat } bind def
/w { setlinewidth } bind def
/J { setlinecap } bind def
/j { setlinejoin } bind def
/M { setmiterlimit } bind def
/d { setdash } bind def
/m { moveto } bind def
/l { lineto } bind def
/c { curveto } bind def
/h { closepath } bind def
/re { exch dup neg 3 1 roll 5 3 roll moveto 0 rlineto
      0 exch rlineto 0 rlineto closepath } bind def
/S { stroke } bind def
/f { fill } bind def
/f* { eofill } bind def
/n { newpath } bind def
/W { clip } bind def
/W* { eoclip } bind def
/BT { } bind def
/ET { } bind def
/BDC { mark 3 1 roll /BDC pdfmark } bind def
/EMC { mark /EMC pdfmark } bind def
/cairo_store_point { /cairo_point_y exch def /cairo_point_x exch def } def
/Tj { show currentpoint cairo_store_point } bind def
/TJ {
  {
    dup
    type /stringtype eq
    { show } { -0.001 mul 0 cairo_font_matrix dtransform rmoveto } ifelse
  } forall
  currentpoint cairo_store_point
} bind def
/cairo_selectfont { cairo_font_matrix aload pop pop pop 0 0 6 array astore
    cairo_font exch selectfont cairo_point_x cairo_point_y moveto } bind def
/Tf { pop /cairo_font exch def /cairo_font_matrix where
      { pop cairo_selectfont } if } bind def
/Td { matrix translate cairo_font_matrix matrix concatmatrix dup
      /cairo_font_matrix exch def dup 4 get exch 5 get cairo_store_point
      /cairo_font where { pop cairo_selectfont } if } bind def
/Tm { 2 copy 8 2 roll 6 array astore /cairo_font_matrix exch def
      cairo_store_point /cairo_font where { pop cairo_selectfont } if } bind def
/g { setgray } bind def
/rg { setrgbcolor } bind def
/d1 { setcachedevice } bind def
/cairo_data_source {
  CairoDataIndex CairoData length lt
    { CairoData CairoDataIndex get /CairoDataIndex CairoDataIndex 1 add def }
    { () } ifelse
} def
/cairo_flush_ascii85_file { cairo_ascii85_file status { cairo_ascii85_file flushfile } if } def
/cairo_image { image cairo_flush_ascii85_file } def
/cairo_imagemask { imagemask cairo_flush_ascii85_file } def
%%EndProlog
%%BeginSetup
%%EndSetup
%%Page: 1 1
%%BeginPageSetup
%%PageBoundingBox: 2 2 257 166
%%EndPageSetup
q 2 2 255 164 rectclip
1 0 0 -1 0 173 cm q
0 g
1.796436 w
0 J
0 j
[] 0.0 d
3.25 M 3.812 21.742 m 3.812 21.547 l S
6.352 27.906 m 6.352 15.715 l S
8.895 32.254 m 8.895 11.285 l S
11.434 34 m 11.434 9.285 l S
13.977 34.863 m 13.977 8.426 l S
16.52 35.266 m 16.52 7.965 l S
19.059 35.566 m 19.059 7.727 l S
21.602 35.719 m 21.602 7.539 l S
24.141 35.883 m 24.141 7.375 l S
26.684 36.066 m 26.684 7.188 l S
29.223 36.109 m 29.223 7.102 l S
31.766 36.098 m 31.766 7.156 l S
34.305 36.102 m 34.305 7.148 l S
36.848 36.133 m 36.848 7.121 l S
39.387 36.082 m 39.387 7.168 l S
41.93 36.094 m 41.93 7.156 l S
44.469 36.074 m 44.469 7.18 l S
47.012 36.176 m 47.012 7.082 l S
49.555 36.145 m 49.555 7.086 l S
52.094 36.137 m 52.094 7.074 l S
54.637 36.133 m 54.637 7.102 l S
57.176 36.109 m 57.176 7.156 l S
59.719 36.102 m 59.719 7.152 l S
62.258 36.094 m 62.258 7.148 l S
64.801 36.066 m 64.801 7.195 l S
67.34 36.062 m 67.34 7.18 l S
69.883 36.086 m 69.883 7.156 l S
72.422 36.102 m 72.422 7.152 l S
74.965 36.07 m 74.965 7.184 l S
77.508 36.031 m 77.508 7.203 l S
80.047 36.004 m 80.047 7.238 l S
82.59 35.992 m 82.59 7.262 l S
85.129 35.988 m 85.129 7.281 l S
87.672 35.992 m 87.672 7.277 l S
90.211 35.984 m 90.211 7.27 l S
92.754 35.957 m 92.754 7.285 l S
95.293 35.91 m 95.293 7.332 l S
97.836 35.82 m 97.836 7.445 l S
100.375 35.809 m 100.375 7.445 l S
102.918 35.82 m 102.918 7.434 l S
105.457 35.82 m 105.457 7.465 l S
108 35.734 m 108 7.551 l S
110.543 35.676 m 110.543 7.578 l S
113.082 35.691 m 113.082 7.547 l S
115.625 35.668 m 115.625 7.594 l S
118.164 35.66 m 118.164 7.598 l S
120.707 35.641 m 120.707 7.613 l S
123.246 35.637 m 123.246 7.621 l S
125.789 35.672 m 125.789 7.602 l S
128.328 35.672 m 128.328 7.59 l S
130.871 35.656 m 130.871 7.586 l S
133.41 35.672 m 133.41 7.59 l S
135.953 35.668 m 135.953 7.586 l S
138.492 35.668 m 138.492 7.598 l S
141.035 35.656 m 141.035 7.613 l S
143.578 35.609 m 143.578 7.629 l S
146.117 35.609 m 146.117 7.652 l S
148.66 35.598 m 148.66 7.656 l S
151.199 35.609 m 151.199 7.645 l S
153.742 35.59 m 153.742 7.668 l S
156.281 35.562 m 156.281 7.688 l S
158.824 35.551 m 158.824 7.715 l S
161.363 35.531 m 161.363 7.711 l S
163.906 35.531 m 163.906 7.727 l S
166.445 35.504 m 166.445 7.738 l S
168.988 35.469 m 168.988 7.777 l S
171.531 35.477 m 171.531 7.777 l S
174.07 35.5 m 174.07 7.762 l S
176.613 35.504 m 176.613 7.758 l S
179.152 35.473 m 179.152 7.797 l S
181.695 33.672 m 181.695 9.758 l S
184.234 30.414 m 184.234 12.93 l S
186.777 28.117 m 186.777 15.285 l S
189.316 26.285 m 189.316 17.137 l S
191.859 24.855 m 191.859 18.512 l S
194.398 23.859 m 194.398 19.441 l S
196.941 23.145 m 196.941 20.109 l S
199.48 22.656 m 199.48 20.641 l S
202.023 22.332 m 202.023 20.953 l S
204.566 22.086 m 204.566 21.168 l S
207.105 21.949 m 207.105 21.336 l S
209.648 21.844 m 209.648 21.434 l S
212.188 21.773 m 212.188 21.516 l S
214.73 21.746 m 214.73 21.543 l S
217.27 21.742 m 217.27 21.547 l S
219.812 21.742 m 219.812 21.547 l S
222.352 21.742 m 222.352 21.547 l S
224.895 21.742 m 224.895 21.547 l S
227.434 21.742 m 227.434 21.547 l S
229.977 21.742 m 229.977 21.547 l S
232.52 21.742 m 232.52 21.547 l S
235.059 21.742 m 235.059 21.547 l S
237.602 21.742 m 237.602 21.547 l S
240.141 21.742 m 240.141 21.547 l S
242.684 21.742 m 242.684 21.547 l S
245.223 21.742 m 245.223 21.547 l S
247.766 21.742 m 247.766 21.547 l S
250.305 21.742 m 250.305 21.547 l S
252.848 21.742 m 252.848 21.547 l S
255.387 21.742 m 255.387 21.547 l S
255.387 21.742 m 255.387 21.547 l S
3.812 64.941 m 3.812 64.746 l S
6.352 68.582 m 6.352 60.531 l S
8.895 73.555 m 8.895 55.84 l S
11.434 74.949 m 11.434 54.492 l S
13.977 75.801 m 13.977 53.828 l S
16.52 76.328 m 16.52 53.383 l S
19.059 76.523 m 19.059 53.09 l S
21.602 76.73 m 21.602 52.953 l S
24.141 76.824 m 24.141 52.883 l S
26.684 77.02 m 26.684 52.684 l S
29.223 77.125 m 29.223 52.559 l S
31.766 77.094 m 31.766 52.613 l S
34.305 77.117 m 34.305 52.566 l S
36.848 77.164 m 36.848 52.52 l S
39.387 77.121 m 39.387 52.535 l S
41.93 77.125 m 41.93 52.527 l S
44.469 77.152 m 44.469 52.562 l S
47.012 77.18 m 47.012 52.469 l S
49.555 77.172 m 49.555 52.48 l S
52.094 77.172 m 52.094 52.48 l S
54.637 77.242 m 54.637 52.465 l S
57.176 77.129 m 57.176 52.52 l S
59.719 77.145 m 59.719 52.52 l S
62.258 77.199 m 62.258 52.543 l S
64.801 77.145 m 64.801 52.535 l S
67.34 77.172 m 67.34 52.52 l S
69.883 77.133 m 69.883 52.543 l S
72.422 77.18 m 72.422 52.504 l S
74.965 77.199 m 74.965 52.57 l S
77.508 77.176 m 77.508 52.574 l S
80.047 77.125 m 80.047 52.539 l S
82.59 77.164 m 82.59 52.582 l S
85.129 77.102 m 85.129 52.605 l S
87.672 77.117 m 87.672 52.57 l S
90.211 77.07 m 90.211 52.535 l S
92.754 77.105 m 92.754 52.605 l S
95.293 77.059 m 95.293 52.621 l S
97.836 76.953 m 97.836 52.719 l S
100.375 76.965 m 100.375 52.723 l S
102.918 77.023 m 102.918 52.73 l S
105.457 77.035 m 105.457 52.711 l S
108 76.918 m 108 52.766 l S
110.543 76.918 m 110.543 52.805 l S
113.082 76.883 m 113.082 52.793 l S
115.625 76.887 m 115.625 52.824 l S
118.164 76.914 m 118.164 52.754 l S
120.707 76.875 m 120.707 52.844 l S
123.246 76.883 m 123.246 52.805 l S
125.789 76.859 m 125.789 52.797 l S
128.328 76.879 m 128.328 52.758 l S
130.871 76.922 m 130.871 52.82 l S
133.41 76.934 m 133.41 52.758 l S
135.953 76.895 m 135.953 52.789 l S
138.492 76.93 m 138.492 52.785 l S
141.035 76.902 m 141.035 52.805 l S
143.578 76.914 m 143.578 52.812 l S
146.117 76.867 m 146.117 52.824 l S
148.66 76.852 m 148.66 52.855 l S
151.199 76.844 m 151.199 52.832 l S
153.742 76.848 m 153.742 52.828 l S
156.281 76.852 m 156.281 52.863 l S
158.824 76.859 m 158.824 52.824 l S
161.363 76.832 m 161.363 52.844 l S
163.906 76.812 m 163.906 52.871 l S
166.445 76.828 m 166.445 52.887 l S
168.988 76.809 m 168.988 52.91 l S
171.531 76.762 m 171.531 52.938 l S
174.07 76.797 m 174.07 52.871 l S
176.613 76.809 m 176.613 52.91 l S
179.152 76.738 m 179.152 52.977 l S
181.695 75.695 m 181.695 54.074 l S
184.234 73.316 m 184.234 56.48 l S
186.777 71.234 m 186.777 58.559 l S
189.316 69.434 m 189.316 60.215 l S
191.859 68.027 m 191.859 61.492 l S
194.398 67.148 m 194.398 62.621 l S
196.941 66.344 m 196.941 63.352 l S
199.48 65.895 m 199.48 63.891 l S
202.023 65.562 m 202.023 64.148 l S
204.566 65.336 m 204.566 64.332 l S
207.105 65.199 m 207.105 64.484 l S
209.648 65.094 m 209.648 64.602 l S
212.188 65.012 m 212.188 64.703 l S
214.73 64.965 m 214.73 64.703 l S
217.27 64.945 m 217.27 64.746 l S
219.812 64.941 m 219.812 64.746 l S
222.352 64.941 m 222.352 64.746 l S
224.895 64.941 m 224.895 64.746 l S
227.434 64.941 m 227.434 64.746 l S
229.977 64.941 m 229.977 64.746 l S
232.52 64.941 m 232.52 64.746 l S
235.059 64.941 m 235.059 64.746 l S
237.602 64.941 m 237.602 64.746 l S
240.141 64.941 m 240.141 64.746 l S
242.684 64.941 m 242.684 64.746 l S
245.223 64.941 m 245.223 64.746 l S
247.766 64.941 m 247.766 64.746 l S
250.305 64.941 m 250.305 64.746 l S
252.848 64.941 m 252.848 64.746 l S
255.387 64.941 m 255.387 64.746 l S
255.387 64.941 m 255.387 64.746 l S
3.812 108.141 m 3.812 107.945 l S
6.352 114.434 m 6.352 101.18 l S
8.895 119.992 m 8.895 95.887 l S
11.434 122.18 m 11.434 93.66 l S
13.977 123.312 m 13.977 92.73 l S
16.52 123.863 m 16.52 92.266 l S
19.059 124.195 m 19.059 91.891 l S
21.602 124.445 m 21.602 91.695 l S
24.141 124.586 m 24.141 91.543 l S
26.684 124.828 m 26.684 91.328 l S
29.223 124.941 m 29.223 91.238 l S
31.766 124.891 m 31.766 91.246 l S
34.305 124.922 m 34.305 91.234 l S
36.848 124.953 m 36.848 91.16 l S
39.387 124.914 m 39.387 91.234 l S
41.93 124.926 m 41.93 91.207 l S
44.469 124.938 m 44.469 91.219 l S
47.012 125.031 m 47.012 91.113 l S
49.555 124.992 m 49.555 91.133 l S
52.094 125.047 m 52.094 91.117 l S
54.637 125.008 m 54.637 91.148 l S
57.176 124.965 m 57.176 91.203 l S
59.719 124.977 m 59.719 91.195 l S
62.258 124.957 m 62.258 91.184 l S
64.801 124.914 m 64.801 91.262 l S
67.34 124.93 m 67.34 91.246 l S
69.883 124.934 m 69.883 91.223 l S
72.422 124.977 m 72.422 91.227 l S
74.965 124.934 m 74.965 91.25 l S
77.508 124.887 m 77.508 91.246 l S
80.047 124.863 m 80.047 91.258 l S
82.59 124.871 m 82.59 91.34 l S
85.129 124.816 m 85.129 91.352 l S
87.672 124.859 m 87.672 91.305 l S
90.211 124.828 m 90.211 91.324 l S
92.754 124.824 m 92.754 91.355 l S
95.293 124.773 m 95.293 91.371 l S
97.836 124.648 m 97.836 91.523 l S
100.375 124.637 m 100.375 91.516 l S
102.918 124.652 m 102.918 91.496 l S
105.457 124.652 m 105.457 91.492 l S
108 124.559 m 108 91.625 l S
110.543 124.531 m 110.543 91.652 l S
113.082 124.516 m 113.082 91.645 l S
115.625 124.523 m 115.625 91.66 l S
118.164 124.523 m 118.164 91.66 l S
120.707 124.477 m 120.707 91.691 l S
123.246 124.438 m 123.246 91.688 l S
125.789 124.484 m 125.789 91.676 l S
128.328 124.465 m 128.328 91.664 l S
130.871 124.504 m 130.871 91.676 l S
133.41 124.488 m 133.41 91.641 l S
135.953 124.484 m 135.953 91.648 l S
138.492 124.5 m 138.492 91.664 l S
141.035 124.469 m 141.035 91.707 l S
143.578 124.465 m 143.578 91.703 l S
146.117 124.457 m 146.117 91.711 l S
148.66 124.398 m 148.66 91.734 l S
151.199 124.422 m 151.199 91.73 l S
153.742 124.391 m 153.742 91.762 l S
156.281 124.363 m 156.281 91.789 l S
158.824 124.375 m 158.824 91.754 l S
161.363 124.348 m 161.363 91.762 l S
163.906 124.328 m 163.906 91.836 l S
166.445 124.375 m 166.445 91.828 l S
168.988 124.297 m 168.988 91.883 l S
171.531 124.324 m 171.531 91.859 l S
174.07 124.312 m 174.07 91.828 l S
176.613 124.332 m 176.613 91.832 l S
179.152 124.25 m 179.152 91.918 l S
181.695 122.438 m 181.695 93.719 l S
184.234 119.094 m 184.234 97.141 l S
186.777 116.41 m 186.777 99.859 l S
189.316 114.156 m 189.316 101.934 l S
191.859 112.422 m 191.859 103.539 l S
194.398 111.297 m 194.398 104.84 l S
196.941 110.176 m 196.941 105.809 l S
199.48 109.48 m 199.48 106.414 l S
202.023 109.09 m 202.023 107.039 l S
204.566 108.691 m 204.566 107.359 l S
207.105 108.574 m 207.105 107.562 l S
209.648 108.367 m 209.648 107.707 l S
212.188 108.27 m 212.188 107.832 l S
214.73 108.219 m 214.73 107.863 l S
217.27 108.176 m 217.27 107.922 l S
219.812 108.148 m 219.812 107.934 l S
222.352 108.145 m 222.352 107.938 l S
224.895 108.141 m 224.895 107.945 l S
227.434 108.141 m 227.434 107.945 l S
229.977 108.141 m 229.977 107.945 l S
232.52 108.141 m 232.52 107.945 l S
235.059 108.141 m 235.059 107.945 l S
237.602 108.141 m 237.602 107.945 l S
240.141 108.141 m 240.141 107.945 l S
242.684 108.141 m 242.684 107.945 l S
245.223 108.141 m 245.223 107.945 l S
247.766 108.141 m 247.766 107.945 l S
250.305 108.141 m 250.305 107.945 l S
252.848 108.141 m 252.848 107.945 l S
255.387 108.141 m 255.387 107.945 l S
255.387 108.141 m 255.387 107.945 l S
3.812 151.34 m 3.812 151.145 l S
6.352 158.41 m 6.352 143.352 l S
8.895 164.953 m 8.895 137.172 l S
11.434 167.371 m 11.434 134.688 l S
13.977 168.82 m 13.977 133.516 l S
16.52 169.547 m 16.52 132.785 l S
19.059 169.898 m 19.059 132.34 l S
21.602 170.262 m 21.602 132.176 l S
24.141 170.34 m 24.141 132.016 l S
26.684 170.672 m 26.684 131.738 l S
29.223 170.766 m 29.223 131.648 l S
31.766 170.809 m 31.766 131.648 l S
34.305 170.785 m 34.305 131.664 l S
36.848 170.773 m 36.848 131.625 l S
39.387 170.746 m 39.387 131.688 l S
41.93 170.73 m 41.93 131.664 l S
44.469 170.758 m 44.469 131.656 l S
47.012 170.828 m 47.012 131.613 l S
49.555 170.824 m 49.555 131.578 l S
52.094 170.781 m 52.094 131.562 l S
54.637 170.836 m 54.637 131.637 l S
57.176 170.73 m 57.176 131.621 l S
59.719 170.73 m 59.719 131.691 l S
62.258 170.766 m 62.258 131.66 l S
64.801 170.691 m 64.801 131.707 l S
67.34 170.688 m 67.34 131.719 l S
69.883 170.723 m 69.883 131.676 l S
72.422 170.762 m 72.422 131.711 l S
74.965 170.668 m 74.965 131.785 l S
77.508 170.676 m 77.508 131.793 l S
80.047 170.598 m 80.047 131.723 l S
82.59 170.664 m 82.59 131.812 l S
85.129 170.555 m 85.129 131.859 l S
87.672 170.602 m 87.672 131.809 l S
90.211 170.559 m 90.211 131.809 l S
92.754 170.602 m 92.754 131.863 l S
95.293 170.461 m 95.293 131.891 l S
97.836 170.336 m 97.836 132.074 l S
100.375 170.352 m 100.375 132.027 l S
102.918 170.387 m 102.918 132.051 l S
105.457 170.469 m 105.457 132.035 l S
108 170.199 m 108 132.152 l S
110.543 170.211 m 110.543 132.238 l S
113.082 170.211 m 113.082 132.18 l S
115.625 170.168 m 115.625 132.227 l S
118.164 170.16 m 118.164 132.215 l S
120.707 170.16 m 120.707 132.25 l S
123.246 170.094 m 123.246 132.293 l S
125.789 170.16 m 125.789 132.289 l S
128.328 170.121 m 128.328 132.219 l S
130.871 170.207 m 130.871 132.27 l S
133.41 170.098 m 133.41 132.246 l S
135.953 170.156 m 135.953 132.234 l S
138.492 170.172 m 138.492 132.238 l S
141.035 170.109 m 141.035 132.25 l S
143.578 170.113 m 143.578 132.277 l S
146.117 170.047 m 146.117 132.301 l S
148.66 170.121 m 148.66 132.371 l S
151.199 170.047 m 151.199 132.352 l S
153.742 170.074 m 153.742 132.344 l S
156.281 169.969 m 156.281 132.387 l S
158.824 169.98 m 158.824 132.383 l S
161.363 170.008 m 161.363 132.422 l S
163.906 169.98 m 163.906 132.426 l S
166.445 169.984 m 166.445 132.492 l S
168.988 169.926 m 168.988 132.539 l S
171.531 169.914 m 171.531 132.512 l S
174.07 169.941 m 174.07 132.469 l S
176.613 169.93 m 176.613 132.48 l S
179.152 169.801 m 179.152 132.621 l S
181.695 167.867 m 181.695 134.672 l S
184.234 164.004 m 184.234 138.656 l S
186.777 161.004 m 186.777 141.781 l S
189.316 158.613 m 189.316 144.184 l S
191.859 156.777 m 191.859 145.973 l S
194.398 155.129 m 194.398 147.473 l S
196.941 153.902 m 196.941 148.621 l S
199.48 153.094 m 199.48 149.281 l S
202.023 152.398 m 202.023 149.887 l S
204.566 152.105 m 204.566 150.344 l S
207.105 152.02 m 207.105 150.629 l S
209.648 151.766 m 209.648 150.734 l S
212.188 151.547 m 212.188 150.93 l S
214.73 151.488 m 214.73 151.008 l S
217.27 151.445 m 217.27 151.059 l S
219.812 151.387 m 219.812 151.09 l S
222.352 151.363 m 222.352 151.129 l S
224.895 151.355 m 224.895 151.145 l S
227.434 151.34 m 227.434 151.145 l S
229.977 151.34 m 229.977 151.145 l S
232.52 151.34 m 232.52 151.145 l S
235.059 151.34 m 235.059 151.145 l S
237.602 151.34 m 237.602 151.145 l S
240.141 151.34 m 240.141 151.145 l S
242.684 151.34 m 242.684 151.145 l S
245.223 151.34 m 245.223 151.145 l S
247.766 151.34 m 247.766 151.145 l S
250.305 151.34 m 250.305 151.145 l S
252.848 151.34 m 252.848 151.145 l S
255.387 151.34 m 255.387 151.145 l S
255.387 151.34 m 255.387 151.145 l S
Q Q
showpage
%%Trailer
end
%%EOF
