%!PS-Adobe-3.0 EPSF-3.0
%%Creator: cairo 1.16.0 (https://cairographics.org)
%%CreationDate: Wed May 15 11:57:30 2024
%%Pages: 1
%%DocumentData: Clean7Bit
%%LanguageLevel: 2
%%Creator: Wolfram Mathematica
%%BoundingBox: 2 2 257 172
%%EndComments
%%BeginProlog
50 dict begin
/q { gsave } bind def
/Q { grestore } bind def
/cm { 6 array astore concat } bind def
/w { setlinewidth } bind def
/J { setlinecap } bind def
/j { setlinejoin } bind def
/M { setmiterlimit } bind def
/d { setdash } bind def
/m { moveto } bind def
/l { lineto } bind def
/c { curveto } bind def
/h { closepath } bind def
/re { exch dup neg 3 1 roll 5 3 roll moveto 0 rlineto
      0 exch rlineto 0 rlineto closepath } bind def
/S { stroke } bind def
/f { fill } bind def
/f* { eofill } bind def
/n { newpath } bind def
/W { clip } bind def
/W* { eoclip } bind def
/BT { } bind def
/ET { } bind def
/BDC { mark 3 1 roll /BDC pdfmark } bind def
/EMC { mark /EMC pdfmark } bind def
/cairo_store_point { /cairo_point_y exch def /cairo_point_x exch def } def
/Tj { show currentpoint cairo_store_point } bind def
/TJ {
  {
    dup
    type /stringtype eq
    { show } { -0.001 mul 0 cairo_font_matrix dtransform rmoveto } ifelse
  } forall
  currentpoint cairo_store_point
} bind def
/cairo_selectfont { cairo_font_matrix aload pop pop pop 0 0 6 array astore
    cairo_font exch selectfont cairo_point_x cairo_point_y moveto } bind def
/Tf { pop /cairo_font exch def /cairo_font_matrix where
      { pop cairo_selectfont } if } bind def
/Td { matrix translate cairo_font_matrix matrix concatmatrix dup
      /cairo_font_matrix exch def dup 4 get exch 5 get cairo_store_point
      /cairo_font where { pop cairo_selectfont } if } bind def
/Tm { 2 copy 8 2 roll 6 array astore /cairo_font_matrix exch def
      cairo_store_point /cairo_font where { pop cairo_selectfont } if } bind def
/g { setgray } bind def
/rg { setrgbcolor } bind def
/d1 { setcachedevice } bind def
/cairo_data_source {
  CairoDataIndex CairoData length lt
    { CairoData CairoDataIndex get /CairoDataIndex CairoDataIndex 1 add def }
    { () } ifelse
} def
/cairo_flush_ascii85_file { cairo_ascii85_file status { cairo_ascii85_file flushfile } if } def
/cairo_image { image cairo_flush_ascii85_file } def
/cairo_imagemask { imagemask cairo_flush_ascii85_file } def
%%EndProlog
%%BeginSetup
%%EndSetup
%%Page: 1 1
%%BeginPageSetup
%%PageBoundingBox: 2 2 257 172
%%EndPageSetup
q 2 2 255 170 rectclip
1 0 0 -1 0 173 cm q
0 g
1.796436 w
0 J
0 j
[] 0.0 d
3.25 M 3.812 21.703 m 3.812 21.039 l S
6.352 32.016 m 6.352 11.605 l S
8.895 39.559 m 8.895 3.348 l S
11.434 39.746 m 11.434 3.172 l S
13.977 39.57 m 13.977 3.422 l S
16.52 39.434 m 16.52 3.543 l S
19.059 39.328 m 19.059 3.586 l S
21.602 38.844 m 21.602 3.984 l S
24.141 38.762 m 24.141 4.129 l S
26.684 38.824 m 26.684 4.082 l S
29.223 38.828 m 29.223 4.023 l S
31.766 39.078 m 31.766 3.777 l S
34.305 39.578 m 34.305 3.383 l S
36.848 40.059 m 36.848 3.109 l S
39.387 40.438 m 39.387 2.484 l S
41.93 40.777 m 41.93 2.23 l S
44.469 41.109 m 44.469 2.145 l S
47.012 40.938 m 47.012 2.113 l S
49.555 41.039 m 49.555 2.168 l S
52.094 41.238 m 52.094 1.965 l S
54.637 41.043 m 54.637 2.168 l S
57.176 40.863 m 57.176 2.297 l S
59.719 40.898 m 59.719 2.414 l S
62.258 40.938 m 62.258 2.277 l S
64.801 40.789 m 64.801 2.348 l S
67.34 40.598 m 67.34 2.602 l S
69.883 40.602 m 69.883 2.605 l S
72.422 40.699 m 72.422 2.52 l S
74.965 40.676 m 74.965 2.555 l S
77.508 40.285 m 77.508 3.215 l S
80.047 39.355 m 80.047 3.922 l S
82.59 38.184 m 82.59 4.602 l S
85.129 37.828 m 85.129 5.07 l S
87.672 37.594 m 87.672 5.352 l S
90.211 37.355 m 90.211 5.414 l S
92.754 37.613 m 92.754 5.438 l S
95.293 37.676 m 95.293 5.188 l S
97.836 37.902 m 97.836 5.035 l S
100.375 38.191 m 100.375 4.918 l S
102.918 38.387 m 102.918 4.418 l S
105.457 38.82 m 105.457 4.184 l S
108 39.219 m 108 3.812 l S
110.543 39.34 m 110.543 3.5 l S
113.082 39.891 m 113.082 3.402 l S
115.625 39.98 m 115.625 3.121 l S
118.164 40.156 m 118.164 2.957 l S
120.707 40.156 m 120.707 3.02 l S
123.246 40.031 m 123.246 2.988 l S
125.789 39.727 m 125.789 3.055 l S
128.328 39.406 m 128.328 3.758 l S
130.871 39.207 m 130.871 3.828 l S
133.41 39.035 m 133.41 3.996 l S
135.953 38.789 m 135.953 4.184 l S
138.492 38.578 m 138.492 4.668 l S
141.035 37.82 m 141.035 4.992 l S
143.578 37.664 m 143.578 5.414 l S
146.117 37.27 m 146.117 5.754 l S
148.66 37.215 m 148.66 5.711 l S
151.199 37.508 m 151.199 5.484 l S
153.742 37.797 m 153.742 5.312 l S
156.281 38.035 m 156.281 4.766 l S
158.824 38.73 m 158.824 4.484 l S
161.363 38.93 m 161.363 4.094 l S
163.906 39.102 m 163.906 4 l S
166.445 39.262 m 166.445 3.875 l S
168.988 39.277 m 168.988 3.789 l S
171.531 39.496 m 171.531 3.773 l S
174.07 39.469 m 174.07 3.57 l S
176.613 39.785 m 176.613 3.402 l S
179.152 39.871 m 179.152 3.387 l S
181.695 35.238 m 181.695 6.508 l S
184.234 27.316 m 184.234 14.988 l S
186.777 24.551 m 186.777 18.383 l S
189.316 23.281 m 189.316 19.508 l S
191.859 22.543 m 191.859 20.164 l S
194.398 22.152 m 194.398 20.609 l S
196.941 21.973 m 196.941 20.848 l S
199.48 21.777 m 199.48 20.941 l S
202.023 21.699 m 202.023 21.059 l S
204.566 21.582 m 204.566 21.16 l S
207.105 21.543 m 207.105 21.223 l S
209.648 21.543 m 209.648 21.25 l S
212.188 21.484 m 212.188 21.273 l S
214.73 21.512 m 214.73 21.273 l S
217.27 21.484 m 217.27 21.289 l S
219.812 21.484 m 219.812 21.289 l S
222.352 21.484 m 222.352 21.289 l S
224.895 21.484 m 224.895 21.289 l S
227.434 21.484 m 227.434 21.289 l S
229.977 21.484 m 229.977 21.289 l S
232.52 21.484 m 232.52 21.289 l S
235.059 21.484 m 235.059 21.289 l S
237.602 21.484 m 237.602 21.289 l S
240.141 21.484 m 240.141 21.289 l S
242.684 21.484 m 242.684 21.289 l S
245.223 21.484 m 245.223 21.289 l S
247.766 21.484 m 247.766 21.289 l S
250.305 21.484 m 250.305 21.289 l S
252.848 21.484 m 252.848 21.289 l S
255.387 21.484 m 255.387 21.289 l S
255.387 21.484 m 255.387 21.289 l S
3.812 64.867 m 3.812 64.297 l S
6.352 68.578 m 6.352 60.273 l S
8.895 70.879 m 8.895 58.211 l S
11.434 70.93 m 11.434 58.555 l S
13.977 70.352 m 13.977 58.66 l S
16.52 70.371 m 16.52 58.695 l S
19.059 70.398 m 19.059 58.809 l S
21.602 70.121 m 21.602 58.695 l S
24.141 70.445 m 24.141 58.734 l S
26.684 70.578 m 26.684 58.762 l S
29.223 70.633 m 29.223 58.43 l S
31.766 71.012 m 31.766 57.973 l S
34.305 71.578 m 34.305 57.781 l S
36.848 72.109 m 36.848 56.828 l S
39.387 72.871 m 39.387 56.133 l S
41.93 73.133 m 41.93 55.828 l S
44.469 73.602 m 44.469 55.469 l S
47.012 73.691 m 47.012 55.301 l S
49.555 73.875 m 49.555 54.953 l S
52.094 74.195 m 52.094 54.977 l S
54.637 74.289 m 54.637 54.527 l S
57.176 74.488 m 57.176 54.562 l S
59.719 74.703 m 59.719 54.43 l S
62.258 74.773 m 62.258 54.086 l S
64.801 75.152 m 64.801 53.793 l S
67.34 75.203 m 67.34 53.656 l S
69.883 75.562 m 69.883 53.668 l S
72.422 75.727 m 72.422 53.133 l S
74.965 76.246 m 74.965 52.641 l S
77.508 76.438 m 77.508 52.293 l S
80.047 76.43 m 80.047 52.469 l S
82.59 76.043 m 82.59 52.828 l S
85.129 75.621 m 85.129 53.305 l S
87.672 75.43 m 87.672 53.559 l S
90.211 75.188 m 90.211 53.844 l S
92.754 75.07 m 92.754 53.758 l S
95.293 75.172 m 95.293 54.004 l S
97.836 74.938 m 97.836 54.016 l S
100.375 74.961 m 100.375 54.117 l S
102.918 74.93 m 102.918 53.875 l S
105.457 74.934 m 105.457 54.285 l S
108 74.723 m 108 54.102 l S
110.543 74.742 m 110.543 54.355 l S
113.082 74.672 m 113.082 54.254 l S
115.625 74.68 m 115.625 54.289 l S
118.164 74.73 m 118.164 54.02 l S
120.707 75.414 m 120.707 53.754 l S
123.246 75.609 m 123.246 53.578 l S
125.789 75.723 m 125.789 53.238 l S
128.328 75.656 m 128.328 53.074 l S
130.871 75.852 m 130.871 53.305 l S
133.41 76.07 m 133.41 53.023 l S
135.953 75.93 m 135.953 52.949 l S
138.492 75.969 m 138.492 52.777 l S
141.035 75.66 m 141.035 53.105 l S
143.578 75.684 m 143.578 53.355 l S
146.117 75.23 m 146.117 53.746 l S
148.66 74.809 m 148.66 53.871 l S
151.199 74.824 m 151.199 54.293 l S
153.742 74.605 m 153.742 54.246 l S
156.281 74.73 m 156.281 54.242 l S
158.824 74.676 m 158.824 54.125 l S
161.363 74.785 m 161.363 54.258 l S
163.906 74.891 m 163.906 54.074 l S
166.445 74.684 m 166.445 54.453 l S
168.988 74.574 m 168.988 54.434 l S
171.531 74.395 m 171.531 54.742 l S
174.07 74.254 m 174.07 54.785 l S
176.613 74.02 m 176.613 55.004 l S
179.152 73.809 m 179.152 55.496 l S
181.695 71.871 m 181.695 57.914 l S
184.234 68.688 m 184.234 60.762 l S
186.777 67.199 m 186.777 62.102 l S
189.316 66.195 m 189.316 62.949 l S
191.859 65.738 m 191.859 63.473 l S
194.398 65.43 m 194.398 63.824 l S
196.941 65.203 m 196.941 64.012 l S
199.48 65.043 m 199.48 64.141 l S
202.023 64.973 m 202.023 64.145 l S
204.566 64.816 m 204.566 64.277 l S
207.105 64.809 m 207.105 64.375 l S
209.648 64.734 m 209.648 64.395 l S
212.188 64.738 m 212.188 64.434 l S
214.73 64.754 m 214.73 64.434 l S
217.27 64.734 m 217.27 64.438 l S
219.812 64.707 m 219.812 64.465 l S
222.352 64.688 m 222.352 64.484 l S
224.895 64.684 m 224.895 64.488 l S
227.434 64.684 m 227.434 64.488 l S
229.977 64.684 m 229.977 64.488 l S
232.52 64.684 m 232.52 64.488 l S
235.059 64.684 m 235.059 64.488 l S
237.602 64.684 m 237.602 64.488 l S
240.141 64.684 m 240.141 64.488 l S
242.684 64.684 m 242.684 64.488 l S
245.223 64.684 m 245.223 64.488 l S
247.766 64.684 m 247.766 64.488 l S
250.305 64.684 m 250.305 64.488 l S
252.848 64.684 m 252.848 64.488 l S
255.387 64.684 m 255.387 64.488 l S
255.387 64.684 m 255.387 64.488 l S
3.812 108.41 m 3.812 107.316 l S
6.352 118.941 m 6.352 96.875 l S
8.895 124.363 m 8.895 91.742 l S
11.434 124.184 m 11.434 91.773 l S
13.977 123.945 m 13.977 91.918 l S
16.52 123.773 m 16.52 92.043 l S
19.059 123.648 m 19.059 92.141 l S
21.602 123.25 m 21.602 92.617 l S
24.141 123.211 m 24.141 92.523 l S
26.684 123.551 m 26.684 92.344 l S
29.223 123.449 m 29.223 92.262 l S
31.766 124.02 m 31.766 91.707 l S
34.305 124.336 m 34.305 91.285 l S
36.848 124.945 m 36.848 90.859 l S
39.387 125.629 m 39.387 90.391 l S
41.93 126.148 m 41.93 89.957 l S
44.469 126.238 m 44.469 89.445 l S
47.012 126.168 m 47.012 89.672 l S
49.555 126.402 m 49.555 89.5 l S
52.094 126.594 m 52.094 89.375 l S
54.637 126.457 m 54.637 89.266 l S
57.176 126.523 m 57.176 89.348 l S
59.719 126.613 m 59.719 89.273 l S
62.258 126.734 m 62.258 89.07 l S
64.801 126.492 m 64.801 89.164 l S
67.34 126.711 m 67.34 89.164 l S
69.883 126.77 m 69.883 89.25 l S
72.422 126.945 m 72.422 88.789 l S
74.965 127.027 m 74.965 88.57 l S
77.508 127.098 m 77.508 88.664 l S
80.047 125.805 m 80.047 89.383 l S
82.59 125.555 m 82.59 90.289 l S
85.129 125.145 m 85.129 90.551 l S
87.672 124.746 m 87.672 90.707 l S
90.211 124.578 m 90.211 91.125 l S
92.754 124.766 m 92.754 90.836 l S
95.293 124.832 m 95.293 90.953 l S
97.836 124.695 m 97.836 90.965 l S
100.375 124.922 m 100.375 90.805 l S
102.918 125.176 m 102.918 90.527 l S
105.457 125.281 m 105.457 90.566 l S
108 125.547 m 108 90.234 l S
110.543 125.895 m 110.543 90.098 l S
113.082 125.859 m 113.082 89.953 l S
115.625 125.77 m 115.625 90.066 l S
118.164 126.18 m 118.164 89.863 l S
120.707 126.375 m 120.707 89.191 l S
123.246 126.324 m 123.246 89.23 l S
125.789 126.164 m 125.789 89.684 l S
128.328 125.891 m 128.328 89.844 l S
130.871 125.902 m 130.871 89.691 l S
133.41 125.965 m 133.41 89.77 l S
135.953 125.973 m 135.953 89.844 l S
138.492 125.449 m 138.492 90.086 l S
141.035 125.055 m 141.035 90.496 l S
143.578 124.812 m 143.578 90.859 l S
146.117 124.312 m 146.117 91.102 l S
148.66 124.348 m 148.66 91.242 l S
151.199 124.406 m 151.199 91.281 l S
153.742 124.535 m 153.742 91.297 l S
156.281 124.828 m 156.281 90.918 l S
158.824 125.355 m 158.824 90.535 l S
161.363 125.145 m 161.363 90.371 l S
163.906 125.52 m 163.906 90.312 l S
166.445 125.559 m 166.445 90.199 l S
168.988 125.625 m 168.988 90.156 l S
171.531 125.48 m 171.531 90.184 l S
174.07 125.391 m 174.07 90.484 l S
176.613 125.609 m 176.613 90.137 l S
179.152 124.824 m 179.152 90.375 l S
181.695 119.543 m 181.695 95.242 l S
184.234 114.871 m 184.234 100.961 l S
186.777 111.633 m 186.777 103.812 l S
189.316 110.215 m 189.316 105.125 l S
191.859 109.516 m 191.859 106.105 l S
194.398 108.922 m 194.398 106.57 l S
196.941 108.738 m 196.941 106.898 l S
199.48 108.484 m 199.48 107.125 l S
202.023 108.258 m 202.023 107.262 l S
204.566 108.199 m 204.566 107.391 l S
207.105 108.078 m 207.105 107.477 l S
209.648 108.023 m 209.648 107.57 l S
212.188 108.012 m 212.188 107.586 l S
214.73 108.016 m 214.73 107.594 l S
217.27 107.969 m 217.27 107.621 l S
219.812 107.918 m 219.812 107.648 l S
222.352 107.898 m 222.352 107.684 l S
224.895 107.883 m 224.895 107.688 l S
227.434 107.883 m 227.434 107.688 l S
229.977 107.883 m 229.977 107.688 l S
232.52 107.883 m 232.52 107.688 l S
235.059 107.883 m 235.059 107.688 l S
237.602 107.883 m 237.602 107.688 l S
240.141 107.883 m 240.141 107.688 l S
242.684 107.883 m 242.684 107.688 l S
245.223 107.883 m 245.223 107.688 l S
247.766 107.883 m 247.766 107.688 l S
250.305 107.883 m 250.305 107.688 l S
252.848 107.883 m 252.848 107.688 l S
255.387 107.883 m 255.387 107.688 l S
255.387 107.883 m 255.387 107.688 l S
3.812 151.434 m 3.812 150.559 l S
6.352 158.953 m 6.352 143.484 l S
8.895 162.078 m 8.895 139.219 l S
11.434 162.363 m 11.434 139.789 l S
13.977 161.605 m 13.977 139.793 l S
16.52 161.789 m 16.52 140.027 l S
19.059 161.723 m 19.059 140.27 l S
21.602 161.219 m 21.602 140.117 l S
24.141 161.797 m 24.141 140.266 l S
26.684 161.734 m 26.684 140.055 l S
29.223 162.238 m 29.223 139.82 l S
31.766 162.891 m 31.766 138.777 l S
34.305 163.707 m 34.305 138.684 l S
36.848 164.277 m 36.848 136.902 l S
39.387 165.199 m 39.387 136.355 l S
41.93 166.227 m 41.93 135.746 l S
44.469 166.273 m 44.469 135.426 l S
47.012 166.875 m 47.012 134.883 l S
49.555 167.289 m 49.555 134.688 l S
52.094 167.383 m 52.094 134.652 l S
54.637 167.238 m 54.637 134.43 l S
57.176 167.758 m 57.176 134.367 l S
59.719 167.918 m 59.719 133.684 l S
62.258 168.227 m 62.258 133.59 l S
64.801 168.414 m 64.801 133.52 l S
67.34 168.613 m 67.34 133.477 l S
69.883 168.711 m 69.883 132.746 l S
72.422 169.59 m 72.422 132.504 l S
74.965 169.781 m 74.965 131.793 l S
77.508 170.238 m 77.508 131.582 l S
80.047 169.59 m 80.047 132.078 l S
82.59 169.309 m 82.59 132.387 l S
85.129 169.191 m 85.129 132.988 l S
87.672 168.332 m 87.672 133.25 l S
90.211 168.176 m 90.211 133.52 l S
92.754 168.133 m 92.754 133.551 l S
95.293 167.797 m 95.293 133.934 l S
97.836 167.887 m 97.836 134.016 l S
100.375 167.922 m 100.375 134.102 l S
102.918 167.758 m 102.918 133.922 l S
105.457 167.871 m 105.457 134.426 l S
108 167.609 m 108 133.895 l S
110.543 167.93 m 110.543 134.113 l S
113.082 167.535 m 113.082 134.27 l S
115.625 167.93 m 115.625 134.219 l S
118.164 168.152 m 118.164 133.766 l S
120.707 168.777 m 120.707 133.344 l S
123.246 168.965 m 123.246 132.832 l S
125.789 169.266 m 125.789 132.512 l S
128.328 169.004 m 128.328 132.676 l S
130.871 169.062 m 130.871 132.797 l S
133.41 169.027 m 133.41 132.48 l S
135.953 169.336 m 135.953 132.469 l S
138.492 169.344 m 138.492 132.211 l S
141.035 168.906 m 141.035 132.664 l S
143.578 168.707 m 143.578 133.434 l S
146.117 168.004 m 146.117 133.824 l S
148.66 167.824 m 148.66 133.828 l S
151.199 167.723 m 151.199 134.391 l S
153.742 167.422 m 153.742 134.004 l S
156.281 167.73 m 156.281 134.547 l S
158.824 167.648 m 158.824 134.051 l S
161.363 167.699 m 161.363 133.707 l S
163.906 167.906 m 163.906 133.879 l S
166.445 167.48 m 166.445 133.848 l S
168.988 167.43 m 168.988 134.5 l S
171.531 167.305 m 171.531 134.363 l S
174.07 167.121 m 174.07 134.555 l S
176.613 166.992 m 176.613 135.07 l S
179.152 166.77 m 179.152 135.109 l S
181.695 162 m 181.695 139.07 l S
184.234 158.586 m 184.234 144.34 l S
186.777 155.512 m 186.777 146.707 l S
189.316 153.883 m 189.316 147.891 l S
191.859 153.207 m 191.859 148.828 l S
194.398 152.543 m 194.398 149.344 l S
196.941 152.23 m 196.941 149.77 l S
199.48 151.855 m 199.48 150.164 l S
202.023 151.773 m 202.023 150.238 l S
204.566 151.469 m 204.566 150.527 l S
207.105 151.438 m 207.105 150.57 l S
209.648 151.34 m 209.648 150.652 l S
212.188 151.305 m 212.188 150.625 l S
214.73 151.355 m 214.73 150.672 l S
217.27 151.27 m 217.27 150.727 l S
219.812 151.219 m 219.812 150.754 l S
222.352 151.156 m 222.352 150.812 l S
224.895 151.141 m 224.895 150.848 l S
227.434 151.113 m 227.434 150.863 l S
229.977 151.086 m 229.977 150.887 l S
232.52 151.086 m 232.52 150.887 l S
235.059 151.086 m 235.059 150.887 l S
237.602 151.086 m 237.602 150.887 l S
240.141 151.086 m 240.141 150.887 l S
242.684 151.086 m 242.684 150.887 l S
245.223 151.086 m 245.223 150.887 l S
247.766 151.086 m 247.766 150.887 l S
250.305 151.086 m 250.305 150.887 l S
252.848 151.086 m 252.848 150.887 l S
255.387 151.086 m 255.387 150.887 l S
255.387 151.086 m 255.387 150.887 l S
Q Q
showpage
%%Trailer
end
%%EOF
