%!PS-Adobe-3.0 EPSF-3.0
%%Creator: cairo 1.16.0 (https://cairographics.org)
%%CreationDate: Wed May 15 11:57:31 2024
%%Pages: 1
%%DocumentData: Clean7Bit
%%LanguageLevel: 2
%%Creator: Wolfram Mathematica
%%BoundingBox: 2 2 257 167
%%EndComments
%%BeginProlog
50 dict begin
/q { gsave } bind def
/Q { grestore } bind def
/cm { 6 array astore concat } bind def
/w { setlinewidth } bind def
/J { setlinecap } bind def
/j { setlinejoin } bind def
/M { setmiterlimit } bind def
/d { setdash } bind def
/m { moveto } bind def
/l { lineto } bind def
/c { curveto } bind def
/h { closepath } bind def
/re { exch dup neg 3 1 roll 5 3 roll moveto 0 rlineto
      0 exch rlineto 0 rlineto closepath } bind def
/S { stroke } bind def
/f { fill } bind def
/f* { eofill } bind def
/n { newpath } bind def
/W { clip } bind def
/W* { eoclip } bind def
/BT { } bind def
/ET { } bind def
/BDC { mark 3 1 roll /BDC pdfmark } bind def
/EMC { mark /EMC pdfmark } bind def
/cairo_store_point { /cairo_point_y exch def /cairo_point_x exch def } def
/Tj { show currentpoint cairo_store_point } bind def
/TJ {
  {
    dup
    type /stringtype eq
    { show } { -0.001 mul 0 cairo_font_matrix dtransform rmoveto } ifelse
  } forall
  currentpoint cairo_store_point
} bind def
/cairo_selectfont { cairo_font_matrix aload pop pop pop 0 0 6 array astore
    cairo_font exch selectfont cairo_point_x cairo_point_y moveto } bind def
/Tf { pop /cairo_font exch def /cairo_font_matrix where
      { pop cairo_selectfont } if } bind def
/Td { matrix translate cairo_font_matrix matrix concatmatrix dup
      /cairo_font_matrix exch def dup 4 get exch 5 get cairo_store_point
      /cairo_font where { pop cairo_selectfont } if } bind def
/Tm { 2 copy 8 2 roll 6 array astore /cairo_font_matrix exch def
      cairo_store_point /cairo_font where { pop cairo_selectfont } if } bind def
/g { setgray } bind def
/rg { setrgbcolor } bind def
/d1 { setcachedevice } bind def
/cairo_data_source {
  CairoDataIndex CairoData length lt
    { CairoData CairoDataIndex get /CairoDataIndex CairoDataIndex 1 add def }
    { () } ifelse
} def
/cairo_flush_ascii85_file { cairo_ascii85_file status { cairo_ascii85_file flushfile } if } def
/cairo_image { image cairo_flush_ascii85_file } def
/cairo_imagemask { imagemask cairo_flush_ascii85_file } def
%%EndProlog
%%BeginSetup
%%EndSetup
%%Page: 1 1
%%BeginPageSetup
%%PageBoundingBox: 2 2 257 167
%%EndPageSetup
q 2 2 255 165 rectclip
1 0 0 -1 0 173 cm q
0 g
1.796436 w
0 J
0 j
[] 0.0 d
3.25 M 3.812 21.953 m 3.812 21.66 l S
6.352 29.426 m 6.352 14.816 l S
8.895 37.684 m 8.895 6.082 l S
11.434 36.48 m 11.434 7.199 l S
13.977 33.156 m 13.977 10.609 l S
16.52 32.082 m 16.52 11.578 l S
19.059 32.355 m 19.059 11.344 l S
21.602 32.352 m 21.602 11.227 l S
24.141 32.281 m 24.141 11.16 l S
26.684 33.18 m 26.684 10.34 l S
29.223 33.723 m 29.223 9.734 l S
31.766 34.844 m 31.766 8.68 l S
34.305 35.297 m 34.305 8.461 l S
36.848 34.941 m 36.848 8.766 l S
39.387 33.875 m 39.387 9.957 l S
41.93 32.477 m 41.93 11.246 l S
44.469 31.371 m 44.469 12.168 l S
47.012 30.098 m 47.012 13.578 l S
49.555 29.289 m 49.555 14.473 l S
52.094 28.469 m 52.094 15.344 l S
54.637 27.598 m 54.637 16.047 l S
57.176 27 m 57.176 16.492 l S
59.719 26.664 m 59.719 17.074 l S
62.258 27.043 m 62.258 16.711 l S
64.801 27.637 m 64.801 15.938 l S
67.34 29.012 m 67.34 14.824 l S
69.883 30.133 m 69.883 13.254 l S
72.422 31.402 m 72.422 12.516 l S
74.965 31.434 m 74.965 12.133 l S
77.508 31.297 m 77.508 12.195 l S
80.047 31.215 m 80.047 12.5 l S
82.59 30.621 m 82.59 13.227 l S
85.129 29.617 m 85.129 13.77 l S
87.672 29.059 m 87.672 14.715 l S
90.211 28.246 m 90.211 15.301 l S
92.754 27.988 m 92.754 15.695 l S
95.293 27.816 m 95.293 15.883 l S
97.836 27.535 m 97.836 16.164 l S
100.375 27.75 m 100.375 15.895 l S
102.918 28.625 m 102.918 14.965 l S
105.457 30.441 m 105.457 13.234 l S
108 31.77 m 108 11.91 l S
110.543 32.281 m 110.543 11.402 l S
113.082 32.414 m 113.082 11.301 l S
115.625 32.246 m 115.625 11.363 l S
118.164 32.254 m 118.164 11.504 l S
120.707 32.051 m 120.707 11.777 l S
123.246 31.957 m 123.246 11.723 l S
125.789 32.098 m 125.789 11.5 l S
128.328 32.168 m 128.328 11.555 l S
130.871 32.004 m 130.871 11.566 l S
133.41 32.113 m 133.41 11.535 l S
135.953 32.051 m 135.953 11.727 l S
138.492 32.195 m 138.492 11.543 l S
141.035 32.164 m 141.035 11.516 l S
143.578 32.109 m 143.578 11.742 l S
146.117 32.031 m 146.117 11.605 l S
148.66 32.129 m 148.66 11.539 l S
151.199 32.277 m 151.199 11.414 l S
153.742 32.238 m 153.742 11.438 l S
156.281 32.266 m 156.281 11.445 l S
158.824 32.133 m 158.824 11.473 l S
161.363 32.16 m 161.363 11.434 l S
163.906 32.031 m 163.906 11.707 l S
166.445 32.008 m 166.445 11.688 l S
168.988 31.973 m 168.988 11.684 l S
171.531 32.02 m 171.531 11.727 l S
174.07 31.859 m 174.07 11.703 l S
176.613 32.043 m 176.613 11.605 l S
179.152 32.055 m 179.152 11.68 l S
181.695 31.992 m 181.695 11.645 l S
184.234 31.984 m 184.234 11.73 l S
186.777 31.992 m 186.777 11.785 l S
189.316 31.719 m 189.316 12.121 l S
191.859 32.004 m 191.859 11.645 l S
194.398 29.719 m 194.398 13.941 l S
196.941 24.066 m 196.941 19.484 l S
199.48 22.438 m 199.48 21.211 l S
202.023 22.129 m 202.023 21.539 l S
204.566 22.031 m 204.566 21.594 l S
207.105 21.988 m 207.105 21.637 l S
209.648 21.973 m 209.648 21.664 l S
212.188 21.938 m 212.188 21.68 l S
214.73 21.938 m 214.73 21.703 l S
217.27 21.914 m 217.27 21.719 l S
219.812 21.914 m 219.812 21.719 l S
222.352 21.914 m 222.352 21.719 l S
224.895 21.914 m 224.895 21.719 l S
227.434 21.914 m 227.434 21.719 l S
229.977 21.914 m 229.977 21.719 l S
232.52 21.914 m 232.52 21.719 l S
235.059 21.914 m 235.059 21.719 l S
237.602 21.914 m 237.602 21.719 l S
240.141 21.914 m 240.141 21.719 l S
242.684 21.914 m 242.684 21.719 l S
245.223 21.914 m 245.223 21.719 l S
247.766 21.914 m 247.766 21.719 l S
250.305 21.914 m 250.305 21.719 l S
252.848 21.914 m 252.848 21.719 l S
255.387 21.914 m 255.387 21.719 l S
255.387 21.914 m 255.387 21.719 l S
3.812 65.125 m 3.812 64.918 l S
6.352 67.625 m 6.352 62.227 l S
8.895 70.102 m 8.895 59.918 l S
11.434 69.375 m 11.434 60.754 l S
13.977 68.375 m 13.977 61.586 l S
16.52 68.176 m 16.52 61.719 l S
19.059 68.469 m 19.059 61.613 l S
21.602 68.523 m 21.602 61.562 l S
24.141 69.723 m 24.141 59.852 l S
26.684 72.023 m 26.684 57.5 l S
29.223 74.742 m 29.223 55.105 l S
31.766 76.789 m 31.766 53.016 l S
34.305 77.91 m 34.305 52.094 l S
36.848 77.793 m 36.848 52.301 l S
39.387 76.871 m 39.387 52.758 l S
41.93 75.68 m 41.93 54.125 l S
44.469 74.867 m 44.469 55.137 l S
47.012 73.406 m 47.012 56.469 l S
49.555 72.309 m 49.555 57.48 l S
52.094 71.168 m 52.094 58.496 l S
54.637 70.52 m 54.637 59.57 l S
57.176 69.773 m 57.176 60.211 l S
59.719 69.137 m 59.719 60.668 l S
62.258 69.215 m 62.258 60.863 l S
64.801 69.137 m 64.801 60.816 l S
67.34 69.348 m 67.34 60.723 l S
69.883 69.762 m 69.883 60.297 l S
72.422 69.926 m 72.422 60.055 l S
74.965 70.473 m 74.965 59.328 l S
77.508 71.113 m 77.508 59.004 l S
80.047 71.637 m 80.047 58.25 l S
82.59 71.75 m 82.59 58.141 l S
85.129 71.586 m 85.129 58.227 l S
87.672 71.074 m 87.672 58.75 l S
90.211 70.281 m 90.211 59.359 l S
92.754 70.172 m 92.754 59.848 l S
95.293 69.938 m 95.293 59.969 l S
97.836 69.48 m 97.836 60.379 l S
100.375 69.211 m 100.375 60.793 l S
102.918 69.16 m 102.918 60.77 l S
105.457 69.367 m 105.457 60.691 l S
108 69.723 m 108 60.348 l S
110.543 69.77 m 110.543 60.164 l S
113.082 69.551 m 113.082 60.285 l S
115.625 69.691 m 115.625 60.438 l S
118.164 69.5 m 118.164 60.555 l S
120.707 69.297 m 120.707 60.758 l S
123.246 69.359 m 123.246 60.789 l S
125.789 69.184 m 125.789 60.766 l S
128.328 69.25 m 128.328 60.812 l S
130.871 69.027 m 130.871 60.84 l S
133.41 69.004 m 133.41 61.07 l S
135.953 68.965 m 135.953 61.059 l S
138.492 68.934 m 138.492 61.012 l S
141.035 69.02 m 141.035 61.047 l S
143.578 69.137 m 143.578 61 l S
146.117 69.18 m 146.117 60.891 l S
148.66 69.168 m 148.66 60.91 l S
151.199 69.156 m 151.199 60.824 l S
153.742 69.441 m 153.742 60.664 l S
156.281 69.312 m 156.281 60.621 l S
158.824 69.336 m 158.824 60.551 l S
161.363 69.59 m 161.363 60.699 l S
163.906 69.406 m 163.906 60.613 l S
166.445 69.371 m 166.445 60.613 l S
168.988 69.594 m 168.988 60.332 l S
171.531 69.508 m 171.531 60.352 l S
174.07 69.684 m 174.07 60.352 l S
176.613 69.742 m 176.613 60.309 l S
179.152 69.82 m 179.152 60.191 l S
181.695 69.809 m 181.695 60.172 l S
184.234 70.082 m 184.234 59.902 l S
186.777 70.035 m 186.777 59.914 l S
189.316 69.723 m 189.316 60.305 l S
191.859 68.719 m 191.859 61.348 l S
194.398 67.23 m 194.398 62.918 l S
196.941 65.957 m 196.941 64.137 l S
199.48 65.457 m 199.48 64.555 l S
202.023 65.316 m 202.023 64.699 l S
204.566 65.281 m 204.566 64.762 l S
207.105 65.215 m 207.105 64.801 l S
209.648 65.238 m 209.648 64.828 l S
212.188 65.164 m 212.188 64.855 l S
214.73 65.16 m 214.73 64.871 l S
217.27 65.148 m 217.27 64.871 l S
219.812 65.125 m 219.812 64.902 l S
222.352 65.117 m 222.352 64.918 l S
224.895 65.152 m 224.895 64.887 l S
227.434 65.168 m 227.434 64.848 l S
229.977 65.137 m 229.977 64.879 l S
232.52 65.113 m 232.52 64.898 l S
235.059 65.375 m 235.059 64.629 l S
237.602 65.188 m 237.602 64.832 l S
240.141 65.113 m 240.141 64.918 l S
242.684 65.113 m 242.684 64.918 l S
245.223 65.113 m 245.223 64.918 l S
247.766 65.113 m 247.766 64.918 l S
250.305 65.113 m 250.305 64.918 l S
252.848 65.113 m 252.848 64.918 l S
255.387 65.113 m 255.387 64.918 l S
255.387 65.113 m 255.387 64.918 l S
3.812 108.465 m 3.812 108.055 l S
6.352 116.895 m 6.352 99.887 l S
8.895 122.656 m 8.895 94.215 l S
11.434 120.938 m 11.434 96.059 l S
13.977 118.492 m 13.977 98.219 l S
16.52 117.453 m 16.52 99.023 l S
19.059 117.832 m 19.059 98.855 l S
21.602 117.762 m 21.602 98.922 l S
24.141 118.121 m 24.141 98.152 l S
26.684 120.652 m 26.684 95.801 l S
29.223 121.773 m 29.223 94.91 l S
31.766 123.395 m 31.766 92.453 l S
34.305 124.332 m 34.305 92.062 l S
36.848 124.031 m 36.848 92.41 l S
39.387 123 m 39.387 93.199 l S
41.93 121.59 m 41.93 94.668 l S
44.469 120.625 m 44.469 96.086 l S
47.012 119.09 m 47.012 97.242 l S
49.555 118 m 49.555 98.348 l S
52.094 116.645 m 52.094 99.449 l S
54.637 115.891 m 54.637 100.477 l S
57.176 115.199 m 57.176 101.363 l S
59.719 114.516 m 59.719 101.727 l S
62.258 114.719 m 62.258 101.719 l S
64.801 115.102 m 64.801 101.027 l S
67.34 116.238 m 67.34 100.027 l S
69.883 117.449 m 69.883 99.215 l S
72.422 118.008 m 72.422 98.062 l S
74.965 118.234 m 74.965 98.207 l S
77.508 118.434 m 77.508 97.777 l S
80.047 118.598 m 80.047 97.672 l S
82.59 118.055 m 82.59 98.168 l S
85.129 117.684 m 85.129 98.789 l S
87.672 117.027 m 87.672 99.203 l S
90.211 116.145 m 90.211 100.148 l S
92.754 115.949 m 92.754 100.406 l S
95.293 115.508 m 95.293 100.754 l S
97.836 115.195 m 97.836 101.051 l S
100.375 115.273 m 100.375 101.152 l S
102.918 115.898 m 102.918 100.148 l S
105.457 117.18 m 105.457 98.859 l S
108 118.473 m 108 98.008 l S
110.543 118.793 m 110.543 97.867 l S
113.082 118.637 m 113.082 97.691 l S
115.625 118.645 m 115.625 97.789 l S
118.164 118.406 m 118.164 98.172 l S
120.707 118.277 m 120.707 98.094 l S
123.246 118.266 m 123.246 98.301 l S
125.789 118 m 125.789 98.113 l S
128.328 118.43 m 128.328 98.184 l S
130.871 118.102 m 130.871 98.539 l S
133.41 118.348 m 133.41 98.234 l S
135.953 118.016 m 135.953 98.375 l S
138.492 118.137 m 138.492 98.281 l S
141.035 117.969 m 141.035 98.273 l S
143.578 118.145 m 143.578 98.25 l S
146.117 118.035 m 146.117 98.453 l S
148.66 118.148 m 148.66 98.203 l S
151.199 118.441 m 151.199 98.105 l S
153.742 118.363 m 153.742 98.121 l S
156.281 118.402 m 156.281 98.051 l S
158.824 118.449 m 158.824 98.301 l S
161.363 118.406 m 161.363 98.105 l S
163.906 118.102 m 163.906 98.152 l S
166.445 118.445 m 166.445 98.254 l S
168.988 118.484 m 168.988 98.199 l S
171.531 118.422 m 171.531 97.973 l S
174.07 118.414 m 174.07 98.332 l S
176.613 118.379 m 176.613 97.879 l S
179.152 118.547 m 179.152 97.883 l S
181.695 118.699 m 181.695 97.828 l S
184.234 118.543 m 184.234 97.824 l S
186.777 118.438 m 186.777 97.723 l S
189.316 118.289 m 189.316 98.316 l S
191.859 117.949 m 191.859 98.441 l S
194.398 114.512 m 194.398 101.762 l S
196.941 110.539 m 196.941 106.375 l S
199.48 109.082 m 199.48 107.48 l S
202.023 108.648 m 202.023 107.738 l S
204.566 108.555 m 204.566 107.848 l S
207.105 108.484 m 207.105 107.922 l S
209.648 108.438 m 209.648 107.957 l S
212.188 108.41 m 212.188 108.027 l S
214.73 108.387 m 214.73 108.031 l S
217.27 108.391 m 217.27 108.051 l S
219.812 108.332 m 219.812 108.098 l S
222.352 108.32 m 222.352 108.109 l S
224.895 108.391 m 224.895 108.059 l S
227.434 108.359 m 227.434 108.035 l S
229.977 108.34 m 229.977 108.086 l S
232.52 108.324 m 232.52 108.086 l S
235.059 108.574 m 235.059 107.922 l S
237.602 108.438 m 237.602 108.004 l S
240.141 108.312 m 240.141 108.117 l S
242.684 108.312 m 242.684 108.117 l S
245.223 108.312 m 245.223 108.117 l S
247.766 108.312 m 247.766 108.117 l S
250.305 108.312 m 250.305 108.117 l S
252.848 108.312 m 252.848 108.117 l S
255.387 108.312 m 255.387 108.117 l S
255.387 108.312 m 255.387 108.117 l S
3.812 151.652 m 3.812 151.168 l S
6.352 156.734 m 6.352 146.012 l S
8.895 161.336 m 8.895 141.727 l S
11.434 159.668 m 11.434 143.434 l S
13.977 157.789 m 13.977 144.922 l S
16.52 157.418 m 16.52 145.137 l S
19.059 157.957 m 19.059 144.863 l S
21.602 158.25 m 21.602 144.688 l S
24.141 160.559 m 24.141 141.148 l S
26.684 164.242 m 26.684 138.336 l S
29.223 166.969 m 29.223 135.312 l S
31.766 169.594 m 31.766 132.656 l S
34.305 170.812 m 34.305 131.562 l S
36.848 170.836 m 36.848 131.93 l S
39.387 169.684 m 39.387 132.703 l S
41.93 167.93 m 41.93 134.539 l S
44.469 166.258 m 44.469 136.035 l S
47.012 164.68 m 47.012 138.066 l S
49.555 163.258 m 49.555 139.301 l S
52.094 161.863 m 52.094 140.684 l S
54.637 161.008 m 54.637 141.891 l S
57.176 160.023 m 57.176 143.176 l S
59.719 158.941 m 59.719 143.891 l S
62.258 158.957 m 62.258 143.855 l S
64.801 159.051 m 64.801 143.723 l S
67.34 159.293 m 67.34 143.734 l S
69.883 160.121 m 69.883 142.742 l S
72.422 160.797 m 72.422 141.816 l S
74.965 161.617 m 74.965 141.328 l S
77.508 162.5 m 77.508 140.527 l S
80.047 162.68 m 80.047 140.016 l S
82.59 162.996 m 82.59 139.848 l S
85.129 162.355 m 85.129 140.246 l S
87.672 161.535 m 87.672 141.266 l S
90.211 160.836 m 90.211 141.688 l S
92.754 160.449 m 92.754 142.523 l S
95.293 160.199 m 95.293 142.508 l S
97.836 159.465 m 97.836 143.074 l S
100.375 159.078 m 100.375 143.918 l S
102.918 159.082 m 102.918 143.609 l S
105.457 159.473 m 105.457 143.234 l S
108 159.895 m 108 142.914 l S
110.543 160.508 m 110.543 142.625 l S
113.082 159.992 m 113.082 142.621 l S
115.625 160.117 m 115.625 143.027 l S
118.164 159.531 m 118.164 143.18 l S
120.707 159.352 m 120.707 143.602 l S
123.246 159.508 m 123.246 143.496 l S
125.789 159.387 m 125.789 143.422 l S
128.328 159.336 m 128.328 143.727 l S
130.871 158.809 m 130.871 143.703 l S
133.41 158.801 m 133.41 144.176 l S
135.953 158.926 m 135.953 143.82 l S
138.492 158.66 m 138.492 143.961 l S
141.035 159.242 m 141.035 143.902 l S
143.578 159.113 m 143.578 143.895 l S
146.117 159.289 m 146.117 143.656 l S
148.66 159.316 m 148.66 143.473 l S
151.199 159.316 m 151.199 143.457 l S
153.742 159.789 m 153.742 142.941 l S
156.281 159.363 m 156.281 143.234 l S
158.824 159.75 m 158.824 142.953 l S
161.363 159.77 m 161.363 143.25 l S
163.906 159.922 m 163.906 143.074 l S
166.445 159.461 m 166.445 143.094 l S
168.988 160.066 m 168.988 142.703 l S
171.531 160.184 m 171.531 142.906 l S
174.07 160.121 m 174.07 142.727 l S
176.613 160.102 m 176.613 142.684 l S
179.152 160.301 m 179.152 142.078 l S
181.695 160.297 m 181.695 142.387 l S
184.234 160.801 m 184.234 142.227 l S
186.777 160.457 m 186.777 141.953 l S
189.316 159.871 m 189.316 143.113 l S
191.859 158.242 m 191.859 144.723 l S
194.398 155.734 m 194.398 146.703 l S
196.941 153.473 m 196.941 149.609 l S
199.48 152.367 m 199.48 150.547 l S
202.023 151.961 m 202.023 150.789 l S
204.566 151.879 m 204.566 150.93 l S
207.105 151.848 m 207.105 150.988 l S
209.648 151.852 m 209.648 150.992 l S
212.188 151.758 m 212.188 151.074 l S
214.73 151.75 m 214.73 151.062 l S
217.27 151.715 m 217.27 151.098 l S
219.812 151.676 m 219.812 151.176 l S
222.352 151.598 m 222.352 151.227 l S
224.895 151.695 m 224.895 151.086 l S
227.434 151.645 m 227.434 151.129 l S
229.977 151.742 m 229.977 151.082 l S
232.52 151.621 m 232.52 151.211 l S
235.059 151.516 m 235.059 151.316 l S
237.602 151.516 m 237.602 151.316 l S
240.141 151.516 m 240.141 151.316 l S
242.684 151.516 m 242.684 151.316 l S
245.223 151.516 m 245.223 151.316 l S
247.766 151.516 m 247.766 151.316 l S
250.305 151.516 m 250.305 151.316 l S
252.848 151.516 m 252.848 151.316 l S
255.387 151.516 m 255.387 151.316 l S
255.387 151.516 m 255.387 151.316 l S
Q Q
showpage
%%Trailer
end
%%EOF
